401	0.011612164507068735	2709
402	0.008237802464841655	2710
153	0.007048115795400362	106
618	0.006330827730767336	4102
169	0.006287692699779031	306
403	0.006138820555909782	2711
706	0.0059941767982736325	5201
925	0.005966335346063485	7204
616	0.005543386894539709	4100
332	0.005372906049596115	2302
255	0.005291193858494144	1207
263	0.005226010813576107	1301
912	0.005014371845493449	7108
640	0.004963768495963566	4407
293	0.004840294126546374	1701
166	0.004632581517108737	303
260	0.004601198105002033	1212
259	0.004542577295861338	1211
222	0.004307544918229325	901
836	0.004281350889226879	6309
636	0.004197771618489514	4403
168	0.003987258389598785	305
599	0.003968862163779457	4001
206	0.00392342074030037	713
641	0.00391166912141877	4408
619	0.003821719814278294	4103
422	0.00373523009587399	2814
211	0.003712413284447331	804
165	0.0036839952341144885	302
223	0.0036387460100096337	902
499	0.003614748545284122	3102
170	0.003425349790505428	307
151	0.003327135910272985	104
250	0.0032763129043154086	1202
208	0.0032653849970376587	801
340	0.00320849398226505	2401
999	0.003193722087502664	7602
167	0.003191745179653423	304
907	0.003191552980279191	7103
297	0.0031193134726215013	1801
266	0.0030845253858855478	1404
617	0.003068517923717386	4101
186	0.00301052862680631	507
459	0.00301036388448554	2904
164	0.00300465281736551	301
231	0.002998667179710863	910
358	0.0029354061285351437	2516
797	0.002908003989180383	6104
1322	0.0028963621985126295	9705
795	0.002845429364341206	6102
201	0.0027986150881890355	708
240	0.0027977364624782617	1101
802	0.0027977090054247997	6109
707	0.0027721190315985107	5202
341	0.002753777719886106	2402
796	0.002731043279619832	6103
645	0.0027211038262667025	4412
708	0.0027088030663158682	5203
978	0.0027030096280354528	7403
721	0.0026966121345788803	5305
405	0.0026433179938097524	2713
807	0.0026275851021762076	6114
798	0.002599331794164135	6105
399	0.0025605075205693143	2707
372	0.0025203103943014092	2601
365	0.0024730842623473135	2523
906	0.002383601725115686	7102
342	0.002380306878700284	2403
380	0.002352108484795135	2609
642	0.0023483194114174225	4409
794	0.0023388467279731417	6101
635	0.0023150140055684	4402
281	0.002314766892087245	1515
291	0.0023098520795176037	1604
382	0.0022981004606360033	2611
813	0.0022926639640505897	6203
639	0.0022789079802662863	4406
287	0.0022404406483664675	1522
245	0.0022307208514410312	1106
210	0.002229430369928332	803
837	0.0022076294694797554	6310
295	0.0022047739359197403	1703
374	0.0021901393264246627	2603
799	0.0021703977049857123	6106
637	0.002148871375071752	4404
187	0.002133879823881673	508
574	0.0021266311617677883	3901
1225	0.0021215516068773766	8905
241	0.0021160327391315783	1102
345	0.0020931060994910725	2503
239	0.0020889326273648965	1008
1221	0.0020880814587075844	8901
423	0.002063562309966301	2815
713	0.002050547666625463	5208
207	0.0020492846421662253	714
498	0.002046127081018132	3101
456	0.0020369564251619295	2901
188	0.002024930235745712	510
803	0.0020206743924591508	6110
196	0.002011448822496025	703
832	0.0019940410506013176	6305
464	0.0019853097076005023	2909
298	0.0019732835181842847	1802
283	0.0019635362642053873	1517
282	0.001950960933719936	1516
323	0.0019467325474868367	2202
386	0.0019401703117094943	2615
261	0.001929681717287131	1213
392	0.001923256766777097	2621
242	0.0019183968683143791	1103
308	0.001915541334754364	2002
286	0.0019121366601251152	1521
998	0.0018981884769665798	7601
710	0.0018952780292996415	5205
714	0.00188237321417265	5209
377	0.0018437685970055227	2606
801	0.0018326210333000793	6108
202	0.0018201555310284748	709
1199	0.001814664120336138	8609
336	0.0018119733290968931	2306
388	0.0018067839459926349	2617
575	0.001792780848727176	3902
362	0.0017862186129498337	2520
566	0.0017814959997544241	3817
541	0.0017766361012917062	3605
717	0.0017720782304170666	5212
748	0.0017606560961770062	5513
371	0.0017563178817300601	2530
1222	0.0017481082227450168	8902
1217	0.001747806195156938	8802
313	0.0017444838916880745	2007
264	0.0017328146439668588	1302
331	0.0017327871869133973	2301
833	0.0017269113774725968	6306
192	0.0017240833009660435	603
225	0.001720568798122948	904
681	0.0017113432281598221	4907
917	0.0017052203052378668	7113
927	0.0016839960029119852	7206
172	0.001677680880615798	402
563	0.0016741663777727026	3814
962	0.001671255930105764	7313
928	0.0016702674761811434	7207
406	0.001666560773963816	2714
292	0.0016660116328945825	1605
759	0.0016582138297114642	5608
653	0.001654507127494137	4420
923	0.0016469289807387122	7202
217	0.0016441283612856205	810
524	0.0016424534810244578	3401
761	0.0016302900063409319	5701
1204	0.0016207898658431893	8705
1223	0.0016206251235224192	8903
236	0.0016193620990631818	1005
693	0.00161916989968895	5101
646	0.0016171380777327854	4413
1277	0.0016054688300115698	9206
400	0.0015765016386094935	2708
315	0.0015688685777471454	2009
348	0.0015630476824132686	2506
709	0.0015564579895824644	5204
821	0.0015444592572197086	6211
831	0.001522987841412672	6304
393	0.001515958835726481	2701
610	0.0015114558789587648	4012
237	0.0014957504443786818	1006
895	0.0014935264230482854	7010
538	0.0014801273809589837	3602
1228	0.0014788643564997463	8908
426	0.0014782053872166659	2818
214	0.001475761709458576	807
329	0.0014593973055954126	2208
815	0.001455882802752317	6205
191	0.0014483046559968923	602
811	0.0014412481932572396	6201
918	0.0014389143437129966	7114
935	0.001431061626422955	7214
921	0.0014304026571398745	7118
650	0.001418376467723657	4417
820	0.0014181568112959636	6210
149	0.0014151365354151783	102
277	0.0014145324802390213	1511
701	0.0014137087686351708	5109
238	0.0014101942657920752	1007
185	0.0014083271861566808	506
1260	0.0014075034745528302	9101
270	0.0013988819597658617	1504
204	0.001397811134680856	711
414	0.001395449828083151	2806
936	0.0013917705829192856	7215
909	0.001383643295094627	7105
977	0.00137504923736112	7402
891	0.0013716171056784097	7006
278	0.0013646979282060654	1512
444	0.0013556096435102482	2836
230	0.0013483884384498253	909
814	0.0013456152760501952	6204
688	0.001344764107392883	5003
556	0.0013280153047812559	3807
863	0.0013247204583658539	6807
712	0.0013229632069443062	5207
1057	0.0013204920721327546	8304
1018	0.001309701450122313	7903
219	0.0013087953673580773	812
1235	0.001308658082090769	9007
209	0.0013009426500680359	802
193	0.0012998169108761068	604
311	0.001288504604849893	2005
1093	0.0012877907214598893	8429
373	0.0012875436079787341	2602
412	0.001285209758434491	2804
765	0.0012798007189025393	5705
695	0.0012796359765817693	5103
829	0.0012794163201540758	6302
694	0.001274446593477511	5102
493	0.0012722500292005764	2939
299	0.0012702456642978734	1803
960	0.0012699710937632567	7311
324	0.0012693670385870996	2203
441	0.0012572310209570353	2833
1030	0.0012558307112304895	8105
595	0.0012541558309693268	3923
919	0.0012412510158423355	7115
390	0.0012402076478107915	2619
1017	0.0012397683349554046	7901
226	0.0012385602246030903	905
189	0.0012381483688011653	511
381	0.0012380385405873185	2610
611	0.001235814519256922	4013
929	0.0012234039310922411	7208
194	0.001223239188771471	701
411	0.0012220310784191567	2803
319	0.0012204111122649174	2104
328	0.001220273826997609	2207
203	0.0012186538608433698	710
387	0.0012181321768275977	2616
806	0.0012124485667610293	6113
752	0.0012117072263175639	5601
1293	0.001207780867672543	9406
343	0.001207341554817156	2501
279	0.0012056666745559933	1513
316	0.00120283859804944	2101
1009	0.0012013284601090474	7612
687	0.0012007793190398136	5002
924	0.0011880117891801306	7203
758	0.0011803238142108594	5607
905	0.0011800217866227809	7101
179	0.001179472645553547	409
1304	0.0011725534680812027	9605
979	0.001171757213530814	7405
958	0.0011712904436219653	7309
303	0.0011695331922004176	1902
314	0.0011667325727473259	2008
913	0.001164975321325778	7109
216	0.001163245526957692	809
212	0.0011631082416903836	805
1216	0.0011608018491996023	8801
436	0.0011603076222372918	2828
819	0.0011588249413503609	6209
322	0.0011535806441391795	2201
817	0.0011529491319095606	6207
300	0.0011403463443706479	1804
199	0.001136941669741399	706
1094	0.0011359806728702402	8430
220	0.0011275513574575031	813
502	0.001125492078447877	3105
818	0.0011237897411332525	6208
1224	0.0011227463731017086	8904
157	0.0011212087781078542	204
1001	0.0011149211128651288	7604
976	0.0011142621435820484	7401
651	0.0011141248583147398	4418
1227	0.001109512073333177	8907
265	0.0011063270551316218	1401
660	0.001105338601207001	4602
376	0.0011020712118450606	2605
379	0.0010978153685584997	2608
407	0.0010950696632123314	2715
762	0.00108999010832192	5702
842	0.0010894684243061478	6405
301	0.0010856793509284356	1805
1320	0.0010853224092334337	9703
1321	0.001080160483182637	9704
1116	0.0010753005847199191	8452
256	0.0010751083853456874	1208
600	0.0010677773520714178	4002
952	0.0010673654962694925	7303
1208	0.0010670909257348756	8709
155	0.0010629998247690849	202
243	0.0010619564567375408	1104
934	0.001059677521300221	7213
350	0.001046388307424766	2508
1002	0.001042489405833207	7605
916	0.0010366959675527918	7112
355	0.0010350485443450907	2513
458	0.0010335384064046982	2903
1152	0.0010322204678385374	8506
1276	0.0010319184402504589	9205
800	0.0010288432502627502	6107
822	0.001027909710445053	6212
1095	0.0010273605693758194	8431
363	0.0010268388853600474	2521
496	0.0010231596401961817	2942
1011	0.0010105293956038073	7614
1135	0.0010094036564118783	8474
317	0.0010059989817826295	2102
454	0.0010047085002699303	2849
657	0.001001358739747605	4503
318	0.0010003702858229842	2103
184	0.00099361585067141	505
554	0.000990073890774853	3805
828	0.0009890854368502322	6301
307	0.0009852414493655966	2001
738	0.0009845824800825162	5503
415	0.0009814523759878841	2807
749	0.0009792832687644112	5514
816	0.000979118526443641	6206
550	0.0009762904499370877	3801
357	0.0009739291433393829	2515
804	0.0009726386618266837	6111
1203	0.0009628364937408627	8704
205	0.0009577843959039129	712
175	0.0009541326077935089	405
296	0.0009525400986927313	1704
352	0.0009481744271923235	2510
872	0.0009428477588207569	6901
805	0.0009392234277638146	6112
867	0.0009311510540460796	6811
229	0.0009232983367560381	908
347	0.0009198936621267893	2505
674	0.0009180265824913948	4824
285	0.0009136059968840637	1520
183	0.0009106680921636636	504
327	0.0009074007028017232	2206
1313	0.0009004815253293789	9614
835	0.0008999049272066836	6308
779	0.0008987517309612928	5903
812	0.0008936996331243431	6202
881	0.0008928759215204925	6910
385	0.0008918600105424102	2614
767	0.0008890593910893185	5802
434	0.0008840622073592921	2826
621	0.0008840072932523687	4105
228	0.0008808771891577367	907
625	0.0008806026186231199	4201
950	0.0008790924806827273	7301
972	0.0008692628555434446	7323
1241	0.0008676154323357436	9015
215	0.0008675879752822819	808
398	0.0008651992116311154	2706
981	0.0008601745708476272	7407
1012	0.0008580054636241543	7615
955	0.0008567424391649167	7306
659	0.0008561658410422214	4601
792	0.0008558363564006812	6005
304	0.0008514432278468119	1903
631	0.0008507293444568081	4302
755	0.000844826077962546	5604
378	0.0008421902008302245	2607
421	0.000841009547531372	2813
418	0.0008397739801255963	2810
886	0.000839362124323671	7001
790	0.0008358476214805755	6003
770	0.0008357652503201904	5805
195	0.0008275830483886087	702
1129	0.0008235194044762795	8468
1301	0.0008225034934981972	9602
733	0.0008215699536805	5406
614	0.0008202245580608775	4016
838	0.0008201971010074158	6401
443	0.0008196205028847204	2835
273	0.0008167375122712437	1507
368	0.0008095163072108208	2526
409	0.0008050408074965664	2801
887	0.0008040523535719458	7002
903	0.0008030638996473251	7019
966	0.0007985334858261474	7317
310	0.0007951562682503602	2004
173	0.0007931519033476573	403
321	0.0007904611121084123	2106
364	0.000788401833098786	2522
689	0.000787797777922629	5004
948	0.0007870564374791635	7228
697	0.0007864798393564682	5105
1300	0.0007847775020418438	9601
431	0.0007834870205291446	2823
503	0.000782937879459911	3201
410	0.0007824436524976006	2802
1263	0.0007812355421452866	9104
1070	0.0007807962292898996	8406
1074	0.0007787918643871967	8410
937	0.0007769796988587256	7217
359	0.0007762932725221835	2517
982	0.0007695937514775327	7408
432	0.0007667382179175176	2824
360	0.0007634708285555773	2518
246	0.0007613291783855659	1107
750	0.0007605603808886387	5515
1022	0.0007555357401051507	8001
1196	0.0007543550868062982	8606
1244	0.0007504561852147391	9018
716	0.0007496324736108886	5211
148	0.0007476555657616474	101
1008	0.0007440312347047051	7611
448	0.0007433997224750864	2841
808	0.0007407913023962265	6115
1167	0.0007380730541035197	8523
520	0.0007375239130342861	3304
675	0.0007318677600211793	4901
221	0.0007315108183261774	814
668	0.0007312362477915605	4800
159	0.0007301654227065548	206
213	0.0007297810239580914	806
1215	0.0007273922603069249	8716
680	0.0007268980333446145	4906
711	0.0007211869662245844	5206
1003	0.0007183314326645692	7606
983	0.0007167663806172532	7409
1023	0.0007160524972272495	8002
519	0.0007158877549064794	3303
274	0.0007154209849976307	1508
841	0.0007152562426768606	6404
351	0.0007132244207206961	2509
289	0.0007111651417110698	1602
686	0.0007096275467172154	5001
523	0.0007074035253868191	3307
152	0.0007052618752168078	105
249	0.0007038341084368002	1201
354	0.0007022141422825609	2512
596	0.0007018846576410207	3924
747	0.0006985623541721569	5512
404	0.0006936475416025156	2712
559	0.0006913686061651958	3810
232	0.0006902428669732668	1001
827	0.0006845592569066982	6217
337	0.0006812369534378345	2307
471	0.0006793424167489783	2916
1247	0.000678930560947053	9021
244	0.0006783539628243577	1105
876	0.0006767339966701184	6905
366	0.0006752238587297258	2524
1197	0.0006735489784685631	8607
843	0.0006682772242039198	6406
257	0.0006661904881408319	1209
594	0.0006661355740339085	3922
930	0.0006651471201092879	7209
1200	0.0006639664668104355	8701
987	0.0006628407276185064	7413
858	0.0006628132705650447	6802
899	0.0006614129608384988	7015
227	0.0006609187338761886	906
457	0.0006606167062881101	2902
569	0.0006589418260269474	3820
1186	0.0006589143689734857	8544
1043	0.0006575415163004015	8205
1177	0.0006574591451400164	8535
1014	0.0006550978385423116	7801
868	0.0006499908265984385	6812
435	0.0006498809983845917	2827
1050	0.0006496613419568983	8212
877	0.0006464488667018813	6906
740	0.0006444994159061018	5505
915	0.0006443621306387933	7111
557	0.0006438679036764829	3808
1236	0.0006437031613557129	9008
306	0.0006431540202864793	1905
1007	0.0006430716491260942	7610
1219	0.0006404083149403109	8804
247	0.0006362897569210582	1108
769	0.000636234842814135	5804
715	0.0006354385882637461	5210
1286	0.0006332145669333497	9306
862	0.0006320888277414207	6806
275	0.0006305237756941047	1509
1124	0.000630496318640643	8461
879	0.0006293431223952523	6908
954	0.0006291509230210205	7305
791	0.0006282997543637084	6004
840	0.0006254167637502315	6403
1111	0.0006252245643759998	8447
1254	0.0006219846320675211	9028
505	0.0006215727762655958	3203
782	0.0006212158345705939	5906
1205	0.0006206666935013603	8706
1120	0.0006203646659132817	8457
570	0.0006164383072682609	3821
1281	0.0006160539085197973	9301
1298	0.0006157518809317188	9507
437	0.0006128414332647804	2829
857	0.0006120726357678533	6801
176	0.0006105075837205372	406
990	0.0006105075837205372	7419
218	0.0006097937003305335	811
1016	0.0006093543874751466	7806
1172	0.0006092171022078381	8530
539	0.0006080364489089858	3603
654	0.000605235829455894	4421
601	0.0006033412927670378	4003
430	0.0006027372375908808	2822
959	0.0006004857592070228	7310
461	0.0006002661027793292	2906
177	0.0005998817040308656	407
408	0.0005997444187635573	2716
290	0.0005996620476031722	1603
1302	0.0005983715660904731	9603
1279	0.0005959278883323832	9208
1179	0.0005928526983446747	8537
965	0.0005918093303131307	7316
419	0.0005911503610300503	2811
158	0.0005910954469231269	205
1148	0.0005908757904954335	8502
810	0.0005901893641588914	6117
760	0.0005878555146146482	5609
1269	0.0005874162017592613	9110
356	0.0005838193277557807	2514
536	0.0005812658217838442	3507
910	0.0005798655120572983	7106
1149	0.0005797282267899898	8503
696	0.0005779160612615187	5104
546	0.0005768177791230513	3704
1226	0.0005767079509092047	8906
338	0.0005757744110915073	2308
254	0.0005736876750284195	1206
450	0.0005725344787830287	2844
737	0.0005722599082484119	5502
875	0.00057190296655341	6904
446	0.0005694043746883968	2839
1151	0.0005678118655876191	8505
789	0.0005650387031879891	6002
1323	0.0005649837890810657	970
612	0.0005648739608672189	4014
604	0.0005643797339049087	4006
774	0.0005641326204237535	5809
940	0.0005636933075683666	7220
644	0.0005609476022221982	4411
849	0.0005605082893668113	6507
1188	0.0005582842680364148	8546
510	0.0005582568109829531	3208
433	0.0005567192159890989	2825
397	0.0005557307620644783	2705
1039	0.0005550443357279362	8201
320	0.00055314979903908	2105
623	0.0005522162592213828	4114
1230	0.0005507610353879135	9002
551	0.0005505962930671435	3802
511	0.0005483997287902087	3209
507	0.0005475760171863582	3205
302	0.0005469994190636628	1806
150	0.0005452696246955768	103
947	0.0005445282842521113	7227
1096	0.0005433201738997973	8432
643	0.0005411785237297859	4410
1194	0.0005411510666763242	8604
171	0.0005396683857893933	401
638	0.0005391192447201596	4405
568	0.0005373619932986119	3819
702	0.000536400996427453	5110
931	0.0005360165976789894	7210
630	0.0005353850854493707	4301
522	0.000535357628395909	3306
970	0.000534835944380137	7321
1025	0.000534753573219752	8007
353	0.0005346986591128286	2511
512	0.0005344240885782117	3210
346	0.0005337651192951313	2504
1130	0.0005328590365308957	8469
1218	0.0005317607543924283	8803
262	0.0005312939844835798	1214
889	0.0005306624722539611	7004
197	0.0005287953926185665	704
224	0.0005277794816404843	903
727	0.0005277794816404843	5311
823	0.0005275598252127908	6213
1037	0.0005265988283416319	8112
1062	0.0005253358038823944	8309
1201	0.000522150785680839	8702
590	0.0005217938439858372	3917
989	0.0005201738778315979	7418
1083	0.0005201464207781362	8419
1075	0.0005197620220296726	8411
634	0.0005173183442715827	4401
764	0.0005170986878438893	5704
1308	0.0005158356633846519	9609
542	0.000514874666513493	3606
839	0.0005130625009850218	6402
467	0.0005122937034880946	2912
980	0.0005122387893811713	7406
897	0.0005106462802803936	7013
1006	0.0005085046301103823	7609
622	0.0005077083755599934	4106
1010	0.0005047430137861316	7613
294	0.0005034525322734325	1702
252	0.0005026562777230437	1204
757	0.000502189507814195	5606
416	0.0005017227379053464	2808
809	0.0005012010538895744	6116
1184	0.0005011186827291894	8542
992	0.0005008441121945725	7502
844	0.0004966980971218583	6501
602	0.0004964509836407031	4004
1299	0.0004958743855180078	9508
1058	0.0004949408457003106	8305
953	0.0004948310174864638	7304
744	0.0004922500544610655	5509
724	0.0004920029409799104	5308
1178	0.0004914812569641384	8536
951	0.0004905477171464411	7302
445	0.0004901358613445159	2837
1004	0.0004892846926872037	7607
784	0.0004887630086714318	5908
586	0.0004860996744856484	3913
1084	0.00048585256100449324	8420
335	0.0004852485058283362	2305
190	0.00048244788637524447	601
720	0.0004820360305733192	5303
933	0.0004817614600387024	7212
1033	0.00047942761049445923	8108
773	0.0004788510123717639	5808
729	0.00047772527317983484	5402
1005	0.00047728596032444793	7608
573	0.0004768191904155993	3825
501	0.00047610530702559554	3104
846	0.00047517176720789827	6504
384	0.0004751168531009749	2613
521	0.0004739361998021225	3305
469	0.0004717670925786495	2914
473	0.000471547436150956	2918
572	0.00046847224616324744	3824
154	0.00046800547625439884	201
451	0.00046789564804055207	2845
413	0.0004670444793832399	2805
1028	0.00046693465116939316	8103
326	0.00046685228000900814	2205
754	0.0004661933107259277	5603
529	0.00046479300099938186	3406
391	0.0004638869182351463	2620
652	0.0004637770900212995	4419
370	0.0004627062649362939	2529
788	0.00046067444298012925	6001
825	0.00045993310253666383	6215
253	0.00045781890942011417	1205
198	0.0004561440291589515	705
1052	0.000455924372731258	8214
1122	0.0004554850598758711	8459
1106	0.0004550732040739458	8442
1138	0.0004539474648820168	8477
847	0.0004522176705139307	6505
628	0.00045161361533777364	4205
743	0.00045147633007046523	5508
1303	0.00045111938837546334	9604
312	0.00045040550498545956	2006
848	0.00044895028115199035	6506
1174	0.0004486757106173735	8532
1183	0.00044859333945698846	8541
944	0.0004467811739285173	7224
1082	0.0004440903826892723	8418
251	0.0004429371864438816	1203
513	0.0004427724441231115	3211
1000	0.00044194873251926096	7603
488	0.00044178399019849086	2934
1315	0.00043980708234924967	9616
1283	0.00043928539833347767	9303
1291	0.0004385166008365505	9404
824	0.0004384067726227038	6214
864	0.0004382694873553954	6808
1242	0.000436567150040771	9016
1036	0.0004363474936130775	8111
666	0.0004363200365596158	4706
968	0.00043557869611615034	7319
1290	0.00043505701210037835	9403
613	0.00043437058576383626	4015
1240	0.00043423330049652785	9014
486	0.0004338214446946026	2932
830	0.00043362924532037083	6303
1220	0.00043206419327305486	8805
1063	0.0004309933681880492	8310
1165	0.00043091099702766416	8521
735	0.0004290439173922696	5408
648	0.0004275612365053387	4415
455	0.00042750632239841533	2852
1229	0.0004265727825807181	9001
465	0.0004261060126718695	2910
268	0.00042412910482262826	1502
669	0.00042368979196724134	4802
453	0.0004216854270645384	2847
741	0.0004213559424229982	5506
896	0.0004212186571556898	7011
1287	0.0004205596878726094	9307
667	0.0004203125743914542	4707
1255	0.00041907700698567843	9029
1112	0.0004181983812749046	8448
1038	0.00041723738440374564	8113
673	0.00041550759003565956	4823
1133	0.0004147937066456558	8472
1091	0.00041432693673680717	8427
383	0.00041416219441603707	2612
339	0.0004137777956675735	2309
685	0.00041300899817064637	4911
514	0.0004122951147806426	3212
200	0.0004114714031767921	707
476	0.00041031820693140133	2921
528	0.0004098788940760144	3405
567	0.00040932975300678073	3818
1040	0.0004088629830979321	8202
1169	0.00040740775926446286	8526
1211	0.00040597999248445535	8712
504	0.0004050189956132964	3202
1233	0.0004049915385598347	9005
1013	0.00040460713981137116	7616
860	0.0004034264865125187	6804
1311	0.000403316658298672	9612
555	0.0004018065203582794	3806
163	0.00040172414919789433	210
865	0.000401669235090971	6809
344	0.0004015044927702009	2502
859	0.0004011200940217373	6803
438	0.0004007631523267354	2830
734	0.00040070823821981204	5407
565	0.00039999435482980826	3816
1141	0.00039966487018826806	8480
826	0.00039856658804980074	6216
1209	0.00039812727519441377	8710
866	0.00039735847769748666	6810
698	0.0003960954532382492	5106
584	0.00039516191342055197	3911
1090	0.0003948598858324734	8426
670	0.0003943107447632397	4807
609	0.00039244366512784524	4011
624	0.00039227892280707514	4115
1079	0.00039104335540129936	8415
1059	0.00039024710085091056	8306
973	0.00038920373281936657	7324
1181	0.00038821527889474597	8539
1099	0.00038794070836012916	8435
1026	0.000387775966039359	8101
620	0.00038755630961166557	4104
449	0.0003858814293505029	2843
1262	0.00038354757980625973	9103
1139	0.00038255912588163913	8478
984	0.00037964867821470066	7410
926	0.00037931919357316046	7205
1046	0.000379099537145467	8208
537	0.0003790446230385436	3601
1289	0.0003780287120604613	9402
234	0.0003778090556327678	1003
883	0.0003777541415258445	6912
1189	0.0003772324575100725	8547
180	0.0003764636600131453	410
908	0.00037610671831814343	7104
571	0.0003752006355539079	3823
1132	0.00037459658037775084	8471
562	0.00037391015404120875	3813
305	0.00037380032582736203	1904
492	0.00037308644243735825	2938
564	0.00037286678600966476	3815
475	0.00037270204368889466	2920
1027	0.00037240001610081615	8102
1041	0.00037234510199389277	8203
700	0.000372152902619661	5108
988	0.00037124681985542545	7415
233	0.00037020345182388147	1002
726	0.00037003870950311137	5310
1048	0.000369983795396188	8210
271	0.0003696817678081095	1505
943	0.0003696268537011861	7223
763	0.0003695170254873394	5703
975	0.000368940427364644	7326
1102	0.0003687482279904122	8438
1143	0.0003683638292419486	8482
1087	0.0003680892587073318	8423
533	0.0003678970593331	3503
427	0.0003678696022796383	2819
1259	0.000367814688172715	9033
730	0.0003677872311192533	5403
787	0.00036767740290540653	5911
1164	0.00036666149192732424	8519
1250	0.00036652420666001583	9024
535	0.00036578286621655035	3506
161	0.0003655906668423186	208
589	0.00036375104426038577	3916
1171	0.0003612524523953726	8529
603	0.0003606758542726772	4005
361	0.00035776540660573873	2519
585	0.00035655729625342465	3912
558	0.0003563101827722695	3809
440	0.00035625526866534614	2832
1024	0.00035565121348918907	8003
1175	0.00035353702037263946	8533
1162	0.0003530977075172525	8517
1055	0.00035285059403609737	8302
1294	0.0003524387382341721	9503
506	0.0003515051984164748	3204
957	0.0003509560573472412	7308
394	0.0003502421739572374	2702
369	0.00034815543789414944	2528
1123	0.00034812798084068775	8460
1072	0.00034779849619914755	8408
882	0.00034774358209222416	6911
174	0.00034579413129644465	404
856	0.00034562938897567455	6704
491	0.0003454921037083661	2937
481	0.0003450253337995175	2926
1071	0.0003441467080887436	8407
389	0.0003426091130948893	2618
1015	0.0003424169137206575	7804
1314	0.0003417854014910388	9615
869	0.00034140100274257523	6813
1118	0.00034137354568911354	8454
1306	0.00034071457640603314	9607
1288	0.000340467462924878	9401
1092	0.00034033017765756955	8428
1161	0.00033947900900025736	8516
901	0.00033917698141217885	7017
420	0.00033873766855679194	2812
525	0.0003381061563271732	3402
1101	0.0003367882177610124	8437
1275	0.0003360743343710086	9202
1210	0.0003354428221413899	8711
974	0.0003353604509810048	7325
1305	0.000335168251606773	9606
1238	0.0003347289387513861	9011
793	0.0003345367393771543	6006
1145	0.0003344818252702309	8486
280	0.000333960141254459	1514
479	0.0003337679418802272	2924
518	0.0003337404848267655	3302
1168	0.0003337404848267655	8525
1064	0.0003330815155436851	8311
334	0.00033231271804675793	2304
781	0.00033209306161906444	5905
995	0.00033173611992406255	7506
885	0.00033129680706867564	6914
1078	0.00033099477948059713	8414
1060	0.00033036326725097837	8307
853	0.00033022598198366996	6701
942	0.00033003378260943817	7222
834	0.0003295120985936662	6307
1136	0.0003288256722571241	8475
605	0.0003276724760117334	4007
1270	0.00032759010485134836	9111
288	0.0003267938503009595	1601
1316	0.00032435017254286964	9617
1100	0.0003242952584359463	8436
768	0.0003237735744201743	5803
1192	0.00032262037817478356	8602
1243	0.00032231835058670505	9017
719	0.00032212615121247326	5302
548	0.00032179666657093306	3706
1056	0.00032154955308977794	8303
325	0.00032111024023439097	2204
272	0.0003210827831809293	1506
1128	0.0003203963568443872	8467
1134	0.00032036889979092554	8473
477	0.00031998450104246196	2922
723	0.0003187763906901479	5307
485	0.0003185292772089927	2930
771	0.0003180075931932207	5806
531	0.00031644254114590473	3501
663	0.0003161405135578262	4703
395	0.00031561882954205423	2703
583	0.0003155364583816692	3910
1231	0.00031542663016782244	9003
1212	0.00031509714552628224	8713
495	0.0003150147743658972	2941
309	0.00031441071918974014	2003
728	0.00031413614865512333	5401
845	0.00031372429285319805	6502
497	0.00031331243705127283	3006
678	0.00031284566714242417	4904
1019	0.00031106095866741476	7904
775	0.00031103350161395307	5810
608	0.0003109236734001063	4010
649	0.0003106491028654895	4416
870	0.0003104843605447194	6814
1115	0.0003102921611704876	8451
704	0.0003096331918874072	5112
1284	0.0003094135354597137	9304
1146	0.0003085898238558632	8487
664	0.0003082877962677847	4704
772	0.0003082054251073996	5807
582	0.0003078210263589361	3909
1117	0.00030647563073931354	8453
526	0.00030633834547200514	3403
466	0.0003052400633335378	2911
1245	0.00030408686708814707	9019
1246	0.00030394958182083866	9020
647	0.00030309841316352647	4414
1142	0.00030282384262890965	8481
428	0.0003026865573616012	2820
964	0.00030260418620121617	7315
284	0.00030249435798736945	1518
633	0.0003021923303992909	4304
489	0.0003020825021854442	2935
1163	0.0003014784470092871	8518
425	0.000301231333528132	2817
776	0.00029650872033272236	5811
597	0.00029626160685156724	3925
699	0.00029568500872887186	5107
1158	0.00029535552408733166	8513
1252	0.0002953006099804083	9026
893	0.00029505349649925315	7008
778	0.00029354335855886056	5902
615	0.0002928843892757801	4017
1213	0.0002921430488323147	8714
532	0.0002905230826780753	3502
588	0.0002900563127692267	3915
181	0.00028895803063075934	501
577	0.0002888756594703743	3904
552	0.00028769500617152193	3803
1113	0.00028731060742305834	8449
487	0.00028673400930036297	2933
949	0.00028665163813997794	7229
1170	0.00028632215349843774	8527
576	0.00028596521180343585	3903
884	0.0002851964143065087	6913
632	0.00028511404314612366	4303
478	0.0002848120155580451	2923
1089	0.00028426287448881147	8425
627	0.0002838784757403479	4203
1256	0.0002836862763661161	9030
258	0.00028256053717418703	1210
894	0.00028239579485341693	7009
671	0.0002821486813722618	4810
1202	0.00027959517540032523	8703
963	0.00027937551897263174	7314
460	0.00027893620611724483	2905
553	0.00027849689326185786	3804
182	0.00027846943620839617	502
367	0.0002777555528183924	2525
1076	0.000277618267551084	8412
878	0.0002767670988937718	6907
1176	0.0002767396418403101	8534
922	0.00027649252835915497	7201
1249	0.0002760806725572297	9023
1312	0.0002758610161295362	9613
684	0.0002745156205099137	4910
1182	0.00027311531078336783	8540
725	0.00027226414212605564	5309
665	0.00027209939980528554	4705
429	0.00027157771578951355	2821
751	0.00027130314525489673	5516
396	0.00026921640919180877	2704
447	0.00026891438160373026	2840
1156	0.00026872218222949847	8511
1185	0.00026822795526718817	8543
1190	0.00026822795526718817	8548
1166	0.0002677886424118012	8522
483	0.0002674866148237227	2928
1140	0.00026707475902179747	8479
985	0.0002665256179525638	7411
1068	0.0002662510474179469	8404
1309	0.0002662510474179469	9610
1191	0.0002656469922417899	8601
1150	0.0002637799126063954	8504
746	0.0002632856856440851	5511
1114	0.00026188537591753923	8450
1031	0.00026172063359676913	8106
500	0.00026095183609984196	3103
417	0.00026075963672561017	2809
888	0.00025963389753368117	7003
1021	0.00025900238530406246	7907
462	0.0002588925570902157	2907
662	0.0002585356153952138	4702
780	0.0002581786737002119	5904
516	0.0002580413884329035	3214
472	0.0002578491890586717	2917
904	0.0002571902197755913	7020
1159	0.0002571902197755913	8514
1098	0.0002568881921875128	8434
1253	0.0002568607351340511	9027
578	0.0002566685357598193	3905
745	0.0002554604254075052	5510
424	0.0002541424868413444	2816
920	0.000254005201574036	7117
1137	0.0002539777445205743	8476
1248	0.00025345606050480233	9022
914	0.00025312657586326213	7110
993	0.00025252252068710506	7504
855	0.00025233032131287327	6703
1155	0.0002523028642594116	8509
1147	0.00025172626613671626	8501
677	0.00025136932444171436	4903
248	0.000251314410334791	1109
1261	0.00025101238274671247	9102
986	0.0002509300115863274	7412
1119	0.0002502984993567087	8455
718	0.0002501337570359386	5301
439	0.0002498042723943984	2831
442	0.0002495022448063199	2834
753	0.0002487609043628544	5602
629	0.0002484863338282376	4206
1265	0.0002484863338282376	9106
1131	0.0002481293921332357	8470
593	0.0002478822786520805	3920
508	0.0002476900792778487	3206
1107	0.000247580251064002	8443
1029	0.0002464270548186113	8104
971	0.00024634468365822623	7322
679	0.00024228103974589706	4905
932	0.00024126512876781474	7211
961	0.0002406885306451194	7312
1154	0.0002401393895758857	8508
1296	0.00024011193252242404	9505
690	0.00023926076386511185	5005
517	0.00023879399395626322	3215
1126	0.00023840959520779966	8463
1160	0.00023829976699395292	8515
470	0.00023821739583356787	2915
1198	0.00023799773940587438	8608
997	0.00023788791119202767	7508
756	0.00023536186227355276	5605
375	0.00023453815066970226	2604
1285	0.00023404392370739193	9305
606	0.00023398900960046857	4008
945	0.00023393409549354521	7225
956	0.00023382426727969847	7307
1069	0.00023289072746200123	8405
1267	0.00023289072746200123	9108
1035	0.00023253378576699934	8110
676	0.00023044704970391137	4902
1271	0.00023003519390198612	9112
785	0.00022945859577929077	5909
890	0.00022901928292390383	7005
1054	0.00022866234122890193	8301
156	0.0002283877706942851	203
736	0.0002283603136408234	5501
1237	0.00022830539953390004	9010
661	0.000228223028373515	4701
1153	0.00022712474623504765	8507
452	0.0002270149180212009	2846
1045	0.0002264932340054289	8207
871	0.0002263559487381205	6815
731	0.0002261637493638887	5404
672	0.0002259990070431186	4811
722	0.00022492818195811294	5306
580	0.0002246810684769578	3907
235	0.00022443395499580264	1004
160	0.00022358278633849044	207
683	0.0002233356728573353	4909
591	0.0002229787311623334	3918
1108	0.0002221275625050212	8444
946	0.0002219902772377128	7226
1268	0.00022174316375655762	9109
900	0.00022089199509924543	7016
1085	0.00022083708099232207	8421
581	0.00021924457189154443	3908
1173	0.00021814628975307706	8531
607	0.00021803646153923035	4009
873	0.00021735003520268826	6902
1206	0.0002172676640423032	8707
1180	0.0002167459800265312	8538
902	0.00021644395243845268	7018
1066	0.00021638903833152932	8402
1157	0.00021633412422460594	8512
703	0.00021630666717114427	5111
1251	0.00021622429601075922	9025
786	0.00021553786967421713	5910
1307	0.00021526329913960029	9608
861	0.00021361587593189926	6805
1080	0.00021298436370228052	8416
561	0.00021251759379343192	3812
1187	0.00021207828093804497	8545
996	0.00021166642513611972	7507
1317	0.0002110074558530393	9618
1257	0.00020911291916418312	9031
892	0.00020894817684341302	7007
162	0.00020842649282764103	209
1234	0.00020839903577417936	9006
626	0.00020787735175840737	4202
1280	0.00020688889783378674	9209
490	0.00020672415551301664	2936
598	0.0002063122997110914	3926
1042	0.00020620247149724465	8204
178	0.00020617501444378299	408
333	0.00020601027212301286	2303
852	0.00020587298685570445	6603
579	0.00020551604516070256	3906
1207	0.00020521401757262405	8708
1097	0.00020408827838069502	8433
1061	0.00020400590722030997	8308
1088	0.0002034293090976146	8424
1282	0.00020329202383030618	9302
1127	0.00020323710972338282	8465
1292	0.00020271542570761083	9405
1273	0.00020266051160068745	9114
941	0.0002024133981195323	7221
1032	0.00020233102695914725	8107
1258	0.00020202899937106874	9032
560	0.00020180934294337525	3811
547	0.0002015622294622201	3705
494	0.0002007385178583696	2940
463	0.0002005737755375995	2908
691	0.00019925583697143868	5006
1214	0.0001985419535814349	8715
777	0.00019848703947451154	5901
527	0.00019840466831412649	3404
1125	0.0001976907849241227	8462
850	0.0001971691009083507	6601
967	0.00019640030341142357	7318
939	0.00019574133412834317	7219
330	0.0001956864200214198	2209
267	0.00019461559493641413	1501
1272	0.00019428611029487393	9113
534	0.0001936545980652552	3505
991	0.000193325113423715	7501
911	0.0001924739447664028	7107
474	0.0001921444601248626	2919
1077	0.00019110109209331862	8413
969	0.00018904181308369234	7320
545	0.00018722964755522122	3703
1295	0.00018646085005829407	9504
783	0.00018621373657713892	5907
1067	0.00018560968140098188	8403
682	0.00018544493908021178	4908
1053	0.00018517036854559494	8215
1081	0.00018396225819328085	8417
732	0.00018209517855788637	5405
269	0.0001816833227559611	1503
515	0.00018061249767095544	3213
549	0.00018044775535018534	3707
1065	0.00018025555597595355	8401
1073	0.0001799809854413367	8409
1121	0.00017921218794440957	8458
1239	0.00017841593339402073	9013
1051	0.00017808644875248053	8213
1103	0.0001778118782178637	8439
766	0.0001755878568874673	5801
994	0.00017429737537476818	7505
1318	0.00017355603493130273	9701
851	0.00017248520984629705	6602
692	0.00017196352583052508	5007
898	0.00017182624056321665	7014
1278	0.0001708927007455194	9207
938	0.00017026118851590067	7218
1144	0.00016984933271397542	8483
1105	0.00016941001985858848	8441
540	0.00016927273459128007	3604
874	0.0001685588512012763	6903
509	0.00016842156593396788	3207
1266	0.00016825682361319778	9107
592	0.0001678449678112725	3919
1297	0.0001676802254905024	9506
349	0.0001674056549558856	2507
1104	0.0001671585414747304	8440
276	0.00016710362736780705	1510
1020	0.00016622500165703317	7905
484	0.00016540129005318267	2929
1049	0.00016482469193048732	8211
1310	0.00016460503550279383	9611
739	0.00016391860916625174	5504
482	0.0001621339006912423	2927
658	0.00016001970757469265	4504
1086	0.0001597725940935375	8422
1047	0.0001585644837412234	8209
880	0.0001583997414204533	6909
1319	0.00015746620160275607	9702
854	0.0001570818028542925	6702
655	0.00015705434580083082	4501
656	0.00015699943169390746	4502
1232	0.0001560658918762102	9004
1195	0.00015554420786043823	8605
1044	0.0001552421802723597	8206
1264	0.0001550499808981279	9105
530	0.00015466558214966434	3407
1193	0.00015340255769042687	8603
1110	0.00014813080342578362	8446
1274	0.00014796606110501352	9201
544	0.00014766403351693498	3702
587	0.0001473070918219331	3914
480	0.00014634609495077418	2925
705	0.0001462911808438508	5113
543	0.0001449457852242283	3701
1109	0.00014255702157306183	8445
742	0.00014049774256343555	5507
468	0.00013983877328035513	2913
1034	0.00013558292999379416	8109
