67	0.019543410881203524	Italy
50	0.018548029451039484	Germany
30	0.017878520587550687	China
141	0.01779668492043074	USA
46	0.017618435076629056	France
61	0.01746272679383047	India
123	0.017408823060996975	Spain
13	0.016219755718083477	Belgium
94	0.015828586129589473	Netherlands
8	0.01526859985053965	Austria
107	0.015267987308121088	Poland
36	0.014645276685410465	CzechRepublic
139	0.014613669496612641	UnitedKingdom
134	0.01375108726279295	Turkey
108	0.013320347434059809	Portugal
52	0.012709887659720436	Greece
21	0.012069290798387788	Bulgaria
127	0.012039521236845652	Switzerland
131	0.011815575728619207	Thailand
69	0.011642593749617161	Japan
38	0.011555735234665	Denmark
119	0.011526823232508851	Slovenia
62	0.011433716784887353	Indonesia
115	0.011284991485660381	Serbia
77	0.010845553554583654	Lebanon
34	0.010807453416149068	Croatia
19	0.01079128229629902	Brazil
43	0.010773518566160706	Estonia
126	0.010555208448185038	Sweden
26	0.010497874477807588	Canada
110	0.010464674678721501	Romania
66	0.010353069450059416	Israel
118	0.01022909086454237	Slovakia
121	0.0100039202714788	SouthAfrica
80	0.009847231920810516	Lithuania
40	0.009814767172626705	Egypt
72	0.009600499834613547	Kenya
76	0.00953446776189251	Latvia
137	0.009531282541315985	Ukraine
122	0.009301824151322479	SouthKorea
59	0.009235057027699169	Hungary
144	0.009175640413098608	Vietnam
88	0.008955737684834675	Mexico
102	0.008924253004520563	Pakistan
95	0.008881742560672326	NewZealand
54	0.008865571440822277	Guatemala
133	0.008776262756195866	Tunisia
45	0.008754946280029893	Finland
35	0.008419150526173938	Cyprus
18	0.008025040734070834	BosniaHerzegovina
7	0.007893221605596188	Australia
12	0.007877295502713563	Belarus
81	0.007822901735945215	Macedonia
93	0.007739840983988141	Nepal
140	0.0077181569823710295	Uruguay
103	0.007610962059122595	Panama
91	0.00759650605804452	Morocco
70	0.00738701655089615	Jordan
105	0.007381013635194237	Peru
41	0.007308611121320151	ElSalvador
1	0.007289254780893577	Albania
31	0.007272961152559815	Colombia
84	0.006981758486775209	Malaysia
106	0.006930549940583386	Philippines
116	0.006686513041028091	SierraLeone
114	0.006649515478946917	Senegal
130	0.006549548556237519	Tanzania
74	0.0064906219755718085	Kyrgyzstan
117	0.006486456687125584	Singapore
111	0.006309431928161025	Russia
82	0.006272556874563563	Madagascar
29	0.006200031852205765	Chile
132	0.006030235093780244	Togo
147	0.005938721256447009	Zimbabwe
58	0.005891310473250273	Honduras
100	0.005752753378171438	Norway
33	0.005710855476741764	CostaRica
138	0.0055658054320261675	UnitedArabEmirates
63	0.00515380940130104	Iran
136	0.004977397184755044	Uganda
11	0.004892621314025996	Bangladesh
142	0.004790694255577199	Uzbekistan
96	0.0047853038822938485	Nicaragua
65	0.004708736079973538	Ireland
17	0.0046989354012765385	Bolivia
49	0.004640131329094539	Georgia
48	0.004552170237788967	Gambia
51	0.0045171328114471925	Ghana
104	0.004487608266872481	Paraguay
75	0.004467026841608782	Laos
68	0.004361302020164897	IvoryCoast
71	0.00431830154238181	Kazakhstan
0	0.004240508655224374	Afghanistan
89	0.0040911708135788405	Mongolia
6	0.004058216031460179	Armenia
39	0.004004679824077817	Ecuador
42	0.003989366263613755	Eritrea
44	0.003963761990517844	Ethiopia
86	0.0039078981219449445	Malta
10	0.003843091134061034	Bahrain
16	0.003795435333896872	Bhutan
24	0.0037559876021414484	Cambodia
92	0.0036808899016256874	Mozambique
22	0.003658593357590013	BurkinaFaso
146	0.003613755252551239	Zambia
60	0.0035308170090778785	Iceland
97	0.003517341075869504	Niger
83	0.00336947333602852	Malawi
25	0.003350239504085658	Cameroon
101	0.0033319857400124957	Oman
129	0.0033239001800874713	Tajikistan
15	0.0033202249255760963	Benin
9	0.0033082190941722714	Azerbaijan
112	0.003240104377228123	Rwanda
143	0.003166109253065775	Venezuela
57	0.003127886606147476	Guyana
85	0.0030975045021867766	Mali
14	0.003024734462861553	Belize
125	0.0028190427187082708	Suriname
145	0.0027618312568145342	Yemen
37	0.0027596261041077093	DemocraticRepublicCongo
113	0.0027450475945459225	SaudiArabia
55	0.002601222634667451	Guinea
23	0.0025082386955296654	Burundi
27	0.002411947027331643	CentralAfricanRepublic
32	0.002352407904247369	Congo
124	0.0022940938660002204	Sudan
135	0.002249133252477734	Turkmenistan
109	0.0020959976478371126	Qatar
73	0.0020463817119335515	Kuwait
98	0.0020365810332365515	Nigeria
87	0.0018901833952001176	Mauritania
56	0.0018451002731939188	Guinea-Bissau
2	0.001770247589645583	Algeria
78	0.0017545665037303833	Liberia
47	0.0017540764697955332	Gabon
79	0.0016950273806461097	Libya
20	0.0016157643916841242	Brunei
64	0.0013376701336567558	Iraq
28	0.0012891567741066068	Chad
4	0.00116125791711076	Angola
