153	0.002608067271055052	106
925	0.002422245997334685	7204
402	0.0023585850054119663	2710
813	0.0023235479975724357	6203
293	0.0022448711451470618	1701
619	0.002222973015247355	4103
640	0.002222973015247355	4407
259	0.002213588102433195	1211
999	0.0021935669550963207	7602
616	0.0021855897792042844	4100
617	0.002171825240410183	4101
166	0.0021419499346184406	303
255	0.0021328778522314196	1207
365	0.0020817300773942476	2523
169	0.0020637423278337744	306
323	0.0020294873960620906	2202
266	0.0020130637986373106	1404
332	0.001984126984126984	2302
595	0.0019378280809104617	3923
260	0.0019329792092898123	1212
240	0.0018729157672791887	1101
796	0.001864625760960014	6103
832	0.001864625760960014	6305
231	0.001857117830708686	910
206	0.0018394429115753514	713
797	0.0018267732792762355	6104
814	0.0018187961033841995	6204
912	0.001818014027316353	7108
618	0.0018061264710850836	4102
641	0.0018056572254443756	4408
165	0.0017803179608461438	302
802	0.001776720410934049	6109
524	0.0017721843697405385	3401
836	0.0017502862398408319	6309
168	0.001742778309589504	305
637	0.00172260074703906	4404
222	0.0017060207344007107	901
211	0.0017036745061971708	804
706	0.0016980435585086748	5201
795	0.0016964794063729814	6102
341	0.0016930382716744562	2402
336	0.0016891278913352228	2306
799	0.0016859995870638362	6106
707	0.001678335241598939	5202
642	0.0016706708961340415	4409
167	0.0016642578723776989	304
295	0.0016608167376791737	1703
283	0.0016594090007570497	1517
636	0.0016559678660585243	4403
798	0.0016237463320632418	6105
962	0.0016232770864225339	7313
343	0.001604976506434922	2501
758	0.0016016917869499658	5607
187	0.0016015353717363965	508
800	0.0016005968804549805	6107
202	0.0015919940437086673	709
401	0.0015905863067865434	2709
801	0.001590429891572974	6108
315	0.0015841732830302008	2009
807	0.0015757268614974567	6114
225	0.0015716600659446541	904
186	0.0015700959138089607	507
340	0.0015619623227033554	2401
668	0.0015602417553540928	4800
794	0.001546320801346422	6101
958	0.0015395949471629408	7309
895	0.0015389692863086635	7010
342	0.0015339639994744448	2403
307	0.0015284894669995183	2001
291	0.0015244226714467156	1604
313	0.001524109841019577	2007
822	0.0015192609693989276	6212
319	0.0015008039741977463	2104
881	0.0015008039741977463	6910
499	0.0014995526524891917	3102
282	0.0014923575526650024	1516
803	0.0014876650962579224	6110
808	0.001483285470277981	6115
1001	0.0014759339552402224	7604
819	0.0014742133878909598	6209
317	0.0014634207381546758	2102
296	0.0014623258316596905	1704
170	0.0014590411121747345	307
817	0.0014513767667098372	6207
538	0.0014490305385062973	3602
264	0.001448874123292728	1302
541	0.0014430867603906627	3605
242	0.0014415226082549694	1103
250	0.001439958456119276	1202
164	0.0014398020409057066	301
650	0.0014383943039835826	4417
805	0.0014383943039835826	6112
651	0.0014379250583428746	4418
837	0.001434796754071488	6310
815	0.0014330761867222253	6205
502	0.001431042788945824	3105
207	0.0014255682564708974	714
414	0.001425411841257328	2806
172	0.001424004104335204	402
203	0.0014233784434809268	710
759	0.001421657876131664	5608
241	0.0014191552327145547	1102
842	0.0014189988175009854	6405
201	0.0014171218349381535	708
635	0.0014149320219481827	4402
1293	0.001402888050503344	9406
218	0.001392408231194199	811
263	0.0013850567161564403	1301
866	0.0013841182248750241	6810
306	0.001381146335817207	1905
175	0.001380207844535791	405
816	0.001380207844535791	6206
923	0.0013798950141086523	7202
217	0.0013794257684679443	810
318	0.001378800107613667	2103
811	0.0013784872771865284	6201
204	0.0013778616163322508	711
709	0.001373638405565879	5204
821	0.0013692587795859376	6211
653	0.0013676946274502444	4420
205	0.0013639406623245803	712
838	0.001355337825578267	6401
179	0.0013518966908797417	409
812	0.0013443887606284137	6202
239	0.0013415732867841658	1008
916	0.0013401655498620417	7112
392	0.0013396963042213337	2621
957	0.0013396963042213337	7308
935	0.001338914228153487	7214
1186	0.0013373500760177938	8544
714	0.001332814034824283	5209
314	0.0013325012043971444	2008
937	0.0013260881806408018	7217
223	0.0013257753502136631	902
316	0.0013256189350000938	2101
907	0.0013243676132915392	7103
955	0.0013207700633794445	7306
639	0.0013188930808166125	4406
362	0.0013187366656030432	2520
710	0.0013137313787688245	5205
712	0.0013112287353517153	5207
713	0.001303564389886818	5208
1009	0.0013024694833918325	7612
867	0.001299810424761154	6811
188	0.001291833248869118	510
936	0.0012910511728012714	7215
818	0.0012902690967334246	6208
287	0.0012860458859670527	1522
959	0.0012855766403263448	7310
281	0.0012761917275121847	1515
399	0.0012747839905900608	2707
245	0.0012738454993086448	1106
214	0.0012719685167458129	807
1199	0.0012671196451251635	8609
193	0.0012635220952130688	604
998	0.0012635220952130688	7601
820	0.0012610194517959595	6210
189	0.0012607066213688209	511
829	0.0012603937909416822	6302
804	0.001258986054019558	6111
590	0.0012583603931652807	3917
594	0.0012578911475245728	3922
752	0.0012561705801753102	5601
1290	0.0012544500128260476	9403
278	0.0012497575564189675	1512
348	0.0012456907608661648	2506
243	0.0012400598131776688	1104
177	0.0012395905675369608	407
171	0.0012298928242956623	401
886	0.001229267163441385	7001
302	0.001228797917800677	1806
405	0.0012284850873735384	2713
931	0.0012261388591699983	7210
960	0.0012253567831021516	7311
522	0.0012223848940443344	3306
441	0.0012220720636171958	2833
755	0.001217536022423685	5604
740	0.001214720548579437	5505
357	0.0012144077181522983	2515
183	0.0012140948877251596	504
219	0.0012108101682402038	812
610	0.0012104973378130651	4012
708	0.001209089600890941	5203
196	0.0012068997879009704	703
646	0.001205804881405985	4413
934	0.0012056484661924158	7213
648	0.0012051792205517078	4415
1254	0.0012036150684160145	9028
1082	0.0012022073314938903	8418
328	0.0012003303489310584	2207
1007	0.0011979841207275185	7610
498	0.0011973584598732412	3101
510	0.0011951686468832704	3208
403	0.0011936044947475771	2711
749	0.0011920403426118839	5514
363	0.0011892248687676357	2521
311	0.0011870350557776652	2005
359	0.001185470903641972	2517
1096	0.0011809348624484612	8432
1322	0.001179839955953476	9705
717	0.0011762424060413812	5212
208	0.0011717063648478707	801
436	0.0011684216453629146	2828
220	0.0011674831540814986	813
966	0.00116717032365436	7317
978	0.00116717032365436	7403
1215	0.0011670139084407906	8716
364	0.001165762586732236	2522
875	0.001162947112887988	6904
750	0.0011623214520337106	5515
212	0.0011613829607522946	805
982	0.001159662393403032	7408
407	0.0011576289956266306	2715
292	0.0011548135217823827	1605
765	0.0011534057848602587	5705
974	0.001151215971870288	7325
149	0.0011473055915310548	102
789	0.0011460542698225	6002
891	0.0011454286089682226	7006
194	0.001144646532900376	701
557	0.001144177287259668	3808
1224	0.0011416746438425588	8904
835	0.00113901558521188	6308
827	0.0011379206787168947	6217
324	0.0011374514330761867	2203
185	0.0011354180352997855	506
176	0.0011335410527369533	406
840	0.0011294742571841508	6403
863	0.0011282229354755962	6807
831	0.001125876707272056	6304
843	0.0011236868942820855	6406
930	0.0011222791573599615	7209
563	0.001121184250864976	3814
1223	0.001121184250864976	8903
322	0.0011208714204378374	2201
609	0.0011200893443699908	4011
210	0.0011188380226614361	803
918	0.0011168046248850349	7114
512	0.0011153968879629107	3210
1222	0.0011133634901865095	8902
173	0.0011122685836915242	403
347	0.0011113300924101082	2505
1016	0.0011110172619829696	7806
327	0.0011108608467694002	2206
673	0.0011094531098472763	4823
554	0.0011049170686537656	3805
1095	0.0011047606534401963	8431
308	0.0011035093317316416	2002
289	0.0011033529165180723	1602
981	0.0011022580100230868	7407
695	0.0011019451795959481	5103
256	0.0010992861209652696	1208
1135	0.0010983476296838536	8474
1057	0.001097565553616007	8304
230	0.001097096307975299	909
760	0.0010967834775481604	5609
379	0.0010950629101988975	2608
574	0.001093342342849635	3901
611	0.0010916217755003723	4013
1003	0.0010911525298596644	7606
236	0.001090526869005387	1005
320	0.0010892755472968322	2105
1011	0.0010866164886661536	7614
422	0.001084895921316891	2814
199	0.001081611201831935	706
1012	0.001081141956191227	7615
597	0.0010808291257640883	3925
970	0.0010794213888419644	7321
1288	0.0010786393127741177	9401
303	0.0010762930845705776	1902
1062	0.0010762930845705776	8309
833	0.0010747289324348844	6306
288	0.0010739468563670377	1601
1201	0.0010716006281634976	8702
1286	0.0010709749673092203	9306
1291	0.0010653440196207243	9404
575	0.001062841376203615	3902
546	0.0010612772240679218	3704
191	0.0010550206155251485	602
350	0.0010550206155251485	2508
1227	0.0010522051416809004	8907
523	0.0010517358960401924	3307
628	0.0010509538199723458	4205
1219	0.0010503281591180684	8804
511	0.001047199854846682	3209
265	0.0010461049483516964	1401
1179	0.0010426638136531712	8537
929	0.001041099661517478	7208
1014	0.00104063041587677	7801
634	0.0010401611702360617	4401
770	0.0010396919245953538	5805
1188	0.0010384406028867991	8546
444	0.0010381277724596605	2836
443	0.0010371892811782445	2835
762	0.0010371892811782445	5702
216	0.0010362507898968286	809
459	0.0010356251290425513	2904
1149	0.0010326532399847338	8503
1004	0.0010317147487033179	7607
371	0.0010310890878490405	2530
644	0.0010299941813540553	4411
868	0.0010245196488791286	6812
415	0.0010235811575977126	2807
729	0.0010234247423841433	5402
681	0.001022799081529866	4907
358	0.0010202964381127565	2516
828	0.0010182630403363553	6301
602	0.0010177937946956473	4004
862	0.0010173245490549393	6806
744	0.0010163860577735234	5509
643	0.0010152911512785379	4410
521	0.0010131013382885673	3305
728	0.0010131013382885673	5401
294	0.001010598694871458	1702
631	0.0010085652970950566	4302
906	0.0010065318993186553	7102
339	0.0010048113319693927	2309
374	0.0010046549167558234	2603
596	0.0010043420863286847	3924
329	0.0010034035950472688	2208
1300	0.0010029343494065606	9601
716	0.000998867553853758	5211
351	0.0009980854777859114	2509
721	0.000996521325650218	5305
897	0.0009962084952230793	7013
209	0.0009958956647959406	802
286	0.0009954264191552327	1521
388	0.0009933930213788314	2617
876	0.0009916724540295688	6905
747	0.0009913596236024301	5512
1204	0.0009902647171074446	8705
257	0.0009893262258260287	1209
1235	0.0009861979215546421	9007
858	0.000983851693351102	6802
528	0.0009791592369440222	3405
516	0.0009783771608761756	3214
360	0.0009782207456626062	2518
1228	0.0009732154588283874	8908
685	0.0009713384762655555	4911
903	0.0009705564001977089	7019
948	0.0009694614937027235	7228
446	0.0009686794176348768	2839
849	0.0009672716807127529	6507
285	0.0009664896046449061	1520
372	0.0009664896046449061	2601
1225	0.0009661767742177675	8905
1281	0.0009657075285770595	9301
1298	0.0009653946981499209	9507
423	0.0009633613003735195	2815
246	0.0009630484699463808	1107
917	0.0009627356395192422	7113
310	0.0009621099786649649	2004
715	0.0009610150721699796	5210
1203	0.0009577303526850236	8704
151	0.0009575739374714542	104
404	0.0009574175222578848	2712
864	0.0009561662005493302	6808
645	0.0009553841244814836	4412
1152	0.0009528814810643742	8506
1321	0.0009525686506372356	9704
161	0.0009492839311522796	208
879	0.000948501855084433	6908
1017	0.0009480326094437249	7901
387	0.0009467812877351703	2616
378	0.0009453735508130463	2607
927	0.0009425580769687983	7206
213	0.0009403682639788276	806
331	0.000940055433551689	2301
237	0.0009384912814159956	1006
1313	0.0009384912814159956	9614
1156	0.000936770714066733	8511
748	0.0009359886379988864	5513
525	0.000935832222785317	3402
1141	0.000934424485863193	8480
1039	0.0009341116554360543	8201
1056	0.0009331731641546384	8303
680	0.0009322346728732223	4906
215	0.0009295756142425437	808
551	0.0009251959882626024	3802
1013	0.0009242574969811864	7616
774	0.0009233190056997704	5809
537	0.000922693344845493	3601
1068	0.0009209727774962304	8404
865	0.0009206599470690918	6809
337	0.0009187829645062597	2307
1172	0.0009178444732248438	8530
520	0.0009173752275841358	3304
247	0.0009142469233127491	1108
790	0.0009142469233127491	6003
390	0.0009123699407499171	2619
577	0.0009089288060513918	3904
928	0.0009084595604106838	7207
234	0.0009078338995564065	1003
411	0.0009070518234885598	2803
1216	0.0009062697474207131	8801
674	0.0009061133322071438	4824
1078	0.0009061133322071438	8414
973	0.0009058005017800051	7324
743	0.0009054876713528665	5508
406	0.0009040799344307424	2714
806	0.0008995438932372318	6113
697	0.0008987618171693852	5105
882	0.0008984489867422465	6911
513	0.0008981361563151078	3211
921	0.0008981361563151078	7118
1277	0.0008976669106743998	9206
652	0.0008968848346065532	4419
956	0.0008950078520437211	7307
419	0.0008946950216165825	2811
869	0.0008945386064030132	6813
947	0.0008945386064030132	7227
771	0.0008937565303351665	5806
1147	0.0008937565303351665	8501
152	0.0008915667173451958	105
1211	0.0008900025652095026	8712
1002	0.0008893769043552252	7605
254	0.0008889076587145172	1206
734	0.0008870306761516852	5407
1289	0.0008865614305109772	9402
277	0.0008856229392295612	1511
148	0.0008854665240159918	101
614	0.0008842152023074372	4016
971	0.0008781150089782333	7322
221	0.000877489348123956	814
599	0.000877020102483248	4001
666	0.000877020102483248	4706
432	0.0008768636872696786	2824
964	0.0008749867047068466	7315
297	0.0008724840612897373	1801
1302	0.00087185840043546	9603
693	0.0008717019852218906	5101
753	0.0008706070787269053	5602
1005	0.0008696685874454893	7608
763	0.0008684172657369346	5703
669	0.0008677916048826573	4802
779	0.00086716594402838	5903
280	0.0008666966983876719	1514
1101	0.0008663838679605333	8437
505	0.0008656017918926866	3203
608	0.0008656017918926866	4010
434	0.0008630991484755773	2826
454	0.0008626299028348693	2849
963	0.0008623170724077307	7314
788	0.0008618478267670227	6001
699	0.000861534996339884	5107
229	0.0008588759377092054	908
872	0.0008588759377092054	6901
1299	0.0008588759377092054	9508
270	0.000858719522495636	1504
1018	0.0008585631072820667	7903
1221	0.000858250276854928	8901
1241	0.0008576246160006506	9015
1303	0.000856373294292096	9604
975	0.0008560604638649574	7326
676	0.0008554348030106801	4902
159	0.0008551219725835414	206
1074	0.0008546527269428334	8410
623	0.0008543398965156947	4114
711	0.0008532449900207094	5206
624	0.0008519936683121547	4115
701	0.0008513680074578773	5109
990	0.0008508987618171693	7419
393	0.0008505859313900307	2701
496	0.0008494910248950454	2942
1208	0.0008466755510507974	8709
232	0.000845111398915104	1001
841	0.000844642153274396	6404
529	0.0008441729076336881	3406
989	0.0008441729076336881	7418
1178	0.0008421395098572868	8536
1244	0.0008419830946437174	9018
535	0.0008407317729351628	3506
675	0.0008402625272944548	4901
606	0.0008333802578974042	4008
659	0.0008327545970431269	4601
607	0.0008313468601210028	4009
933	0.0008310340296938641	7212
569	0.0008308776144802948	3820
539	0.0008302519536260175	3603
1200	0.0008302519536260175	8701
1063	0.0008293134623446014	8310
1076	0.0008293134623446014	8412
550	0.0008261851580732148	3801
773	0.0008261851580732148	5808
910	0.0008243081755103829	7106
954	0.0008239953450832442	7305
1177	0.0008235260994425362	8535
301	0.0008230568538018281	1805
565	0.0008229004385882588	3816
412	0.0008224311929475508	2804
1174	0.0008224311929475508	8532
1306	0.0008216491168797042	9607
154	0.0008214927016661349	201
741	0.0008199285495304415	5506
604	0.0008196157191033028	4006
787	0.0008193028886761642	5911
660	0.0008191464734625948	4602
1092	0.0008186772278218869	8428
860	0.0008171130756861936	6804
1094	0.0008171130756861936	8430
694	0.0008161745844047775	5102
830	0.0008158617539776389	6303
893	0.0008155489235505002	7008
761	0.0008150796779097922	5701
698	0.0008128898649198215	5106
601	0.0008125770344926829	4003
926	0.0008121077888519749	7205
951	0.0008107000519298509	7302
769	0.0008097615606484349	5804
767	0.0008094487302212962	5802
1093	0.0008094487302212962	8429
1046	0.0008091358997941576	8208
735	0.0008085102389398803	5408
612	0.000807884578085603	4014
1064	0.000807884578085603	8311
155	0.0008075717476584642	202
786	0.0008064768411634789	5910
1197	0.0008064768411634789	8607
456	0.0008060075955227709	2901
1301	0.0008053819346684936	9602
192	0.000805069104241355	603
772	0.000804599858600647	5807
952	0.0008019407999699683	7303
738	0.000801784384756399	5503
754	0.0008014715543292603	5603
1083	0.0008010023086885522	8419
704	0.0008005330630478443	5112
1198	0.000799907402193567	8608
1140	0.000799438156552859	8479
620	0.0007992817413392896	4104
195	0.000798968910912151	702
382	0.0007988124956985817	2611
792	0.0007975611739900269	6005
312	0.000797091928349319	2006
1021	0.0007969355131357496	7907
983	0.0007967790979221803	7409
1175	0.0007967790979221803	8533
1226	0.0007967790979221803	8906
1119	0.0007945892849322096	8455
261	0.0007944328697186403	1213
1283	0.0007944328697186403	9303
519	0.000794276454505071	3303
1142	0.000793337963223655	8481
953	0.0007931815480100857	7304
961	0.0007931815480100857	7312
778	0.0007920866415151004	5902
1040	0.0007917738110879616	8202
1055	0.0007911481502336843	8302
1098	0.0007908353198065457	8434
1025	0.000790522489379407	8007
273	0.000789583998097991	1507
834	0.0007888019220301443	6307
664	0.000788645506816575	4704
533	0.0007880198459622977	3503
497	0.000786768524253743	3006
857	0.000786768524253743	6801
1043	0.0007866121090401737	8205
469	0.0007864556938266044	2914
1196	0.0007864556938266044	8606
391	0.0007852043721180497	2620
457	0.0007842658808366337	2902
671	0.0007833273895552177	4810
1081	0.0007833273895552177	8417
1116	0.0007819196526330937	8452
493	0.0007812939917788164	2939
809	0.0007809811613516777	6116
625	0.0007808247461381084	4201
757	0.0007805119157109697	5606
745	0.0007791041787888457	5510
197	0.0007786349331481377	704
1259	0.0007784785179345684	9033
977	0.0007781656875074297	7402
919	0.0007767579505853058	7115
426	0.0007751937984496124	2818
1309	0.0007750373832360431	9610
725	0.000773160400673211	5309
638	0.0007717526637510871	4405
321	0.0007701885116153937	2106
576	0.0007697192659746857	3903
684	0.0007681551138389925	4910
702	0.0007681551138389925	5110
672	0.0007672166225575765	4811
1106	0.0007661217160625911	8442
593	0.0007653396399947445	3920
1117	0.0007636190726454817	8453
1146	0.0007636190726454817	8487
400	0.0007634626574319124	2708
615	0.0007626805813640658	4017
380	0.0007625241661504965	2609
823	0.0007609600140148032	6213
1129	0.0007564239728212925	8468
987	0.0007559547271805845	7413
722	0.0007551726511127379	5306
1136	0.0007536084989770445	8475
1169	0.0007536084989770445	8526
184	0.0007529828381227672	505
542	0.0007526700076956285	3606
305	0.0007503237794920885	1904
980	0.0007493852882106725	7406
500	0.0007492288729971032	3103
900	0.0007492288729971032	7016
1150	0.0007489160425699646	8504
1089	0.0007467262295799939	8425
279	0.0007459441535121472	1513
1148	0.0007445364165900232	8502
913	0.0007443800013764539	7109
839	0.0007440671709493152	6402
453	0.0007432850948814686	2847
844	0.0007423466036000526	6501
1066	0.0007412516971050672	8402
1090	0.0007409388666779285	8426
1060	0.0007396875449693739	8307
600	0.0007390618841150966	4002
1162	0.0007385926384743885	8517
344	0.0007381233928336805	2502
1000	0.0007381233928336805	7603
1207	0.0007373413167658339	8708
568	0.0007365592406979873	3819
1097	0.0007365592406979873	8433
965	0.0007360899950572793	7316
507	0.0007348386733487246	3205
582	0.0007348386733487246	3909
290	0.0007342130124944473	1603
433	0.00073358735164017	2825
885	0.0007334309364266006	6914
873	0.0007324924451451846	6902
679	0.0007318667842909072	4905
883	0.0007318667842909072	6912
1202	0.0007288948952330899	8703
588	0.0007287384800195206	3915
253	0.0007276435735245353	1205
368	0.0007276435735245353	2526
1192	0.0007268614974566887	8602
506	0.0007262358366024113	3204
826	0.0007260794213888419	6216
892	0.000725140930107426	7007
667	0.000724671684466718	4707
603	0.0007245152692531487	4005
904	0.0007245152692531487	7020
1308	0.0007245152692531487	9609
1008	0.0007235767779717327	7611
1167	0.0007234203627581634	8523
398	0.0007231075323310246	2706
1054	0.0007229511171174553	8301
471	0.0007221690410496086	2916
1143	0.0007220126258360393	8482
495	0.00072185621062247	2941
627	0.0007215433801953313	4203
1118	0.0007201356432732073	8454
299	0.0007198228128460686	1803
356	0.0007198228128460686	2514
746	0.000719040736778222	5511
174	0.0007187279063510833	404
861	0.0007177894150696674	6805
1233	0.0007165380933611126	9005
848	0.000716225262933974	6506
884	0.000715286771652558	6913
1085	0.0007141918651575727	8421
689	0.00071247129780831	5004
1115	0.0007123148825947407	8451
730	0.0007115328065268941	5403
889	0.0007099686543912007	7004
464	0.0007088737478962154	2909
810	0.0007079352566147994	6117
1037	0.0007077788414012301	8112
1171	0.0007074660109740913	8529
300	0.0007066839349062447	1804
932	0.0007065275196926754	7211
267	0.0007062146892655367	1501
1320	0.0007057454436248287	9703
985	0.0007055890284112594	7411
969	0.0007049633675569821	7320
455	0.0007048069523434128	2852
381	0.000704494121916274	2610
555	0.0007038684610619967	3806
1311	0.0007032428002077194	9612
724	0.0006999580807227634	5308
663	0.0006994888350820554	4703
1138	0.0006988631742277781	8477
425	0.0006987067590142088	2817
768	0.0006987067590142088	5803
1139	0.0006985503438006395	8478
1100	0.0006982375133735007	8436
1287	0.0006979246829463621	9307
733	0.0006968297764513768	5406
781	0.0006955784547428221	5905
157	0.0006951092091021141	204
905	0.0006946399634614061	7101
448	0.0006933886417528515	2841
1061	0.0006919809048307274	8308
284	0.0006905731679086035	1518
472	0.0006905731679086035	2917
1006	0.0006905731679086035	7609
571	0.0006901039222678955	3823
1160	0.0006899475070543262	8515
1161	0.0006897910918407568	8516
1180	0.0006897910918407568	8538
504	0.0006896346766271875	3202
1067	0.0006893218462000488	8403
1114	0.0006879141092779248	8450
949	0.0006876012788507861	7229
1187	0.0006876012788507861	8545
633	0.0006868192027829395	4304
1050	0.0006866627875693702	8212
824	0.0006863499571422315	6214
435	0.0006858807115015235	2827
1213	0.0006850986354336768	8714
736	0.0006833780680844142	5501
227	0.0006829088224437062	906
345	0.0006822831615894288	2503
1045	0.0006822831615894288	8207
238	0.0006819703311622901	1007
756	0.0006813446703080128	5605
1122	0.0006813446703080128	8459
566	0.0006804061790265969	3817
1080	0.0006797805181723196	8416
782	0.0006785291964637648	5906
200	0.0006782163660366262	707
431	0.0006775907051823489	2823
1151	0.0006774342899687795	8505
1157	0.0006771214595416409	8512
1102	0.0006763393834737941	8438
559	0.0006760265530466555	3810
325	0.0006754008921923782	2204
1182	0.0006749316465516702	8540
1070	0.0006738367400566849	8406
478	0.0006730546639888382	2923
1032	0.0006710212662124369	8107
775	0.0006705520205717289	5810
180	0.0006697699445038822	410
591	0.0006693006988631742	3918
558	0.0006688314532224662	3809
688	0.0006683622075817582	5003
416	0.0006680493771546196	2808
163	0.0006678929619410503	210
304	0.0006675801315139116	1903
483	0.000667267301086773	2928
1189	0.0006663288098053569	8547
629	0.0006655467337375102	4206
686	0.0006653903185239409	5001
647	0.0006650774880968023	4414
1252	0.0006641389968153863	9026
777	0.0006638261663882475	5901
1023	0.0006632005055339702	8002
1026	0.0006624184294661236	8101
1024	0.0006608542773304303	8003
156	0.0006592901251947369	203
481	0.0006592901251947369	2926
1127	0.0006592901251947369	8465
1212	0.0006589772947675983	8713
1245	0.000658820879554029	9019
1255	0.000658351633913321	9029
271	0.0006580388034861823	1505
920	0.000657882388272613	7117
630	0.0006577259730590437	4301
578	0.0006566310665640583	3905
514	0.0006563182361369196	3212
409	0.0006556925752826423	2801
944	0.0006553797448555037	7224
1145	0.0006553797448555037	8486
370	0.0006549104992147957	2529
354	0.0006547540840012263	2512
1217	0.000653189931865533	8802
470	0.0006520950253705477	2915
1030	0.0006520950253705477	8105
1265	0.0006520950253705477	9106
696	0.0006519386101569783	5104
1236	0.0006514693645162704	9008
586	0.0006513129493027009	3913
825	0.000650374458021285	6215
1292	0.0006492795515262997	9405
751	0.0006491231363127303	5516
338	0.000648966721099161	2308
386	0.0006488103058855917	2615
1107	0.000647558984177037	8443
940	0.0006467769081091903	7220
1183	0.000646151247254913	8541
475	0.0006458384168277744	2920
508	0.0006455255864006357	3206
1088	0.0006444306799056503	8424
888	0.0006430229429835264	7003
1153	0.0006430229429835264	8507
162	0.000641928036488541	209
1133	0.000640989545207125	8472
486	0.000640520299566417	2932
1155	0.0006403638843528477	8509
413	0.0006398946387121397	2805
731	0.0006398946387121397	5404
785	0.0006395818082850011	5909
939	0.0006395818082850011	7219
986	0.0006395818082850011	7412
1079	0.0006395818082850011	8415
377	0.0006387997322171543	2606
1285	0.000638643317003585	9305
158	0.0006378612409357384	205
1041	0.0006373919952950304	8203
1159	0.0006366099192271837	8514
150	0.0006359842583729064	103
909	0.000635358597518629	7105
950	0.000635358597518629	7301
896	0.0006342636910236437	7011
908	0.0006341072758100744	7104
355	0.0006331687845286584	2513
1249	0.0006331687845286584	9023
394	0.0006330123693150891	2702
458	0.0006326995388879503	2903
460	0.0006314482171793957	2905
178	0.0006308225563251184	408
1058	0.0006305097258979798	8305
1247	0.0006298840650437025	9021
531	0.000629258404189425	3501
784	0.0006291019889758557	5908
536	0.0006287891585487171	3507
258	0.0006284763281215784	1210
871	0.0006284763281215784	6815
988	0.0006284763281215784	7415
776	0.0006281634976944397	5811
517	0.0006280070824808704	3215
1015	0.0006259736847044691	7804
683	0.0006258172694908997	4909
972	0.0006250351934230531	7323
252	0.0006242531173552065	1204
1125	0.0006242531173552065	8462
228	0.0006223761347923744	907
298	0.0006219068891516664	1802
440	0.0006212812282973891	2832
473	0.0006212812282973891	2918
353	0.0006198734913752651	2511
1137	0.0006198734913752651	8476
552	0.0006194042457345571	3803
1209	0.0006194042457345571	8710
703	0.0006192478305209878	5111
1284	0.0006189350000938491	9304
385	0.0006187785848802798	2614
945	0.0006183093392395718	7225
389	0.0006179965088124332	2618
942	0.0006170580175310171	7222
573	0.0006167451871038784	3825
160	0.0006165887718903091	207
580	0.0006154938653953238	3907
1185	0.0006148682045410465	8543
526	0.0006147117893274772	3403
852	0.0006133040524053531	6603
1099	0.0006125219763375065	8435
427	0.0006120527306967985	2819
564	0.0006117399002696599	3815
878	0.0006115834850560905	6907
466	0.0006108014089882438	2911
1206	0.0006101757481339665	8707
534	0.0006098629177068278	3505
1315	0.0006098629177068278	9616
1038	0.0006097065024932585	8113
581	0.0006075166895032878	3908
1033	0.0006072038590761491	8108
274	0.0006065781982218718	1508
408	0.0006054832917268865	2716
1307	0.0006045448004454705	9608
1280	0.0006040755548047625	9209
1091	0.0006021985722419306	8427
632	0.0006017293266012226	4303
1251	0.0006015729113876533	9025
462	0.0006007908353198065	2907
791	0.0006004780048926679	6004
1073	0.0005996959288248212	8409
417	0.0005990702679705439	2809
326	0.0005986010223298359	2205
976	0.0005986010223298359	7401
1010	0.0005986010223298359	7613
1190	0.0005979753614755585	8548
361	0.0005976625310484199	2519
479	0.0005968804549805732	2924
532	0.0005950034724177412	3502
572	0.0005939085659227559	3824
1059	0.0005929700746413399	8306
943	0.0005914059225056466	7223
1173	0.0005904674312242306	8531
846	0.0005895289399428146	6504
992	0.0005893725247292453	7502
198	0.000589216109515676	705
946	0.0005890596943021067	7226
1048	0.0005885904486613986	8210
1126	0.0005867134660985666	8463
1194	0.0005856185596035812	8604
1163	0.0005851493139628733	8518
1131	0.000584523653108596	8470
561	0.0005843672378950266	3812
477	0.0005842108226814573	2922
1256	0.0005837415770407493	9030
268	0.0005821774249050559	1502
727	0.0005820210096914866	5311
1124	0.0005820210096914866	8461
1305	0.0005818645944779173	9606
1181	0.00058123893362364	8539
333	0.000580769687982932	2303
941	0.0005804568575557933	7221
467	0.0005793619510608079	2912
1069	0.0005790491206336693	8405
1250	0.0005785798749929613	9024
1022	0.0005762336467894213	8001
527	0.0005759208163622826	3404
395	0.000574669494653728	2703
1170	0.000574669494653728	8527
589	0.0005743566642265894	3916
899	0.0005743566642265894	7015
1103	0.0005734181729451734	8439
719	0.0005721668512366187	5302
1071	0.0005720104360230493	8407
1087	0.0005720104360230493	8423
1184	0.00057185402080948	8542
396	0.0005706026991009254	2704
494	0.0005704462838873561	2940
1258	0.000569977038246648	9032
967	0.0005696642078195093	7318
1028	0.0005696642078195093	8103
553	0.0005693513773923707	3804
567	0.0005693513773923707	3818
890	0.000568100055683816	7005
421	0.000566692318761692	2813
410	0.000566223073120984	2802
1176	0.0005659102426938454	8534
780	0.000565753827480276	5904
1246	0.0005654409970531374	9020
485	0.0005645025057717214	2930
1072	0.0005643460905581521	8408
764	0.0005618434471410427	5704
570	0.0005616870319274734	3821
621	0.0005615306167139041	4105
450	0.0005604357102189187	2844
901	0.0005585587276560868	7017
366	0.0005584023124425174	2524
491	0.0005579330668018095	2937
1271	0.0005569945755203934	9112
793	0.0005558996690254081	6006
585	0.0005548047625304228	3912
461	0.000554491932103284	2906
275	0.0005538662712490067	1509
1132	0.0005533970256082988	8471
887	0.0005532406103947294	7002
1165	0.0005504251365504814	8521
367	0.0005491738148419268	2525
1075	0.0005480789083469414	8411
1077	0.0005479224931333721	8413
518	0.0005465147562112481	3302
515	0.0005462019257841095	3213
346	0.0005451070192891241	2504
870	0.0005441685280077081	6814
492	0.0005436992823670001	2938
874	0.0005435428671534308	6903
996	0.0005433864519398615	7507
1205	0.0005426043758720149	8706
503	0.0005424479606584455	3201
1317	0.0005422915454448762	9618
1084	0.0005421351302313069	8420
691	0.0005410402237363215	5006
397	0.0005408838085227521	2705
373	0.0005402581476684748	2602
783	0.0005402581476684748	5907
856	0.0005402581476684748	6704
1276	0.0005401017324549055	9205
1279	0.0005396324868141975	9208
1210	0.0005393196563870589	8711
1111	0.0005385375803192121	8447
1229	0.0005385375803192121	9001
1144	0.0005379119194649348	8483
1164	0.0005368170129699495	8519
272	0.0005366605977563802	1506
233	0.0005329066326307162	1002
997	0.0005327502174171469	7508
984	0.0005308732348543149	7410
1191	0.0005299347435728989	8601
847	0.0005264936088743736	6505
1052	0.0005260243632336655	8214
1242	0.0005260243632336655	9016
626	0.0005258679480200962	4202
1263	0.0005244602110979722	9104
1042	0.0005235217198165563	8204
235	0.000523365304602987	1004
682	0.0005232088893894175	4908
476	0.0005228960589622789	2921
1253	0.0005228960589622789	9027
1130	0.0005221139828944322	8469
677	0.0005214883220401549	4903
501	0.0005211754916130163	3104
1248	0.0005207062459723083	9022
489	0.0005192985090501842	2935
687	0.0005189856786230456	5002
938	0.0005189856786230456	7218
1166	0.0005189856786230456	8522
352	0.0005171086960602135	2510
437	0.0005161702047787976	2829
1257	0.0005161702047787976	9031
465	0.000515388128710951	2910
1275	0.0005141368070023963	9202
911	0.0005136675613616882	7107
855	0.0005133547309345496	6703
1121	0.0005122598244395643	8458
509	0.0005117905787988563	3207
488	0.000511634163585287	2934
384	0.0005113213331581483	2613
562	0.0005094443505953163	3813
420	0.000508818689741039	2812
1112	0.000508818689741039	8448
424	0.000508349444100331	2816
894	0.000508349444100331	7009
915	0.000508349444100331	7111
1240	0.0005081930288867617	9014
726	0.000506472461537499	5310
330	0.0005053775550425137	2209
480	0.000505064724615375	2925
449	0.0005038134029068203	2843
1193	0.0005024056659846964	8603
1270	0.0005019364203439884	9111
1297	0.0005019364203439884	9506
490	0.000501780005130419	2936
309	0.0004992773617133097	2003
428	0.000498964531286171	2820
880	0.0004988081160726017	6909
1019	0.0004986517008590324	7904
592	0.0004984952856454631	3919
1105	0.0004977132095776163	8441
1260	0.000496618303082631	9101
1294	0.0004963054726554924	9503
1029	0.0004959926422283537	8104
1214	0.0004958362270147844	8715
598	0.0004956798118012151	3926
583	0.000494741320519799	3910
226	0.000494272074879091	905
1266	0.000494272074879091	9107
1218	0.0004941156596655217	8803
662	0.0004936464140248137	4702
979	0.0004933335835976751	7405
993	0.0004931771683841057	7504
1134	0.0004916130162484123	8473
474	0.000491456601034843	2919
1020	0.000490987355394135	7905
766	0.0004908309401805657	5801
718	0.0004892667880448724	5301
1234	0.0004889539576177337	9006
1238	0.0004884847119770257	9011
584	0.0004873898054820404	3911
1128	0.00048613848377348573	8467
1123	0.0004853564077056391	8460
349	0.00048410508599708443	2507
429	0.00048363584035637645	2821
1243	0.00048363584035637645	9017
1113	0.00048269734907496043	8449
845	0.0004820716882206831	6502
249	0.0004811331969392671	1201
548	0.0004811331969392671	3706
877	0.0004809767817256978	6906
1154	0.0004809767817256978	8508
1168	0.0004806639512985591	8525
700	0.0004805075360849898	5108
262	0.00047894338394929647	1214
995	0.00047847413830858843	7506
244	0.0004781613078814498	1105
1049	0.0004776920622407418	8211
579	0.0004767535709593258	3906
1104	0.00047612791010504847	8440
190	0.00047518941882363245	601
605	0.0004729996058336618	4007
1086	0.00047174828412510715	8422
463	0.00047127903848439916	2908
1237	0.0004695584711351365	9010
438	0.0004690892254944285	2830
649	0.0004690892254944285	4416
276	0.0004665865820773192	1510
1282	0.00046643016686374986	9302
1230	0.00046611733643661115	9002
1272	0.00046564809079590317	9113
739	0.0004643967690873485	5504
1027	0.0004625197865245165	8102
1220	0.0004615812952431005	8805
482	0.0004611120496023925	2927
445	0.0004600171431074072	2837
484	0.0004597043126802685	2929
1296	0.0004589222366124219	9505
556	0.0004582965757581445	3807
451	0.0004581401605445752	2845
1268	0.00045641959319531254	9109
968	0.00045501185627318854	7319
439	0.0004540733649917726	2831
487	0.00045250921285607925	2933
1261	0.00045016298465253924	9102
1304	0.0004492244933711233	9605
1323	0.0004492244933711233	970
1269	0.0004485988325168459	9110
851	0.0004478167564489993	6602
850	0.00044734751080829124	6601
1231	0.0004457833586725979	9003
737	0.0004456269434590286	5502
622	0.00044547052824545926	4106
1312	0.00044109090226551793	9613
902	0.0004403088261976713	7018
1108	0.000438744674061978	8444
994	0.0004381190132077006	7505
1318	0.0004379625979941313	9701
705	0.0004356163697905913	5113
181	0.0004346778785091753	501
924	0.0004346778785091753	7203
678	0.00043373938722775934	4904
720	0.000432644480732774	5303
560	0.00043123674381065	3811
1314	0.00042873410039354065	9615
657	0.0004268571178307087	4503
369	0.00042529296569501535	2528
530	0.00042529296569501535	3407
442	0.000425136550481446	2834
334	0.00042466730484073804	2304
543	0.000423728813559322	3701
922	0.000422321076637198	7201
547	0.0004196620180065194	3705
224	0.0004188799419386727	903
1273	0.0004188799419386727	9114
376	0.0004173157898029794	2605
1044	0.0004160644680944247	8206
690	0.00041575163766728606	5005
1036	0.00041215408775519143	8111
732	0.00041152842690091407	5405
1120	0.00041152842690091407	8457
1316	0.00041152842690091407	9617
1274	0.00041137201168734474	9201
452	0.0004112155964737754	2846
1278	0.0004112155964737754	9207
1053	0.0004110591812602061	8215
665	0.0004101206899787901	4705
1047	0.0004090257834838048	8209
898	0.0004068359704938341	7014
447	0.00040558464878527947	2840
1110	0.00040558464878527947	8446
335	0.00040402049664958615	2305
269	0.0004035512510088781	1503
670	0.00040183068365961546	4807
418	0.0003966689816118275	2810
1065	0.0003960433207575502	8401
375	0.0003957304903304115	2604
661	0.0003938535077675795	4701
1158	0.0003936970925540102	8513
613	0.0003904123730690542	4015
182	0.00039009954264191554	502
654	0.0003885353905062222	4421
587	0.0003871276535840982	3914
1262	0.0003866584079433902	9103
991	0.00038509425580769685	7501
723	0.0003849378405941275	5307
742	0.00038462501016698887	5507
545	0.0003841557645262809	3703
430	0.00038321727324486487	2822
1295	0.00038024538418704755	9504
1051	0.00037774274076993826	8213
251	0.00037696066470209157	1203
549	0.00037351953000356626	3707
248	0.0003655423541115303	1109
914	0.0003655423541115303	7110
859	0.00036382178676226765	6803
1195	0.00036335254112155967	8605
692	0.0003627268802672823	5007
468	0.00036038065206374235	2913
1267	0.00035944216078232633	9108
1109	0.0003591293303551877	8445
544	0.0003572523477923557	3702
1319	0.0003525598913852757	9702
1031	0.0003434878089982544	8106
540	0.0003425493177168384	3604
1310	0.00034020308951329843	9611
658	0.0003156459009829132	4504
1239	0.0003123611814979572	9013
656	0.00030719947945016926	4502
1232	0.00028952456031683464	9004
1264	0.00028905531467612666	9105
853	0.00028342436698763066	6701
383	0.0002829551213469227	2612
1035	0.00028217304527907604	8110
854	0.0002721624716106387	6702
1034	0.00026637510870857346	8109
655	0.0002562081198265668	4501
