67	0.019535959586770447	Italy
50	0.018703961855733548	Germany
30	0.017908085589141084	China
141	0.017732294462178153	USA
46	0.01764587051391479	France
61	0.01744171734820289	India
123	0.017415228274276967	Spain
13	0.016368240938194837	Belgium
94	0.015788290759059128	Netherlands
8	0.015268543020664153	Austria
107	0.015222922948902843	Poland
36	0.014562970415182787	CzechRepublic
139	0.014537150257265097	UnitedKingdom
134	0.013677191837084168	Turkey
108	0.013250690990236501	Portugal
52	0.012804925362351801	Greece
21	0.012154070086343678	Bulgaria
127	0.01200637343172642	Switzerland
131	0.011822956662269658	Thailand
69	0.011631111551109196	Japan
119	0.011510706669627734	Slovenia
38	0.011494251335825269	Denmark
62	0.011460404185808813	Indonesia
115	0.011262806396977569	Serbia
77	0.010863998672870639	Lebanon
34	0.01081396375545501	Croatia
43	0.010776370675792464	Estonia
19	0.010714964186236919	Brazil
26	0.01052913931915053	Canada
126	0.010499707014788395	Sweden
66	0.010447665349348075	Israel
110	0.010434554595586759	Romania
118	0.010161101731422196	Slovakia
121	0.009995611910986009	SouthAfrica
80	0.00984858417237698	Lithuania
40	0.009798281688558058	Egypt
137	0.009586770446755623	Ukraine
72	0.009577940755446983	Kenya
76	0.009503423512130123	Latvia
59	0.009281075830994356	Hungary
122	0.009264486713990244	SouthKorea
144	0.009189300554665153	Vietnam
88	0.008958792098228977	Mexico
102	0.008947688092492355	Pakistan
54	0.008934577338731039	Guatemala
95	0.008897118042270141	NewZealand
133	0.008840929097578791	Tunisia
45	0.008797315773842173	Finland
35	0.008402387762582978	Cyprus
18	0.008031273161216785	BosniaHerzegovina
7	0.00794431408014684	Australia
12	0.007867522522401997	Belarus
81	0.00785922796389994	Macedonia
140	0.007734274453562513	Uruguay
93	0.00769012599701931	Nepal
91	0.007609053376821793	Morocco
103	0.007561158990632501	Panama
70	0.007404231295101662	Jordan
105	0.0073834948988465215	Peru
31	0.0073330586318259535	Colombia
1	0.007279277784764234	Albania
41	0.00727125079266547	ElSalvador
84	0.007009972199850698	Malaysia
106	0.00694254546622108	Philippines
116	0.0067284923435873695	SierraLeone
114	0.0065683538512170256	Senegal
74	0.006547483671760239	Kyrgyzstan
117	0.006509221676089464	Singapore
130	0.006500258201579177	Tanzania
111	0.006335571080352867	Russia
82	0.006287676694163574	Madagascar
29	0.006154963758130674	Chile
132	0.00600740088671506	Togo
147	0.0059158931767891495	Zimbabwe
58	0.0058498042751759915	Honduras
100	0.005728596694484654	Norway
33	0.005678829343472316	CostaRica
138	0.005525781360789214	UnitedArabEmirates
63	0.0051173412461637665	Iran
136	0.004957737886600007	Uganda
11	0.004917870492509479	Bangladesh
96	0.0048050912535218425	Nicaragua
17	0.004734721289456011	Bolivia
142	0.004716392990830499	Uzbekistan
65	0.004715188942015685	Ireland
48	0.004595854326147392	Gambia
49	0.004583546271595953	Georgia
51	0.004534849186196784	Ghana
104	0.004512774957925183	Paraguay
75	0.004486954800007492	Laos
68	0.004348890535908749	IvoryCoast
71	0.004320662280361429	Kazakhstan
0	0.004226077556797658	Afghanistan
89	0.00410553889211455	Mongolia
6	0.004064199882805915	Armenia
39	0.004027677068756539	Ecuador
44	0.003978177284147493	Ethiopia
42	0.00397215704007342	Eritrea
86	0.0038628561643285824	Malta
10	0.003852421074600189	Bahrain
24	0.00378499434097057	Cambodia
16	0.0037019149727483616	Bhutan
92	0.003700577140731901	Mozambique
22	0.0036544219361640076	BurkinaFaso
146	0.0036116113116372657	Zambia
97	0.003528264377011765	Niger
60	0.0035019090862874894	Iceland
101	0.003360901591752533	Oman
9	0.0033436435587401903	Azerbaijan
83	0.003333476035415089	Malawi
25	0.0033305328049788754	Cameroon
129	0.003325449043316325	Tajikistan
112	0.003289728928476825	Rwanda
15	0.0032693938818266224	Benin
143	0.0031768159062875428	Venezuela
57	0.0031579524748554474	Guyana
85	0.0030506583471353005	Mali
14	0.0030380827261805698	Belize
125	0.0028535956911106414	Suriname
37	0.00280396212329995	DemocraticRepublicCongo
145	0.0027655663444275283	Yemen
113	0.0027247624679254774	SaudiArabia
55	0.002581480658962538	Guinea
23	0.0025048228844193406	Burundi
27	0.0024023449519584524	CentralAfricanRepublic
32	0.0023495005873082554	Congo
124	0.002280067105653946	Sudan
135	0.002216252518468771	Turkmenistan
109	0.0021116340547815454	Qatar
98	0.0020413978739173594	Nigeria
73	0.002034842497036702	Kuwait
87	0.0018986511977610043	Mauritania
56	0.001872831039843313	Guinea-Bissau
78	0.0017850692595634922	Liberia
2	0.001784935476361846	Algeria
47	0.0017579112696293404	Gabon
79	0.0016792467470614519	Libya
20	0.0016334928920984965	Brunei
64	0.001331945555588258	Iraq
28	0.0013215104658598647	Chad
4	0.001154147680600633	Angola
