401	0.010905914772960865	2709
402	0.008092154988781896	2710
153	0.006893192349384999	106
618	0.006200552524659631	4102
169	0.006097414349518538	306
403	0.005996424264805609	2711
925	0.005891883863968355	7204
706	0.0058291715573017145	5201
616	0.005426702947913998	4100
332	0.0052414599830742405	2302
255	0.005187578714834492	1207
263	0.004994906937264005	1301
912	0.004966414904501568	7108
640	0.004838215674365244	4407
293	0.004753425771631375	1701
166	0.00455436939195496	303
259	0.004539869781564861	1211
260	0.004480081264647664	1212
222	0.0042432542949427205	901
836	0.00422645742117806	6309
636	0.004109177650718229	4403
168	0.0038983962774547585	305
641	0.003827031939896907	4408
206	0.0038217512175943405	713
619	0.0037883066430114175	4103
599	0.0037337690138075077	4001
422	0.003676337429443434	2814
165	0.0036465326747526757	302
499	0.00360309351276094	3102
211	0.0035965895722978917	804
223	0.003549301748289031	902
170	0.0033672809190915176	307
151	0.003301286807604073	104
250	0.003214020633959961	1202
208	0.0031900634587680903	801
167	0.0031891385865004092	304
340	0.003185797112501045	2401
999	0.003184305383037043	7602
617	0.003126635121958729	4101
907	0.003116401857835676	7103
266	0.003113149887604152	1404
297	0.0030137708707123445	1801
459	0.0030022248846609694	2904
231	0.0029742698745055737	910
186	0.0029737328518985333	507
164	0.002952013270902665	301
797	0.002853648630046379	6104
240	0.0028413866138522832	1101
1322	0.0028350318463356353	9705
707	0.002795351842593184	5202
201	0.0027891760826122165	708
795	0.0027713051636334735	6102
341	0.0027316251598910224	2402
978	0.0027283135204809383	7403
802	0.002712590691930358	6109
708	0.0027088613682703534	5203
796	0.0026732388686699876	6103
405	0.002662259739814934	2713
358	0.002639853963265625	2516
721	0.002629083676535531	5305
645	0.0026027397342012573	4412
798	0.0025703393702431357	6105
807	0.002566699550350971	6114
365	0.002513474643075383	2523
399	0.0025090889584512173	2707
372	0.0024515678703193036	2601
642	0.0023865583002781	4409
906	0.0023619149295327885	7102
380	0.002318356429183933	2609
342	0.002317222714791291	2403
813	0.002303021450293993	6203
291	0.0022982180814199067	1604
281	0.002281003523405325	1515
635	0.00227742337269172	4402
794	0.0022668619280865865	6101
639	0.002248364482732963	4406
382	0.0022481854751972828	2611
287	0.0022431434296089564	1522
210	0.002232313473700302	803
245	0.0022294195185401386	1106
837	0.002208356298508432	6310
295	0.0022060292005445887	1703
374	0.002201703185098983	2603
637	0.002190395875761849	4404
574	0.0021281012533451286	3901
187	0.0021238945762566434	508
241	0.002118046996757756	1102
799	0.0021153022145439923	6106
345	0.0021086491011345436	2503
423	0.00207451833099818	2815
207	0.0020584673219655194	714
713	0.002055782208930316	5208
456	0.002055066178787595	2901
239	0.0020521125544488714	1008
1225	0.00204337101978982	8905
196	0.00202776752959636	703
498	0.0020198315288478697	3101
832	0.0020024976324761676	6305
464	0.0019982909553876824	2909
323	0.0019935174211028763	2202
1221	0.001987102984407668	8901
188	0.001984179194658224	510
282	0.0019681281856255635	1516
283	0.0019584916132881114	1517
392	0.0019420527545948101	2621
803	0.0019383532655240854	6110
998	0.0019324460168466378	7601
242	0.0019203033390096623	1103
710	0.0019140082406715743	5205
386	0.0019038346457270813	2615
298	0.0018930643589969874	1802
714	0.001886560418533939	5209
308	0.00187940011710673	2002
202	0.0018546672425935782	709
286	0.0018454483545060462	1521
336	0.0018213420063677753	2306
1199	0.0018165983066722492	8609
261	0.0018115860956732029	1213
362	0.0018082744562631186	2520
717	0.0017977130116579852	5212
388	0.0017958334325333426	2617
377	0.0017739050094125145	2606
575	0.0017719955956985922	3902
801	0.0017706530391809903	6108
541	0.0017417433221686334	3605
225	0.0017361045847947062	904
331	0.0017347918628663843	2301
264	0.0017284669299390163	1302
681	0.0017279000727426956	4907
313	0.0017277508997962953	2007
748	0.001718890026780124	5513
923	0.001702540671854663	7202
927	0.001690875347446168	7206
962	0.001690726174499768	7313
172	0.0016883095727680847	402
566	0.00168446091075096	3817
192	0.0016830288504655181	603
563	0.0016826708353941575	3814
1222	0.001674287315806467	8902
833	0.0016727060825746248	6306
371	0.0016577589533453257	2530
524	0.0016570727577918847	3401
217	0.001656535735184844	810
406	0.0016563268930598837	2714
1217	0.00165340310331044	8802
653	0.0016506284865073966	4420
928	0.0016469588320259518	7207
759	0.0016459742905797106	5608
917	0.0016435875234373076	7113
292	0.0016358901994030575	1605
693	0.0016241353712267226	5101
761	0.0016134545882644689	5701
1204	0.001611306497836306	8705
1277	0.0016059362717658991	9206
646	0.0015954941655178859	4413
236	0.001583918344877231	1005
315	0.0015742221033612186	2009
348	0.0015726408701293765	2506
1223	0.0015670021327554493	8903
709	0.0015481765069197452	5204
400	0.0015307829413694829	2708
895	0.0015281873321021195	7010
538	0.0015170291957113853	3602
821	0.0015120468193016187	6211
214	0.0015104357514804968	807
237	0.0014945339153942363	1006
610	0.001492803509215994	4012
831	0.0014924454941446336	6304
393	0.0014878211328062277	2701
935	0.0014877017944491075	7214
918	0.0014760066354513326	7114
426	0.0014746044097551708	2818
329	0.0014586130699010703	2208
650	0.0014583147240082698	4417
820	0.0014403543012616868	6210
815	0.0014359984512268013	6205
811	0.0014325973080488769	6201
191	0.0014290171573352723	602
1260	0.0014274060895141502	9101
277	0.0014237364350327055	1511
1228	0.0014179783593016582	8908
149	0.00141162359178501	102
238	0.0014056268393397224	1007
909	0.0014027627187688386	7105
278	0.0013907095446997033	1512
204	0.001389008973110741	711
701	0.001382684040183373	5109
185	0.0013825945364155329	506
414	0.0013802077692731298	2806
977	0.0013785370322734476	7402
814	0.0013784773630948876	6204
936	0.001371764580506879	7215
921	0.001367170053757753	7118
270	0.001359413060544943	1504
444	0.0013583986845094218	2836
688	0.001343690231994363	5003
230	0.0013416913145126003	909
209	0.0013333972986927498	802
712	0.0013261773280869805	5207
193	0.0013259983205513002	604
891	0.0013246259294444184	7006
1235	0.001319583883856092	9007
863	0.0013117970560540021	6807
219	0.001306307491626475	812
441	0.0013023693258415099	2833
311	0.0012990576864314258	2005
1018	0.0012988786788957454	7903
324	0.0012872431890765305	2203
412	0.0012861989784517293	2804
694	0.0012833050232915655	5102
829	0.0012795458650422806	6302
611	0.0012775469475605182	4013
1093	0.0012764729023464368	8429
1057	0.0012694916084549077	8304
390	0.0012689844204371472	2619
493	0.001264956750884342	2939
695	0.0012637932019024204	5103
189	0.0012593478480996947	511
381	0.0012586914871355339	2610
960	0.0012552903439576096	7311
595	0.0012552306747790495	3923
1030	0.0012535002686008072	8105
316	0.001243863696263355	2101
1017	0.0012418349441923123	7901
319	0.0012390901619785488	2104
765	0.001238433801014388	5705
194	0.0012370912444967862	701
299	0.001236076868461265	1803
343	0.0012317806876049394	2501
929	0.0012293044166946962	7208
373	0.0012250679050169308	2602
411	0.0012238446868564493	2803
328	0.0012219352731425268	2207
556	0.0012210999046426856	3807
687	0.001218951814214523	5002
1009	0.0012147749717153176	7612
387	0.0012144169566439573	2616
203	0.0012091959035199504	710
758	0.0012089870613949901	5607
226	0.001207942850770189	905
752	0.0012067494671989874	5601
279	0.0012055262490385057	1513
806	0.001195680834576093	6113
1304	0.0011899227588450458	9605
303	0.0011889083828095246	1902
436	0.001186253104363601	2828
1293	0.0011854475704530401	9406
314	0.0011851492245602397	2008
958	0.0011840453447568783	7309
924	0.0011755723214013473	7203
179	0.0011746474491336663	409
502	0.0011733645617946246	3105
212	0.0011672783055814966	805
322	0.0011662042603674155	2201
979	0.0011653092226890142	7405
216	0.001165219718921174	809
919	0.001165219718921174	7115
220	0.001164384350421333	813
905	0.0011618782449218097	7101
817	0.001151913492102277	6207
819	0.0011478858225494719	6209
1001	0.0011384879269262598	7604
407	0.0011382790848012995	2715
913	0.0011381895810334594	7109
379	0.0011374138817121784	2608
1224	0.0011357729793017763	8904
199	0.0011329088587308926	706
1094	0.0011323420015345719	8430
651	0.0011258082264822436	4418
157	0.001122108737411519	204
300	0.0011219893990543986	1804
1227	0.0011219893990543986	8907
818	0.0011190357747156749	6208
976	0.0011127406763775868	7401
265	0.001112143984591986	1401
762	0.001112143984591986	5702
1216	0.001105968224611018	8801
660	0.0011044466605577361	4602
376	0.0011006576677191713	2605
842	0.0010970178478270066	6405
243	0.0010944520731489234	1104
1320	0.0010875304484359546	9703
934	0.001087142598775314	7213
1321	0.001085650869311312	9704
952	0.0010788784175447435	7303
256	0.001075477274366819	1208
916	0.0010650948372973657	7112
350	0.0010620815437800818	2508
155	0.0010607389872624802	202
301	0.0010561742951026342	1805
1208	0.0010502372118359068	8709
1152	0.0010494913471039058	8506
458	0.0010483576327112642	2903
1116	0.001047522264211423	8452
822	0.0010473134220864628	6212
800	0.0010459410309795812	6107
363	0.00104507582789046	2521
1002	0.0010407796470341345	7605
454	0.0010331718267677249	2849
355	0.001031053570928842	2513
1011	0.0010259518561619556	7614
1095	0.0010206114646808286	8431
496	0.0010143163663427406	2942
600	0.0010074842453976119	4002
749	0.0010055449970944094	5514
318	0.0010054853279158492	2103
317	0.0010048289669516884	2102
554	0.0010013979891844841	3805
415	0.0010009504703452834	2807
1135	0.0009952818983820762	8474
307	0.0009949238833107158	2001
357	0.000988121596954867	2515
550	0.0009862420178302245	3801
657	0.0009847801229555028	4503
175	0.0009782761824924545	405
816	0.0009763667687785319	6206
296	0.0009736518211540485	1704
1203	0.0009709070389402849	8704
828	0.0009691169635834827	6301
804	0.0009680130837801212	6111
205	0.0009645522714236367	712
738	0.0009644926022450767	5503
1276	0.0009635677299773955	9205
867	0.0009626130231204344	6811
184	0.0009576008121213879	505
805	0.000946770856212734	6112
183	0.0009458161493557728	504
872	0.000942086825695768	6901
352	0.0009378503140180025	2510
229	0.0009355232160541595	908
347	0.0009330469451439163	2505
327	0.0009316447194477545	2206
285	0.0009183981618074176	1520
881	0.0009125804168978102	6910
1313	0.000907806882613004	9614
812	0.0009031825212745981	6202
950	0.0009012432729713956	7301
434	0.0008990056787753927	2826
767	0.0008967084154008298	5802
779	0.0008945901595619471	5903
674	0.0008943216482584268	4824
625	0.0008823878125464114	4201
1012	0.0008823281433678514	7615
835	0.0008822983087785713	6308
215	0.0008806574063681692	808
228	0.0008795833611540878	907
631	0.0008780021279222458	4302
1241	0.0008776739474401654	9015
981	0.0008774949399044851	7407
792	0.0008752871802977624	6005
304	0.0008732584282267197	1903
659	0.0008686639014775938	4601
955	0.0008686340668883138	7306
755	0.0008655014350139097	5604
385	0.0008619809534788652	2614
378	0.0008545521407481358	2607
621	0.0008538957797839749	4105
398	0.0008536869376590147	2706
770	0.000853209584230534	5805
838	0.0008513598396951717	6401
443	0.000847749854392287	2835
886	0.0008443487112143627	7001
790	0.00084223045537548	6003
733	0.0008416337635898792	5406
195	0.0008413950868756388	702
273	0.0008365917180015527	1507
1301	0.0008361441991623521	9602
887	0.0008330414018772282	7002
972	0.0008320866950202669	7323
966	0.0008277606795746614	7317
421	0.0008264777922356197	2813
948	0.0008195263329333709	7228
418	0.0008166323777732071	2810
368	0.0008163937010589668	2526
1129	0.0008161550243447265	8468
697	0.0008104267832029591	5105
310	0.0008091140612746375	2004
173	0.0008080400160605561	403
409	0.0008070554746143149	2801
431	0.000802520617043749	2823
364	0.0008018344214903081	2522
614	0.000797060887205502	4016
359	0.00079550948856294	2517
689	0.0007950023005451794	5004
1300	0.0007924066912778161	9601
360	0.0007913028114744546	2518
432	0.0007910044655816543	2824
410	0.0007886475330285312	2802
982	0.0007881403450107706	7408
246	0.0007844706905293259	1107
448	0.0007764153514237156	2841
903	0.0007762363438880354	7019
1070	0.0007726561931744307	8406
1244	0.0007722981781030703	9018
750	0.0007722683435137902	5515
321	0.000769702568835707	2106
1074	0.0007680019972467447	8410
937	0.0007654063879793814	7217
213	0.0007651378766758611	806
520	0.0007602748386232148	3304
1196	0.0007595588084804939	8606
1167	0.0007593798009448137	8523
1022	0.0007568736954452905	8001
148	0.0007562770036596897	101
668	0.000755710146463369	4800
221	0.000754904612552808	814
503	0.0007547256050171277	3201
716	0.0007540394094636869	5211
1263	0.0007518913190355241	9104
808	0.0007512349580713633	6115
159	0.0007491465368217606	206
519	0.000746342085429437	3303
983	0.0007421354083409515	7409
675	0.0007391817840022278	4901
1003	0.0007386745959844671	7606
1215	0.0007381077387881464	8716
680	0.000733901061699661	4906
289	0.0007308579335930972	1602
274	0.0007288291815220545	1508
1023	0.0007264722489689316	8002
523	0.0007219075568090856	3307
841	0.0007200279776844432	6404
711	0.0007180290602026806	5206
1008	0.00071752187218492	7611
686	0.0007128676762572341	5001
827	0.0007122709844716333	6217
354	0.0007110477663111517	2512
366	0.0007110179317218717	2524
351	0.000708183645740268	2509
152	0.0007077062923117874	105
596	0.0007028134196698612	3924
930	0.0007026045775449009	7209
404	0.000701083013491619	2712
232	0.0007007548330095386	1001
747	0.0006974133590101743	5512
249	0.0006973536898316142	1201
843	0.0006855988616552791	6406
594	0.0006844054780840776	3922
1247	0.0006827944102629555	9021
876	0.0006820783801202346	6905
257	0.0006816010266917539	1209
1014	0.0006811535078525534	7801
1007	0.0006791545903707908	7610
337	0.0006789755828351106	2307
858	0.0006775435225496688	6802
1186	0.0006774838533711087	8544
306	0.0006752462591751059	1905
557	0.000674589898210945	3808
868	0.0006745302290323849	6812
457	0.0006728594920327028	2902
1177	0.000672262800247102	8535
899	0.000669905867693979	7015
227	0.0006666837320517348	906
1200	0.0006662063786232542	8701
559	0.0006660572056768541	3810
987	0.0006633124234630905	7413
1219	0.0006621787090704491	8804
569	0.0006619101977669287	3820
740	0.0006608958217314074	5505
915	0.0006606571450171672	7111
1197	0.0006563609641608416	8607
435	0.0006551974151789202	2827
769	0.0006530493247507574	5804
1043	0.0006526614750901169	8205
877	0.0006517962720009958	6906
1286	0.0006512592493939551	9306
1050	0.0006500957004120335	8212
715	0.0006496780161621131	5210
244	0.0006436812637168254	1105
1236	0.0006436812637168254	9008
471	0.000640280120538901	2916
176	0.0006396834287533003	406
1254	0.0006384005414142586	9028
862	0.0006382215338785784	6806
879	0.0006372071578430571	6908
218	0.0006336866763080126	811
247	0.0006334479995937722	1108
954	0.0006315982550584099	7305
1298	0.0006303153677193682	9507
505	0.0006284656231840058	3203
1111	0.0006275109163270446	8447
990	0.0006273915779699245	7419
419	0.0006267948861843237	2811
1281	0.0006263473673451232	9301
1172	0.0006257506755595224	8530
437	0.0006253628258988819	2829
1016	0.0006239904347920001	7806
857	0.0006236622543099197	6801
1302	0.0006224390361494381	9603
840	0.0006221406902566377	6403
1124	0.0006206787953819159	8461
539	0.000619246735096474	3603
177	0.0006177550056324721	407
275	0.0006172179830254314	1509
1179	0.0006164721182934305	8537
760	0.0006144433662223879	5609
910	0.0006118775915443046	7106
959	0.0006117582531871844	7310
791	0.0006097295011161418	6004
1120	0.0006086554559020604	8457
290	0.0006062985233489374	1603
1279	0.0006040012599743744	9208
430	0.000603613410313734	2822
408	0.0006022708537961322	2716
696	0.0006022708537961322	5104
601	0.0005992873948681284	4003
158	0.000596602281832925	205
546	0.0005954088982617234	3704
461	0.0005932309732442807	2906
875	0.0005930818002978805	6904
1148	0.0005912320557625181	8502
356	0.0005894419804057158	2514
254	0.0005892033036914755	1206
782	0.0005877115742274736	5906
849	0.0005875922358703535	6507
510	0.0005870253786740327	3208
810	0.0005836540700853884	6117
644	0.0005833855587818681	4411
965	0.0005821026714428264	7316
536	0.0005818938293178661	3507
1149	0.0005814463104786656	8503
1269	0.000580998791639465	9110
433	0.0005790297087469824	2825
446	0.0005784628515506618	2839
737	0.0005782540094257015	5502
338	0.0005773888063365804	2308
1039	0.0005768816183188197	8201
570	0.0005766429416045794	3821
1205	0.0005764340994796191	8706
507	0.0005761954227653789	3205
1151	0.0005758672422832984	8505
450	0.0005746440241228168	2844
789	0.0005740771669264962	6002
604	0.0005715113922484128	4006
612	0.0005711533771770523	4014
654	0.000567722399409848	4421
320	0.0005673047151599274	2105
302	0.0005672450459813673	1806
1226	0.0005653654668567249	8906
940	0.0005644405945890437	7220
931	0.0005641124141069633	7210
171	0.000563008534303602	401
397	0.0005614571356610399	2705
1188	0.0005600847445541582	8546
511	0.0005587123534472764	3209
522	0.0005577874811795952	3306
551	0.0005573996315189547	3802
623	0.0005571907893939944	4114
1323	0.0005551322027336718	970
1201	0.0005537896462160701	8702
1230	0.0005532227890197494	9002
774	0.0005530736160733492	5809
1096	0.0005527454355912688	8432
630	0.0005524470896984683	4301
353	0.0005523277513413482	2511
1037	0.0005517907287343075	8112
638	0.0005516415557879073	4405
512	0.0005510448640023065	3210
1194	0.0005509255256451864	8604
702	0.0005477332245922223	5110
634	0.0005453464574498193	4401
262	0.0005450481115570188	1214
1025	0.0005446304273070984	8007
590	0.0005434967129144569	3917
889	0.0005409906074149337	7004
1062	0.0005396182163080519	8309
970	0.0005387828478082108	7321
150	0.0005364259152550879	103
727	0.0005354712083981266	5311
1075	0.0005351430279160462	8411
643	0.0005346358398982856	4410
568	0.0005344866669518854	3819
947	0.0005342778248269251	7227
764	0.0005341883210590849	5704
989	0.0005335319600949241	7418
897	0.0005328457645414833	7013
823	0.0005323087419344426	6213
1308	0.0005315628772024416	9609
980	0.0005314137042560414	7406
542	0.0005278932227209969	3606
224	0.0005265805007926752	903
346	0.0005264909970248351	2504
197	0.0005263119894891549	704
1130	0.0005255064555785939	8469
1083	0.0005254467864000338	8419
1184	0.0005236865456325115	8542
1218	0.0005229406809005105	8803
294	0.0005223439891149098	1702
1010	0.0005189726805262655	7613
757	0.0005180179736693042	5606
467	0.0005176599585979437	2912
809	0.0005168842592766628	6116
416	0.0005144079883664196	2808
1178	0.0005143483191878595	8536
724	0.0005125582438310572	5308
992	0.0005097836270280137	7502
602	0.0005093957773673732	4004
951	0.0005074565290641707	7302
784	0.0005069791756356901	5908
839	0.0005066808297428897	6402
252	0.000506113972546569	1204
1006	0.0005060841379572889	7609
844	0.0005052786040467278	6501
1299	0.0005052189348681678	9508
521	0.0005042940626004866	3305
1004	0.0005042940626004866	7607
622	0.0005040255512969663	4106
573	0.0005019967992259237	3825
445	0.0005009525886011223	2837
744	0.0005005050697619218	5509
1005	0.0004976707837803182	7608
1033	0.0004972530995303976	8108
1084	0.0004967160769233569	8420
953	0.0004957613700663957	7304
586	0.00049131601626367	3913
1058	0.0004903314748174287	8305
754	0.0004895856100854278	5603
720	0.0004895259409068677	5303
729	0.0004886010686391865	5402
384	0.0004875568580143852	2613
154	0.0004870198354073445	201
572	0.0004844838953185412	3824
335	0.00048433472237214106	2305
473	0.0004838573689436604	2918
529	0.00048257448160461875	3406
933	0.0004825148124260587	7212
1028	0.0004825148124260587	8103
391	0.0004793225113730946	2620
413	0.0004792330076052545	2805
846	0.00047639872162365086	6504
1106	0.0004756528568916499	8442
469	0.00047544401476668966	2914
788	0.00047392245071340767	6001
773	0.000471834029463805	5808
743	0.00047153568357100463	5508
501	0.0004712970068567643	3104
190	0.00047028263082124304	601
1183	0.00046801520203596013	8541
848	0.0004662251266791578	6506
370	0.0004661356229113177	2529
1082	0.00046595661537563745	8418
944	0.000465598600304277	7224
825	0.0004654195927685968	6215
628	0.0004633610061082741	4205
1315	0.00046312232939403386	9616
198	0.00046222729171563267	705
451	0.00046166043451931194	2845
1174	0.00046160076534075187	8532
652	0.0004614217578050717	4419
253	0.00046115324650155133	1205
1290	0.0004561410355025049	9403
326	0.0004553056670026638	2205
666	0.00045518632864554367	4706
1291	0.0004543807947349826	9404
648	0.0004536050954137016	4415
1000	0.00045247138102106016	7603
847	0.0004506813056642579	6505
1138	0.0004506813056642579	8477
251	0.0004505918018964178	1203
1063	0.0004488912303074556	8310
488	0.00044886139571817556	2934
486	0.0004481453655754546	2932
1052	0.00044766801214697404	8214
824	0.00044692214741497307	6214
864	0.00044692214741497307	6808
513	0.00044689231282569303	3211
312	0.00044680280905785294	2006
968	0.00044677297446857285	7319
1165	0.0004457884330223316	8521
1036	0.00044489339534393047	8111
1283	0.0004441475306119295	9303
1242	0.00044370001177272895	9016
669	0.0004427751395050477	4802
1303	0.00044247679361224734	9604
1122	0.0004424469590229673	8459
735	0.00044068671825544506	5408
455	0.00044026903400552455	2852
1133	0.0004397021768092038	8472
896	0.0004388369737200827	7011
741	0.0004379717706309616	5506
1240	0.0004371065675418405	9014
685	0.0004352568230064781	4911
1229	0.0004339739356674365	9001
453	0.00043328774011399556	2847
673	0.0004311993188643929	4823
667	0.00042857387500774954	4707
830	0.00042833519829350923	6303
1091	0.0004280965215792689	8427
1038	0.0004279771832221488	8113
339	0.0004270224763651875	2309
476	0.0004269031380080674	2921
268	0.00042663462670454704	1502
465	0.00042639594999030673	2910
1211	0.0004251130626512651	8712
1233	0.0004245760400442244	9005
1169	0.0004240390174371837	8526
200	0.00042383017531222344	707
1220	0.00042245778420534167	8805
1255	0.00042010085165221866	9029
865	0.0004191759793845375	6809
866	0.00041893730267029717	6810
565	0.0004182511071168563	3816
514	0.0004174754077955753	3212
1141	0.00041484996393893194	8480
344	0.00041476046017109184	2502
734	0.0004144919488675715	5407
567	0.0004141936029747711	3818
528	0.00041407426461765093	3405
1013	0.0004140444300283709	7616
613	0.0004134179036534901	4015
1040	0.0004132985652963699	8202
698	0.00041314939234996976	5106
860	0.0004117173320645279	6804
555	0.00041055378308260643	3806
1287	0.00041004659506484577	9307
163	0.00040959907622564523	210
1209	0.0004093603995114049	8710
624	0.0004081371813509233	4115
1046	0.0004076299933331627	8208
1059	0.0004059890909227606	8306
609	0.0004051537224229195	4011
1090	0.00040467636899443887	8426
234	0.0004044973614587587	1003
438	0.0004042885193337984	2830
1112	0.0004039006696731579	8448
973	0.00040339348165539725	7324
504	0.00040243877479843605	3202
449	0.0004011558874593944	2843
383	0.00039975366176323257	2612
1311	0.00039963432340611244	9612
826	0.00039909730079907174	6216
584	0.00039814259394211054	3911
984	0.0003968895411923489	7410
670	0.000396173511049628	4807
427	0.00039566632303186734	2819
571	0.0003955171500854671	3823
620	0.000394622112407066	4104
537	0.0003940254206214652	3601
1262	0.00039387624767506506	9103
305	0.00039333922506802437	1904
1026	0.0003932795558894643	8101
1079	0.0003931303829430641	8415
271	0.0003919668339611426	1505
975	0.00039050493908642073	7326
1181	0.0003900275856579401	8539
1099	0.00038913254797953896	8435
1139	0.00038904304421169886	8478
180	0.0003879093298190574	410
1132	0.0003878198260512173	8471
1143	0.00038632809658721535	8482
883	0.00038591041233729484	6912
1041	0.0003858507431587348	8203
926	0.00038570157021233456	7205
859	0.00038498554006961367	6803
1289	0.0003847766979446534	9402
161	0.0003842396753376127	208
908	0.00038376232190913206	7104
603	0.000383702652730572	4005
492	0.0003836131489627319	2938
1189	0.00038185290819520965	8547
763	0.00038068935921328816	5703
730	0.0003795556448206467	5403
1027	0.0003795556448206467	8102
787	0.0003794363064635265	5911
1164	0.0003788097800886457	8519
1175	0.00037764623110672423	8533
1087	0.00037755672733888414	8423
726	0.000376661689660483	5310
585	0.0003760053286963221	3912
535	0.0003759754941070421	3506
1048	0.0003752892985536012	8210
562	0.0003739765766252795	3813
700	0.00037376773450031924	5108
1171	0.00037346938860751886	8529
943	0.00037281302764335803	7223
1250	0.0003724848471612776	9024
1259	0.00037212683208991717	9033
394	0.0003719179899649569	2702
957	0.0003705157642687951	7308
1294	0.00036994890707247436	9503
475	0.000369650561179674	2920
1102	0.000369650561179674	8438
988	0.0003691135385726333	7415
1055	0.0003677411474657515	8302
589	0.0003660704104660694	3916
361	0.00036604057587678933	2519
558	0.000365772064573269	3809
1024	0.00036535438032334847	8003
533	0.00036457868100206746	3503
506	0.00036439967346638726	3204
564	0.00036434000428782714	3815
856	0.00036201290632398417	6704
1015	0.000360312334735022	7804
440	0.0003599244850743815	2832
174	0.00035977531212798134	404
1162	0.00035941729705662084	8517
882	0.00035917862034238053	6911
233	0.00035911895116382046	1002
1101	0.0003574780487534184	8437
1092	0.0003572393720391781	8428
1288	0.00035610565764653663	9401
369	0.00035544929668237575	2528
974	0.0003552106199681355	7325
481	0.00035419624393261416	2926
1118	0.0003540172363969339	8454
491	0.0003539874018076539	2937
389	0.00035362938673629343	2618
1071	0.0003528536874150124	8407
525	0.0003517796422009311	3402
1064	0.0003507951007546898	8311
1145	0.00035034758191548925	8486
1123	0.00035019840896908903	8460
1306	0.0003492437021121278	9607
518	0.0003490945291657276	3302
901	0.0003479906493623662	7017
1078	0.000346290077773404	8414
1161	0.0003450071904343624	8516
605	0.00034473867913084204	4007
280	0.0003443806640594816	1514
1210	0.0003441718219345213	8711
1238	0.0003441718219345213	9011
869	0.00034390331063100096	6813
885	0.00034270992705979944	6914
1168	0.0003421430698634787	8525
479	0.00034086018252443704	2924
1136	0.0003398756410781958	8475
1316	0.00033981597189963573	9617
781	0.0003390402725783547	5905
768	0.000337697716060753	5803
942	0.0003374590393465127	7222
288	0.0003373993701679526	1601
793	0.00033713085886443226	6006
834	0.0003367430092037918	6307
1275	0.00033563912940043036	9202
995	0.00033537061809691	7506
1019	0.0003347142571327492	7904
1243	0.0003345054150077889	9017
771	0.00033372971568650794	5806
1072	0.0003335507081508277	8408
334	0.0003321783170439459	2304
1056	0.00033179046738330545	8303
853	0.0003315219560797851	6701
497	0.00033071642216922405	3006
1314	0.000330686587579944	9615
1305	0.0003302390687407434	9606
1192	0.000329881053669383	8602
1134	0.00032952303859802253	8473
531	0.0003294932040087425	3501
272	0.00032940370024090235	1506
1060	0.00032931419647306225	8307
1128	0.0003286578355089014	8467
477	0.0003277926324197803	2922
420	0.0003277627978305003	2812
663	0.00032704676768777934	4703
1231	0.0003269274293306592	9003
325	0.000326808090973539	2204
870	0.0003267185872056989	6814
582	0.00032662908343785883	3909
608	0.0003265395796700187	4010
1100	0.0003261517300093782	8436
649	0.0003252865269202571	4416
1146	0.000325226857741697	8487
728	0.00032510751938457684	5401
678	0.0003245406621882561	4904
1212	0.000324421323831136	8713
485	0.0003238843012240953	2930
1245	0.0003238843012240953	9019
775	0.00032269091765289377	5810
395	0.0003219748875101729	2703
719	0.0003209903460639316	5302
1142	0.00032087100770681145	8481
1115	0.00032021464674265057	8451
1270	0.00031988646626057016	9111
495	0.000318961593992889	2941
425	0.0003174996991181671	2817
548	0.00031711184945752664	3706
1246	0.0003170521802789665	9020
772	0.00031666433061832604	5807
704	0.00031535160869000433	5112
309	0.0003153217741007243	2003
1117	0.0003152322703328842	8453
466	0.0003147847514936836	2911
845	0.00031442673642232316	6502
664	0.00031424772888664297	4704
526	0.0003138300446367224	3403
723	0.0003135913679224821	5307
647	0.00031278583401192104	4414
633	0.00031236814976200053	4304
428	0.00031192063092279993	2820
1163	0.0003117117887978397	8518
1284	0.00031033939769095794	9304
489	0.00031013055556599765	2935
597	0.00030995154803031746	3925
964	0.0003091161795304764	7315
615	0.00030834048020919537	4017
699	0.0003076542846557545	5107
583	0.00030723660040583395	3910
778	0.00030434264524567024	5902
577	0.0003042829760671102	3904
893	0.0003036564496922294	7008
284	0.00030341777297798907	1518
532	0.00030294041954950844	3502
1252	0.00030135918631766644	9026
1213	0.000300225471925025	8714
1170	0.0003000166298000647	8527
552	0.00029965861472870426	3803
588	0.00029858456951462287	3915
576	0.00029789837396118195	3903
460	0.00029622763696149986	2905
632	0.0002955116068187789	4303
776	0.0002954221030509388	5811
1158	0.00029524309551525856	8513
884	0.00029461656914037777	6913
1076	0.00029449723078325764	8412
1089	0.00029437789242613746	8425
684	0.00029428838865829736	4910
627	0.0002938707044083768	4203
671	0.0002935723585155764	4810
1249	0.00029255798248005514	9023
894	0.00029172261398021407	7009
487	0.00029157344103381385	2933
1202	0.0002915137718552538	8703
258	0.00029115575678389334	1210
1256	0.0002904397266411724	9030
1176	0.00029017121533765204	8534
367	0.0002875756060702887	2525
181	0.0002873667639453285	501
553	0.00028733692935604846	3804
949	0.0002865313954454874	7229
963	0.0002859943728384467	7314
1113	0.000285457350231406	8449
922	0.0002851291697493256	7201
751	0.000284651816320845	5516
478	0.00028453247796372485	2923
182	0.00028298107932116283	502
1156	0.0002825633950712423	8511
1140	0.00028110150019652045	8479
1182	0.00028089265807156017	8540
665	0.00028047497382163966	4705
878	0.0002785655601077172	6907
1309	0.0002783268833934769	9610
1031	0.00027743184571507574	8106
746	0.00027689482310803504	5511
1190	0.00027582077789395365	8548
985	0.00027510474775123276	7411
447	0.00027477656726915235	2840
1166	0.0002747467326798723	8522
429	0.00027456772514419206	2821
396	0.000273732356644351	2704
1098	0.00027355334910867074	8434
483	0.00027316549944803026	2928
725	0.00027206161964466884	5309
1021	0.0002717931083411485	7907
1185	0.00027158426621618826	8543
1312	0.00027152459703762814	9613
1150	0.00027080856689490725	8504
1253	0.0002697643562701059	9027
500	0.0002696748525022658	3103
462	0.00026910799530594507	2907
745	0.00026866047646674447	5510
1068	0.00026815328844898386	8404
417	0.0002678549425561835	2809
1191	0.00026758643125266313	8601
516	0.0002667808973421021	3214
1147	0.00026552784459234045	8501
888	0.0002653190024673802	7003
904	0.00026433446102113893	7020
780	0.00026424495725329883	5904
472	0.00026418528807473877	2917
677	0.0002639764459497785	4903
855	0.00026394661136049845	6703
662	0.0002638869421819384	4702
248	0.0002631410774499374	1109
424	0.000262812896967857	2816
1107	0.0002617388517537756	8443
1137	0.0002616493479859355	8476
920	0.0002613211675038551	7117
1119	0.0002613211675038551	8455
1261	0.00026105265620033475	9102
1114	0.00026072447571825433	8450
986	0.00026060513736113415	7412
629	0.000260485799004014	4206
914	0.00026006811475409345	7110
1155	0.0002598592726291332	8509
1131	0.0002592924154328125	8470
971	0.0002591432424864123	7322
753	0.0002582183702187311	5602
442	0.0002576813476116904	2834
1248	0.00025762167843313035	9022
1159	0.0002569056482904094	8514
993	0.00025589127225488813	7504
439	0.0002556525955406478	2831
593	0.0002555034225942476	3920
578	0.000255026069165767	3905
508	0.0002524304598984037	3206
679	0.00025234095613056354	4905
1029	0.0002521917831841634	8104
1265	0.00025001385816672057	9106
956	0.0002492083242561595	7307
606	0.0002466127149887962	4008
718	0.00024649337663167607	5301
1296	0.0002447331358641538	9505
470	0.0002444944591499135	2915
1154	0.000244106609489273	8508
375	0.00024380826359647262	2604
1054	0.0002437784290071926	8301
517	0.0002432414064001519	3215
1267	0.00024300272968591158	9108
690	0.00024240603790031082	5005
1198	0.0002422270303646306	8608
961	0.00024213752659679047	7312
1271	0.00024124248891838933	9112
756	0.00024115298515054923	5605
235	0.00024103364679342907	1004
1126	0.0002408248046684688	8463
932	0.0002402877820614281	7211
871	0.00023984026322222752	6815
997	0.0002398104286329475	7508
1285	0.0002398104286329475	9305
945	0.0002391242330795066	7225
1160	0.00023876621800814616	8515
1035	0.0002381695262225454	8110
900	0.00023784134574046496	7016
1069	0.00023742366149054442	8405
785	0.00023518606729454157	5909
676	0.00023500705975886135	4902
731	0.0002348877214017412	5404
1237	0.00023375400700909973	9010
736	0.00023348549570557939	5501
722	0.0002333363227591792	5306
1153	0.00023306781145565885	8507
156	0.00023288880391997863	203
1085	0.00023262029261645828	8421
580	0.00023250095425933812	3907
890	0.00023202360083085752	7005
591	0.0002319340970630174	3918
1206	0.00023133740527741663	8707
672	0.00023127773609885657	4811
452	0.00023112856315245635	2846
1045	0.0002307705480810959	8207
160	0.0002306213751346957	207
661	0.0002296965028670145	4701
1108	0.00022960699909917442	8444
607	0.00022778708915309207	4009
1157	0.0002274887432602917	8512
946	0.00022704122442109112	7226
1268	0.00022689205147469093	9109
1180	0.0002263251942783702	8538
1307	0.00022587767543916963	9608
683	0.00022522131447500878	4909
902	0.00022501247235004853	7018
861	0.0002239085925466871	6805
1080	0.00022262570520764546	8416
1173	0.00022247653226124527	8531
581	0.0002223571939041251	3908
1251	0.000222267690136285	9025
703	0.0002213428178686038	5111
1066	0.0002212533141007637	8402
873	0.000219135058261881	6902
1187	0.00021868753942268042	8545
561	0.00021841902811916007	3812
626	0.00021829968976203992	4202
178	0.0002176731633871591	408
996	0.00021728531372651862	7507
1257	0.00021567424590539656	9031
1234	0.00021421235103067466	9006
786	0.00021394383972715432	5910
162	0.00021388417054859425	209
1258	0.00021388417054859425	9032
1317	0.0002134664862986737	9618
560	0.0002133769825308336	3811
1097	0.00021266095238811267	8433
598	0.00021191508765611172	3926
1032	0.00021188525306683169	8107
333	0.00021176591470971153	2303
1042	0.00021170624553115146	8204
1280	0.0002110498845669906	9209
1061	0.00021099021538843055	8308
1125	0.00021084104244203036	8462
1273	0.00021069186949563016	9114
579	0.00021006534312074934	3906
490	0.00020997583935290925	2936
1292	0.0002098565009957891	9405
691	0.00020976699722794896	5006
892	0.00020949848592442862	7007
1088	0.00020937914756730849	8424
941	0.00020890179413882786	7221
852	0.0002088421249602678	6603
494	0.00020848410988890732	2940
1282	0.00020833493694250713	9302
1207	0.00020812609481754687	8708
939	0.00020705204960346548	7219
527	0.00020618684651434437	3404
1127	0.00020576916226442384	8465
547	0.00020556032013946358	3705
777	0.00020308404922922041	5901
463	0.00020141331222953826	2908
1214	0.00020099562797961772	8715
330	0.00020084645503321753	2209
267	0.00020048843996185706	1501
911	0.00019914588344425535	7107
534	0.00019899671049785516	3505
850	0.0001983403495336943	6601
967	0.00019777349233737358	7318
1077	0.00019717680055177282	8413
1295	0.0001961325899269715	9504
991	0.00019514804848073022	7501
1272	0.00019505854471289012	9113
474	0.00019118004810648513	2919
783	0.0001910010405708049	5907
969	0.00019076236385656462	7320
1081	0.00019043418337448418	8417
1067	0.0001892706343925627	8403
545	0.00018924079980328266	3703
269	0.00018909162685688247	1503
682	0.00018837559671416155	4908
1053	0.00018768940116072066	8215
1073	0.00018628717546455886	8409
994	0.00018589932580391838	7505
1239	0.00018563081450039803	9013
1121	0.00018485511517911702	8458
1103	0.00018422858880423623	8439
1065	0.00018401974667927595	8401
732	0.00018357222784007538	5405
515	0.00018339322030439515	3213
549	0.0001824086788581539	3707
1318	0.00018175231789399306	9701
1051	0.0001805589343227915	8213
276	0.00017808266341254835	1510
1144	0.00017802299423398828	8483
349	0.00017706828737702705	2507
851	0.00017685944525206677	6602
592	0.00017489036235958426	3919
766	0.00017468152023462398	5801
540	0.00017435333975254357	3604
938	0.00017402515927046315	7218
898	0.000173905820913343	7014
692	0.0001722052493243808	5007
1105	0.00017163839212806008	8441
1278	0.00017160855753878005	9207
874	0.00017074335444965894	6903
484	0.00016781956470021518	2929
1020	0.00016755105339669483	7905
1049	0.00016662618112901366	8211
1086	0.00016623833146837315	8422
509	0.00016614882770053305	3207
1266	0.00016570130886133246	9107
1310	0.00016528362461141195	9611
1104	0.0001651046170757317	8440
739	0.00016391123350453017	5504
1297	0.00016289685746900888	9506
1195	0.00016256867698692846	8605
1319	0.00016006257148740524	9702
880	0.00015991339854100505	6909
1193	0.00015952554888036454	8603
530	0.00015934654134468432	3407
482	0.00015883935332692368	2927
854	0.00015842166907700315	6702
1264	0.0001574669622200419	9105
658	0.00015624374405956033	4504
656	0.00015609457111316014	4502
1232	0.0001556768868632396	9004
1047	0.00015511002966691888	8209
655	0.00015493102213123865	4501
1044	0.00015311111218515634	8206
587	0.0001514403751854742	3914
543	0.00015000831490003235	3701
705	0.00014965029982867188	5113
544	0.0001492624501680314	3702
480	0.00014687568302562833	2925
1110	0.0001459209761686671	8446
1274	0.00014416073540114485	9201
468	0.0001438922240976245	2913
742	0.0001425496675800228	5507
1109	0.00014090876516962067	8445
1034	0.0001324954109926499	8109
