67	0.019607103356585075	Italy
50	0.01859586669744154	Germany
30	0.017835154586309427	China
141	0.01772353473818553	USA
46	0.017652124145292228	France
123	0.017426012359385103	Spain
61	0.017393244427362765	India
13	0.016299108816688616	Belgium
94	0.01578121883129972	Netherlands
8	0.015226774977519371	Austria
107	0.015199359576225781	Poland
36	0.014644132425265617	CzechRepublic
139	0.014544784232958848	UnitedKingdom
134	0.013698170531106819	Turkey
108	0.013337853828391076	Portugal
52	0.012738109287711321	Greece
21	0.012051549309601865	Bulgaria
127	0.011962775629222624	Switzerland
131	0.011804941247489532	Thailand
69	0.01164488752374696	Japan
38	0.01150350238279002	Denmark
62	0.011474520387136799	Indonesia
119	0.011414337053820871	Slovenia
115	0.011273082462393903	Serbia
77	0.010817203503740505	Lebanon
19	0.010747228955676869	Brazil
34	0.010730779714900714	Croatia
43	0.010710544537755447	Estonia
126	0.010535085969476476	Sweden
110	0.010529863988277696	Romania
26	0.010477774725819877	Canada
66	0.010405841934806698	Israel
118	0.010170722231331678	Slovakia
121	0.009982600358645668	SouthAfrica
40	0.009833382245890561	Egypt
80	0.00982163278819331	Lithuania
72	0.00956888889817241	Kenya
76	0.009535076569910319	Latvia
137	0.009533379426020715	Ukraine
122	0.009367059324839607	SouthKorea
59	0.009209094393576546	Hungary
144	0.009160268869367962	Vietnam
102	0.0089852019496789	Pakistan
88	0.008955958854965739	Mexico
54	0.008921754878113737	Guatemala
45	0.008835069990214007	Finland
133	0.008829064711835411	Tunisia
95	0.008823973280166602	NewZealand
35	0.00838141037357009	Cyprus
18	0.008008430366447309	BosniaHerzegovina
12	0.007966132318737199	Belarus
7	0.0078840166643864	Australia
81	0.007825530474960077	Macedonia
140	0.007724615688293676	Uruguay
93	0.007705163808328225	Nepal
91	0.00764928860950129	Morocco
103	0.007594327257384142	Panama
105	0.007411166266836973	Peru
70	0.007371479209726253	Jordan
31	0.0073575104100195195	Colombia
1	0.0072791806920378364	Albania
41	0.007243149021766262	ElSalvador
84	0.007042233295143244	Malaysia
106	0.006985183150546585	Philippines
116	0.006763379499128451	SierraLeone
114	0.006582307301060793	Senegal
117	0.006508416267098072	Singapore
130	0.0064854395498234445	Tanzania
74	0.0064695125071671696	Kyrgyzstan
111	0.0063428794630967815	Russia
82	0.006309589332954566	Madagascar
29	0.006211546635947492	Chile
132	0.0060362186171984905	Togo
147	0.005987262543459939	Zimbabwe
58	0.0059073662311186215	Honduras
33	0.0057035784148362755	CostaRica
100	0.005668460591274487	Norway
138	0.005538172160364954	UnitedArabEmirates
63	0.005146393020926568	Iran
136	0.005065843960935403	Uganda
11	0.004886860555347257	Bangladesh
142	0.0048180609530533445	Uzbekistan
96	0.004812577872794627	Nicaragua
65	0.004716885067327004	Ireland
17	0.00469547494441201	Bolivia
49	0.004611139948051731	Georgia
51	0.004556048046404614	Ghana
48	0.004555525848284736	Gambia
104	0.004478501625602747	Paraguay
75	0.004465968870725678	Laos
68	0.004347168798453458	IvoryCoast
71	0.004284635573598081	Kazakhstan
0	0.004242468075417941	Afghanistan
6	0.004093902710312682	Armenia
89	0.004088027981464055	Mongolia
39	0.003999645949674723	Ecuador
44	0.003984371654668295	Ethiopia
42	0.0039794107725294545	Eritrea
86	0.003889331596850519	Malta
10	0.003863743888976502	Bahrain
24	0.0037855447205247883	Cambodia
16	0.003744029969994496	Bhutan
92	0.0037198783069501435	Mozambique
22	0.0036405041927287047	BurkinaFaso
146	0.003623663303362643	Zambia
60	0.0035419392976017527	Iceland
97	0.0034651761739797034	Niger
83	0.0033861937083481727	Malawi
101	0.0033471593988873	Oman
129	0.003343765111108094	Tajikistan
25	0.0033381514813194068	Cameroon
9	0.0033305796085811774	Azerbaijan
112	0.0032825373815524115	Rwanda
15	0.003254469232608975	Benin
143	0.003162170714920558	Venezuela
57	0.00314428542931474	Guyana
85	0.003078227367150187	Mali
14	0.0030633447207336676	Belize
125	0.0028552487699623286	Suriname
37	0.0027847520237788137	DemocraticRepublicCongo
145	0.002744803867608155	Yemen
113	0.0027365792472200784	SaudiArabia
55	0.002593105313783628	Guinea
23	0.00250119844468512	Burundi
27	0.002386314858311984	CentralAfricanRepublic
32	0.002341797468592394	Congo
124	0.0022941468901535368	Sudan
135	0.002263076102020802	Turkmenistan
109	0.002111769196786184	Qatar
73	0.0020745625807448843	Kuwait
98	0.0020710377434357084	Nigeria
56	0.0018860490594689663	Guinea-Bissau
87	0.0018679026748032097	Mauritania
2	0.0018009307659288703	Algeria
78	0.001760460411638334	Liberia
47	0.001724559290896729	Gabon
79	0.0016745588209184212	Libya
20	0.0016057592186245093	Brunei
28	0.00132847201696935	Chad
64	0.001311892226663227	Iraq
4	0.0012032750177286263	Angola
