401	0.005142381783275568	2709
402	0.005043837420164968	2710
153	0.004991709404168824	106
925	0.0043671854067004676	7204
169	0.004252156733399685	306
255	0.004154190767137862	1207
616	0.004121294446363597	4100
706	0.004004747481334772	5201
912	0.003967657783406865	7108
618	0.0039625968109800545	4102
293	0.003889285010397406	1701
640	0.0038372292940073603	4407
332	0.003834554208581761	2302
259	0.0037748347339454026	1211
166	0.0035916275320948795	303
222	0.0033679325508298766	901
619	0.0033017061116447626	4103
260	0.0032991033258252603	1212
403	0.0032612906318363797	2711
206	0.003167879540758686	713
836	0.0031325973329832104	6309
617	0.003091531156719952	4101
263	0.0030004336530373714	1301
999	0.0029614641653509344	7602
641	0.0029605242704716698	4408
165	0.0029600181732289885	302
636	0.0029375329957327325	4403
168	0.0029035521808670082	305
266	0.00283291546570996	1404
240	0.002831469473588014	1101
211	0.0027995130476930136	804
340	0.0027752926796504227	2401
250	0.002774931181619936	1202
365	0.0026945340196397544	2523
231	0.0026890392495763603	910
813	0.0026752300248117787	6203
223	0.0026689399590813147	902
167	0.002638140326883871	304
707	0.0025959896565291535	5202
186	0.002587530602615771	507
499	0.0025573093672671054	3102
201	0.0025515253987793223	708
341	0.002489203138323462	2402
796	0.002436713624296832	6103
907	0.002421530707016402	7103
170	0.0023870437949079968	307
797	0.002384151810664105	6104
208	0.002343591731643528	801
802	0.0023310116001826	6109
832	0.0023068635317461065	6305
795	0.002302019458137588	6102
642	0.0022779436893071918	4409
323	0.0022766422963974406	2202
798	0.0022747625066389114	6105
151	0.0022396971976817275	104
599	0.0022263217705537296	4001
422	0.002216055226487915	2814
164	0.002202390600935528	301
637	0.0021878583801099734	4404
807	0.002181857512803899	6114
708	0.0021775195364380617	5203
295	0.002165517801825912	1703
978	0.0021616859227027558	7403
1322	0.002117149365346828	9705
297	0.0020839638461481735	1801
187	0.0020810718619042818	508
210	0.002050778326949519	803
207	0.00205048912852513	714
291	0.0020460065529470982	1604
342	0.002034077117941046	2403
281	0.002028799246695944	1515
202	0.002023955173087426	709
245	0.0020212077880557293	1106
405	0.002014194726264292	2713
336	0.002006314069199688	2306
283	0.0020048680770777426	1517
799	0.0019919264475863284	6106
794	0.001984479588158308	6101
282	0.0019549090492645177	1516
639	0.0019479682870791784	4406
225	0.001944859404016995	904
721	0.0019409552252877417	5305
241	0.001934231361920694	1102
837	0.001908709600968352	6310
635	0.0019081312041195737	4402
239	0.0018959848702952296	1008
645	0.0018956956718708404	4412
998	0.0018829709411977182	7601
459	0.0018827540423794263	2904
962	0.0018753071829514059	7313
188	0.0018675711250989962	510
524	0.0018630885495209645	3401
242	0.0018393742787210547	1103
713	0.0018343856059003418	5208
814	0.0018325781157479098	6204
710	0.0018072732536138596	5205
374	0.001805104265430941	2603
172	0.001804815067006552	402
541	0.00180380287252119	3605
196	0.0017734370379603299	703
287	0.0017677976686847415	1522
923	0.001764399587198169	7202
803	0.0017597001128018454	6110
308	0.001746975382128723	2002
653	0.0017447340943397072	4420
906	0.0017438664990665398	7102
399	0.0017422036081263022	2707
315	0.0017406130167921619	2009
714	0.0017388055266397298	5209
538	0.0017299849746958609	3602
372	0.001728249784149526	2601
595	0.0017197907302361436	3923
313	0.0017193569325995599	2007
217	0.001693112175586245	810
362	0.0016866775106435866	2520
895	0.0016856653161582244	7010
214	0.0016793029508216633	807
681	0.0016781461571241068	4907
717	0.0016733020835155885	5212
815	0.0016649153292083035	6205
650	0.0016534196918388349	4417
801	0.0016523351977473756	6108
392	0.0016402611635291289	2621
1199	0.0016149563013950787	8609
821	0.0016090277336951013	6211
204	0.0016047620569353614	711
759	0.0016028099675707346	5608
264	0.0015979658939622166	1302
709	0.001595796905779298	5204
811	0.0015876270502903046	6201
498	0.0015794571948013112	3101
286	0.0015767098097696144	1521
380	0.001573311728283042	2609
574	0.0015716488373428044	3901
758	0.0015574058149416391	5607
236	0.0015449702826929059	1005
817	0.0015395478122356093	6207
382	0.0015344868398087994	2611
343	0.0015318117543831997	2501
388	0.001519737720164953	2617
1225	0.001517713331194229	8905
712	0.0015065791918552468	5207
348	0.0015041210052479392	2506
819	0.0015029642115503825	6209
358	0.0014968910446382106	2516
800	0.0014842386135711855	6107
277	0.0014830818198736289	1511
192	0.0014812743297211968	603
935	0.0014811297305090023	7214
278	0.0014687664978663662	1512
189	0.0014640670234700426	511
193	0.001463416327015167	604
331	0.0014594398486798164	2301
646	0.0014587891522249408	4413
563	0.001456837062860314	3814
292	0.0014549572731017847	1605
820	0.0014521375884639905	6210
833	0.001440858849912814	6306
149	0.0014371715700018522	102
842	0.0014357255778799066	6405
345	0.0014352917802433229	2503
502	0.0014352194806372255	3105
822	0.001428495617270178	6212
316	0.0014205426605994765	2101
818	0.0014184459720226552	6208
203	0.0014160600850214448	710
651	0.0014017447630141821	4418
191	0.001401238665771501	602
1222	0.0013983466815276097	8902
610	0.0013973344870422478	4012
319	0.0013951654988593291	2104
1204	0.001393141109888605	8705
748	0.0013775966945776886	5513
831	0.0013773074961532994	6304
936	0.0013757169048191592	7215
916	0.0013739817142728243	7112
328	0.0013734756170301432	2207
406	0.0013732587182118514	2714
414	0.001370872831210641	2806
237	0.0013704390335740574	1006
329	0.001368053146572847	2208
805	0.0013645104658740798	6112
230	0.0013566298088094756	909
611	0.0013552561162936273	4013
958	0.001352436431655833	7309
379	0.0013510627391399846	2608
314	0.0013462186655314665	2008
209	0.0013459294671070772	802
212	0.0013433989808936723	805
761	0.0013391333041339324	5701
298	0.0013381934092546678	1802
927	0.001334000032101025	7206
194	0.0013331324368278576	701
307	0.001332698639191274	2001
1001	0.0013293728573107988	7604
243	0.0013285052620376314	1104
693	0.0013282883632193395	5101
1235	0.0013260470754303236	9007
423	0.0013259747758242264	2815
311	0.0013240226864595997	2005
464	0.001319612410487665	2909
179	0.0013168650254559682	409
219	0.0013154190333340226	812
816	0.0013151298349096334	6206
393	0.0013123824498779365	2701
928	0.0013119486522413528	7207
1277	0.0013063815825718618	9206
752	0.0012998023184170088	5601
317	0.001299585419598717	2102
390	0.0012990070227499387	2619
371	0.0012988624235377442	2530
265	0.0012972718322036038	1401
436	0.001296331937324339	2828
386	0.0012923554589889883	2615
322	0.0012830288098024385	2201
829	0.00128085982161952	6302
960	0.0012802091251646443	7311
220	0.0012797753275280606	813
185	0.001275075853131737	506
1221	0.0012721115692817483	8901
296	0.001272039269675651	1704
303	0.0012705932775537053	1902
324	0.0012701594799171215	2203
205	0.0012666890988244518	712
175	0.0012643032118232413	405
575	0.0012640863130049494	3902
804	0.0012608328307305717	6111
387	0.0012538197689391348	2616
918	0.0012480358004513519	7114
867	0.001246517508723309	6811
441	0.0012400828437806506	2833
917	0.0012388537504769966	7113
806	0.001235383369384327	6113
456	0.001233865077656284	2901
279	0.0012337927780501866	1513
881	0.001230105498139225	6910
812	0.0012288041052294738	6202
765	0.001226562817440458	5705
363	0.0012248276268941231	2521
256	0.0012139826859795303	1208
216	0.0012097170092197904	809
357	0.001204077639944202	2515
1293	0.0011928712009991228	9406
1223	0.0011923651037564417	8903
1227	0.0011921482049381499	8907
444	0.00118708723251134	2836
183	0.001185352041965005	504
407	0.0011793511746589303	2715
660	0.0011763145912028442	4602
377	0.0011752300971113849	2606
1224	0.0011693015294114075	8904
1093	0.0011669879420162944	8429
1228	0.001166409545167516	8908
701	0.0011648912534394731	5109
426	0.0011637344597419164	2818
838	0.001161348572740706	6401
1009	0.0011593964833760792	7612
238	0.0011520219235541561	1007
808	0.0011492745385224593	6115
415	0.001148479242855389	2807
863	0.0011483346436431945	6807
199	0.0011470332507334433	706
155	0.0011460210562480814	202
749	0.0011429844727919953	5514
1011	0.0011422614767310224	7614
695	0.0011416107802761468	5103
1057	0.0011402370877602985	8304
977	0.0011356099129700723	7402
934	0.001133296325574959	7213
318	0.0011296813452700946	2103
229	0.001127512357087176	908
828	0.0011256325673286466	6301
350	0.0011228851822969498	2508
694	0.001106473171712866	5102
327	0.0011061116736823795	2206
966	0.0011053886776214066	7317
1095	0.0011049548799848229	8431
1018	0.0011045210823482391	7903
755	0.0011034365882567798	5604
668	0.0010953390323738838	4800
955	0.0010946883359190082	7306
270	0.0010933146434031597	1504
891	0.001091868651281214	7006
261	0.001091073355614144	1213
750	0.001086807678854404	5515
762	0.0010792885198202863	5702
688	0.0010767580336068813	5003
554	0.0010755289403032275	3805
400	0.0010667083883593585	2708
1017	0.0010624427115996187	7901
1152	0.0010609244198715756	8506
921	0.0010575986379911006	7118
381	0.001052899163594777	2610
1094	0.0010484888876228424	8430
1030	0.0010381500439509306	8105
1135	0.001037788545920444	8474
909	0.0010365594526167902	7105
1002	0.0010338843671911908	7605
412	0.0010293294920070617	2804
886	0.0010287510951582834	7001
1012	0.0010280280990973105	7615
770	0.0010262929085509756	5805
1260	0.0010254253132778082	9101
454	0.0010244854183985436	2849
347	0.0010179784538497877	2505
306	0.0010153033684241882	1905
937	0.0010138573763022424	7217
364	0.001012483683786394	2522
1186	0.0010124113841802967	8544
285	0.0010110376916644484	1520
218	0.001010170096391281	811
1300	0.001004386127903498	9601
359	0.0010043138282974007	2517
301	0.00100033734996205	1805
299	0.0009996866535071744	1803
378	0.0009986021594157151	2607
1320	0.000994770280292559	9703
631	0.0009939026850193915	4302
982	0.0009928181909279322	7408
929	0.0009921674944730566	7208
827	0.0009906492027450136	6217
493	0.0009857328295303982	2939
952	0.0009772737756170158	7303
981	0.0009727912000389839	7407
566	0.0009699715154011897	3817
913	0.0009639706480951151	7109
1321	0.0009595603721231806	9704
411	0.0009584758780317213	2803
300	0.0009583312788195267	1804
659	0.000955873092212219	4601
1241	0.000954860897726857	9015
215	0.0009529811079683275	808
360	0.0009497276256939497	2518
835	0.0009484262327841985	6308
868	0.0009441605560244587	6812
687	0.0009435821591756803	5002
872	0.0009401117780830107	6901
289	0.0009380873891122867	1602
443	0.0009328095178671847	2835
434	0.000930351331259877	2826
159	0.0009282546426830557	206
195	0.000920229386406257	702
740	0.000920229386406257	5505
1217	0.0009192894915269923	8802
1298	0.0009173374021623655	9507
177	0.0009171928029501709	407
173	0.00091668670570749	403
257	0.0009124210289477501	1209
919	0.0009118426320989717	7115
157	0.0009095290447038586	204
1215	0.0009054802667624106	8716
221	0.0009028774809429083	814
716	0.0009016483876392545	5211
496	0.0009015760880331572	2942
697	0.0009008530919721843	5105
213	0.0008996239986685305	806
930	0.0008981057069404874	7209
760	0.0008961536175758607	5609
1208	0.0008957921195453743	8709
310	0.0008945630262417204	2004
1219	0.0008938400301807476	8804
1203	0.00089217713924051	8704
594	0.0008874776648441864	3922
875	0.0008870438672076027	6904
404	0.0008859593731161434	2712
840	0.0008844410813881004	6403
228	0.0008808984006893334	907
373	0.0008796693073856795	2602
625	0.0008795970077795822	4201
550	0.0008791632101429985	3801
1286	0.0008783679144759284	9306
1003	0.0008782233152637338	7606
1301	0.0008775726188088582	9602
355	0.0008767050235356907	2513
273	0.000876271225899107	1507
557	0.0008761266266869125	3808
747	0.0008728731444125346	5512
905	0.0008721501483515618	7101
520	0.0008713548526844916	3304
931	0.0008667999775003626	7210
843	0.0008649924873479304	6406
790	0.0008634018960137902	6003
176	0.0008619559038918444	406
976	0.0008600038145272177	7401
733	0.0008583409235869801	5406
232	0.0008576179275260073	1001
841	0.0008571118302833263	6404
519	0.0008563165346162561	3303
1014	0.0008556658381613805	7801
1007	0.0008544367448577267	7610
959	0.0008537860484028511	7310
983	0.0008526292547052945	7409
680	0.0008490142744004303	4906
596	0.0008480743795211655	3924
246	0.0008472790838540954	1107
522	0.0008469175858236089	3306
184	0.0008464114885809279	505
1016	0.0008420735122150908	7806
148	0.000840627520093145	101
302	0.0008362895437273079	1806
1254	0.0008336144583017083	9028
523	0.0008331806606651246	3307
1244	0.0008326745634224435	9018
432	0.000832529964210249	2824
1196	0.0008324576646041518	8606
779	0.0008315900693309843	5903
858	0.0008309393728761087	6802
767	0.0008300717776029413	5802
171	0.0008292041823297738	401
689	0.0008289149839053847	5004
1129	0.0008289149839053847	8468
1116	0.0008272520929651471	8452
876	0.0008270351941468552	6905
546	0.0008235648130541855	3704
910	0.0008230587158115045	7106
1313	0.0008228418169932127	9614
1167	0.0008212512256590723	8523
634	0.000819660634324932	4401
1216	0.0008190099378700565	8801
304	0.0008185038406273755	1903
590	0.0008161902532322624	3917
376	0.0008072974016822962	2605
789	0.0008055622111359613	6002
351	0.0008041162190140156	2509
1074	0.0008036101217713346	8410
320	0.0008020918300432916	2105
715	0.0007990552465872055	5210
879	0.0007984768497384273	6908
1096	0.0007980430521018436	8432
368	0.0007976092544652599	2526
448	0.0007947895698274657	2841
1201	0.0007939942741603956	8702
644	0.0007928374804628389	4411
337	0.0007920421847957688	2307
1179	0.0007916083871591851	8537
769	0.0007906684922799204	5804
1281	0.0007898731966128502	9301
686	0.0007886441033091964	5001
1177	0.0007879934068543208	8535
674	0.0007875596092177371	4824
385	0.0007874150100055425	2614
152	0.0007860413174896941	105
1290	0.0007812695434872732	9403
711	0.0007807634462445921	5206
1039	0.0007782329600311872	8201
675	0.0007777991623946034	4901
505	0.0007777268627885062	3203
366	0.0007757024738177822	2524
1304	0.0007744733805141283	9605
970	0.0007720874935129179	7321
539	0.0007694124080873183	3603
419	0.0007642068364483136	2811
510	0.0007620378482653951	3208
274	0.0007608087549617412	1508
849	0.0007589289652032118	6507
1302	0.0007581336695361416	9603
979	0.0007580613699300444	7405
954	0.0007571214750507797	7305
431	0.000756687677414196	2823
948	0.0007545909888373746	7228
294	0.000753940292382499	1702
648	0.0007527834986849424	4415
247	0.0007516990045934831	1108
866	0.0007494577168044673	6810
410	0.0007491685183800782	2802
990	0.0007486624211373972	7419
1149	0.0007469995301971595	8503
1023	0.0007466380321666732	8002
1082	0.0007465657325605758	8418
254	0.0007410709624971821	1206
792	0.0007408540636788903	6005
623	0.0007383235774654853	4114
227	0.0007368775853435395	906
226	0.000735720791645983	905
458	0.0007344193987362318	2903
512	0.0007339856010996481	3210
446	0.0007334795038569671	2839
809	0.000732467309371605	6116
897	0.0007299368231582001	7013
738	0.0007294307259155191	5503
503	0.0007287077298545463	3201
354	0.0007284908310362544	2512
433	0.0007278401345813788	2825
987	0.0007273340373386977	7413
601	0.0007242251542765145	4003
1148	0.0007213331700326231	8502
924	0.0007210439716082339	7203
511	0.0007190918822436072	3209
628	0.0007180796877582452	4205
810	0.0007180073881521479	6117
744	0.0007175735905155642	5509
457	0.0007159829991814239	2902
521	0.0007156215011509374	3305
352	0.0007149708046960618	2510
249	0.0007143201082411863	1201
1188	0.0007119342212399759	8546
614	0.0007079577429046251	4016
643	0.0007062225523582902	4410
1291	0.0007058610543278038	9404
903	0.0007048488598424418	7019
1062	0.0007036920661448853	8309
965	0.000703402867720496	7316
321	0.0007032582685083015	2106
862	0.0007013061791436748	6806
612	0.0007011615799314802	4014
409	0.0007008723815070911	2801
957	0.0007006554826887992	7308
551	0.0007005108834766046	3802
600	0.0006971851015961295	4002
673	0.0006949438138071137	4823
950	0.000693280922866876	7301
569	0.0006932086232607788	3820
1247	0.0006925579268059032	9021
602	0.000691762631138833	4004
197	0.0006899551409864008	704
823	0.0006880030516217742	6213
652	0.0006852556665900773	4419
1037	0.0006813514878608239	8112
339	0.0006798331961327808	2309
1004	0.0006788210016474188	7607
774	0.0006783872040108352	5809
290	0.0006777365075559596	1603
729	0.0006767966126766948	5402
638	0.0006754229201608463	4405
1025	0.0006749168229181654	8007
1022	0.0006684821579755069	8001
899	0.000668265259157215	7015
889	0.0006672530646718531	7004
1178	0.0006669638662474639	8536
1111	0.0006658793721560047	8447
609	0.0006642887808218644	4011
507	0.000664216481215767	3205
1043	0.0006641441816096698	8205
356	0.0006633488859425996	2514
743	0.000662192092245043	5508
839	0.000661685995002362	6402
980	0.000661685995002362	7406
529	0.0006608183997291946	3406
1197	0.0006578541158792059	8607
568	0.0006560466257267738	3819
727	0.000654094536362147	5311
844	0.0006519978477853257	6501
915	0.0006514917505426447	7111
657	0.0006501903576328935	4503
312	0.0006493950619658234	2006
353	0.000648527466692656	2511
338	0.0006454185836304727	2308
702	0.00064122520647683	5110
621	0.0006410806072646355	4105
953	0.0006405745100219544	7304
857	0.0006398515139609816	6801
1008	0.000639200817506106	7611
1226	0.0006388393194756197	8906
788	0.0006387670198695223	6001
865	0.0006382609226268413	6809
1308	0.0006381886230207441	9609
1211	0.0006368149305048957	8712
669	0.0006364534324744092	4802
1276	0.0006353689383829499	9205
846	0.0006316816584719883	6504
1070	0.0006315370592597937	8406
391	0.0006298741683195562	2620
537	0.000629584969895167	3601
989	0.0006264760868329837	7418
826	0.0006264037872268864	6216
784	0.0006256084915598163	5908
158	0.0006251746939232326	205
1200	0.0006251023943171353	8701
1174	0.000624523997468357	8532
947	0.0006241624994378706	7227
1172	0.0006227888069220221	8530
734	0.0006225719081037303	5407
724	0.0006210536163756872	5308
864	0.0006209090171634927	6808
666	0.0006206921183452009	4706
154	0.0006198245230720334	201
435	0.000619463025041547	2827
1184	0.0006176555348891148	8542
1288	0.0006170048384342392	9401
408	0.000614185153796445	2716
1033	0.0006127391616744994	8108
450	0.0006117992667952347	2844
556	0.0006116546675830401	3807
1005	0.0006110762707342618	7608
1299	0.0006098471774306079	9508
418	0.0006084011853086622	2810
624	0.0006062321971257436	4115
370	0.0006057260998830627	2529
773	0.0006057260998830627	5808
951	0.0006041355085489224	7302
974	0.0006038463101245332	7325
757	0.0006034848120940468	5606
791	0.0006028341156391712	6004
1279	0.000602038819972101	9208
437	0.0006017496215477119	2829
1194	0.0006008097266684472	8604
830	0.0006000867306074743	6303
513	0.0005999421313952798	3211
825	0.0005986407384855286	6215
559	0.0005984238396672367	3810
992	0.000597990042030653	7502
933	0.0005956764546355399	7212
252	0.0005953149566050534	1204
573	0.0005948088593623724	3825
161	0.0005937243652709131	208
1050	0.0005937243652709131	8212
696	0.0005930013692099403	5104
1263	0.0005925675715733566	9104
630	0.0005920614743306756	4301
528	0.0005909769802392163	3405
200	0.000589892486147757	707
398	0.0005890248908745895	2706
253	0.0005880849959953248	1205
604	0.0005877957975709356	4006
1236	0.0005877234979648384	9008
1083	0.0005847592141148497	8419
1151	0.0005837470196294876	8505
344	0.0005832409223868066	2502
288	0.000583096323174612	1601
234	0.0005820841286892501	1003
1183	0.0005803489381429152	8541
824	0.0005800597397185261	6214
685	0.0005796982416880396	4911
741	0.0005791921444453586	5506
275	0.0005791198448392614	1509
416	0.0005789752456270668	2808
754	0.0005733358763514785	5603
1046	0.000572974378320992	8208
469	0.0005729020787148948	2914
471	0.0005723236818661164	2916
542	0.0005715283861990463	3606
1141	0.000571456086592949	8480
1000	0.0005711668881685599	7603
1130	0.0005711668881685599	8469
1175	0.000570949989350268	8533
1289	0.0005706607909258789	9402
887	0.000570443892107587	7002
1075	0.0005700823940771006	8411
728	0.0005693593980161277	5401
1010	0.0005669735110149173	7613
486	0.000566395114166139	2932
1013	0.0005661059157417498	7616
305	0.0005652383204685825	1904
565	0.0005646599236198041	3816
413	0.0005632862311039557	2805
224	0.0005624186358307883	903
972	0.0005611172429210371	7323
667	0.0005594543519807996	4707
620	0.0005582252586771457	4104
586	0.0005581529590710484	3913
262	0.0005575022626161728	1214
180	0.0005572130641917837	410
1133	0.0005560562704942271	8472
1084	0.0005553332744332542	8420
848	0.000555260974827157	6506
326	0.0005548994767966705	2205
1233	0.0005542487803417949	9005
882	0.0005533811850686276	6911
1287	0.0005525858894015574	9307
847	0.0005523689905832655	6505
567	0.0005522966909771682	3818
926	0.0005520797921588764	7205
150	0.0005507783992491252	103
1139	0.000550706099643028	8478
1090	0.000548681710672304	8426
346	0.0005485371114601094	2504
525	0.0005475249169747473	3402
384	0.0005469465201259691	2613
536	0.0005469465201259691	3507
869	0.0005461512244588989	6813
720	0.0005456451272162179	5303
1101	0.0005452113295796342	8437
1209	0.0005447775319430505	8710
834	0.0005446329327308558	6307
1058	0.0005437653374576885	8305
883	0.0005431869406089102	6912
698	0.0005425362441540346	5106
461	0.0005424639445479373	2906
1162	0.0005420301469113536	8517
771	0.0005416686488808671	5806
268	0.0005392827618796568	1502
501	0.0005374752717272245	3104
1323	0.0005372583729089327	970
726	0.0005354508827565005	5310
397	0.0005352339839382087	2705
735	0.0005347278866955277	5408
597	0.0005345109878772358	3925
1283	0.0005341494898467495	9303
973	0.0005324142993004146	7324
1063	0.0005323419996943172	8310
772	0.0005319082020577336	5807
427	0.0005301007119053013	2819
1056	0.0005300284122992041	8303
504	0.000528220922146772	3202
763	0.0005280040233284801	5703
896	0.000527714824904091	7011
190	0.0005272810272675073	601
280	0.0005246059418419077	1514
1064	0.0005220754556285027	8311
1138	0.000521641657991919	8477
335	0.0005205571639004597	2305
856	0.0005205571639004597	6704
1315	0.0005203402650821678	9616
1169	0.0005191834713846112	8526
885	0.0005188219733541248	6914
535	0.0005186773741419302	3506
1165	0.0005161468879285252	8521
782	0.0005157130902919415	5906
877	0.0005157130902919415	6906
1079	0.0005157130902919415	8415
271	0.0005151346934431632	1505
1106	0.0005151346934431632	8442
1311	0.0005151346934431632	9612
1230	0.0005144839969882876	9002
421	0.000514339397776093	2813
1024	0.0005139778997456066	8003
555	0.0005138333005334121	3806
704	0.0005126765068358555	5112
1218	0.0005123873084114663	8803
768	0.0005119535107748826	5803
699	0.0005110859155017151	5107
787	0.0005110859155017151	5911
1122	0.0005109413162895206	8459
737	0.000510290619834645	5502
577	0.0005101460206224504	3904
571	0.0005088446277126993	3823
163	0.000506747939135878	210
940	0.0005053019470139323	7220
944	0.0005041451533163757	7224
1059	0.0005038559548919865	8306
1306	0.000502193063951749	9607
1259	0.0005015423674968734	9033
1242	0.0004994456789200521	9016
533	0.0004992287801017602	3503
975	0.0004992287801017602	7326
453	0.0004987949824651765	2847
1303	0.0004983611848285929	9604
1040	0.0004982888852224955	8202
1143	0.0004972766907371336	8482
473	0.000497132091524939	2918
445	0.0004963367958578688	2837
663	0.0004959029982212851	4703
1269	0.0004953969009786041	9110
1136	0.0004953246013725068	8475
633	0.0004931556131895882	4304
860	0.0004922880179164207	6804
893	0.0004917096210676425	7008
1255	0.0004904805277639886	9029
1132	0.0004886730376115565	8471
394	0.0004886007380054592	2702
1117	0.0004874439443079026	8453
1161	0.0004874439443079026	8516
198	0.00048729934509570804	705
570	0.0004868655474591243	3821
964	0.00048672094824692976	7315
325	0.0004865763490347352	2204
1006	0.0004865763490347352	7609
1078	0.0004864317498225406	8414
588	0.00048563645415547046	3915
1229	0.00048534725573108134	9001
908	0.0004850580573066922	7104
1092	0.00048469655927620576	8428
884	0.0004845519600640112	6913
793	0.0004844796604579139	6006
488	0.0004844073608518166	2934
449	0.0004838289640030383	2843
1048	0.0004823829718810926	8210
1026	0.0004818768746384116	8101
1171	0.00048165997582011975	8529
1091	0.00048100927936524417	8427
1028	0.0004804308825164659	8103
1205	0.0004791294896067147	8706
615	0.000478695691970131	4017
764	0.00047818959472745	5704
984	0.0004776111978786717	7410
1118	0.0004773219994542826	8454
778	0.00047652670378721244	5902
174	0.0004757314081201423	404
664	0.00047450231481648843	4704
1164	0.00047421311639209927	8519
1240	0.0004737070191494183	9014
514	0.0004725502254518617	3212
1055	0.00046973054081406754	8302
455	0.0004693690427835811	2852
451	0.00046741695341895437	2845
1068	0.00046698315578237064	8404
730	0.00046611556050920325	5403
684	0.0004652479652360358	4910
1038	0.0004648864672055494	8113
622	0.00046401887193238194	4106
1156	0.00046401887193238194	8511
1041	0.0004625728798104362	8203
361	0.0004614883857189769	2519
627	0.00046098228847629594	4203
1015	0.00046098228847629594	7804
963	0.0004605484908397122	7314
500	0.0004594639967482529	3103
492	0.00045895789950557193	2938
1036	0.00045830720305069635	8111
516	0.0004581626038385018	3214
506	0.00045765650659582076	3204
1124	0.0004570781097470425	8461
1163	0.00045671661171655607	8518
1052	0.00045570441723119407	8214
1076	0.00045527061959461034	8412
1099	0.0004548368219580266	8435
576	0.00045389692707876187	3903
558	0.0004537523278665673	3809
1168	0.0004533908298360809	8525
671	0.0004530293318055945	4810
1213	0.000452667833775108	8714
1309	0.00045223403613852434	9610
497	0.0004520894369263297	3006
1140	0.0004520171373202325	8479
775	0.000451655639289746	5810
430	0.0004512941412592596	2822
572	0.0004512941412592596	3824
467	0.00045093264322877317	2912
531	0.00045093264322877317	3501
1192	0.0004502819467738976	8602
369	0.0004502096471678003	2528
603	0.0004497758495312166	4005
481	0.00044883595465195186	2926
491	0.00044782376016658986	2937
632	0.00044738996253000613	4303
1098	0.00044688386528732516	8434
1189	0.0004466669664690333	8547
719	0.00044485947631660116	5302
1147	0.00044471487710440655	8501
1115	0.00044435337907392013	8451
1150	0.00044420877986172557	8504
251	0.0004429073869519744	1203
438	0.00044276278773977985	2830
1089	0.0004426181885275853	8425
1305	0.0004426181885275853	9606
440	0.000442545888921488	2832
476	0.0004408106983751531	2921
1220	0.00044066609916295854	8805
608	0.00043936470625320737	4010
968	0.00043936470625320737	7319
465	0.0004391478074349155	2910
700	0.0004391478074349155	5108
1262	0.0004389309086166237	9103
518	0.0004382079125556508	3302
746	0.0004382079125556508	5511
589	0.0004375572161007752	3916
1238	0.0004375572161007752	9011
1181	0.0004357497259483431	8539
582	0.0004356774263422458	3909
1145	0.0004355328271300512	8486
971	0.00043538822791785667	7322
654	0.00043488213067517564	4421
776	0.0004342314342203001	5811
585	0.0004340868350081055	3912
1245	0.00043386993618981364	9019
395	0.0004330746405227435	2703
1060	0.00043264084288615977	8307
1316	0.0004321347456434788	9617
1170	0.00043090565233982493	8527
647	0.0004304718547032412	4414
1249	0.00042924276139958735	9023
1250	0.0004288089637630036	9024
244	0.00042866436455080907	1105
1027	0.0004283028665203226	8102
417	0.00042757987045934976	2809
272	0.00042707377321666873	1506
725	0.00042707377321666873	5309
605	0.0004268568743983769	4007
552	0.00042656767597398776	3803
781	0.00042656767597398776	5905
425	0.0004258446799130149	2817
1019	0.00042483248542765287	7904
745	0.00042454328700326376	5510
1146	0.00042403718976058273	8487
1071	0.00042382029094229087	8407
753	0.00042280809645692886	5602
1252	0.0004227357968508316	9026
553	0.0004222296996081506	3804
1212	0.00042208510039595603	8713
1294	0.00042208510039595603	9503
258	0.00042179590197156686	1210
1246	0.00042179590197156686	9020
460	0.0004217236023654696	2905
985	0.0004212898047288859	7411
1182	0.0004206391082740103	8540
479	0.0004202776102435239	2924
1100	0.0004186147193032863	8436
472	0.00041832552087889713	2917
1134	0.00041832552087889713	8473
495	0.00041781942363621616	2941
593	0.00041680722915085416	3920
1176	0.00041666262993865955	8534
389	0.00041478284018013015	2618
956	0.000414493641755741	7307
1142	0.0004142044433313518	8481
562	0.0004138429453008654	3813
1021	0.0004132645484520871	7907
920	0.0004123969531789197	7117
477	0.00041051716342039023	2922
1202	0.0004102279649960011	8703
676	0.00040950496893502823	4902
679	0.000409432669328931	4905
751	0.00040892657208624995	5516
878	0.0004088542724801527	6907
396	0.00040827587563137436	2704
1256	0.0004081312764191798	9030
845	0.00040682988350942864	6502
1087	0.00040682988350942864	8423
478	0.00040639608587284497	2923
942	0.00040596228823626125	7222
995	0.00040596228823626125	7506
483	0.0004055284905996775	2928
1120	0.0004054561909935802	8457
1119	0.00040538389138748297	8455
1275	0.00040531159178138566	9202
284	0.0004051669925691911	1518
383	0.0004045162961143155	2612
629	0.0004041547980838291	4206
1102	0.0004041547980838291	8438
526	0.00040393789926553724	3403
233	0.00040379330005334263	1002
564	0.00040256420674968877	3815
943	0.00040256420674968877	7223
949	0.00040220270871920235	7229
1314	0.0004019135102948132	9615
613	0.0004016966114765214	4015
870	0.0004004675181728675	6814
1265	0.00040025061935457565	9106
1114	0.0003997445221118946	8450
904	0.00039880462723262993	7020
1190	0.00039815393077775434	8548
475	0.00039743093471678145	2920
888	0.00039598494259483573	7003
532	0.00039403285323020903	3502
466	0.0003939605536241117	2911
1166	0.00039381595441191717	8522
932	0.00039374365480581986	7211
1123	0.00039338215677533345	8460
1185	0.0003925868611082633	8543
584	0.0003922253630777769	3911
901	0.000391502367016804	7017
1210	0.00039143006741070675	8711
723	0.0003910685693802203	5307
578	0.0003902009741070529	3905
1131	0.0003902009741070529	8470
1270	0.00038969487686437186	9111
1284	0.0003888995811973017	9304
961	0.0003886103827729126	7312
428	0.0003885380831668153	2820
462	0.000388465783560718	2907
489	0.000388465783560718	2935
1107	0.000387959686318037	8443
1155	0.0003871643906509669	8509
722	0.0003851400016802428	5306
780	0.0003844893052253673	5904
1159	0.00038405550758878357	8514
670	0.00038398320798268626	4807
988	0.000383404811133908	7415
1054	0.0003826818150729351	8301
900	0.000382392616648546	7016
1158	0.000381380422163184	8513
334	0.0003813081225570867	2304
367	0.00038087432492050295	2525
665	0.00037993443004123825	4705
1066	0.00037986213043514095	8402
1160	0.0003790668347680708	8515
986	0.0003770424457973468	7412
1198	0.0003770424457973468	8608
1137	0.0003744396599778445	8476
993	0.0003740781619473581	7504
508	0.00037378896352296894	3206
855	0.00037284906864370424	6703
1296	0.0003722706717949259	9505
606	0.00037176457455224493	4008
736	0.0003703908820363965	5501
485	0.0003702462828242019	2930
607	0.00036974018558152093	4009
1191	0.0003688725903083535	8601
1112	0.00036836649306567246	8448
922	0.0003675711973986023	7201
672	0.0003672096993681159	4811
649	0.00036648670330714306	4416
1085	0.0003661975048827539	8421
1243	0.0003661975048827539	9017
662	0.0003661252052766566	4702
677	0.0003651853103973919	4903
309	0.00036496841157910003	2003
429	0.00036337782024495975	2821
1072	0.00036337782024495975	8408
548	0.0003628717230022787	3706
442	0.00036164262969862486	2834
1180	0.0003600520383644846	8538
683	0.00035997973875838727	4909
945	0.00035860604624253885	7225
1128	0.0003585337466364416	8467
756	0.000358389147424247	5605
1153	0.0003578107505754687	8507
873	0.000357376952938885	6902
786	0.00035520796475596643	5910
470	0.00035397887145231257	2915
703	0.00035397887145231257	5111
861	0.00035390657184621526	6805
1271	0.0003531835757852424	9112
181	0.00035246057972426954	501
182	0.00035246057972426954	502
1126	0.0003520990816937831	8463
156	0.0003513760856328103	203
1045	0.0003506530895718374	8207
871	0.000350291591541351	6815
1261	0.00034877329981330795	9102
894	0.00034812260335843236	7009
517	0.0003475442065096541	3215
235	0.0003463874128120975	1004
591	0.0003463151132060002	3918
1173	0.00034523061911454097	8531
1312	0.00034479682147795724	9613
1206	0.0003443630238413735	8707
160	0.0003440015258108871	207
1029	0.0003440015258108871	8104
892	0.00034371232738649793	7007
718	0.00034342312896210877	5301
852	0.00034298933132552505	6603
1061	0.00034248323408284407	8308
1154	0.00034212173605235765	8508
1231	0.0003398804482633418	9003
583	0.00033908515259627165	3910
1069	0.00033894055338407704	8405
731	0.0003387959541718825	5404
1317	0.00033698846401945034	9618
997	0.0003365546663828666	7508
487	0.00033641006717067206	2933
420	0.0003361931683523802	2812
1285	0.00033525327347311545	9305
1127	0.0003351086742609209	8465
785	0.00033467487662433717	5909
1187	0.00033431337859385075	8545
580	0.00033387958095726703	3907
1097	0.00033221669001702944	8433
859	0.00033171059277434847	6803
1292	0.00033171059277434847	9405
678	0.00033163829316825116	4904
1088	0.0003314213943499593	8424
1248	0.0003300477018341109	9022
626	0.000328818608530457	4202
1207	0.0003287463089243597	8708
946	0.0003286740093182624	7226
1307	0.00032824021168167874	9608
1157	0.000327806414045095	8512
1113	0.00032715571759021943	8449
777	0.00032686651916583026	5901
1080	0.000326794219559733	8416
1032	0.0003262158227109547	8107
1253	0.0003249867294073008	9027
375	0.000323251538860966	2604
439	0.00032274544161828495	2831
1251	0.00032072105264756095	9025
178	0.00031970885816219895	408
1031	0.00031934736013171253	8106
1280	0.0003192750605256152	9209
162	0.0003186243640707397	209
1125	0.00031804596722196136	8462
561	0.00031710607234269666	3812
939	0.00031674457431221024	7219
902	0.00031609387785733466	7018
267	0.0003125511971585676	1501
1237	0.00031161130227930293	9010
527	0.0003112498042488165	3404
914	0.00031088830621833004	7110
890	0.00030987611173296804	7005
1268	0.0003097315125207735	9109
690	0.0003090808160658979	5005
424	0.0003075625243378549	2816
941	0.0003074179251256603	7221
494	0.0003069841274890766	2940
333	0.0003066949290646875	2303
1234	0.00030662262945859017	9006
853	0.0003064057306402983	6701
534	0.0003045259408817689	3505
581	0.0003045259408817689	3908
850	0.000303802944820796	6601
598	0.0003037306452146987	3926
1081	0.0003017062562439747	8417
1067	0.0003009832601830019	8403
661	0.0002983804743634996	4701
911	0.00029809127593911043	7107
691	0.00029693448224155387	5006
969	0.00029678988302935926	7320
1108	0.0002959945873622891	8444
1267	0.00029577768854399726	9108
447	0.00029541619051351084	2840
1258	0.00029491009327082987	9032
1214	0.0002918735098147438	8715
1042	0.00029107821414767367	8204
330	0.0002909336149354791	2209
452	0.0002904275176927981	2846
248	0.0002892707239952415	1109
1103	0.00028768013266110124	8439
560	0.00028565574369037724	3811
490	0.00028457124959891793	2936
1272	0.00028399285275013965	9113
1273	0.0002817515649611238	9114
1282	0.0002814623665367346	9302
463	0.0002811731681123455	2908
996	0.0002810285689001509	7507
783	0.0002801609736269835	5907
579	0.00027987177520259434	3906
1257	0.00027922107874771876	9031
1035	0.00027712439017089745	8110
1077	0.00027510000120017344	8413
991	0.00027423240592700605	7501
682	0.000273726308684325	4908
967	0.0002730033126233522	7318
1073	0.00026996672916726613	8409
515	0.00026946063192458515	3213
1121	0.0002649780563465534	8458
547	0.0002649057567404561	3705
1053	0.0002611461772233973	8215
766	0.00026100157801120267	5801
851	0.0002608569787990081	6602
269	0.0002581095937673112	1503
994	0.00025594060558439266	7505
938	0.00025225332567343107	7218
276	0.0002514580300063609	1510
1318	0.00025131343079416637	9701
474	0.00025022893670270706	2919
1295	0.00024878294458076134	9504
1049	0.0002476261508832048	8211
349	0.00024748155167101017	2507
1020	0.00024748155167101017	7905
1297	0.00024719235324662106	9506
1051	0.00024675855561003733	8213
1105	0.0002466139563978428	8441
1144	0.000245674061518578	8483
509	0.0002453848630941889	3207
592	0.0002448064662454106	3919
732	0.00024473416663931333	5405
1266	0.00023938399578811415	9107
540	0.00023887789854543315	3604
692	0.00023439532296740142	5007
545	0.00023410612454301225	3703
874	0.00023273243202716383	6903
484	0.00022947894975278597	2929
739	0.00022861135447961852	5504
1065	0.0002277437592064511	8401
1239	0.00022680386432718638	9013
1104	0.0002261531678723108	8440
898	0.00022579166984182438	7014
549	0.00022550247141743524	3707
1278	0.00022485177496255965	9207
1086	0.00022477947535646237	8422
1193	0.00022420107850768407	8603
482	0.0002235503820528085	2927
880	0.00021610352262478802	6909
1195	0.00021017495492481057	8605
1044	0.00020764446871140556	8206
530	0.0002048970836797087	3407
1047	0.00020482478407361142	8209
1310	0.00020308959352727655	9611
1319	0.00020063140691996883	9702
658	0.00020041450810167697	4504
587	0.00019904081558582852	3914
656	0.00019889621637363396	4502
480	0.00019737792464559093	2925
1264	0.0001971610258272991	9105
655	0.00019578733331145065	4501
1232	0.00019383524394682393	9004
854	0.0001934737459163375	6702
544	0.00018696678136758175	3702
1274	0.0001868221821553872	9201
705	0.0001863160849127062	5113
543	0.00018176120972857715	3701
1110	0.0001816166105163826	8446
742	0.00017829082863590742	5507
1109	0.00017351905463348655	8445
468	0.0001685303818127738	2913
1034	0.00014944328580309029	8109
