67	0.019442704779353344	Italy
50	0.01870711206247423	Germany
141	0.017818324956975745	USA
30	0.01779573527594204	China
46	0.017616316085203084	France
123	0.017473767408335228	Spain
61	0.017438974106513204	India
13	0.016331560432849446	Belgium
94	0.015800832754310476	Netherlands
107	0.015321256422480004	Poland
8	0.015227781880271575	Austria
139	0.014679657550821588	UnitedKingdom
36	0.014638892264358468	CzechRepublic
134	0.01370674335733552	Turkey
108	0.01337750524755694	Portugal
52	0.0127958858738156	Greece
21	0.012078728413872038	Bulgaria
127	0.01197850293250411	Switzerland
131	0.011815701438157761	Thailand
69	0.011664584261587467	Japan
38	0.011518140812127594	Denmark
62	0.011416097770216726	Indonesia
119	0.01140311519491	Slovenia
115	0.01123563997345323	Serbia
77	0.010860183895582704	Lebanon
34	0.01083811351756127	Croatia
43	0.010724905460886617	Estonia
19	0.010665185614475676	Brazil
110	0.010548602088221273	Romania
126	0.010542630103580178	Sweden
26	0.010402937593279803	Canada
66	0.010396446305626441	Israel
118	0.010128745602801744	Slovakia
121	0.009944652684952364	SouthAfrica
80	0.009793016205369801	Lithuania
40	0.00974420172221651	Egypt
72	0.009633330529097067	Kenya
137	0.009576466849253605	Ukraine
76	0.009542971804962252	Latvia
122	0.009309545100947312	SouthKorea
144	0.00923087069458855	Vietnam
59	0.009213993346689807	Hungary
88	0.008966805112849738	Mexico
102	0.00893772414416267	Pakistan
95	0.008912278296561486	NewZealand
54	0.008911239690536948	Guatemala
45	0.00877076822571817	Finland
133	0.008768171710656825	Tunisia
35	0.008401284132488739	Cyprus
18	0.008070747765179487	BosniaHerzegovina
7	0.007905349755771793	Australia
12	0.007885875892811704	Belarus
81	0.007823819182845552	Macedonia
140	0.007790843441566467	Uruguay
93	0.007639206961983904	Nepal
91	0.007594287251422631	Morocco
103	0.007581564327622039	Panama
70	0.007417464575745018	Jordan
1	0.00731775839738936	Albania
105	0.0073104881552175935	Peru
31	0.007292312549788176	Colombia
41	0.007200136265110419	ElSalvador
84	0.006958920015911444	Malaysia
106	0.006949572561690601	Philippines
116	0.006722637145329025	SierraLeone
114	0.0066953737371849	Senegal
117	0.00654737237868822	Singapore
130	0.006542179348565529	Tanzania
74	0.006471034835884669	Kyrgyzstan
82	0.0063020017053910925	Madagascar
111	0.006300963099366555	Russia
29	0.006136863347489533	Chile
147	0.005979774186278145	Zimbabwe
132	0.00596055997482419	Togo
58	0.005830734221756927	Honduras
33	0.005706361150318489	CostaRica
100	0.0056876662418768025	Norway
138	0.0055059101875826345	UnitedArabEmirates
63	0.005162131593460521	Iran
136	0.005029709325331913	Uganda
11	0.004862753406887412	Bangladesh
142	0.004773433288777135	Uzbekistan
65	0.004751882213767969	Ireland
17	0.004727994275203593	Bolivia
96	0.004723580199599306	Nicaragua
49	0.004638414505587181	Georgia
51	0.0045740209320658184	Ghana
48	0.0045587014932038815	Gambia
104	0.004514041434148743	Paraguay
75	0.004440819709418806	Laos
68	0.004406286059102914	IvoryCoast
71	0.004340334576544745	Kazakhstan
0	0.004279316472603131	Afghanistan
89	0.004142999431882504	Mongolia
39	0.004024857996591295	Ecuador
42	0.004020184269480874	Eritrea
6	0.004004864830618937	Armenia
44	0.003982534801091367	Ethiopia
86	0.003879193501649826	Malta
10	0.003835052745606956	Bahrain
24	0.0037981822317358534	Cambodia
92	0.0037701398690733246	Mozambique
16	0.003710679674168518	Bhutan
22	0.0036893882506654867	BurkinaFaso
146	0.0036686161301747247	Zambia
60	0.0035019198632363587	Iceland
97	0.0034881583334112286	Niger
129	0.003369757246613885	Tajikistan
83	0.0033671607315525396	Malawi
25	0.0033627466559482525	Cameroon
101	0.003327434051113957	Oman
9	0.0032999109914636972	Azerbaijan
15	0.003245643826681581	Benin
57	0.003232661251374855	Guyana
112	0.0032181207670313214	Rwanda
143	0.0031503517239302096	Venezuela
85	0.003075572090163466	Mali
14	0.003056098227203377	Belize
125	0.0028834299756239166	Suriname
145	0.0027909940394400252	Yemen
37	0.0027447760713480793	DemocraticRepublicCongo
113	0.0027229653448327795	SaudiArabia
55	0.0026146906667746817	Guinea
23	0.002521216124566252	Burundi
27	0.0024069694618670603	CentralAfricanRepublic
32	0.0024046325983118496	Congo
124	0.0022719506786771067	Sudan
135	0.0022516978611986137	Turkmenistan
109	0.002072278670459656	Qatar
98	0.002071499715941252	Nigeria
73	0.0020203483692327506	Kuwait
87	0.0018845506315243931	Mauritania
56	0.001867673283625649	Guinea-Bissau
47	0.0017812093320828516	Gabon
2	0.0017388861365829238	Algeria
78	0.001731615894411157	Liberia
79	0.0016708574419756778	Libya
20	0.001583614535914477	Brunei
64	0.0013374649080989459	Iraq
28	0.0013120190604977624	Chad
4	0.0011692107321237728	Angola
