67	0.01959315615388233	Italy
50	0.018685307184157257	Germany
30	0.01783134879254372	China
141	0.01768139861631295	USA
46	0.01768054094132974	France
61	0.017478415536953857	India
123	0.01747412716203782	Spain
13	0.016375874346040695	Belgium
94	0.015778360774406176	Netherlands
8	0.015214439472947287	Austria
107	0.015164980215582324	Poland
36	0.014618784197109722	CzechRepublic
139	0.014586335493578373	UnitedKingdom
134	0.013728803456201468	Turkey
108	0.013345708630368814	Portugal
52	0.012683297651671602	Greece
21	0.012101508121395889	Bulgaria
127	0.012052334755691996	Switzerland
131	0.011774305115302251	Thailand
69	0.011663522096637957	Japan
38	0.01150356571226977	Denmark
119	0.011441813113478834	Slovenia
62	0.011344609948715324	Indonesia
115	0.011260843692022064	Serbia
43	0.010760104447659454	Estonia
77	0.010755959018573952	Lebanon
19	0.010726083339992226	Brazil
34	0.010690346882358584	Croatia
110	0.01052767452721024	Romania
66	0.010491652177915527	Israel
26	0.010475928136556723	Canada
126	0.010448196645433016	Sweden
118	0.010185176317249403	Slovakia
121	0.01005852631139577	SouthAfrica
80	0.00979564892904269	Lithuania
40	0.009778066591886937	Egypt
137	0.009577513591646932	Ukraine
76	0.009564362575237751	Latvia
72	0.009514903317872789	Kenya
122	0.009380963074661894	SouthKorea
59	0.009264891060267821	Hungary
144	0.009193704036661603	Vietnam
88	0.009002728407067413	Mexico
102	0.008958701091262764	Pakistan
95	0.008950982016413898	NewZealand
54	0.008867215759720638	Guatemala
45	0.00880789324004879	Finland
133	0.008778446398958669	Tunisia
35	0.008395351573126012	Cyprus
18	0.008005538293258231	BosniaHerzegovina
12	0.007860877112757243	Belarus
7	0.007840292913160265	Australia
81	0.007793406680744925	Macedonia
93	0.0077360854027005614	Nepal
140	0.007734655944395216	Uruguay
91	0.007624015871561456	Morocco
103	0.007593997247149196	Panama
31	0.0073924436260954475	Colombia
70	0.007372717101481676	Jordan
105	0.007327260327371682	Peru
1	0.007273798586751752	Albania
41	0.007250784308035685	ElSalvador
84	0.007005203371177289	Malaysia
106	0.006995197163039869	Philippines
116	0.006763481971743326	SierraLeone
114	0.00656292897150332	Senegal
117	0.006525477163903262	Singapore
130	0.006496887997796347	Tanzania
74	0.006444569823820693	Kyrgyzstan
111	0.00630005158915024	Russia
82	0.006293761972606718	Madagascar
29	0.006185694924722582	Chile
132	0.006064905697920868	Togo
147	0.005918958004945068	Zimbabwe
58	0.005888653488871739	Honduras
100	0.0057102570923645915	Norway
33	0.005650362789370605	CostaRica
138	0.005554589082912441	UnitedArabEmirates
63	0.005139617336870576	Iran
136	0.005021687026679553	Uganda
11	0.004871450958787716	Bangladesh
142	0.00481155665579373	Uzbekistan
96	0.004807697118369297	Nicaragua
17	0.004756808402698989	Bolivia
65	0.004667324312784346	Ireland
49	0.004610288926401051	Georgia
48	0.004592992480906368	Gambia
51	0.004567834014732283	Ghana
104	0.004511370411671127	Paraguay
75	0.004487212566310784	Laos
71	0.0043349752567914636	Kazakhstan
68	0.004334832310960929	IvoryCoast
0	0.004226908208907326	Afghanistan
89	0.004132421014923973	Mongolia
6	0.004105547198783473	Armenia
39	0.0040329307168719105	Ecuador
42	0.0039977660425604055	Eritrea
44	0.003973465251369528	Ethiopia
10	0.0038229432918166226	Bahrain
86	0.0038180831335784472	Malta
16	0.0037713398469936417	Bhutan
24	0.003741178276750847	Cambodia
22	0.0037181639980347807	BurkinaFaso
92	0.0036802833529431186	Mozambique
146	0.0036019490378101727	Zambia
60	0.003553776292920022	Iceland
97	0.003534907443289458	Niger
83	0.003362514771664763	Malawi
129	0.0033469336761364943	Tajikistan
9	0.003319202185012787	Azerbaijan
25	0.0033187733475211834	Cameroon
101	0.0033093389227059015	Oman
15	0.0032913277480585454	Benin
112	0.0032624526902905616	Rwanda
143	0.003188692641734722	Venezuela
57	0.00313580268443693	Guyana
85	0.0030693328732383533	Mali
14	0.003054323561032223	Belize
125	0.0028523411024868714	Suriname
37	0.0027695754666073537	DemocraticRepublicCongo
145	0.002763571741724902	Yemen
113	0.002745417621247011	SaudiArabia
55	0.00263349103593844	Guinea
23	0.002493547067845093	Burundi
27	0.0024149268610510776	CentralAfricanRepublic
32	0.0023297311460524724	Congo
124	0.002279557159534837	Sudan
135	0.0022622607140401537	Turkmenistan
109	0.0021164559668948894	Qatar
98	0.002095442929806307	Nigeria
73	0.002073000434412379	Kuwait
87	0.001873733946647184	Mauritania
56	0.0018695885175616814	Guinea-Bissau
2	0.0017888241233096477	Algeria
78	0.0017580907697447145	Liberia
47	0.0017457974283187413	Gabon
79	0.0016670342756941914	Libya
20	0.0016268664973139763	Brunei
28	0.0013238213365806815	Chad
64	0.0013236783907501469	Iraq
4	0.001146139669226207	Angola
