401	0.01740714055778422	2709
402	0.010874315402679835	2710
403	0.008310701766483202	2711
153	0.008023498777268196	106
618	0.007855885764851458	4102
169	0.007472176514568237	306
706	0.007321575681075384	5201
263	0.007074231069182045	1301
925	0.006951048642733183	7204
332	0.0059128158488784095	2302
616	0.0059106633480547075	4100
255	0.005537983808888804	1207
260	0.005402331722495734	1212
640	0.005356936222365508	4407
166	0.005147089659304396	303
293	0.005074112458964242	1701
599	0.005056536176376214	4001
912	0.005049380966741561	7108
636	0.005004816777274282	4403
422	0.004892233561777998	2814
836	0.004779754260114582	6309
259	0.004721963324206482	1211
168	0.004529603974733797	305
358	0.004527169422078023	2516
206	0.004425111193367982	713
222	0.0044205835192215725	901
211	0.004324522603151365	804
499	0.004323127188824275	3102
641	0.004309514476718514	4408
170	0.004011237241886389	307
223	0.003945148044182083	902
165	0.0038863921941116337	302
619	0.0038309912763595066	4103
459	0.003798406867338628	2904
297	0.0037010989852739994	1801
151	0.0036834633233529044	104
208	0.0036474349130141016	801
164	0.003486027040902934	301
167	0.003391999866990294	304
797	0.003368396582095899	6104
907	0.0033579755091425246	7103
399	0.003327157635280409	2707
795	0.003310204835689592	6102
1322	0.00328321692881034	9705
802	0.003231349081375739	6109
999	0.0031642949695090835	7602
340	0.0031335364749800355	2401
250	0.003112427122074482	1202
372	0.00309256473516335	2601
266	0.0030366739379134146	1404
186	0.0030241745883026723	507
645	0.0030235214156389277	4412
721	0.0030169599993349516	5305
231	0.002995197473765654	910
796	0.002948317490308736	6103
1217	0.0029163714091183348	8802
405	0.0029077317161569903	2713
807	0.002906217543163765	6114
1221	0.0028489610212532736	8901
798	0.002848485986588732	6105
617	0.002835927257644922	4101
978	0.0027993347436419767	7403
708	0.0027587638143234975	5203
261	0.0027461605508798865	1213
380	0.002741885238899015	2609
382	0.0026833817509941027	2611
287	0.002680041663509047	1522
456	0.0026689525730586613	2901
906	0.0026617973634240084	7102
423	0.0026581158447738134	2815
707	0.002641905286846342	5202
794	0.0026379862508638767	6101
201	0.002620113071610511	708
566	0.002611161637150561	3817
341	0.0025885381112517826	2402
342	0.0025383922644761432	2403
635	0.0024671519096282177	4402
639	0.002460531113991174	4406
1225	0.0024542814391858023	8905
291	0.002436185587433433	1604
240	0.0024355621044362227	1101
574	0.002435072224938414	3901
799	0.0024337807244441925	6106
345	0.0024116470780432223	2503
298	0.0023567211949556367	1802
464	0.002332004547566223	2909
803	0.0023271651319212087	6110
837	0.0023127062643192335	6310
498	0.002294625257400131	3101
374	0.0022913297044148758	2603
377	0.002285376926274843	2606
642	0.00227047271367486	4409
365	0.002208406465785888	2523
386	0.0021928193908556273	2615
556	0.0021603092060010834	3807
801	0.002153005548033761	6108
281	0.0021455385969005028	1515
575	0.0021410109227540937	3902
371	0.0021268786414839905	2530
917	0.0021078327204025384	7113
210	0.002076614036042216	803
295	0.002073986500553972	1703
196	0.0020648123935950186	703
245	0.002036236089556207	1106
1222	0.0020352563305605907	8902
927	0.0020347367613962487	7206
713	0.002031292760078324	5208
241	0.0020099458898405003	1102
187	0.002008580165179944	508
1223	0.001996392557067807	8903
637	0.001992874331583548	4404
748	0.00198502141478535	5513
813	0.0019635112513815903	6203
392	0.0019524518505977383	2621
714	0.0019518729021003286	5209
331	0.0019316542391907903	2301
286	0.0019166015782581384	1521
239	0.0019151913190977815	1008
400	0.001912148128278064	2708
928	0.0019027216591535729	7207
188	0.0018979119331750923	510
710	0.0018822060995786962	5205
1199	0.0018464597410719648	8609
292	0.001834168219126959	1605
264	0.0018333220636307448	1302
207	0.001824385474004062	714
833	0.0017889508569959357	6306
759	0.0017880750118331877	5608
242	0.0017846013208487296	1103
388	0.0017843489586831921	2617
406	0.0017807416641993316	2714
362	0.0017788118358746327	2520
283	0.0017781586632108885	1517
308	0.0017749076447254341	2002
282	0.0017738833512300168	1516
1228	0.0017645459511051273	8908
693	0.0017552382406467715	5101
921	0.0017322881284161208	7118
998	0.0017062502908659519	7601
891	0.0016844135411303196	7006
323	0.0016782232456580162	2202
717	0.0016772434866623998	5212
563	0.0016743635890086182	3814
832	0.0016704445530261527	6305
761	0.0016699249838618105	5701
646	0.0016669411723751607	4413
313	0.0016665997412100217	2007
202	0.0016480585444596447	709
924	0.0016427589389833562	7203
192	0.0016367170918437216	603
270	0.001629339209710065	1504
1277	0.0016178047742616717	9206
226	0.0016140787211116761	905
701	0.001612178582453511	5109
412	0.0016051569763182601	2804
373	0.0015991299740118925	2602
541	0.0015972001456871937	3605
929	0.0015909504708818225	7208
831	0.0015865860899013495	6304
1204	0.0015848195547425864	8705
1057	0.0015759274996157045	8304
1260	0.0015548775260432188	9101
919	0.0015464308159143442	7115
918	0.0015461487640822727	7114
979	0.0015356683117958307	7405
1017	0.0015325360519765116	7901
681	0.0015229611345193514	4907
336	0.0015224118756884755	2306
426	0.0015187452018715474	2818
909	0.001515835614551232	7105
1216	0.0014979030559647988	8801
393	0.0014960474518064344	2701
348	0.0014956317964749607	2506
923	0.001490525173831142	7202
695	0.0014888922421717812	5103
185	0.0014877788796767626	506
217	0.0014790501177158167	810
172	0.0014698166314237955	402
414	0.0014642349741154353	2806
225	0.0014633442841194204	904
962	0.0014564414366503048	7313
977	0.001448588519852107	7402
653	0.0014481877093539001	4420
688	0.0014467032260272086	5003
905	0.0014460203636969305	7101
236	0.0014435709662078897	1005
935	0.0014268705287826102	7214
821	0.0014246586486258398	6211
863	0.0014218826648049266	6807
600	0.0014208286816429756	4002
411	0.00141989345714716	2803
820	0.0014102146258571314	6210
237	0.0014089379701961767	1006
299	0.0014084926251981692	1803
315	0.0014070526763712784	2009
524	0.0014070081418714778	3401
610	0.0014068448487055416	4012
238	0.0013834790811434172	1007
444	0.0013802725971577637	2836
329	0.001376219957675896	2208
1304	0.001376219957675896	9605
657	0.0013752105090137456	4503
1018	0.0013733252151888475	7903
1276	0.001371514145530284	9205
709	0.0013647449015605705	5204
694	0.001364136263396627	5102
493	0.001362577555903601	2939
936	0.0013580498817571918	7215
191	0.0013511173446215424	602
1030	0.001327424990727546	8105
1116	0.0013227934027482686	8452
829	0.0013223035232504603	6302
687	0.001307651672816015	5002
441	0.0013041928266648239	2833
352	0.0013019957913413204	2510
1293	0.001297007927363637	9406
738	0.001292272425551491	5503
895	0.001281984956097519	7010
300	0.0012797433862742147	1804
381	0.0012739687461333848	2610
811	0.0012536313245577113	6201
960	0.001252250755063888	7311
398	0.0012500685645736515	2706
815	0.0012495044609095087	6205
765	0.0012493263229103057	5705
538	0.0012492224090774374	3602
421	0.0012374949907965746	2813
976	0.0012300428844965832	7401
913	0.001229553004998775	7109
149	0.0012278310043398128	102
219	0.0012270739178432	812
376	0.001226584038345392	2605
214	0.0012231548818607346	807
277	0.0012103734804179206	1511
324	0.0012096609284211086	2203
311	0.0012067513411007933	2005
1009	0.001200709493961159	7612
230	0.0011957810093165431	909
650	0.0011925299908310887	4417
278	0.0011920401113332806	1512
204	0.0011900063691757132	711
1093	0.0011880765408510143	8429
972	0.0011796298307221395	7323
1235	0.0011771210539000309	9007
458	0.0011740778630803133	2903
157	0.001161905099801443	204
712	0.0011397566085672055	5207
209	0.0011370103144128264	802
193	0.0011250750684662267	604
390	0.0011162869271722129	2619
387	0.0011115811150266008	2616
319	0.001101560852571433	2104
814	0.0010854245188102966	6204
1094	0.0010814461034947631	8430
355	0.0010747510836913844	2513
316	0.001074498721525847	2101
611	0.0010744541870260462	4013
621	0.0010736080315298321	4105
806	0.0010691545815497575	6113
752	0.0010682342018872087	5601
1321	0.0010661559252298407	9704
301	0.001065250390400559	1805
199	0.0010576646806011653	706
674	0.0010566106974392144	4824
1208	0.0010549480761133199	8709
328	0.0010523205406250758	2207
194	0.0010519197301268692	701
496	0.0010496484706370311	2942
184	0.0010401774670127392	505
179	0.0010373717935252924	409
303	0.001030439256389643	1902
958	0.0010300532907247032	7309
279	0.0010298603078922333	1513
216	0.001025703754577497	809
203	0.0010234176502543922	710
189	0.0010143177674617732	511
407	0.0010119722838056006	2715
1224	0.001010829231644048	8904
436	0.0010107253178111798	2828
595	0.001008602506654011	3923
1320	0.0010030505390121846	9703
762	0.0010028130216799141	5702
212	0.001002471590514775	805
1001	0.001001417607352824	7604
950	0.0009990572788633845	7301
322	0.0009979142267018321	2201
952	0.0009952570015470542	7303
314	0.000995138242880919	2008
792	0.0009950046393815168	6005
767	0.0009931787248896862	5802
418	0.0009889924819084161	2810
1203	0.0009763298391317376	8704
1002	0.0009711341474883173	7605
550	0.0009689964914978815	3801
343	0.0009662056628437015	2501
903	0.0009637117308548597	7019
220	0.0009631773168572508	813
1227	0.0009626132131931081	8907
1263	0.0009611138850331496	9104
934	0.000959302815374586	7213
651	0.000958961384209447	4418
758	0.0009579222458807628	5607
887	0.0009549978137271807	7002
660	0.0009448587926058777	4602
1313	0.0009412514981220172	9614
819	0.0009281583551805981	6209
502	0.0009246252848630724	3105
554	0.0009227845255379749	3805
818	0.0009195928863855882	6208
385	0.0009183310755579004	2614
155	0.0009181084030588966	202
409	0.0009154660227373857	2801
318	0.0009147980052403746	2103
1152	0.0009146050224079047	8506
350	0.0009142784360760325	2508
454	0.0009125267457505366	2849
265	0.000911398538422251	1401
872	0.000907731864605323	6901
817	0.0009043323977871994	6207
1095	0.0009032932594585154	8431
1011	0.0009013337414672826	7614
1135	0.0009013188966340158	8474
379	0.0008984835334800349	2608
614	0.0008915509963443855	4016
948	0.0008900219785178933	7228
256	0.0008868600290320404	1208
363	0.0008845293902091348	2521
244	0.0008794524572318498	1105
842	0.0008727277477619372	6405
321	0.0008673984526191147	2106
347	0.0008592486391555784	2505
749	0.0008562351380023947	5514
835	0.0008561460690027932	6308
243	0.0008463187893800953	1104
828	0.0008407222872384684	6301
779	0.0008376939412520177	5903
415	0.0008314442664466464	2807
1070	0.0008298410244538196	8406
304	0.0008290690931239401	1903
317	0.0008282823169607935	2102
228	0.000826990816466572	907
800	0.0008138382941920852	6107
307	0.0008130218283624049	2001
625	0.0008102755342080255	4201
1008	0.0008086871370484657	7611
916	0.0008053915840632105	7112
205	0.0008042188422351242	712
1022	0.0008039219455697859	8001
822	0.000803907100736519	6212
357	0.0007997950819215835	2515
804	0.0007974941327652116	6111
285	0.000795326787108242	1520
327	0.0007919421651233855	2206
175	0.0007905764404628293	405
790	0.0007905467507962954	6003
816	0.0007879043704747845	6206
434	0.0007784630565170266	2826
1129	0.0007713672262154411	8468
273	0.0007640784130813858	1507
981	0.0007609164635955329	7407
296	0.0007591202387702362	1704
559	0.0007579920314419507	3810
246	0.0007579029624423492	1107
733	0.0007533159089628724	5406
215	0.0007502133388100872	808
1301	0.0007492335798144707	9602
471	0.0007483132001519221	2916
955	0.0007450621816664676	7306
503	0.0007438894398383813	3201
229	0.0007436667673393776	908
431	0.0007436519225061107	2823
631	0.0007435628535065092	4302
867	0.0007433847155073062	6811
443	0.0007431917326748363	2835
1241	0.0007425682496776259	9015
881	0.0007407274903525284	6910
1124	0.0007376842995328108	8461
1120	0.0007273671404123049	8457
183	0.0007272186920796357	504
410	0.0007230176042650987	2802
1012	0.0007225128799340237	7615
659	0.0007202119307776518	4601
310	0.0007191727924489677	2004
368	0.0007189204302834302	2526
805	0.000713546600640807	6112
378	0.000711780065482044	2607
1074	0.0007071187878362327	8410
782	0.0007070742533364319	5906
1205	0.00070496628701253	8706
173	0.00070357087268544	403
570	0.0007034372691860377	3821
430	0.0007023981308573537	2822
755	0.0007018934065262786	5604
812	0.0007009136475306622	6202
654	0.0006983900258752866	4421
195	0.0006883846082533859	702
886	0.0006878205045892431	7001
432	0.0006846437102701233	2824
675	0.0006811254847858644	4901
697	0.0006800418119573796	5105
351	0.0006794183289601692	2509
1244	0.0006784979492976205	9018
1200	0.000676820483138459	8701
770	0.0006739851199844783	5805
448	0.000673673378485873	2841
689	0.0006720404468265124	5004
1197	0.0006709270843314937	8607
148	0.0006704817393334863	101
569	0.000663890633362976	3820
1236	0.0006621834775372808	9008
364	0.0006619162705384763	2522
1167	0.0006576706482241386	8523
1050	0.000656379147729917	8212
838	0.0006524155772476507	6401
1300	0.0006522522840817146	9601
359	0.0006505302834227525	2517
1196	0.0006488973517633918	8606
877	0.0006482590239329144	6906
937	0.0006440430912851105	7217
1023	0.0006440282464518436	8002
982	0.0006412374177976636	7408
966	0.0006409256762990584	7317
360	0.0006390255376408933	2518
213	0.0006365316056520515	806
1215	0.0006358190536552396	8716
711	0.0006350916568251607	5206
1172	0.000631380448508432	8530
520	0.0006312171553424959	3304
227	0.000630504603345684	906
275	0.0006290052751857255	1509
221	0.0006284263266883159	814
523	0.000628396637021782	3307
1043	0.0006206179443899185	8205
680	0.0006200686855590427	4906
152	0.0006196530302275691	105
435	0.0006191483058964939	2827
686	0.0006171887879052612	5001
716	0.0006164910807417162	5211
1247	0.000614947218081957	9021
1003	0.0006148729939156224	7606
899	0.0006121712342610438	7015
354	0.0006106273716012847	2512
750	0.000610567992268217	5515
519	0.0006102859404361456	3303
1269	0.0006099148196044728	9110
596	0.0006086233191102511	3924
940	0.0006083709569447136	7220
841	0.0006054613696243982	6404
274	0.0006046449037947179	1508
457	0.0006037839034652369	2902
668	0.0005997609536499028	4800
289	0.0005990632464863578	1602
791	0.0005989890223200233	6004
843	0.0005985585221552828	6406
249	0.0005971334181616589	1201
159	0.0005957676935011027	206
876	0.000594847313838554	6905
747	0.0005940902273419413	5512
536	0.0005911064158552914	3507
987	0.00058942894969613	7413
930	0.0005870092418736228	7209
337	0.0005862373105437433	2307
983	0.0005840254303869729	7409
366	0.0005814127397319958	2524
737	0.000580329066903511	5502
857	0.0005793493079078947	6801
437	0.0005785179972449474	2829
915	0.0005778054452481355	7111
1151	0.0005756529444244328	8505
1177	0.0005737231160997338	8535
232	0.0005733519952680609	1001
1230	0.0005713479427770274	9002
858	0.0005671468549624905	6802
862	0.0005665827512983477	6806
808	0.0005661522511336072	6115
594	0.000564771681639784	3922
461	0.0005645638539740472	2906
404	0.0005641927331423743	2712
247	0.0005626043359828145	1108
1279	0.0005568445406752513	9208
954	0.000552554383861113	7305
827	0.0005518269870310341	6217
1007	0.0005493330550421923	7610
1111	0.0005480563993812376	8447
408	0.0005454882432260614	2716
1014	0.0005451319672276554	7801
1323	0.0005383627232579422	970
1302	0.0005370415330971867	9603
604	0.0005342803941095405	4006
158	0.0005328701349491835	205
696	0.0005328552901159166	5104
769	0.000532439634784443	5804
879	0.0005316973931210972	6908
1254	0.0005295597371306615	9028
419	0.0005292034611322555	2811
557	0.0005288174954673157	3808
715	0.0005287878058007819	5210
257	0.0005260415116464026	1209
1226	0.0005257743046475982	8906
150	0.000524913304318117	103
1186	0.0005248687698183164	8544
740	0.0005239929246555683	5505
338	0.0005230873898262865	2308
290	0.0005221521653304709	1603
1006	0.0005187081640125466	7609
990	0.0005179510775159339	7419
397	0.0005128741445386489	2705
1219	0.0005117162475438296	8804
1286	0.0005100387813846681	9306
622	0.0005077675218948301	4106
1179	0.0005060009867360673	8537
965	0.0005056150210711274	7316
868	0.0005054368830719245	6812
1281	0.000505332969239056	9301
840	0.0005048579345745148	6403
505	0.0005043532102434397	3203
176	0.0005027054337508121	406
947	0.0005018741230878649	7227
1218	0.000500627157093444	8803
601	0.0005001521224289028	4003
467	0.0004990090702673502	2912
346	0.000498177759604403	2504
849	0.000498177759604403	6507
539	0.0004972870696083881	3603
306	0.0004965002934452416	1905
1016	0.0004960104139474334	7806
764	0.000495372086116956	5704
450	0.0004950454997850839	2844
1188	0.0004946001547870765	8546
612	0.0004936500854579939	4014
810	0.0004935758612916593	6117
1149	0.0004910373948030168	8503
1148	0.00048806842814963383	8502
774	0.0004871332036538182	5809
254	0.00048699960015441597	1206
959	0.0004864503413235401	7310
446	0.00048452051299884116	2839
542	0.0004834071505038225	3606
356	0.00048158123601199193	2514
1010	0.000481224960013586	7613
510	0.00048094290818151463	3208
630	0.00047874587285801117	4301
1194	0.0004751237335408839	8604
218	0.00047455962987674115	811
262	0.00047402521587913216	1214
507	0.0004719024047219633	3205
551	0.0004711601630586176	3802
789	0.000470729662893877	6002
1298	0.0004703288523956703	9507
757	0.0004692154899006517	5606
224	0.0004677755410737609	903
572	0.00046553397125045676	3824
1083	0.0004651034710857162	8419
445	0.000464613591587908	2837
546	0.0004639307292576299	3704
177	0.00046375259125842693	407
511	0.00046217903893213395	3209
1075	0.00046103598677058147	8411
643	0.0004600859174414989	4410
910	0.0004580967097837323	7106
702	0.00045775527861859327	5110
760	0.0004573990026201873	5609
1130	0.00045628564012516865	8469
1308	0.00045594420896002963	9609
568	0.0004536432598036578	3819
512	0.00045223300064330086	3210
727	0.0004505703793174064	5311
1299	0.00045048131031780484	9508
1062	0.0004502289481522673	8309
644	0.00044987267215386136	4411
951	0.0004488038441586435	7302
638	0.00044789830932936167	4405
416	0.00044760141266402334	2808
989	0.00044651773983553854	7418
823	0.0004461020845040649	6213
1037	0.0004449293426759786	8112
889	0.0004447957391765764	7004
320	0.0004437120663480916	2105
1052	0.0004407727893612424	8214
1028	0.00043902109903574645	8103
875	0.00043873904720367505	6904
1025	0.0004378038227078594	8007
1039	0.00043774444337479174	8201
473	0.00043706158104451365	2918
522	0.00043352851072698786	3306
1184	0.0004332613037281834	8542
302	0.00043250421723157074	1806
623	0.00043216278606643166	4114
171	0.0004319846480672287	401
1058	0.00043195495840069487	8305
197	0.000430188423241932	704
944	0.00042980245757699215	7224
970	0.0004289266124142442	7321
190	0.0004283328190835676	601
433	0.00042772418091962405	2825
1096	0.0004266256632578723	8432
586	0.0004261803182598649	3913
897	0.00042583888709472585	7013
1005	0.00042583888709472585	7608
968	0.0004256607490955229	7319
501	0.00042545292142978603	3104
353	0.00042527478343058306	2511
980	0.0004252599385973162	7406
992	0.0004239239036032938	7502
1084	0.00042344886893875254	8420
335	0.00042325588610628263	2305
848	0.00042325588610628263	6506
198	0.00042242457544333536	705
1178	0.0004222464374441324	8536
784	0.0004201681607867643	5908
590	0.0004189360396256103	3917
1106	0.0004177187632977233	8442
933	0.0004174367114656519	7212
839	0.0004162342799710318	6402
1112	0.0004159522281389604	8448
451	0.00041587800397262584	2845
724	0.00041572955563995667	5308
634	0.0004144974344788027	4401
754	0.00041414115848039675	5603
573	0.0004132950029841826	3825
773	0.00041284965798617517	5808
384	0.0004104447949969349	2613
953	0.00041038541566386724	7304
931	0.0004095986395007208	7210
1201	0.000409197829002514	8702
1303	0.0004084555873391683	9604
413	0.000405887431183992	2805
453	0.0004056944483515221	2847
729	0.00040539755168618376	5402
1038	0.0004050709653543117	8113
602	0.0004049225170216425	4004
744	0.000404833448022041	5509
844	0.00040418027535829673	6501
1033	0.00040397244769255995	8108
1004	0.0004036458613606878	7607
859	0.0004034528785282179	6803
1315	0.00040230982636666547	9616
455	0.00040140429153738365	2852
613	0.00040101832587244383	4015
1122	0.0004000979462098951	8459
251	0.00039993465304395903	1203
809	0.00039972682537822225	6116
252	0.0003990884975477449	1204
735	0.0003990884975477449	5408
294	0.0003976188590543203	1702
488	0.0003975149452214519	2934
154	0.00039745556588838423	201
788	0.00039696568639057604	6001
720	0.00039568903072962133	5303
846	0.00039442721990193356	6504
1240	0.0003943826854021328	9014
469	0.00039417485773639597	2914
476	0.00039367013340532085	2921
326	0.0003928239779091067	2205
1220	0.0003927200640762383	8805
1183	0.00039266068474317066	8541
1229	0.00039076054608500554	9001
253	0.0003898698560889906	1205
1040	0.0003898401664224568	8202
1063	0.00038905339025931026	8310
1283	0.00038828145892943073	9303
670	0.0003880439415971601	4807
1138	0.0003879845622640924	8477
1165	0.00038676728593620537	8521
1242	0.0003866188376035362	9016
465	0.00038528280260951387	2910
847	0.00038498590594417554	6505
514	0.0003824029049557323	3212
1091	0.0003813192321272475	8427
521	0.00038030978346509733	3305
513	0.00038014649029916123	3211
383	0.0003800871109660936	2612
896	0.0003791221968037441	7011
864	0.0003765688854818347	6808
825	0.0003755445919864176	6215
1000	0.000375114091821677	7603
1036	0.00037386712582725617	8111
1174	0.00037367414299478626	8532
652	0.0003722935735009632	4419
1255	0.0003722638838344293	9029
391	0.00037215997000156095	2620
685	0.00036893864118264037	4911
370	0.0003688792618495727	2529
584	0.00036775105452128715	3911
860	0.00036706819219100906	6804
529	0.00036672676102587003	3406
743	0.00036598451936252426	5508
824	0.0003616795177151189	6214
486	0.00036151622454918284	2932
1169	0.00035860663722886747	8526
268	0.00035740420573424737	1502
1082	0.00035682525723683764	8418
438	0.0003549993427450071	2830
555	0.00035336641108564646	3806
312	0.0003531585834199096	2006
667	0.0003529359109209059	4707
1287	0.0003523569624234962	9307
628	0.0003520749105914248	4205
1013	0.00035137720342787984	7616
1133	0.00035011539260019207	8472
1181	0.0003499372546009891	8539
669	0.0003491653232711095	4802
830	0.0003488535817725043	6303
1087	0.0003480074262762901	8423
943	0.0003478144434438202	7223
973	0.0003477253744442187	7324
666	0.00034765115027788414	4706
1311	0.0003472058052798767	9612
741	0.00034687921894800455	5506
1099	0.0003444446662922305	8435
504	0.00034337583829701263	3202
562	0.0003429898726320728	3813
1102	0.000341906199803588	8438
564	0.0003418913549703211	3815
163	0.0003411936478067761	210
1291	0.000340852216641637	9404
475	0.00034048109580996414	2920
1041	0.00033936773331494553	8203
1189	0.0003392341298155433	8547
988	0.0003390114573165396	7415
528	0.0003389520779834719	3405
565	0.0003375715084896488	3816
567	0.00033745274982351347	3818
233	0.0003347658350022019	1002
449	0.00033466192116933345	2843
603	0.0003342462658378598	4005
1079	0.0003325094203456308	8415
1250	0.00033228674784662707	9024
1027	0.00033224221334682627	8102
1141	0.00033172264418248427	8480
1026	0.00033138121301734525	8101
1090	0.00033069835068706715	8426
1290	0.0003294068501928455	9403
1059	0.000329317781193244	8306
589	0.00032870914302930053	3916
1262	0.0003279075220328871	9103
648	0.0003278036082000187	4415
1233	0.00032749186670141345	9005
730	0.00032746217703487964	5403
975	0.00032709105620320675	7326
984	0.0003267347802048008	7410
734	0.0003258440902087859	5407
698	0.0003237658135514178	5106
1294	0.00032364705488528245	9503
908	0.00032352829621914715	7104
1211	0.00032250400272373003	8712
1072	0.00032173207139385044	8408
344	0.00032096014006397086	2502
883	0.0003209007607309032	6912
492	0.0003208265365645686	2938
558	0.0003205296398992303	3809
787	0.00031980224306915145	5911
673	0.0003196686395697492	4823
1132	0.00031922329457174177	8471
1046	0.00031819900107632465	8208
271	0.0003178724147444525	1505
853	0.00031770912157851646	6701
200	0.00031714501791437367	707
585	0.00031701141441497143	3912
1209	0.0003166996729163662	8710
339	0.0003155714655880807	2309
620	0.00031543786208867845	4104
865	0.000314992517090671	6809
700	0.000314636241092265	5108
1123	0.00031436903409346053	8460
420	0.0003143244995936598	2812
506	0.00031407213742812225	3204
901	0.00031370101659644936	7017
1259	0.00031221653326975787	9033
826	0.00031153367093947977	6216
1164	0.0003112961536072091	8519
427	0.00031125161910740837	2819
234	0.00031085080860920167	1003
535	0.0003087279974520328	3506
1055	0.0003086834629522321	8302
1139	0.0003084162559534276	8478
1128	0.00030835687662035993	8467
389	0.0003077185487898826	2618
533	0.00030699115195980374	3503
624	0.0003058035652984506	4115
1171	0.0003057144962988491	8529
763	0.00030547697896657843	5703
440	0.00030501678913530405	2832
571	0.0003047792718030334	3823
866	0.00030436361647155977	6810
1231	0.0003040815646394884	9003
361	0.00030374013347434935	2519
1048	0.00030362137480821405	8210
1289	0.0003033244781428757	9402
1314	0.0003030127366442705	9615
491	0.0003029533573112029	2937
609	0.0003028345986450675	4011
1243	0.0003026416158125976	9017
942	0.0003016767016502482	7222
678	0.00030157278781737975	4904
305	0.0003007563219876994	1904
1143	0.0002995538904930793	8482
926	0.00029949451116001165	7205
548	0.00029903432132873727	3706
1092	0.0002988264936630005	8428
309	0.000296109889175155	2003
180	0.00029608019950862116	410
479	0.00029382378485205007	2924
1060	0.0002933042156877081	8307
1275	0.0002932151466881066	9202
781	0.00029282918102316676	5905
518	0.0002926510430239638	3302
174	0.00029241352569169313	404
605	0.0002923393015253586	4007
1071	0.00029229476702555783	8407
537	0.00029149314602914443	3601
481	0.0002911962493638061	2926
1210	0.00029083997336540015	8711
1118	0.0002906766801994641	8454
1100	0.0002905876111998626	8436
394	0.00028993443853611833	2702
1145	0.0002898305247032499	8486
161	0.00028873200704149823	208
726	0.00028830150687675767	5310
1024	0.00028804914471122013	8003
882	0.00028738112721420897	6911
1175	0.0002871584547152052	8533
1015	0.00028690609254966766	7804
1305	0.0002865795062177955	9606
1270	0.00028588179905425054	9111
583	0.0002858372645544498	3910
1238	0.00028463483305982964	9011
1162	0.00028442700539409285	8517
1192	0.000283877746563217	8602
1078	0.00028283860823453293	8414
856	0.0002824526425695931	6704
1134	0.0002802852969126235	8473
497	0.0002798696415811499	3006
495	0.0002787711239193982	2941
369	0.0002786078307534621	2528
995	0.0002785484514203945	7506
477	0.0002779546580897179	2922
334	0.0002778062097570487	2304
649	0.0002777913649237818	4416
1161	0.00027713819226003755	8516
280	0.00027605451943155275	1514
485	0.00027511929493573707	2930
1019	0.0002750153811028687	7904
272	0.0002748520879369326	1506
395	0.00027443643260545897	2703
531	0.0002739465531076508	3501
1168	0.00027372388060864706	8525
1316	0.00027366450127557944	9617
489	0.00027311524244470357	2935
1212	0.0002726698974466961	8713
845	0.00027241753528115854	6502
1064	0.00027180889711721505	8311
1136	0.00027152684528514365	8475
1284	0.00027142293145227523	9304
957	0.0002708885174546663	7308
1306	0.0002698196894594484	9607
1246	0.0002693001202951064	9020
1146	0.0002687508614642305	8487
1245	0.00026854303379849373	9019
885	0.0002673406023038736	6914
1142	0.00026714761947140367	8481
525	0.0002665835158072609	3402
1288	0.00026622723980885497	9401
974	0.0002661827053090542	7325
325	0.0002659600328100505	2204
793	0.00026584127414391515	6006
526	0.0002652029463134378	3403
869	0.0002651881014801709	6813
834	0.0002647130668156296	6307
723	0.0002638966009859493	5307
487	0.00026308013515626894	2933
870	0.0002629168419903329	6814
1113	0.0002627387039911299	8449
608	0.000262723859157863	4010
719	0.0002625754108251938	5302
1101	0.000261491737996709	8437
582	0.0002603783755016904	3909
428	0.0002600666340030852	2820
775	0.00025975489250448	5810
425	0.0002593540820062733	2817
466	0.0002591759440070703	2911
532	0.0002589829611746004	3502
1115	0.00025871575417579594	8451
663	0.00025501939069233405	4703
894	0.00025461858019412735	7009
1056	0.0002537724246979132	8303
288	0.00025359428669871023	1601
284	0.00025344583836604107	1518
768	0.00025196135503934957	5803
728	0.00025135271687540603	5401
771	0.0002505362510457257	5806
1163	0.00024808685355668476	8518
1252	0.0002475375947258089	9026
664	0.00024709224972780145	4704
647	0.0002470774048945345	4414
633	0.00024643907706405717	4304
1158	0.0002447022315718281	8513
615	0.0002446280074054935	4017
704	0.00024324743791167042	5112
776	0.00024290600674653137	5811
772	0.0002426387997477269	5807
964	0.00024183717875131348	7315
922	0.00024113947158776848	7201
1170	0.0002408574197556971	8527
1117	0.0002402933160915543	8453
447	0.0002402636264250205	2840
258	0.0002395659192614755	1210
182	0.0002391947984298026	502
778	0.00023915026393000186	5902
1253	0.00023874945343179516	9027
576	0.00023716105627223525	3903
552	0.00023689384927343078	3803
597	0.00023686415960689694	3925
893	0.00023655241810829173	7008
1202	0.0002364188146088895	8703
1213	0.000236329745609288	8714
424	0.0002350679347816002	2816
1176	0.00023500855544853256	8534
632	0.00023425146895191988	4303
1089	0.0002341623999523184	8425
699	0.00023402879645291615	5107
181	0.00023379127912064553	501
1031	0.0002335686066216418	8106
478	0.00023355376178837487	2923
1312	0.00023272245112542764	9613
553	0.00023245524412662317	3804
949	0.00023196536462881495	7229
588	0.0002318911404624804	3915
367	0.00023184660596267965	2525
1076	0.00023140126096467218	8412
671	0.00023100045046646548	4810
884	0.00023059963996825879	6913
1249	0.00023058479513499185	9023
460	0.0002302433639698528	2905
1256	0.00023016913980351825	9030
429	0.00022990193280471378	2821
1166	0.00022981286380511227	8522
1191	0.00022864012197702598	8601
577	0.00022783850098061258	3904
1182	0.0002273783111493382	8540
627	0.0002273634663160713	4203
248	0.00022712594898380064	1109
985	0.00022682905231846234	7411
665	0.00022663606948599246	4705
878	0.00022602743132204894	6907
751	0.00022593836232244745	5516
1156	0.00022515158615930093	8511
914	0.00022513674132603403	7110
684	0.00022488437916049647	4910
1185	0.000224617172161692	8543
1248	0.0002224498265047224	9022
1190	0.00022207870567304952	8548
1150	0.00022172242967464356	8504
963	0.00022127708467663612	7314
725	0.00022123255017683538	5309
1137	0.00022081689484536174	8476
1140	0.00021995589451588067	8479
462	0.00021922849768580183	2907
396	0.00021916911835273418	2704
483	0.00021884253202086203	2928
439	0.00021725413486130212	2831
888	0.00021599232403361434	7003
677	0.00021579934120114446	4903
746	0.00021560635836867455	5511
662	0.00021532430653660318	4702
1309	0.00021505709953779868	9610
1114	0.00021492349603839645	8450
1021	0.00021473051320592657	7907
1068	0.00021468597870612582	8404
1159	0.00021424063370811835	8514
1155	0.00021395858187604698	8509
1261	0.00021385466804317859	9102
904	0.00021330540921230272	7020
1119	0.00021314211604636665	8455
780	0.00021290459871409602	5904
993	0.00021196937421828036	7504
745	0.00021193968455174652	5510
1029	0.00021152402922027292	8104
718	0.00021147949472047215	5301
986	0.00021058880472445726	7412
516	0.00021017314939298363	3214
855	0.0002100543907268483	6703
1098	0.00020978718372804384	8434
508	0.00020914885589756648	3206
1267	0.00020891133856529585	9108
417	0.00020873320056609288	2809
472	0.0002086441315664914	2917
1131	0.0002081690969019501	8470
578	0.00020805033823581478	3905
470	0.0002079761140694802	2915
690	0.00020742685523860436	5005
1147	0.00020742685523860436	8501
920	0.00020721902757286754	7117
753	0.00020622442374398423	5602
971	0.0002055267165804392	7322
629	0.0002054970269139054	4206
500	0.0002048141645836273	3103
1107	0.0002047399404172927	8443
442	0.00020430944025255217	2834
679	0.00020350781925613877	4905
1154	0.00020324061225733428	8508
606	0.0002030476294248644	4008
1126	0.00020281011209259377	8463
593	0.0002027358879262592	3920
1271	0.00020119202526650001	9112
997	0.00020101388726729704	7508
756	0.00020083574926809406	5605
517	0.00020050916293622192	3215
1069	0.00020001928343841373	8405
1285	0.00019969269710654158	9305
785	0.00019963331777347393	5909
945	0.00019932157627486872	7225
1296	0.00019923250727526724	9505
1160	0.00019917312794219956	8515
1035	0.0001988020071105267	8110
1265	0.00019877231744399286	9106
375	0.0001967385752864255	2604
661	0.00019667919595335782	4701
932	0.00019660497178702326	7211
452	0.0001965455924539556	2846
1198	0.00019630807512168496	8608
871	0.00019581819562387674	6815
1108	0.00019529862645953472	8444
961	0.00019509079879379793	7312
956	0.00019483843662826037	7307
1054	0.00019375476379977557	8301
736	0.00019345786713443727	5501
902	0.00019304221180296364	7018
591	0.0001927156254710915	3918
1045	0.00019241872880575321	8207
676	0.00019232965980615173	4902
1237	0.0001922109011400164	9010
156	0.000191928849307945	203
890	0.00019176555614200893	7005
1153	0.00019176555614200893	8507
580	0.00019155772847627214	3907
235	0.00019111238347826467	1004
160	0.00019105300414519702	207
1251	0.00019105300414519702	9025
1268	0.00019010293481611445	9109
731	0.0001900584003163137	5404
946	0.0001894497621523702	7226
1157	0.0001891528654870319	8512
722	0.0001887520549888252	5306
581	0.0001886778308224906	3908
1180	0.00018820279615794933	8538
683	0.00018704489916312995	4909
1066	0.00018639172649938569	8402
996	0.00018624327816671652	7507
1085	0.00018578308833544217	8421
900	0.0001857237090023745	7016
672	0.00018474395000675812	4811
1173	0.00018471426034022428	8531
560	0.0001839274841770778	3811
861	0.00018371965651134097	6805
1307	0.00018334853567966808	9608
561	0.0001832594666800666	3812
607	0.0001829625700147283	4009
873	0.00018282896651532606	6902
1080	0.00018262113884958924	8416
1042	0.0001825617595165216	8204
1206	0.00018239846635058552	8707
786	0.00018184920751970968	5910
598	0.00018181951785317584	3926
626	0.00018181951785317584	4202
1317	0.00018171560402030742	9618
1282	0.00018144839702150296	9302
1234	0.0001813741728551684	9006
1273	0.0001806022415252888	9114
490	0.0001804983276924204	2936
579	0.0001804092586928189	3906
1187	0.0001803795690262851	8545
1257	0.00017985999986194304	9031
178	0.00017983031019540923	408
703	0.00017913260303186422	5111
162	0.0001791177581985973	209
1061	0.0001777371887047742	8308
547	0.0001776332748719058	3705
330	0.0001768464987087593	2209
1292	0.00017680196420895856	9405
333	0.00017672774004262397	2303
494	0.00017669805037609013	2940
1097	0.00017589642937967674	8433
1207	0.00017515418771633096	8708
1258	0.00017500573938366182	9032
1088	0.00017493151521732724	8424
527	0.000174797911717925	3404
1280	0.0001745900840521882	9209
1127	0.00017398144588824468	8465
1077	0.00017393691138844393	8413
463	0.00017386268722210935	2908
691	0.00017386268722210935	5006
852	0.00017384784238884244	6603
1125	0.0001738033078890417	8462
939	0.00017377361822250786	7219
1032	0.0001737142388894402	8107
892	0.00017347672155716958	7007
850	0.00017236335906215095	6601
967	0.00017236335906215095	7318
267	0.00017228913489581636	1501
1214	0.00017120546206733157	8715
777	0.00017004756507251219	5901
1295	0.00017004756507251219	9504
941	0.00016948346140836941	7221
911	0.0001691717199097642	7107
545	0.00016805835741474557	3703
474	0.00016767239174980578	2919
991	0.00016743487441753512	7501
534	0.00016716766741873065	3505
1081	0.00016590585659104288	8417
969	0.00016566833925877223	7320
269	0.00016549020125956925	1503
549	0.00016482218376255808	3707
1239	0.00016387211443347552	9013
783	0.00016370882126753945	5907
1065	0.00016370882126753945	8401
1073	0.0001627735967717238	8409
1272	0.00016246185527311858	9113
1121	0.00016213526894124646	8458
1053	0.00016177899294284048	8215
1103	0.00016163054461017134	8439
1067	0.00016151178594403601	8403
515	0.00016073985461415643	3213
682	0.0001598343197848746	4908
1051	0.0001596264921191378	8213
732	0.00015961164728587089	5405
540	0.0001577708879607734	3604
898	0.00015747399129543513	7014
766	0.00015722162912989757	5801
851	0.00015671690479882245	6602
1318	0.0001566723702990217	9701
1278	0.00015649423229981873	9207
349	0.0001559895079687436	2507
994	0.0001559895079687436	7505
1310	0.00015475738680758967	9611
1144	0.00015447533497551827	8483
1105	0.00015443080047571753	8441
692	0.0001538963864781086	5007
592	0.00015285724814942454	3919
276	0.0001524415928179509	1510
938	0.000152426747984684	7218
874	0.0001513579199894661	6903
1266	0.00015120947165679695	9107
1049	0.00015101648882432706	8211
509	0.00015092741982472558	3207
1104	0.00014945778133130098	8440
1195	0.00014941324683150024	8605
1297	0.00014914603983269575	9506
484	0.00014911635016616194	2929
1020	0.00014905697083309426	7905
739	0.00014824050500341393	5504
482	0.0001474091943404667	2927
880	0.0001473349701741321	6909
854	0.00014683024584305701	6702
1264	0.00014681540100979008	9105
1193	0.00014657788367751945	8603
658	0.00014641459051158338	4504
1086	0.00014626614217891424	8422
530	0.0001451676245171625	3407
1319	0.00014490041751835805	9702
655	0.00014363860669067027	4501
656	0.00014332686519206506	4502
1047	0.00014254008902891854	8209
1044	0.00014202051986457652	8206
1232	0.0001417978473655728	9004
544	0.00014164939903290366	3702
587	0.00014068448487055416	3914
480	0.00014059541587095267	2925
1274	0.00013980863970780618	9201
543	0.00013891794971179126	3701
705	0.00013829446671458084	5113
1109	0.00013703265588689307	8445
1110	0.00013683967305442316	8446
742	0.00013615681072414506	5507
468	0.0001353997242275324	2913
1034	0.00013035248091678128	8109
