401	0.01634892730968432	2709
402	0.010366093652507152	2710
153	0.00785471346826694	106
403	0.007828626103808753	2711
618	0.007554965879801251	4102
169	0.007168026160587337	306
706	0.0070796856373169705	5201
925	0.00671574804891967	7204
263	0.006629138684525964	1301
616	0.005870633993745306	4100
332	0.005806204031197129	2302
255	0.0054598008539961	1207
640	0.005288844629879175	4407
260	0.005150197658064275	1212
912	0.005089607097381166	7108
293	0.005067616237591512	1701
166	0.005016624181571073	303
636	0.004852438331278711	4403
599	0.004802011901425894	4001
836	0.004747986032324575	6309
259	0.004737959022989464	1211
422	0.004690292163227166	2814
222	0.004462087714872168	901
168	0.004412638275672516	305
358	0.004399731714938604	2516
206	0.004377757995335846	713
211	0.004281275883289108	804
499	0.00423230636932259	3102
641	0.004213537864669689	4408
223	0.003927656687404179	902
170	0.0038997353229479454	307
165	0.0038495488557116955	302
619	0.0038057042576275673	4103
459	0.003701971846523133	2904
151	0.003697755360546317	104
208	0.0035307927999765386	801
297	0.00350016328599048	1801
164	0.0034183703141150074	301
167	0.0033377257347616753	304
907	0.0033021769871359984	7103
1322	0.0032310280713239515	9705
340	0.0032243262582469794	2401
797	0.003194365211549929	6104
399	0.003186223622773556	2707
999	0.0031513433424368866	7602
250	0.0031416077162790346	1202
795	0.0031315292863832306	6102
802	0.003054758389268762	6109
266	0.003042314613581085	1404
645	0.002979084464115742	4412
186	0.0029687832117902685	507
372	0.0029501518286325487	2601
721	0.0029465181090102517	5305
231	0.0029439642211625053	910
617	0.0029036676417661857	4101
405	0.0028649136791906527	2713
796	0.0028643651932099288	6103
978	0.00283099324932025	7403
807	0.002813150314759821	6114
708	0.0027865144643209098	5203
798	0.0027416243148360264	6105
341	0.0027056642027248065	2402
201	0.0026818907634977985	708
707	0.002676594445746432	5202
1221	0.0026600541653902226	8901
380	0.002653523754182227	2609
906	0.002648570240168813	7102
1217	0.0026269221841171107	8802
261	0.002618060707491038	1213
382	0.002604177156103961	2611
456	0.002573461941183414	2901
423	0.0025723478290350685	2815
287	0.0025617037729716427	1522
240	0.002553236520644215	1101
342	0.0025281432870260905	2403
794	0.0025233268945078573	6101
566	0.0024941371562211996	3817
639	0.00244156820300618	4406
635	0.002419817305833092	4402
574	0.002409447492760028	3901
291	0.002406962165659872	1604
345	0.00240430543669074	2503
1225	0.002395735343241927	8905
464	0.002323712277898101	2909
837	0.002323626576963613	6310
799	0.002322238221824905	6106
642	0.0023050123339927904	4409
365	0.0022738686143998037	2523
374	0.0022635159415136373	2603
298	0.0022473013247084825	1802
498	0.0022438218667682644	3101
281	0.002202016950924954	1515
803	0.002195640801399037	6110
377	0.0021814830070215974	2606
386	0.002148522427617462	2615
210	0.0021311594182901665	803
245	0.002129068315488656	1106
295	0.002115767530456098	1703
575	0.002061518838925111	3902
187	0.0020351572314765616	508
813	0.002034814427738609	6203
556	0.0020338374370854444	3807
241	0.002033168969796437	1102
371	0.0020317634744708313	2530
637	0.0020312664090508	4404
801	0.002029141025875495	6108
196	0.0020090870072052716	703
713	0.0020046991193594793	5208
392	0.0019950149137623204	2621
927	0.001979760147423433	7206
239	0.001973761082009264	1008
917	0.001973623960514083	7113
748	0.0019716356988339584	5513
714	0.001954958296982568	5209
1223	0.0019425488016686864	8903
1222	0.0019413661287727502	8902
286	0.0019260599418731699	1521
188	0.001923163250287471	510
207	0.0018644238297893054	714
331	0.001861509998016709	2301
710	0.0018603273251207727	5205
400	0.0018581676615716718	2708
928	0.0018494604466276776	7207
1199	0.0018490490821421346	8609
388	0.0018427586335507057	2617
242	0.0018360739606606315	1103
283	0.001830777642909265	1517
282	0.001824812857868891	1516
362	0.001801553624248812	2520
308	0.0017952803158442809	2002
833	0.0017914237737923148	6306
292	0.0017858532130505863	1605
406	0.0017845676990332644	2714
323	0.001777660203713521	2202
998	0.0017749349139967983	7601
264	0.0017652335682127418	1302
717	0.0017618398112070118	5212
759	0.001737569306559973	5608
832	0.0017371750822613274	6305
693	0.0017269938112441374	5101
192	0.0017148928392944132	603
563	0.001713350222473627	3814
1228	0.0016850517739056459	8908
313	0.0016782814000810833	2007
1277	0.0016607469888848115	9206
646	0.001657061848701822	4413
202	0.0016568904468328457	709
541	0.001648526035626804	3605
1204	0.001648028970206773	8705
921	0.0016379848206847637	7118
761	0.0016287291197600456	5701
831	0.0016187021104249342	6304
891	0.0015820392506509114	7006
336	0.0015777370637396072	2306
681	0.0015738633815007438	4907
1260	0.0015709324095412496	9101
701	0.0015654304095471115	5109
270	0.0015611282226358073	1504
924	0.0015565003721734483	7203
918	0.001552112484327656	7114
172	0.0015492329329288546	402
226	0.0015317499422932757	905
373	0.0015286818488386006	2602
653	0.0015275505965033573	4420
962	0.0015229913067885887	7313
909	0.0015181749142703558	7105
426	0.0015176264282896316	2818
412	0.0015159295497867667	2804
217	0.0015126043535286272	810
923	0.001511970166613415	7202
348	0.001508936353532535	2506
929	0.0015070337927868985	7208
1057	0.0015050969516674669	8304
225	0.0014951899236406389	904
393	0.0014845972881379057	2701
236	0.001470730876937726	1005
821	0.0014608409890977956	6211
524	0.0014605667461074336	3401
919	0.0014543448582635952	7115
979	0.0014535392694794067	7405
414	0.0014520652134062109	2806
935	0.001444266428367791	7214
1017	0.0014417982414545328	7901
977	0.0014396899984661247	7402
238	0.001435730615292773	1007
695	0.001430965643335233	5103
863	0.0014306571199710755	6807
709	0.0014285145966088722	5204
315	0.0014205615498883736	2009
191	0.001416139381668786	602
237	0.0014148538676514641	1006
610	0.0014093347274704284	4012
1216	0.001407380746164099	8801
185	0.0014059409704646985	506
688	0.0014032671013086686	5003
820	0.0014022558302817087	6210
444	0.0013998047835553481	2836
329	0.0013960682228116657	2208
1304	0.00139430278356121	9605
1018	0.001375911363020057	7903
905	0.0013724833256405318	7101
493	0.0013701179798486594	2939
936	0.0013611193817274056	7215
411	0.001347424372396202	2803
895	0.0013285187462481203	7010
299	0.0013277645780246246	1803
694	0.0013195715686875594	5102
1030	0.001318251774296442	8105
600	0.0013109500546780533	4002
381	0.0013090989144931096	2610
538	0.001300820204221556	3602
1276	0.0013000317556242653	9205
829	0.0012860625033026998	6302
811	0.0012817088958307027	6201
441	0.001280131998636121	2833
1293	0.001277560970601477	9406
277	0.0012739958117267709	1511
657	0.0012724189145321891	4503
214	0.0012714247836921268	807
324	0.0012667626528559725	2203
815	0.0012664541294918152	6205
149	0.0012630432322991876	102
1116	0.0012614320547308106	8452
687	0.001260540765012134	5002
219	0.0012583811014630333	812
278	0.0012458516248408684	1512
960	0.0012454231201684278	7311
765	0.0012365273631685595	5705
913	0.001231282465977886	7109
738	0.0012294827463536352	5503
650	0.0012287457183170372	4417
230	0.0012269802790665818	909
1093	0.0012258833071051337	8429
976	0.0012248377557043785	7401
204	0.00122367222299534	711
311	0.0012218553631841915	2005
1235	0.0012177245781418635	9007
376	0.0012122568585215207	2605
352	0.001207886110862626	2510
1009	0.0012008929146083945	7612
300	0.0011981676248916718	1804
209	0.001195459475361847	802
712	0.0011938997183541628	5207
458	0.0011705547837995958	2903
157	0.0011694578118381478	204
193	0.0011593279613816506	604
398	0.0011501236810176252	2706
390	0.0011494723539155155	2619
421	0.0011393596436459158	2813
814	0.001135640223089131	6204
387	0.0011346118118752734	2616
319	0.0011325549894475582	2104
611	0.001116563195072073	4013
972	0.001114952017503696	7323
806	0.0011099985034902819	6113
1094	0.0011062105221859065	8430
194	0.0011006913820048709	701
1208	0.0010933725221995844	8709
328	0.0010921384287429553	2207
752	0.00108495669043285	5601
316	0.001081322970810553	2101
199	0.0010741583726873454	706
436	0.0010734727652114402	2828
496	0.0010732156624079759	2942
1321	0.0010720844100727326	9704
1224	0.0010674394194234757	8904
279	0.0010673022979282947	1513
355	0.001066188185779949	2513
179	0.0010627601484004237	409
301	0.0010626401670921404	1805
952	0.0010566582418648689	7303
216	0.0010558183727068851	809
1320	0.001054858522240618	9703
303	0.0010540015128957367	1902
595	0.001049990709161692	3923
203	0.0010486709147705749	710
407	0.001046648372716655	2715
958	0.0010434431577667988	7309
314	0.0010382839615106134	2008
762	0.001036929886745701	5702
189	0.0010358329147842529	511
674	0.0010329190830116563	4824
1001	0.0010328505222640658	7604
212	0.0010274856437651088	805
1227	0.001024040466198686	8907
322	0.0010178357185417451	2201
184	0.0010106196998578443	505
220	0.0010042778307057228	813
1203	0.001003163718557377	8704
950	0.0010003870082799615	7301
1002	0.0009958105783782953	7605
934	0.0009932738307174465	7213
343	0.0009899143540855117	2501
758	0.0009853722045576408	5607
502	0.000977521998958528	3105
660	0.0009768878120433157	4602
621	0.0009736825970934597	4105
819	0.0009718143167216184	6209
651	0.0009717114756002326	4418
418	0.0009663123167274804	2810
350	0.0009626271765444907	2508
550	0.0009608445971071376	3801
767	0.0009584278307545722	5802
887	0.00095779364383936	7002
1152	0.0009529943915080247	8506
792	0.0009501319802961211	6005
1313	0.0009498063167450661	9614
265	0.000949583494315397	1401
318	0.0009462925784310528	2103
818	0.0009455212700206595	6208
872	0.0009444071578723138	6901
1135	0.0009409962606796862	8474
903	0.0009405506158203479	7019
454	0.0009387337560091996	2849
554	0.0009365398120863034	3805
155	0.0009327175504081327	202
363	0.0009304721859245437	2521
1011	0.0009303693448031579	7614
817	0.0009291181111596311	6207
1263	0.0009285696251789071	9104
379	0.0009284325036837261	2608
256	0.0009262899803215228	1208
1095	0.0009185254756568981	8431
842	0.0009087727093121487	6405
385	0.0009044705224008445	2614
243	0.000888804391576414	1104
948	0.0008852220925148101	7228
415	0.0008813141299021513	2807
614	0.0008739609897230696	4016
749	0.0008718527467346615	5514
779	0.0008650309523494063	5903
828	0.0008637968588927772	6301
409	0.0008621514009506051	2801
347	0.0008606602046905116	2505
317	0.0008544725972204685	2102
304	0.0008471194570413867	1903
244	0.0008468966346117176	1105
835	0.0008468109336772294	6308
916	0.0008457653822764743	7112
321	0.0008428686906907754	2106
822	0.0008409661299451389	6212
800	0.0008392006906946834	6107
804	0.0008372981299490468	6111
816	0.0008352755878951269	6206
357	0.0008335615692053643	2515
625	0.0008326017187390972	4201
228	0.0008322760551880424	907
175	0.0008313333449086729	405
285	0.0008298935692092722	1520
327	0.0008296707467796031	2206
307	0.0008275110832305022	2001
1070	0.0008190952514637677	8406
205	0.0008177411766988552	712
1022	0.0008047317748435568	8001
296	0.0007959559991519721	1704
434	0.0007943448215835952	2826
246	0.0007935906533600997	1107
867	0.000793487812238714	6811
981	0.0007909339243909676	7407
215	0.0007869574010307183	808
733	0.0007835636440249883	5406
229	0.0007834436627167049	908
790	0.0007828266159883903	6003
503	0.0007807697935606751	3201
1008	0.000776878971134914	7611
1241	0.0007765533075838591	9015
1129	0.0007718397561870118	8468
955	0.0007707427842255638	7306
1301	0.0007655493075955829	9602
431	0.0007654807468479924	2823
659	0.000764675158063804	4601
881	0.0007645380365686231	6910
273	0.0007579733449868322	1507
631	0.0007567049711564078	4302
183	0.0007477577935958469	504
410	0.0007476206721006659	2802
443	0.0007475006907923824	2835
805	0.0007451010646267148	6112
1012	0.0007448096814494551	7615
368	0.0007440040926652667	2526
310	0.0007436955693011093	2004
559	0.0007425814571527636	3810
1120	0.0007377136440738378	8457
1074	0.0007372851394013972	8410
1124	0.0007355711207116346	8461
173	0.0007326915693128333	403
812	0.0007289892889429459	6202
378	0.0007278066160470097	2607
195	0.0007232473263322412	702
471	0.0007212247842783212	2916
770	0.0007198707095134088	5805
755	0.0007131003356888463	5604
432	0.0007124661487736342	2824
886	0.0007120719244749887	7001
1200	0.0007071869712091652	8701
689	0.0007015992702805391	5004
1244	0.0007007936814963507	9018
430	0.0006995938684135169	2822
675	0.000698805419816226	4901
1236	0.0006984626160782734	9008
364	0.0006926178123461829	2522
697	0.0006878014198279499	5105
1167	0.0006851104104850226	8523
359	0.0006843733824484247	2517
966	0.0006827793450669454	7317
782	0.0006827107843193549	5906
1205	0.0006805682609571516	8706
351	0.0006779458123618148	2509
1197	0.0006765060366624141	8607
448	0.0006763517749803355	2841
570	0.0006748777189071396	3821
654	0.0006744320740478013	4421
877	0.0006733693824601485	6906
838	0.0006731122796566841	6401
1196	0.000672700915171141	8606
148	0.0006720838684428265	101
360	0.0006687758123715846	2518
520	0.0006687072516239941	3304
1172	0.0006659991020941692	8530
982	0.000665502036674138	7408
1215	0.0006622282609766914	8716
569	0.0006605142422869288	3820
711	0.0006588687843447566	5206
937	0.0006574975693929465	7217
1023	0.0006561263544411364	8002
1300	0.0006552007843486646	9601
1050	0.0006546351581810429	8212
519	0.000650093008653172	3303
435	0.0006486189525799761	2827
523	0.0006483789899634093	3307
1003	0.0006475048404316303	7606
213	0.0006474877002447327	806
716	0.0006464250086570799	5211
152	0.0006441967843603885	105
221	0.000642568466605114	814
596	0.0006384034011889907	3924
940	0.0006339640927825055	7220
750	0.0006313587843740663	5515
668	0.0006300389899829491	4800
686	0.0006298847283008705	5001
354	0.0006255825413895663	2512
227	0.0006239542236342918	906
457	0.0006238342423260084	2902
841	0.0006229258124204342	6404
843	0.0006205433264416642	6406
680	0.0006204233451333807	4906
274	0.0006203547843857902	1508
1247	0.0006202690834513021	9021
983	0.0006171324292490364	7409
366	0.0006165496628945171	2524
249	0.000616052597474486	1201
275	0.0006159668965399979	1509
159	0.0006158640554186121	206
1043	0.0006158640554186121	8205
987	0.0006124531582259845	7413
289	0.0006123331769177011	1602
899	0.000611973232992851	7015
915	0.0006106020180410408	7111
437	0.0006056485040276268	2829
857	0.0006030946161798805	6801
337	0.0006019119432839442	2307
1269	0.0005990152516982454	9110
791	0.0005985867470258047	6004
1177	0.0005982782236616475	8535
876	0.000597935419923695	6905
594	0.0005970098498312232	3922
930	0.000596512784411192	7209
808	0.0005964956442242944	6115
747	0.000594953027403508	5512
1279	0.0005908565227349753	9208
858	0.000588251214326536	6802
461	0.0005878569900278907	2906
827	0.0005874799059161429	6217
1007	0.0005849774386290894	7610
536	0.0005848745975077037	3507
232	0.0005815665414364618	1001
247	0.0005783270461128104	1108
737	0.0005778128405058816	5502
404	0.0005767158685444335	2712
1014	0.0005755160554615997	7801
954	0.000570271158270926	7305
862	0.0005633293825773874	6806
769	0.0005627637564097657	5804
408	0.0005624209526718132	2716
1151	0.0005621295694945536	8505
879	0.0005603127096834051	6908
740	0.0005579645040784303	5505
604	0.0005543479246430312	4006
557	0.000554125102213362	3808
1254	0.0005530452704388116	9028
1186	0.0005499428966103412	8544
257	0.0005497029339937745	1209
1302	0.00054944583119031	9603
1111	0.0005483145788550667	8447
1230	0.0005474404293232878	9002
696	0.00054468085923277	5104
715	0.0005421612517588189	5210
1323	0.000542109831198126	970
1179	0.0005388360555006794	8537
1219	0.0005382875695199553	8804
990	0.000537704803165436	7419
419	0.000533162653637565	2811
1226	0.0005309515695277712	8906
338	0.000530505924668433	2308
1286	0.0005278320555124033	9306
1281	0.0005276092330827341	9301
965	0.0005274892517744507	7316
868	0.0005263922798130026	6812
764	0.0005249010835529091	5704
150	0.0005239583732735397	103
840	0.0005233584667321227	6403
306	0.0005205646162678096	1905
467	0.0005201703919691643	2912
158	0.0005199818499132903	205
397	0.0005199818499132903	2705
290	0.0005196047658015426	1603
505	0.0005193305228111806	3203
1016	0.0005189191583256375	7806
539	0.0005187648966435589	3603
176	0.000518302111597323	406
622	0.0005172565601965677	4106
601	0.0005147883732833096	4003
446	0.0005141370461811998	2839
774	0.0005098348592698956	5809
1006	0.0005096805975878169	7609
959	0.0005091321116070928	7310
254	0.0005085664854394712	1206
1188	0.0005075723545994089	8546
1194	0.0005048984854433792	8604
356	0.0005042471583412693	2514
507	0.0005042128779674741	3205
947	0.0005021217751659638	7227
1149	0.0005020189340445779	8503
612	0.0005015561489983421	4014
849	0.0005015218686245467	6507
262	0.0005013847471293658	1214
1148	0.0004990708218981862	8502
1218	0.0004986423172257456	8803
542	0.0004984023546091788	3606
810	0.0004982652331139977	6117
510	0.0004970825602180615	3208
346	0.0004945972331179058	2504
450	0.0004923347284474191	2844
1298	0.0004882725041526816	9507
1075	0.00048736407424710744	8411
218	0.0004871583920043359	811
910	0.00048503300882903023	7106
1308	0.00048472448546487296	9609
511	0.00048446738266140856	3209
1010	0.0004840045976151727	7613
630	0.00048378177518550354	4301
177	0.00048326756957857474	407
638	0.00048119360696396193	4405
1083	0.00048112504621637144	8419
757	0.0004802337564976949	5606
789	0.00047882826117208953	6002
643	0.00047521168173669033	4410
1130	0.0004751259808022022	8469
760	0.00047498885930702124	5609
727	0.00047490315837253307	5311
644	0.0004748517378118402	4411
551	0.00047320627986966807	3802
512	0.00047276063501032977	3210
1039	0.00047228070977719627	8201
445	0.0004718007845440627	2837
989	0.0004714408406192126	7418
546	0.00047106375650746477	3704
224	0.0004703610088446621	903
572	0.0004703095882839692	3824
1299	0.00046516753221468134	9508
1028	0.0004624936630586516	8103
702	0.0004617052144613608	5110
623	0.0004609339060509676	4114
416	0.0004580200742783711	2808
889	0.0004570773639990017	7004
568	0.0004564260368968919	3819
320	0.00045575756960788445	2105
353	0.00045481485932851503	2511
1025	0.00045455775652505063	8007
302	0.00045445491540366484	1806
1184	0.00045414639203950757	8542
823	0.00045399213035742897	6213
875	0.0004534093640029096	6904
1062	0.00045322082194703577	8309
951	0.0004524837939104378	7302
433	0.00045243237334974495	2825
1037	0.0004517810462476352	8112
1178	0.00045087261634206094	8536
1096	0.0004504955322303132	8432
171	0.00044871295279296	401
501	0.000444770709806506	3104
197	0.0004443593453209629	704
980	0.0004440851023306009	7406
897	0.00044403368176990803	7013
933	0.0004427138873787908	7212
590	0.00044235394345394066	3917
992	0.0004406913453248709	7502
970	0.00044065706495107567	7321
1052	0.0004397314948586038	8214
1058	0.00043908016775649403	8305
522	0.0004377603733653768	3306
1106	0.0004367319621515192	8442
754	0.0004358749528066379	5603
839	0.00043549786869489013	6402
784	0.0004354635883210949	5908
724	0.000435275046265221	5308
1005	0.00043429805561205626	7608
473	0.0004331496630899153	2918
573	0.00043304682196852956	3825
586	0.0004323097939319316	3913
931	0.0004316413266429242	7210
1201	0.0004315213453346408	8702
944	0.00043131566309186927	7224
1084	0.00043104142010150725	8420
1303	0.00043018441075662594	9604
968	0.0004291217191689731	7319
773	0.0004277847845909583	5808
848	0.0004276990836564701	6506
335	0.0004275448219743915	2305
634	0.00042644785001294343	4401
720	0.0004248709528183618	5303
190	0.00042421962571625196	601
451	0.0004230540930072134	2845
602	0.00042269414908236325	4004
844	0.0004218028593636867	6501
455	0.0004216314574947104	2852
198	0.00042106583132708875	705
1004	0.00041971175656217626	7607
1122	0.0004189575883386807	8459
953	0.0004188890275910902	7304
788	0.000418117719180697	6001
413	0.0004172778500227133	2805
1112	0.00041585521451021034	8448
1240	0.0004156323920805412	9014
613	0.00041549527058536015	4015
744	0.000414723962174967	5509
1033	0.0004147068219880694	8108
729	0.00041412405563355005	5402
252	0.0004127357004948423	1204
326	0.00041203295283203967	2205
809	0.00041105596217887495	6116
1183	0.000410318934142277	8541
469	0.00040824497152766424	2914
476	0.0004079707285373022	2921
384	0.0004075765042386568	2613
1138	0.00040749080330416867	8477
453	0.00040713085937931853	2847
1038	0.0004064966724641063	8113
251	0.0004058796257357918	1203
154	0.00040390850424256477	201
735	0.0004034114388225336	5408
521	0.0004030857752714787	3305
294	0.00040277725190732144	1702
1283	0.0004027601117204238	9303
513	0.0004018859621886449	3211
465	0.0004015088780768971	2910
859	0.0004011317939651493	6803
846	0.00040012052293818934	6504
1063	0.0004000691023774965	8310
488	0.0003996920182657487	2934
1165	0.0003991778126588199	8521
391	0.0003970010089228214	2620
514	0.0003963325416338139	3212
847	0.0003963154014469163	6505
896	0.0003952012892985706	7011
1315	0.0003947042238785394	9616
1036	0.0003932644481791388	8111
1000	0.0003912933266859118	7603
670	0.00039012779397687317	4807
1242	0.0003897335696782278	9016
1229	0.00038899654164162984	9001
1220	0.0003870939808959933	8805
253	0.0003869397192139147	1205
685	0.00038553422388830935	4911
370	0.0003850714388420734	2529
743	0.00038500287809448293	5508
864	0.00038443725192686127	6808
1091	0.0003842829902447826	8427
825	0.0003841115883758063	6215
1040	0.00038306603697505116	8202
584	0.0003801864855762499	3911
1169	0.0003798265416513998	8526
1082	0.00037840390613889675	8418
1174	0.00037704983137398426	8532
652	0.00037617568184220533	4419
529	0.000374358822031057	3406
486	0.00037382747623723056	2932
1255	0.00037108504633361034	9029
383	0.00037072510240876015	2612
824	0.0003693367472700524	6214
667	0.0003688568220369189	4707
1133	0.00036875398091553314	8472
312	0.0003665257566188417	2006
438	0.00036602869119881055	2830
943	0.00036467461643389807	7223
860	0.00036465747624700044	6804
1013	0.0003643660930697408	7616
268	0.0003642975323221503	1502
973	0.00036328626129519034	7324
830	0.00036184648559578974	6303
555	0.0003602867285881057	3806
1287	0.0003595497005515078	9307
628	0.00035893265382319324	4205
1189	0.00035884695288870513	8547
669	0.0003583670276555716	4802
741	0.0003577328407403594	5506
1041	0.0003576814201796665	8203
562	0.0003574585977499974	3813
666	0.0003551446725188178	4706
564	0.00035281360710074066	3815
1291	0.0003524193828020952	9404
603	0.0003516137940179068	4005
1250	0.0003514938127096234	9024
988	0.00035132241084064714	7415
1311	0.00035118528934546616	9612
1181	0.0003508596257944112	8539
565	0.0003502768594398919	3816
567	0.0003484257192549483	3818
1233	0.00034722590617211445	9005
1079	0.0003469345229948548	8415
1141	0.000346146074397564	8480
449	0.0003457689902858162	2843
504	0.00034510052299680877	3202
163	0.0003450662426230135	210
528	0.0003441063921567465	3405
1099	0.00034299228000840077	8435
1262	0.000342889438887015	9103
492	0.00034201528935523604	2938
1290	0.00034108971926276424	9403
648	0.0003410382987020713	4415
1059	0.00034096973795448083	8306
1087	0.00034064407440342594	8423
1090	0.00033999274730131616	8426
1294	0.000339769924871647	9503
984	0.00033947854169438736	7410
1102	0.00033910145758263955	8438
698	0.0003372331772107983	5106
1209	0.00033699321459423155	8710
975	0.00033459358842856385	7326
475	0.0003343022052513042	2920
589	0.0003342850650644066	3916
200	0.0003336851585229896	707
730	0.00033365087814919437	5403
673	0.0003332052332898561	4823
734	0.00033305097160777746	5407
233	0.00033227966319738427	1002
1211	0.0003317140370297626	8712
344	0.0003314740744131958	2502
620	0.00033017142020897626	4104
1027	0.00032964007441514985	8102
339	0.0003295886538544569	2309
883	0.0003295029529199688	6912
1046	0.0003290915884344258	8208
901	0.0003290744482475282	7017
908	0.00032886876600475665	7104
1132	0.0003269662052591201	8471
1123	0.0003260920557273412	8460
1026	0.0003256464108680029	8101
865	0.00032542358843833374	6809
571	0.00032451515853275956	3823
700	0.0003230068220857684	5108
1259	0.00032269829872161115	9033
271	0.00032262973797402066	1505
585	0.00032166988750775355	3912
234	0.0003216356071339583	1003
1164	0.00032153276601257257	8519
624	0.0003213613641435963	4115
1243	0.0003203843734904316	9017
866	0.00031971590620142416	6810
535	0.0003194245230241645	3506
427	0.0003193216819027788	2819
1072	0.0003187389155482595	8408
1055	0.0003186532146137713	8302
1171	0.0003184818127447951	8529
853	0.0003180533080723544	6701
1128	0.0003179847473247639	8467
1048	0.00031793332676407105	8210
787	0.0003179161865771734	5911
440	0.0003177276445212995	2832
389	0.00031765908377370903	2618
609	0.00031724771928816597	4011
558	0.0003170077566715992	3809
1231	0.00031697347629780395	9003
826	0.0003166820931205443	6216
1289	0.00031572224265427726	9402
763	0.00031560226134599384	5703
533	0.0003151223361128603	3503
305	0.00031423104639418374	1904
678	0.0003131512146196333	4904
1139	0.00031131721462158724	8478
1071	0.00031020310247324153	8407
361	0.000309860298735289	2519
491	0.00030938037350215547	2937
420	0.00030850622397037654	2812
506	0.000308163420232424	3204
180	0.000308026298737243	410
1143	0.0003070493080840783	8482
1092	0.00030655224266404714	8428
481	0.000306329420234378	2926
926	0.00030603803705711835	7205
1015	0.00030485536416118215	7804
781	0.0003047011024791035	5905
537	0.0003045639809839225	3601
518	0.0003037241118259388	3302
1118	0.00030363841089145065	8454
479	0.0003024900183693097	2924
1024	0.00030115308379129483	8003
174	0.00030084456042713757	404
1314	0.0003007931398664447	9615
605	0.0002996961679049966	4007
726	0.0002994904856622251	5310
394	0.00029947334547532746	2702
1210	0.0002985820557566509	8711
1175	0.000298256392205596	8533
1275	0.0002979478688414387	9202
548	0.0002978793080938482	3706
942	0.00029765648566417905	7222
1145	0.00029715942024414793	8486
161	0.0002957367847316449	208
1078	0.0002942970090322443	8414
309	0.00029304577538871756	2003
1060	0.0002928572333328437	8307
882	0.00029167456043690745	6911
1305	0.00029119463520377396	9606
1162	0.00029117749501687633	8517
1161	0.0002908518314658214	8516
856	0.0002902519249244045	6704
1192	0.00029004624268163295	8602
995	0.00028937777539262555	7506
477	0.000288486485673949	2922
1238	0.00028750949502078427	9011
957	0.00028682388754487924	7308
495	0.0002866867660496982	2941
497	0.0002862582613772576	3006
1270	0.00028596687819999793	9111
531	0.000285641214648943	3501
1134	0.0002849727473599356	8473
485	0.0002835501118474326	2930
395	0.0002834986912867397	2703
1100	0.000282384579138394	8436
1306	0.0002821788968956225	9607
1168	0.000281973214652851	8525
280	0.00028195607446595335	1514
525	0.0002818189529707723	3402
369	0.0002817161118493866	2528
1146	0.00028157899035420554	8487
334	0.0002812019062424578	2304
583	0.00028091052306519813	3910
489	0.0002807562613831195	2935
1142	0.000280276336149986	8481
1288	0.00028000209315962396	9401
845	0.00027941932680510467	6502
869	0.0002790593828802545	6813
649	0.0002788194202636877	4416
1136	0.0002788022800767901	8475
1019	0.00027878513988989246	7904
272	0.0002787337193291996	1506
885	0.00027863087820781385	6914
1212	0.0002783052146567589	8713
870	0.00027827093428296366	6814
1316	0.00027767102774154675	9617
1245	0.0002774482053118776	9019
1101	0.00027657405578009866	8437
974	0.00027623125204214615	7325
1246	0.0002753571025103672	9020
1064	0.00027474005578205263	8311
325	0.00027448295297858823	2204
723	0.00027316315858747105	5307
466	0.0002725803922329517	2911
834	0.00027220330812120395	6307
526	0.00027180908382255857	3403
608	0.0002704721492445437	4010
1284	0.0002703693081231579	9304
487	0.00026887811186306445	2933
793	0.0002685181679382143	6006
425	0.00026700983149122317	2817
532	0.0002664442053236015	3502
719	0.0002662728034546252	5302
582	0.0002651415511193819	3909
1056	0.00026450736420416973	8303
428	0.0002643873828958863	2820
288	0.00026425026140070533	1601
663	0.0002640959997186267	4703
775	0.0002635817941116979	5810
768	0.0002629476071964857	5803
771	0.0002612507286936207	5806
1115	0.000259999495050094	8451
1113	0.00025924532682659846	8449
728	0.00025879968196726016	5401
894	0.00025867970065897674	7009
664	0.000258576859537591	4704
647	0.00025756558851063103	4414
1163	0.0002561600931850257	8518
284	0.0002557830090732779	1518
772	0.0002538804483276414	5807
1158	0.00025374332683246036	8513
1117	0.0002536919062717675	8453
447	0.00025298915860896484	2840
1252	0.0002529205978613743	9026
964	0.00025223499038546927	7315
704	0.0002519950277689025	5112
922	0.00025000676608877786	7201
615	0.00024877267263214873	4017
893	0.0002485841305762748	7008
633	0.0002473671773065434	4304
181	0.00024707579412928374	501
258	0.0002467844109520241	1210
776	0.0002463387660926858	5811
552	0.00024616736422370956	3803
1253	0.00024532749506572587	9027
699	0.0002438020184318371	5107
553	0.0002426364857227985	3804
778	0.00024236224273243648	5902
424	0.00024227654179794837	2816
576	0.0002421737006765626	3903
588	0.00024183089693861006	3915
1213	0.00024172805581722432	8714
1312	0.0002414538128268623	9613
182	0.00024138525207927178	502
1089	0.00024099102778062637	8425
1170	0.00024035684086541422	8527
1256	0.00024023685955713083	9030
1031	0.0002398940558191783	8106
597	0.0002397740745108949	3925
1249	0.00023958553245502102	9023
1176	0.00023888278479221835	8534
478	0.00023877994367083258	2923
1076	0.00023850570068047056	8412
367	0.00023838571937218717	2525
460	0.00023783723339146313	2905
632	0.00023749442965351062	4303
1202	0.00023680882217760557	8703
949	0.00023636317731826726	7229
884	0.00023591753245892898	6913
671	0.00023578041096374797	4810
627	0.00023574613058995273	4203
577	0.00023377500909672568	3904
665	0.00023283229881735623	4705
1191	0.0002323523735842227	8601
751	0.0002320952707807583	5516
1166	0.00023096401844551498	8522
985	0.00023048409321238143	7411
1156	0.0002304669530254838	8511
684	0.00023038125209099566	4910
429	0.0002301241492875313	2821
483	0.00022907859788677608	2928
1068	0.00022906145769987845	8404
1182	0.00022829014928948526	8540
1190	0.000228118747420509	8548
1185	0.00022794734555153275	8543
1248	0.00022787878480394223	9022
878	0.0002278616446170446	6907
248	0.00022715889695424193	1109
1140	0.00022698749508526567	8479
963	0.00022679895302939177	7314
1137	0.00022618190630107723	8476
1159	0.00022578768200243182	8514
1150	0.0002256334203203532	8504
396	0.00022522205583481016	2704
1309	0.00022508493433962915	9610
662	0.00022484497172306237	4702
780	0.00022451930817200745	5904
462	0.00022419364462095256	2907
725	0.00022294241097742585	5309
439	0.00022292527079052822	2831
914	0.00022275386892155197	7110
746	0.00022266816798706382	5511
677	0.00022198256051115877	4903
1021	0.00022114269135317508	7907
888	0.0002209027287366083	7003
1029	0.00021972005584067208	8104
904	0.0002193429717289243	7020
745	0.0002182288595805786	5510
508	0.0002175089717308783	3206
1114	0.00021747469135708304	8450
718	0.00021740613060949253	5301
986	0.0002173889904225949	7412
1155	0.00021714902780602813	8509
417	0.00021696048575015425	2809
516	0.00021663482219909936	3214
1098	0.00021637771939563496	8434
1119	0.00021620631752665868	8455
993	0.00021618917733976105	7504
920	0.00021560641098524177	7117
442	0.00021481796238795095	2834
753	0.00021481796238795095	5602
1261	0.0002141323549120459	9102
500	0.00021409807453825065	3103
629	0.0002140123736037625	4206
578	0.00021361814930511713	3905
1107	0.00021337818668855035	8443
1267	0.00021272685958644054	9108
472	0.0002124354764091809	2917
855	0.00021219551379261412	6703
679	0.00021181842968086634	4905
1131	0.00021113282220496128	8470
1147	0.00021046435491595385	8501
997	0.00020972732687935593	7508
971	0.00020911028015104137	7322
690	0.00020887031753447462	5005
1126	0.00020864749510480547	8463
517	0.00020818471005856957	3215
470	0.0002079447474420028	2915
593	0.00020635071006052354	3920
1160	0.00020629928949983067	8515
1198	0.00020592220538808288	8608
1035	0.00020575080351910663	8110
606	0.00020571652314531138	4008
1285	0.00020535657922046122	9305
1069	0.00020527087828597307	8405
1265	0.00020509947641699682	9106
785	0.00020477381286594193	5909
1154	0.00020407106520313925	8508
961	0.00020208280352301459	7312
756	0.0002019628222147312	5605
1271	0.00020179142034575494	9112
956	0.00020172285959816442	7307
1296	0.00020148289698159767	9505
1108	0.00020120865399123565	8444
945	0.00020093441100087363	7225
890	0.0002004716259546377	7005
375	0.00019973459791803978	2604
452	0.00019944321474078014	2846
1237	0.00019940893436698487	9010
932	0.00019939179418008724	7211
661	0.00019930609324559913	4701
1268	0.00019886044838626082	9109
736	0.00019810628016276528	5501
871	0.00019807199978897003	6815
1054	0.00019783203717240326	8301
156	0.0001977291960510175	203
1045	0.0001975406539951436	8207
235	0.0001966322240895694	1004
1153	0.00019647796240749077	8507
591	0.00019632370072541214	3918
676	0.00019625513997782162	4902
902	0.00019544955119363318	7018
1251	0.0001949353455867044	9025
580	0.0001938383736252563	3907
1173	0.0001931699063362489	8531
731	0.00019306706521486313	5404
1085	0.0001925357194210367	8421
581	0.00019234717736516283	3908
160	0.00019209007456169843	207
946	0.00019150730820717912	7226
996	0.00019150730820717912	7507
672	0.0001910273829740456	4811
900	0.0001909759624133527	7016
683	0.00019080456054437644	4909
1157	0.0001904446166195263	8512
722	0.000189861850265007	5306
861	0.00018900484092012568	6805
1080	0.00018897056054633044	8416
1180	0.0001889362801725352	8538
1206	0.00018813069138834675	8707
1066	0.00018737652316485118	8402
607	0.0001869308783055129	4009
560	0.00018684517737102476	3811
1307	0.00018665663531515088	9608
561	0.00018588532690475769	3812
786	0.0001856967848488838	5910
579	0.00018547396241921465	3906
703	0.0001853711212978289	5111
1317	0.0001853711212978289	9618
873	0.00018513115868126214	6902
1187	0.0001849254764384906	8545
598	0.00018480549513020722	3926
490	0.00018447983157915233	2936
162	0.00018437699045776657	209
626	0.0001843255698970737	4202
1282	0.0001843255698970737	9302
1257	0.00018423986896258556	9031
1042	0.0001842055885887903	8204
1273	0.0001838799250377354	9114
1234	0.0001830400558797517	9006
892	0.00018302291569285409	7007
178	0.00018268011195490157	408
494	0.00018173740167553212	2940
547	0.00018033190634992674	3705
1061	0.00018012622410715524	8308
691	0.0001799205418643837	5006
1127	0.00017916637364088817	8465
1207	0.00017916637364088817	8708
1258	0.00017916637364088817	9032
1032	0.00017908067270640002	8107
1292	0.00017889213065052614	9405
1088	0.0001782922241091092	8424
527	0.00017803512130564484	3404
1125	0.0001772980932690469	8462
1097	0.00017702385027868487	8433
967	0.0001767153269145276	7318
1280	0.00017647536429796082	9209
267	0.00017642394373726795	1501
852	0.0001763382428027798	6603
939	0.00017626968205518932	7219
333	0.0001762525418682917	2303
1214	0.00017611542037311066	8715
1077	0.00017575547644826052	8413
330	0.0001754298128972056	2209
463	0.00017520699046753648	2908
941	0.00017505272878545785	7221
777	0.00017477848579509583	5901
850	0.00017246456056391627	6601
1295	0.00017198463533078272	9504
534	0.00017181323346180646	3505
991	0.00017071626150035838	7501
545	0.00017037345776240584	3703
1272	0.00017025347645412248	9113
474	0.00016999637365065808	2919
969	0.0001698763923423747	7320
911	0.00016965356991270554	7107
549	0.00016867657925954084	3707
1053	0.0001681280932788168	8215
1081	0.0001664997755235423	8417
783	0.0001661055512248969	5907
1073	0.00016579702786073962	8409
1065	0.00016536852318829897	8401
515	0.0001650085792634488	3213
269	0.00016499143907655118	1503
1067	0.00016492287832896066	8403
1239	0.00016464863533859864	9013
1103	0.00016411728954477225	8439
994	0.00016406586898407935	7505
1121	0.0001640315886102841	8458
682	0.00016401444842338648	4908
1051	0.0001625403923501906	8213
732	0.00016231756992052146	5405
1318	0.00016110061665079	9701
540	0.00015931803721343685	3604
851	0.0001592151960920511	6602
1105	0.00015911235497066535	8441
898	0.0001589409531016891	7014
766	0.00015866671011132707	5801
1310	0.00015789540170093387	9611
938	0.00015762115871057185	7218
592	0.00015748403721539084	3919
1278	0.00015671272880499765	9207
1144	0.0001566784484312024	8483
349	0.00015655846712291901	2507
1266	0.0001565413269360214	9107
692	0.00015520439235800653	5007
276	0.00015369605591101541	1510
1049	0.0001533532521730629	8211
509	0.00015319899049098424	3207
1020	0.00015223914002471717	7905
1297	0.00015220485965092192	9506
739	0.0001514164110536311	5504
484	0.0001513478503060406	2929
1104	0.000151330710119143	8440
874	0.00014980523348525425	6903
482	0.00014884538301898718	2927
1086	0.0001487254017107038	8422
1195	0.0001477655512444367	8605
1193	0.00014759414937546043	8603
658	0.0001473199063850984	4504
1264	0.0001472342054506103	9105
880	0.00014721706526371267	6909
656	0.00014670285965678387	4502
854	0.00014665143909609098	6702
1319	0.00014567444844292628	9702
655	0.00014558874750843817	4501
1044	0.00014550304657395002	8206
1047	0.0001453487848918714	8209
1232	0.0001444574951731948	9004
530	0.00014329196246415623	3407
1274	0.00014250351386686541	9201
587	0.0001412522802233387	3914
480	0.0001411322989150553	2925
544	0.00013977822415014283	3702
705	0.0001382013269555612	5113
543	0.00013778996247001816	3701
742	0.0001375328596665538	5507
468	0.00013628162602302704	2913
1110	0.00013563029892091726	8446
1109	0.0001352703549960671	8445
1034	0.00013184231761654183	8109
