153	0.004512328780710368	106
402	0.004361247727585098	2710
401	0.004196617201348359	2709
925	0.003980622659394939	7204
169	0.0038257335844148117	306
255	0.00375851757074419	1207
616	0.0037524955826946484	4100
293	0.003587422263218972	1701
912	0.0035720130585039683	7108
640	0.0035606775515871834	4407
618	0.0034991292913749547	4102
706	0.0034760154843024482	5201
332	0.0034514847388653442	2302
259	0.0034494478899662344	1211
166	0.003301023596274586	303
619	0.0031072572749157984	4103
222	0.003104334839538815	901
617	0.0030375616191071304	4101
260	0.0030085143826328697	1212
206	0.0029467004464772788	713
999	0.002840430069132423	7602
836	0.0027979219181944806	6309
165	0.0027492146619114213	302
403	0.0027483290754335477	2711
266	0.002733274105309693	1404
641	0.0027159166103433666	4408
168	0.0026948396521699705	305
240	0.002685452435504508	1101
813	0.002674736839122235	6203
365	0.0026605674554762543	2523
636	0.0026331142746621665	4403
263	0.0026167309248215013	1301
211	0.002592465855327759	804
340	0.0025728943941667483	2401
250	0.0025429615712146136	1202
231	0.0025341057064358755	910
167	0.002466092664935168	304
707	0.0024637015814449087	5202
186	0.002438108132234356	507
223	0.002426064156135272	902
796	0.0024019762039371047	6103
201	0.0023701836493814354	708
499	0.0023298009059903903	3102
341	0.00230208204923294	2402
797	0.0022915435701462423	6104
323	0.002280296621877245	2202
832	0.002268164087130374	6305
802	0.0022456701905923795	6109
907	0.0022375227949959406	7103
642	0.002215028898457946	4409
798	0.00220475609531461	6105
795	0.002204578978019035	6102
170	0.0021918265327376526	307
637	0.0021315180935944466	4404
208	0.002115223302401569	801
295	0.0021121237497290107	1703
807	0.0020821023681290886	6114
187	0.002047210260900861	508
164	0.002003816523485045	301
291	0.00200027417757355	1604
336	0.001992923809807197	2306
708	0.0019883187601222535	5203
202	0.001987787408235529	709
978	0.001986990380405443	7403
799	0.0019833594758461603	6106
283	0.001961574048490465	1517
151	0.0019454563745931615	104
207	0.0019452792572975867	714
422	0.0019381945654745965	2814
342	0.0019368661857577857	2403
1322	0.0019267704999100244	9705
225	0.0019251764442498515	904
794	0.0019154349929932399	6101
282	0.00190055714016496	1516
245	0.0018883360467703016	1106
599	0.0018782403609225403	4001
281	0.0018684989096659284	1515
814	0.0018672590885969052	6204
210	0.001866284943471244	803
962	0.0018620341283774498	7313
405	0.0018530897049509243	2713
524	0.001852115559825263	3401
241	0.0018380347348270697	1102
635	0.0018365292378146843	4402
639	0.001826433551966923	4406
595	0.0018136811066855403	3923
239	0.001806153621623613	1008
297	0.0018003973095174334	1801
837	0.0017985375779138984	6310
998	0.001788441892066137	7601
188	0.0017657708782325677	510
172	0.0017650624090502687	402
541	0.0017640882639246075	3605
721	0.0017547010472591452	5305
710	0.0017500959975742015	5205
242	0.0017310558882999148	1103
713	0.001722022906225602	5208
538	0.0017212258783955157	3602
923	0.0017209602024521535	7202
315	0.0017188347949052564	2009
645	0.0017022743277690163	4412
803	0.0016978463953796475	6110
313	0.0016959866637761124	2007
196	0.0016819943974257063	703
653	0.0016752639401938654	4420
650	0.0016734042085903306	4417
308	0.0016684449243142372	2002
801	0.0016648140197549548	6108
459	0.0016647254611071674	2904
895	0.0016583492384664759	7010
214	0.0016528586023036584	807
374	0.0016504675188133992	2603
714	0.0016485192285620768	5209
287	0.0016470137315496914	1522
758	0.0016463938210151796	5607
815	0.0016428514751036846	6205
217	0.0016377150735320165	810
399	0.0016375379562364417	2707
362	0.0016286820914577036	2520
343	0.0016200919026223277	2501
759	0.0016058339603285596	5608
264	0.0015952954812418615	1302
821	0.0015902476383179809	6211
817	0.0015884764653622332	6207
800	0.0015848455608029506	6107
372	0.0015826315946082662	2601
906	0.0015768752825020865	7102
392	0.0015747498749551893	2621
204	0.0015744841990118271	711
709	0.0015703219425658203	5204
681	0.0015677537417799862	4907
811	0.0015585436424100988	6201
819	0.0015571267040455008	6209
822	0.0015371124496455528	6212
717	0.0015363154218154664	5212
189	0.001530381992413712	511
1199	0.0015248913562508945	8609
712	0.0015041686326686475	5207
286	0.00149495853329876	1521
236	0.0014945157400598232	1005
502	0.0014833573504386133	3105
348	0.001476981127797922	2506
203	0.0014729959886474898	710
935	0.0014714904916351044	7214
498	0.0014665312073590111	3101
842	0.001464671475755476	6405
651	0.0014643172411643265	4418
292	0.0014615719230829179	1605
818	0.0014564355215112498	6208
805	0.0014549300244988644	6112
278	0.0014512991199395818	1512
149	0.0014487309191537478	102
388	0.0014408491995006709	2617
193	0.0014396093784316477	604
316	0.0014346500941555544	2101
574	0.0014258827880246037	3901
820	0.0014184438616104639	6210
414	0.0014164955713591415	2806
307	0.0014141930465166696	2001
331	0.0014125104322087094	2301
380	0.0014106507006051744	2609
916	0.0014063113268635928	7112
277	0.0013907250048530138	1511
319	0.0013876254521804556	2104
358	0.0013870941002937314	2516
646	0.0013808064363008273	4413
179	0.0013805407603574651	409
212	0.0013790352633450797	805
563	0.001378592470106143	3814
1001	0.001374430213660136	7604
958	0.0013738988617734117	7309
382	0.0013707993091008534	2611
192	0.0013671684045415708	603
1225	0.0013663713767114844	8905
379	0.0013651315556424612	2608
314	0.0013646002037557368	2008
610	0.0013635374999822882	4012
816	0.0013632718240389262	6206
175	0.00136043794730973	405
328	0.0013593752435362813	2207
833	0.0013573383946371717	6306
317	0.0013474198260849852	2102
243	0.0013451173012425132	1104
936	0.0013429918936956162	7215
191	0.0013429033350478288	602
831	0.0013414863966832308	6304
1222	0.0013384754026584597	8902
194	0.001333604677030154	701
311	0.0013296195378797219	2005
205	0.0013285568341062733	712
881	0.0013258115160248644	6910
611	0.0013239517844213294	4013
230	0.0013234204325346052	909
296	0.0013219149355222198	1704
812	0.0013190810587930236	6202
804	0.0013092510488886245	6111
752	0.001308011227819601	5601
329	0.001305885820272704	2208
220	0.0013022549157134214	813
748	0.0012992439216886504	5513
960	0.001298181217915202	7311
1204	0.0012938418441736203	8705
867	0.0012912736433877863	6811
209	0.0012902109396143377	802
237	0.0012869342696462047	1006
219	0.0012862258004639057	812
829	0.0012855173312816067	6302
406	0.0012847203034515203	2714
390	0.001275333086786058	2619
265	0.001274181824364822	1401
927	0.001274181824364822	7206
322	0.0012738275897736723	2201
693	0.001272322092761287	5101
345	0.0012713479476356257	2503
1235	0.0012653259595860839	9007
838	0.0012602781166622032	6401
185	0.0012586840610020304	506
183	0.0012577984745241566	504
808	0.0012528391902480633	6115
441	0.0012509794586445283	2833
363	0.001250182430814442	2521
371	0.0012465515262551595	2530
436	0.0012454888224817109	2828
324	0.0012417693592746408	2203
303	0.001240618096853405	1902
928	0.001240618096853405	7207
761	0.0012392011584888068	5701
357	0.0012368100749985476	2515
393	0.001236190164464036	2701
1293	0.0012307880869490057	9406
216	0.0012186555522021348	809
298	0.0012051946377384531	1802
918	0.0012020950850658947	7114
387	0.00119819850456325	2616
765	0.001197755711324313	5705
423	0.0011921765165137082	2815
318	0.0011909366954446848	2103
668	0.0011894311984322994	4800
256	0.0011868629976464653	1208
1227	0.0011855346179296547	8907
1277	0.0011830549757916081	9206
386	0.001182612182552671	2615
444	0.0011811066855402857	2836
415	0.0011791583952889633	2807
1224	0.0011773872223332156	8904
1009	0.0011749961388429564	7612
917	0.0011732249658872088	7113
806	0.001169771178623501	6113
407	0.0011664059500075805	2715
1221	0.0011608267551969757	8901
575	0.0011598526100713145	3902
749	0.0011595869341279523	5514
1011	0.0011575500852288427	7614
279	0.0011540962979651348	1513
755	0.0011484285445067426	5604
660	0.0011479857512678056	4602
955	0.001146657371550995	7306
464	0.0011430264669917123	2909
218	0.00114107817674039	811
966	0.001138067182715619	7317
934	0.0011372701548855327	7213
1223	0.0011370930375899579	8903
327	0.001131779518722715	2206
199	0.001125226178786449	706
828	0.001123809240421851	6301
750	0.0011215952742271663	5515
863	0.0011195584253280567	6807
695	0.001117521576428947	5103
701	0.0011116767056749798	5109
1228	0.0011112339124360428	8908
937	0.0011095512981280826	7217
1057	0.0011072487732856108	8304
456	0.0011053890416820758	2901
306	0.0011007839919971322	1905
350	0.0010985700258024475	2508
155	0.0010959132663688263	202
1186	0.001095824707721039	8544
1093	0.0010905997475015835	8429
554	0.0010903340715582212	3805
229	0.0010873230775334504	908
426	0.0010859061391688522	2818
1095	0.00108395784891753	8431
977	0.0010837807316219552	7402
762	0.0010812125308361212	5702
886	0.0010765189225033901	7001
1018	0.0010740392803653433	7903
270	0.0010677516163724394	1504
891	0.0010664232366556286	7006
1152	0.0010603126899582996	8506
364	0.0010597813380715752	2522
1012	0.0010595156621282132	7615
982	0.0010574788132291033	7408
238	0.0010557076402733557	1007
1017	0.0010528737635441595	7901
377	0.0010471174514379798	2606
359	0.0010440178987654216	2517
347	0.0010402984355583516	2505
1300	0.00103967852502384	9601
694	0.0010391471731371158	5102
378	0.0010387929385459662	2607
1135	0.0010370217655902186	8474
827	0.001035693385873408	6217
285	0.0010342764475088097	1520
921	0.0010341878888610225	7118
770	0.0010325938332008495	5805
631	0.0010268375210946699	4302
981	0.0010216125608752144	7407
454	0.0010181587736115066	2849
177	0.0010099228193672803	407
412	0.0010074431772292337	2804
1002	0.0010073546185814463	7605
1298	0.0009960191116646618	9507
1094	0.0009957534357212996	8430
688	0.0009954877597779374	5003
381	0.000992831000344316	2610
868	0.0009897314476717577	6812
360	0.0009892000957850335	2518
1030	0.0009851263979868139	8105
261	0.0009847721633956645	1213
740	0.000977687471572674	5505
400	0.0009766247677992254	2708
173	0.0009730824218877303	403
257	0.0009722853940576439	1209
835	0.0009715769248753449	6308
301	0.0009676803443727001	1805
289	0.0009675032270771254	1602
443	0.000967414668429338	2835
929	0.0009661748473603147	7208
716	0.0009654663781780156	5211
909	0.0009643151157567797	7105
930	0.0009613041217320088	7209
659	0.0009587359209461747	4601
215	0.0009577617758205136	808
1215	0.0009567876306948524	8716
594	0.000950145732110799	3922
159	0.0009498800561674368	206
760	0.0009488173523939883	5609
875	0.0009466919448470911	6904
176	0.0009450093305391309	406
1241	0.0009442123027090445	9015
1007	0.0009412013086842736	7610
213	0.000939430135728526	806
411	0.0009368619349426919	2803
434	0.0009368619349426919	2826
840	0.0009357992311692433	6403
1286	0.0009355335552258812	9306
1219	0.0009347365273957948	8804
872	0.000933850940917921	6901
959	0.0009333195890311967	7310
843	0.0009326111198488977	6406
1320	0.0009321683266099608	9703
931	0.0009318140920188113	7210
171	0.0009278289528683792	401
1321	0.0009276518355728045	9704
697	0.0009271204836860801	5105
302	0.0009245522829002461	1806
1260	0.0009235781377745849	9101
299	0.0009226039926489238	1803
557	0.00092171840617105	3808
493	0.0009183531775551296	2939
1254	0.0009151650662347838	9028
952	0.0009146337143480595	7303
522	0.00091427947975691	3306
913	0.0009113570443799265	7109
634	0.0009098515473675411	4401
1003	0.0009098515473675411	7606
1014	0.0009089659608896673	7801
195	0.0009045380285002982	702
221	0.0009045380285002982	814
747	0.0009036524420224244	5512
404	0.0008998444201675671	2712
310	0.0008915199072755534	2004
300	0.0008906343207976796	1804
1290	0.0008901029689109553	9403
687	0.0008893059410808689	5002
590	0.0008865606229994602	3917
496	0.0008842580981569883	2942
246	0.0008820441319623037	1107
841	0.000881867014666729	6404
866	0.000881867014666729	6810
550	0.0008795644898242571	3801
858	0.0008794759311764697	6802
520	0.0008778818755162969	3304
789	0.0008765534957994862	6002
1016	0.000874870881491526	7806
680	0.0008728340325924162	4906
157	0.0008727454739446288	204
1096	0.0008723912393534793	8432
625	0.0008721255634101172	4201
566	0.0008715056528756055	3817
1301	0.0008705315077499444	9602
232	0.0008698230385676453	1001
1203	0.0008683175415552599	8704
919	0.0008676090723729608	7115
546	0.0008673433964295987	3704
596	0.0008669891618384492	3924
148	0.000863004022688017	101
523	0.0008626497880968676	3307
320	0.0008623841121535055	2105
644	0.000862295553505718	4411
273	0.0008609671737889073	1507
970	0.0008608786151411199	7321
790	0.0008593731181287345	6003
351	0.0008563621241039636	2509
876	0.0008537053646703422	6905
983	0.0008535282473747675	7409
715	0.0008521998676579568	5210
1281	0.0008521998676579568	9301
1201	0.0008512257225322955	8702
519	0.0008506943706455712	3303
1179	0.0008499859014632722	8537
1196	0.0008463549969039897	8606
905	0.0008445838239482421	7101
1313	0.0008433440028792188	9614
910	0.0008432554442314314	7106
1208	0.0008418385058668333	8709
337	0.000841749947219046	2307
1082	0.0008414842712756838	8418
1217	0.0008379419253641886	8802
689	0.000837587690773039	5004
355	0.0008347538140438429	2513
648	0.0008329826410880953	4415
432	0.0008328055237925206	2824
1244	0.0008321856132580089	9018
505	0.0008296174124721748	3203
879	0.0008276691222208525	6908
849	0.0008263407425040418	6507
733	0.0008259865079128923	5406
1149	0.000825455156026168	8503
228	0.0008252780387305932	907
510	0.0008252780387305932	3208
976	0.0008212043409323738	7401
1039	0.0008200530785111379	8201
957	0.0008187246987943271	7308
779	0.000817307760429729	5903
1177	0.0008172192017819417	8535
152	0.0008159793807129183	105
1216	0.0008135882972226591	8801
1167	0.0008113743310279746	8523
368	0.0008101345099589513	2526
628	0.0008065036053996687	4205
184	0.000804466756500559	505
512	0.0008021642316580871	3210
674	0.0008004816173501269	4824
539	0.00080003882411119	3603
1074	0.0007996845895200405	8410
294	0.0007990646789855288	1702
446	0.0007989761203377415	2839
948	0.0007982676511554424	7228
247	0.0007977362992687182	1108
1116	0.0007953452157784588	8452
711	0.0007951680984828841	5206
767	0.0007929541322881996	5802
897	0.0007929541322881996	7013
448	0.0007915371939236015	2841
675	0.0007907401660935151	4901
686	0.0007907401660935151	5001
769	0.000790474490150153	5804
419	0.0007902088142067908	2811
1302	0.0007881719653076811	9603
373	0.0007874634961253821	2602
744	0.0007870207028864452	5509
1129	0.0007853380885784849	8468
954	0.0007852495299306975	7305
521	0.0007850724126351227	3305
673	0.0007844525021006111	4823
304	0.0007806444802457538	1903
1291	0.0007769250170386839	9404
1062	0.0007748881681395741	8309
433	0.0007744453749006372	2825
254	0.0007740025816617003	1206
366	0.0007717000568192284	2524
809	0.000770903028989142	6116
623	0.0007698403252156934	4114
602	0.0007642611304050885	4004
643	0.0007636412198705768	4410
511	0.0007631098679838525	3209
339	0.0007618700469148292	2309
990	0.0007616929296192545	7419
1188	0.0007598331980157195	8546
652	0.0007586819355944836	4419
862	0.0007561137348086496	6806
385	0.0007542540032051146	2614
609	0.000748763367042297	4011
431	0.0007482320151555727	2823
1037	0.0007440697587095659	8112
987	0.0007438040827662038	7413
601	0.0007399960609113464	4003
354	0.0007379592120122367	2512
1148	0.0007369850668865755	8502
551	0.0007352138939308279	3802
1023	0.0007346825420441037	8002
1004	0.0007318486653149074	7607
529	0.0007306088442458841	3406
774	0.0007306088442458841	5809
376	0.0007291033472334987	2605
729	0.000728483436698987	5402
792	0.0007262694705043025	6005
227	0.0007235241524228938	906
1025	0.0007227271245928074	8007
965	0.0007220186554105083	7316
457	0.0007209559516370597	2902
810	0.0007181220749078636	6117
274	0.0007179449576122888	1508
903	0.0007174136057255645	7019
743	0.0007145797289963684	5508
738	0.0007140483771096441	5503
569	0.0007136055838707072	3820
197	0.0007129856733361956	704
614	0.000710506031198149	4016
410	0.0007087348582424013	2802
537	0.0007059009815132051	3601
823	0.0007058124228654178	6213
290	0.0007039526912618828	1603
312	0.0007019158423627731	2006
409	0.0007004103453503876	2801
1288	0.0007002332280548129	9401
458	0.000699081965633577	2903
788	0.0006985506137468526	6001
321	0.0006982849378034904	2106
600	0.0006958052956654438	4002
503	0.0006957167370176565	3201
980	0.0006948311505397827	7406
612	0.0006933256535273972	4014
568	0.0006925286256973108	3819
1247	0.0006919087151627992	9021
669	0.0006912002459805001	4802
624	0.0006908460113893506	4115
974	0.0006907574527415632	7325
865	0.0006894290730247525	6809
1174	0.0006889862797858155	8532
1178	0.0006881892519557291	8536
1304	0.000687215106830068	9605
249	0.0006863295203521942	1201
1211	0.000684646906044234	8712
638	0.0006842041128052971	4405
979	0.0006812816774283136	7405
666	0.000680218973654865	4706
839	0.000680218973654865	6402
1043	0.0006762338345044329	8205
507	0.0006754368066743464	3205
356	0.0006719830194106387	2514
702	0.000670654639693828	5110
288	0.0006703889637504658	1601
352	0.0006693262599770173	2510
889	0.0006693262599770173	7004
1308	0.0006689720253858678	9609
826	0.0006678207629646318	6216
353	0.0006666695005433958	2511
844	0.0006640127411097744	6501
950	0.000663215713279688	7301
391	0.0006621530095062395	2620
1022	0.0006612674230283657	8001
234	0.0006601161606071298	1003
1197	0.0006587877808903191	8607
830	0.0006578136357646579	6303
161	0.0006577250771168705	208
947	0.0006571051665823589	7227
1111	0.0006569280492867841	8447
846	0.0006563081387522725	6504
734	0.0006560424628089102	5407
953	0.0006552454349788238	7304
989	0.0006548912003876743	7418
154	0.0006545369657965248	201
857	0.0006545369657965248	6801
338	0.0006534742620230762	2308
899	0.0006518802063629034	7015
1226	0.0006509946198850296	8906
1172	0.0006501090334071558	8530
528	0.0006494891228726442	3405
724	0.0006493120055770694	5308
226	0.0006490463296337073	905
864	0.0006477179499168966	6808
1299	0.0006458582183133616	9508
685	0.000644795514539913	4911
513	0.0006424929896974411	3211
924	0.0006421387551062916	7203
253	0.0006410760513328431	1205
915	0.0006399247889116071	7111
1200	0.0006385078505470091	8701
1141	0.0006375337054213479	8480
757	0.0006372680294779858	5606
951	0.0006371794708301984	7302
933	0.0006354082978744508	7212
728	0.0006348769459877265	5401
1046	0.0006346998286921518	8208
727	0.0006342570354532148	5311
741	0.0006309803654850817	5506
252	0.0006302718963027827	1204
1008	0.0006297405444160584	7611
773	0.0006286778406426099	5808
992	0.0006285892819948225	7502
573	0.0006280579301080982	3825
1005	0.0006272609022780118	7608
450	0.0006247812601399652	2844
158	0.0006246927014921778	205
597	0.0006246927014921778	3925
1289	0.0006243384669010283	9402
1184	0.000623807115014304	8542
825	0.0006236299977187293	6215
1083	0.0006230100871842175	8419
370	0.0006228329698886428	2529
1013	0.0006228329698886428	7616
630	0.0006215045901718321	4301
869	0.0006215045901718321	6813
784	0.0006210617969328952	5908
408	0.000620087651807234	2716
200	0.0006194677412727224	707
435	0.0006188478307382107	2827
344	0.0006184050374992738	2502
525	0.0006154826021222903	3402
882	0.0006136228705187553	6911
1175	0.0006122944908019446	8533
1056	0.0006100805246072601	8303
486	0.0006096377313683232	2932
1070	0.0006092834967771737	8406
824	0.0006088407035382368	6214
754	0.000608663586242662	5603
565	0.0006063610614001902	3816
1194	0.0006062725027524028	8604
620	0.0006061839441046154	4104
771	0.0006056525922178911	5806
926	0.0006049441230355921	7205
1151	0.00060467844709223	8505
1033	0.0006040585365577183	8108
791	0.0006039699779099309	6004
416	0.0006029072741364824	2808
1233	0.000601667453067459	9005
696	0.0006012246598285221	5104
1139	0.0006003390733506483	8478
469	0.0005989221349860502	2914
604	0.0005980365485081764	4006
698	0.0005977708725648143	5106
180	0.0005952912304267677	410
437	0.0005937857334143822	2829
542	0.0005936971747665949	3606
621	0.0005936971747665949	4105
735	0.0005936086161188075	5408
1279	0.0005930772642320832	9208
1000	0.0005925459123453589	7603
398	0.000592103119106422	2706
577	0.0005918374431630599	3904
305	0.0005917488845152725	1904
1133	0.0005905090634462491	8472
1276	0.0005904205047984617	9205
1162	0.0005897120356161627	8517
883	0.0005892692423772258	6912
657	0.0005867896002391792	4503
1236	0.0005861696897046675	9008
280	0.0005857268964657306	1514
559	0.0005854612205223685	3810
699	0.00058439851674892	5107
973	0.0005835129302710462	7324
1050	0.0005820959919064481	8212
772	0.0005817417573152986	5807
471	0.0005814760813719364	2916
1183	0.0005811218467807869	8541
1130	0.000579527791120614	8469
275	0.0005793506738250392	1509
667	0.0005783765286993781	4707
1010	0.0005782879700515907	7613
413	0.0005771367076303548	2805
834	0.0005764282384480557	6307
326	0.0005759854452091188	2205
1090	0.0005756312106179693	8426
1287	0.0005756312106179693	9307
1101	0.0005748341827878829	8437
1064	0.0005741257136055839	8311
975	0.0005731515684799227	7326
586	0.0005727087752409858	3913
1063	0.0005719117474108994	8310
704	0.0005717346301153246	5112
1306	0.0005705833676940887	9607
418	0.0005703176917507266	2810
1209	0.0005691664293294905	8710
1117	0.0005689007533861284	8453
535	0.0005685465187949789	3506
726	0.000568103725556042	5310
1075	0.0005676609323171051	8411
1058	0.0005675723736693177	8305
556	0.000565535524770208	3807
763	0.0005651812901790585	5703
268	0.0005634101172233109	1502
384	0.0005633215585755235	2613
501	0.0005631444412799488	3104
567	0.0005618160615631381	3818
1283	0.0005613732683242012	9303
1024	0.0005611075923808391	8003
504	0.0005610190337330517	3202
1169	0.0005610190337330517	8526
787	0.0005600448886073905	5911
848	0.0005599563299596031	6506
885	0.000559690654016241	6914
533	0.0005596020953684536	3503
1106	0.0005582737156516428	8442
427	0.0005580080397082807	2819
1263	0.0005571224532304069	9104
262	0.0005569453359348321	1214
893	0.0005557055148658088	7008
860	0.0005552627216268719	6804
224	0.000554819928387935	903
1311	0.0005547313697401477	9612
1138	0.0005537572246144865	8477
1040	0.0005534915486711244	8202
1143	0.0005531373140799748	8482
663	0.000550834789237503	4703
847	0.0005500377614074166	6505
271	0.0005494178508729049	1505
1078	0.0005491521749295428	8414
964	0.0005490636162817554	7315
1092	0.0005465839741437087	8428
346	0.0005460526222569844	2504
627	0.0005458755049614097	4203
633	0.0005455212703702601	4304
1315	0.000544547125244599	9616
1259	0.0005443700079490242	9033
150	0.0005439272147100873	103
516	0.0005431301868800009	3214
397	0.0005413590139242533	2705
896	0.0005410047793331038	7011
1303	0.0005410047793331038	9604
972	0.0005402077515030174	7323
1122	0.0005397649582640805	8459
884	0.000539410723672931	6913
571	0.0005386136958428446	3823
500	0.0005379052266605455	3103
1079	0.0005369310815348844	8415
1165	0.0005364882882959474	8521
555	0.000536134053704798	3806
394	0.000535691260465861	2702
1084	0.000535691260465861	8420
963	0.0005352484672269241	7314
778	0.0005350713499313493	5902
768	0.0005348056739879872	5803
1059	0.0005348056739879872	8306
1136	0.0005333001769756017	8475
536	0.0005324145904977279	3507
720	0.0005315290040198541	5303
887	0.0005313518867242794	7002
1161	0.0005306434175419803	8516
664	0.0005301120656552561	4704
908	0.0005280752167561464	7104
1156	0.0005271010716304852	8511
325	0.0005262154851526114	2204
174	0.0005253298986747375	404
588	0.0005253298986747375	3915
944	0.0005243557535490763	7224
1068	0.000524267194901289	8404
190	0.0005224960219455414	601
461	0.000522407463297754	2906
1098	0.0005216104354676676	8434
615	0.0005214333181720928	4017
684	0.0005200163798074948	4910
1309	0.0005196621452163452	9610
782	0.0005192193519774083	5906
856	0.000517271061726086	6704
1055	0.0005170053857827239	8302
163	0.0005159426820092753	210
1118	0.0005159426820092753	8454
1015	0.0005153227714747637	7804
971	0.0005144371849968898	7322
1171	0.0005139058331101655	8529
453	0.0005137287158145907	2847
1132	0.0005136401571668034	8471
1076	0.0005121346601544179	8412
576	0.0005107177217898199	3903
1255	0.0005090351074818597	9029
1150	0.000507706727765049	8504
1242	0.0005072639345261121	9016
608	0.0005056698788659392	4010
473	0.0005050499683314276	2918
793	0.0005034559126712547	6006
940	0.0005030131194323178	7220
984	0.0005026588848411683	7410
1147	0.0005023046502500187	8501
1323	0.000502127532954444	970
361	0.0005018618570110818	2519
671	0.0005000906840553343	4810
1229	0.0005000906840553343	9001
497	0.0004992936562252479	3006
730	0.0004989394216340983	5403
582	0.0004982309524517993	3909
1164	0.0004982309524517993	8519
746	0.0004979652765084372	5511
506	0.0004977881592128624	3204
1048	0.0004973453659739255	8210
632	0.0004970796900305634	4303
1230	0.0004964597794960517	9002
335	0.0004959284276093274	2305
1163	0.0004950428411314537	8518
1269	0.0004948657238358789	9110
198	0.0004947771651880915	705
514	0.0004946886065403041	3212
1192	0.0004946886065403041	8602
449	0.0004946000478925168	2843
481	0.000493980137358005	2926
1218	0.000493980137358005	8803
1026	0.000493714461414643	8101
455	0.0004927403162889817	2852
753	0.00049212040575447	5602
1140	0.0004915004952199584	8479
1213	0.0004911462606288089	8714
1089	0.0004902606741509351	8425
445	0.0004900835568553603	2837
877	0.0004890208530819118	6906
603	0.0004889322944341244	4005
1006	0.0004889322944341244	7609
1099	0.0004876924733651011	8435
488	0.00048662976959165254	2934
531	0.00048574418311377873	3501
492	0.000485567065818204	2938
775	0.0004852128312270545	5810
558	0.00048432724474918067	3809
956	0.0004831759823279447	7307
1168	0.0004828217477367952	8525
745	0.0004822903958500709	5510
1252	0.000481139133428835	9026
570	0.0004810505747810476	3821
1182	0.00048096201613326024	8540
1028	0.0004801649883031738	8103
593	0.0004792794018253	3920
1091	0.00047901372588193787	8427
725	0.0004778624634607019	5309
737	0.0004778624634607019	5502
1240	0.000477419670221765	9014
1041	0.00047635696644831644	8203
1115	0.0004758256145615922	8451
764	0.00047511714537929313	5704
1146	0.0004746743521403562	8487
552	0.00047414300025363197	3803
425	0.0004738773243102698	2817
647	0.00047370020701469507	4414
622	0.0004734345310713329	4106
985	0.00047281462053682126	7411
1205	0.00047246038594567176	8706
440	0.00047237182729788435	2832
495	0.0004713976821722232	2941
1245	0.0004709548889332863	9019
417	0.00046980362651205033	2809
395	0.00046953795056868823	2703
1052	0.00046882948138638917	8214
1145	0.00046874092273860177	8486
676	0.0004686523640908144	4902
1249	0.0004682095708518775	9023
421	0.0004674125430217911	2813
776	0.00046723542572621636	5811
1060	0.0004661727219527678	8307
472	0.0004660841633049804	2917
719	0.00046590704600940565	5302
1021	0.00046555281141825614	7907
369	0.00046502145953153184	2528
1170	0.0004638701971102959	8527
1189	0.000463427403871359	8547
1038	0.0004624532587456978	8113
585	0.00046218758280233566	3912
751	0.00046218758280233566	5516
1036	0.0004620990241545483	8111
284	0.0004611248790288871	1518
629	0.0004607706444377376	4206
491	0.00046068208578995025	2937
1114	0.0004603278511988007	8450
1305	0.0004603278511988007	9606
1202	0.00045970794066428904	8703
553	0.00045899947148199	3804
904	0.0004579367677085414	7020
589	0.00045660838799173076	3916
396	0.00045651982934394336	2704
1212	0.000456431270696156	8713
451	0.0004562541534005812	2845
1142	0.0004559884774572191	8481
920	0.0004550143323315579	7117
932	0.00045404018720589674	7211
1119	0.00045404018720589674	8455
949	0.000453863069910322	7229
518	0.00045359739396695983	3302
961	0.0004530660420802355	7312
1316	0.0004523575728979365	9617
460	0.0004522690142501491	2905
888	0.0004518262210112122	7003
1071	0.00045173766236342487	8407
258	0.0004514719864200627	1210
272	0.00045032072399882675	1506
1181	0.000449435137520953	8539
722	0.0004489037856342287	5306
781	0.0004489037856342287	5905
572	0.00044722117132626847	3824
1250	0.0004470440540306937	9024
467	0.00044677837808733157	2912
679	0.00044438729459707235	4905
1087	0.00044429873594928495	8423
479	0.0004441216186537102	2924
1100	0.0004436788254147733	8436
1262	0.00044305891488026164	9103
1176	0.0004428817975846869	8534
477	0.00044243900434575	2922
1102	0.0004423504456979626	8438
578	0.0004416419765156635	3905
389	0.00044155341786787617	2618
1019	0.00044146485922008877	7904
606	0.0004413763005723014	4008
1238	0.00044102206598115186	9011
1198	0.00044066783139000236	8608
700	0.00044057927274221496	5108
1246	0.0004400479208554907	9020
465	0.00043987080355991596	2910
1190	0.00043871954113868	8548
1107	0.00043739116142186933	8443
1124	0.0004366826922395703	8461
1066	0.0004350886365793974	8402
483	0.0004348229606360353	2928
1256	0.0004347344019882479	9030
845	0.00043455728469267316	6502
438	0.0004343801673970984	2830
780	0.000434291608749311	5904
900	0.00043411449145373625	7016
1155	0.00043411449145373625	8509
251	0.00043402593280594885	1203
878	0.00043402593280594885	6907
870	0.0004339373741581615	6814
1294	0.0004334945809192246	9503
942	0.0004329632290325003	7222
1134	0.0004329632290325003	8473
1054	0.0004326089944413508	8301
605	0.00043252043579356344	4007
968	0.0004321662012024139	7319
607	0.00043198908390683913	4009
233	0.000431723407963477	1002
1220	0.0004311920560767527	8805
1027	0.0004311034974289653	8102
1265	0.0004308378214856032	9106
1166	0.00043048358689445367	8522
476	0.00042933232447321776	2921
786	0.00042933232447321776	5910
564	0.00042924376582543036	3815
475	0.00042844673799534395	2920
1159	0.0004277382688130449	8514
672	0.00042747259286968274	4811
1085	0.0004264984477440216	8421
478	0.0004261442131528721	2923
526	0.0004261442131528721	3403
736	0.00042472727478827396	5501
1160	0.00042472727478827396	8515
995	0.00042393024695818756	7506
1131	0.0004202107837511176	8470
1314	0.0004202107837511176	9615
466	0.00041994510780775547	2911
532	0.0004189709626820943	3502
1137	0.00041817393485200785	8476
156	0.00041790825890864575	203
861	0.00041746546566970885	6805
367	0.0004171112310785593	2525
901	0.0004148972648838748	7017
1284	0.00041250618139361555	9304
1185	0.0004123290640980408	8543
1270	0.0004122405054502534	9111
1275	0.0004118862708591039	9202
654	0.00040993798060778153	4421
430	0.0004094066287210573	2822
986	0.0004094066287210573	7412
1123	0.00040931807007326987	8460
428	0.00040843248359539606	2820
508	0.0004078125730608844	3206
562	0.0004066613106396485	3813
613	0.0004065727519918611	4015
945	0.00040639563469628635	7225
665	0.0004057757241617747	4705
988	0.0004056871655139873	7415
756	0.00040551004821841254	5605
1180	0.00040462446174053873	8538
1153	0.0004040931098538145	8507
683	0.0004039159925582397	4909
470	0.0004034731993193028	2915
462	0.00040285328878479117	2907
677	0.000402587612841429	4903
591	0.0004024990541936416	3918
943	0.00040232193689806686	7223
1045	0.0004020562609547047	8207
1210	0.0004017020263635552	8711
873	0.00040117067447683095	6902
489	0.0004009049985334688	2935
442	0.0004008164398856814	2834
993	0.00040072788123789405	7504
1191	0.00040072788123789405	8601
383	0.00040028508799895714	2612
662	0.0004001079707033824	4702
160	0.0003985139150432095	207
334	0.00039815968045206	2304
517	0.00039815968045206	3215
871	0.0003977168872131231	6815
703	0.0003976283285653357	5111
1126	0.00039700841803082406	8463
892	0.0003959457142573755	7007
235	0.00039417454130162794	1004
584	0.0003932889548237541	3911
1097	0.00039266904428924247	8433
244	0.0003924033683458803	1105
485	0.00039213769240251816	2930
181	0.0003916063405157939	501
723	0.0003916063405157939	5307
1061	0.0003908093126857075	8308
852	0.00038930381567332204	6603
785	0.00038886102243438514	5909
922	0.0003881525532520861	7201
1088	0.00038806399460429873	8424
731	0.0003878868773087239	5404
649	0.0003874440840697871	4416
1261	0.00038735552542199967	9102
855	0.00038682417353527536	6703
1173	0.00038655849759191326	8531
1069	0.00038611570435297636	8405
1154	0.0003858500284096142	8508
1206	0.00038567291111403946	8707
670	0.0003846102073405909	4807
1296	0.0003829275930326307	9505
1207	0.00038275047573705593	8708
894	0.00038266191708926853	7009
1271	0.0003822191238503316	9112
1307	0.00038159921331581997	9608
429	0.0003808907441335209	2821
1285	0.00038035939224679666	9305
580	0.0003801822749512219	3907
946	0.0003796509230644976	7226
1158	0.0003792081298255607	8513
267	0.0003775255155176005	1501
1292	0.00037672848768751407	9405
1029	0.0003765513703919393	8104
1120	0.0003765513703919393	8457
1187	0.00037593145985742767	8545
1032	0.00037513443202734126	8107
1157	0.00037300902448044414	8512
1112	0.00037292046583265674	8448
939	0.0003726547898892946	7219
718	0.0003714149688202713	5301
162	0.0003713264101724839	209
1080	0.0003712378515246965	8416
1312	0.00037052938234239746	9613
1072	0.00036973235451231106	8408
777	0.0003694666785689489	5901
997	0.00036902388533001205	7508
309	0.00036813829885213825	2003
333	0.00036769550561320134	2303
1127	0.00036371036646276925	8465
1125	0.0003625591040415333	8462
1317	0.00036247054539374594	9618
1243	0.0003597252273123371	9017
1081	0.00035910531677782546	8417
1128	0.0003584854062433138	8467
1067	0.00035759981976544005	8403
375	0.00035715702652650314	2604
182	0.0003564485573442041	502
548	0.000355031618979606	3706
178	0.0003548545016840312	408
561	0.0003545002670928817	3812
626	0.0003541460325017322	4202
534	0.00035352612196722056	3505
583	0.00035299477008049625	3910
420	0.0003520206249548351	2812
1253	0.00035086936253359913	9027
969	0.000348743954986702	7320
1280	0.0003484782790433399	9209
487	0.00034776980986104086	2933
439	0.00034697278203095445	2831
1214	0.0003449359331318447	8715
527	0.0003444931398929078	3404
581	0.0003438732293583961	3908
494	0.0003427219669371602	2940
1251	0.0003427219669371602	9025
1113	0.00034157070451592425	8449
1234	0.00034086223533362524	9006
941	0.00034068511803805044	7221
1231	0.0003400652075035388	9003
598	0.0003397109729123893	3926
691	0.0003392681796734524	5006
902	0.0003360800683531067	7018
1258	0.0003360800683531067	9032
1268	0.0003335118675672727	9109
890	0.00033280339838497367	7005
850	0.00033103222542922605	6601
424	0.0003308551081336513	2816
783	0.00032943816976905324	5907
678	0.0003291724938256911	4904
661	0.00032855258329117943	4701
1237	0.0003272242035743687	9010
1042	0.00032695852763100656	8204
330	0.0003256301479141959	2209
1248	0.0003256301479141959	9022
914	0.00032536447197083375	7110
690	0.000321467891468189	5005
452	0.0003202280703991657	2846
911	0.00031951960121686664	7107
1031	0.0003186340147389929	8106
996	0.0003181026628522686	7507
1103	0.00031783698690890643	8439
967	0.0003173056350221822	7318
1108	0.00031642004854430837	8444
1073	0.0003161543726009462	8409
859	0.0003158886966575841	6803
490	0.0003133204958717501	2936
1257	0.0003116378815637899	9031
515	0.0003110179710292782	3213
1077	0.00031030950184697916	8413
1267	0.0003084497702434442	9108
463	0.0003083612115956568	2908
447	0.00030729850782220823	2840
682	0.0003066785972876966	4908
991	0.0003038447205585004	7501
1282	0.0003026934581372645	9302
853	0.0003018078716593907	6701
1272	0.00030154219571602853	9113
579	0.0003003909332947926	3906
1273	0.00029923967087355666	9114
766	0.00029755705656559644	5801
1053	0.00029720282197444694	8215
560	0.0002925977722895032	3811
547	0.00029188930310720414	3705
1297	0.00029056092339039343	9506
1121	0.0002885240744912837	8458
1035	0.00028666434288774874	8110
938	0.0002863101082965992	7218
732	0.0002840075834541273	5405
248	0.00028338767291961566	1109
349	0.0002832991142718283	2507
851	0.0002832991142718283	6602
1020	0.0002809965894293564	7905
276	0.0002778970367567981	1510
1144	0.0002770114502789243	8483
474	0.00027692289163113695	2919
1105	0.0002767457743355622	8441
994	0.00027559451191432624	7505
1295	0.0002754173946187515	9504
269	0.0002733805457196417	1503
509	0.00027329198707185437	3207
1049	0.0002726720765373427	8211
874	0.00027081234493380775	6903
592	0.00026709288172673776	3919
1104	0.00026505603282762804	8440
540	0.0002644361222931164	3604
1266	0.00026425900499754164	9107
1318	0.0002620450388028571	9701
739	0.00025938827936923574	5504
1278	0.00025885692748251144	9207
692	0.0002574399891179134	5007
1051	0.0002546061123887172	8213
1086	0.00025434043644535504	8422
1239	0.00025354340861526864	9013
1065	0.0002525692634896075	8401
484	0.0002493811521692618	2929
1193	0.00024734430327015203	8603
545	0.0002453960130188297	3703
880	0.0002422964603462714	6909
1195	0.00024167654981175973	8605
898	0.0002400824941515869	7014
482	0.00023972825956043739	2927
549	0.0002387541144347762	3707
1047	0.00023397194745425768	8209
1044	0.00023370627151089556	8206
658	0.00023087239478169938	4504
530	0.0002259131105056061	3407
480	0.00022316779242419733	2925
656	0.0002229021164808352	4502
1310	0.00022254788188968568	9611
1274	0.00022033391569500118	9201
1319	0.00021935977056934	9702
587	0.0002180313908525293	3914
543	0.00021422336899767198	3701
705	0.00021068102308617677	5113
655	0.00021041534714281464	4501
1264	0.00020846705689149227	9105
854	0.00020828993959591752	6702
1232	0.00020510182827557184	9004
1110	0.0002022679515463757	8446
544	0.0002017365996596514	3702
742	0.0001986370469870931	5507
468	0.00018243081444200258	2913
1109	0.00018074820013404237	8445
1034	0.0001554204268668517	8109
