67	0.01948393352677908	Italy
50	0.0185795624812706	Germany
30	0.017904370233393672	China
141	0.017773457327021576	USA
46	0.017633123888925434	France
61	0.01748824260792803	India
123	0.017458194360187532	Spain
13	0.016320583943028523	Belgium
94	0.015788973592462924	Netherlands
107	0.015246805749447964	Poland
8	0.01519158194278976	Austria
36	0.014638044492521641	CzechRepublic
139	0.014606534438134313	UnitedKingdom
134	0.013761447773303025	Turkey
108	0.013323880317017135	Portugal
52	0.01276303383351484	Greece
21	0.01206282844968096	Bulgaria
127	0.012010690679277186	Switzerland
131	0.011846156220027888	Thailand
69	0.011626235531159627	Japan
38	0.011530405984311567	Denmark
119	0.011508154038687525	Slovenia
62	0.011479405174633106	Indonesia
115	0.011245516111139536	Serbia
77	0.010840758092927049	Lebanon
43	0.01076701806874227	Estonia
34	0.010757759959978982	Croatia
19	0.010742492201667597	Brazil
126	0.010517211555094275	Sweden
110	0.010464261669886702	Romania
26	0.01043047769404874	Canada
66	0.010325065192515874	Israel
118	0.010106606310294449	Slovakia
121	0.009903252763423648	SouthAfrica
80	0.009804174757360399	Lithuania
40	0.00976129509571991	Egypt
72	0.009611378702938963	Kenya
76	0.009565413005044045	Latvia
137	0.009526593917422542	Ukraine
122	0.009316256183239087	SouthKorea
59	0.00929026850951758	Hungary
144	0.009197849844845467	Vietnam
102	0.008989623609151884	Pakistan
88	0.008978578847820244	Mexico
95	0.008873166346287377	NewZealand
54	0.008834509681626633	Guatemala
45	0.008791954865907664	Finland
133	0.008764180539617802	Tunisia
35	0.008429589240453388	Cyprus
18	0.00797724129473839	BosniaHerzegovina
81	0.00788141174789033	Macedonia
7	0.00787004214063717	Australia
12	0.00784437931283718	Belarus
140	0.007740753463872667	Uruguay
93	0.007732794738795455	Nepal
103	0.0076642522493549775	Panama
91	0.007654669294670172	Morocco
105	0.0073728654577525695	Peru
70	0.007370266690380419	Jordan
31	0.007349314128442453	Colombia
41	0.007314718037800695	ElSalvador
1	0.0072971763580386775	Albania
84	0.0070002671857704495	Malaysia
106	0.006928801083036303	Philippines
116	0.006738928641908535	SierraLeone
114	0.00660476727632125	Senegal
74	0.006531676943979508	Kyrgyzstan
117	0.006487010629770667	Singapore
130	0.006458749034598527	Tanzania
111	0.006386308394099823	Russia
82	0.006278134702234046	Madagascar
29	0.006199034720344207	Chile
132	0.005981225529965818	Togo
147	0.005961085082831649	Zimbabwe
58	0.005888482019372187	Honduras
100	0.005718262756496309	Norway
33	0.0057109537232621355	CostaRica
138	0.005548205916581192	UnitedArabEmirates
63	0.005110800883256061	Iran
136	0.005040796587168749	Uganda
11	0.004855309565981485	Bangladesh
142	0.004797324568990371	Uzbekistan
96	0.004764190284995448	Nicaragua
65	0.004722610007041036	Ireland
17	0.00469597264147649	Bolivia
49	0.00461394904629298	Georgia
104	0.00455174105232212	Paraguay
51	0.004539072061382886	Ghana
48	0.004527540031168966	Gambia
75	0.004441293439005712	Laos
68	0.004344164508471576	IvoryCoast
71	0.004321100448043737	Kazakhstan
0	0.004312329608162729	Afghanistan
6	0.004086561692707128	Armenia
89	0.004080064774276751	Mongolia
39	0.004058949789378026	Ecuador
42	0.0040012896383084294	Eritrea
44	0.003987483686643879	Ethiopia
86	0.0038887305265021483	Malta
10	0.0038310703754325525	Bahrain
24	0.0037833180249692818	Cambodia
16	0.003732154792330063	Bhutan
92	0.0036964217409629894	Mozambique
22	0.0036681601457908496	BurkinaFaso
146	0.0036049776140554333	Zambia
97	0.003585649281725062	Niger
60	0.0035461805022605217	Iceland
129	0.003368164937268192	Tajikistan
25	0.003358581982583386	Cameroon
83	0.0033363300369593446	Malawi
101	0.0033247980067454257	Oman
9	0.0033192756260796053	Azerbaijan
15	0.003291988568672022	Benin
112	0.003223283656270785	Rwanda
143	0.0031906366411581406	Venezuela
57	0.0031596138556530904	Guyana
85	0.0030965937468784336	Mali
14	0.003017656187949353	Belize
125	0.00281803836917602	Suriname
37	0.0027897767740038804	DemocraticRepublicCongo
145	0.0027559927981659197	Yemen
113	0.002731954199973525	SaudiArabia
55	0.002588047456740675	Guinea
23	0.0025292503449457627	Burundi
27	0.0024308220307255515	CentralAfricanRepublic
32	0.002335804598681288	Congo
124	0.0022539434264585378	Sudan
135	0.002223407909835766	Turkmenistan
109	0.002096393154521896	Qatar
73	0.0020574116439396337	Kuwait
98	0.002018754979278891	Nigeria
56	0.0019001862179245106	Guinea-Bissau
87	0.001884593613691606	Mauritania
78	0.001771872078924565	Liberia
2	0.0017606648946321647	Algeria
47	0.0017567667435739386	Gabon
79	0.0016775043387233393	Libya
20	0.0015815123689145191	Brunei
64	0.001333654930795637	Iraq
28	0.0013247216679538687	Chad
4	0.0011730186226045658	Angola
