67	0.01949864604488882	Italy
50	0.018603603603603604	Germany
30	0.017732385564755506	China
141	0.017720668645524136	USA
46	0.017539967713378117	France
123	0.017488283080768628	Spain
61	0.017394417538926208	India
13	0.016252148101859085	Belgium
94	0.01575977711815862	Netherlands
107	0.015263760870697286	Poland
8	0.015221840337447274	Austria
36	0.014599281362287143	CzechRepublic
139	0.01450632713638494	UnitedKingdom
134	0.013811383637973233	Turkey
108	0.013310550434827892	Portugal
52	0.012749179815653804	Greece
21	0.012112560537416028	Bulgaria
127	0.012017523303650472	Switzerland
131	0.011874707077019216	Thailand
69	0.011563037025464771	Japan
62	0.011527105139821903	Indonesia
119	0.011456282872467844	Slovenia
38	0.01143024527417591	Denmark
115	0.011233010467114514	Serbia
77	0.010837629537051502	Lebanon
34	0.010801307087434256	Croatia
19	0.01076055824610738	Brazil
43	0.010727360308285163	Estonia
126	0.01051294068635109	Sweden
26	0.010496016247461335	Canada
110	0.010449799510493152	Romania
66	0.010370775399677134	Israel
118	0.010143336978597095	Slovakia
121	0.009993230224444098	SouthAfrica
40	0.009806670832682393	Egypt
80	0.009779331354475862	Lithuania
72	0.009571681508097693	Kenya
137	0.009551241993438524	Ukraine
76	0.009525204395146591	Latvia
122	0.00934176951517992	SouthKorea
144	0.009183460917564964	Vietnam
59	0.00917278550226527	Hungary
88	0.009010310888923605	Mexico
102	0.008935322605842837	Pakistan
95	0.008905118991824194	NewZealand
54	0.008849789095453836	Guatemala
133	0.008834557100453054	Tunisia
45	0.008789902619382388	Finland
35	0.00848734572723012	Cyprus
18	0.007964771129511014	BosniaHerzegovina
7	0.00788756965057543	Australia
12	0.007861662240274956	Belarus
81	0.007820132270999322	Macedonia
140	0.007738374212362652	Uruguay
93	0.007718064885694944	Nepal
91	0.007686168827787325	Morocco
103	0.0076475029943238034	Panama
105	0.007406394834140499	Peru
70	0.007366036556788002	Jordan
31	0.007315393428110191	Colombia
1	0.007277769098578347	Albania
41	0.00725680883195334	ElSalvador
84	0.007016742175701713	Malaysia
106	0.0069668801749726604	Philippines
116	0.006768734051971047	SierraLeone
114	0.006658725199187627	Senegal
130	0.006506535437171276	Tanzania
117	0.006496380773837422	Singapore
74	0.006492605322085091	Kyrgyzstan
111	0.006343930635838151	Russia
82	0.006300447846690621	Madagascar
29	0.006209837004634692	Chile
132	0.0059915117429568295	Togo
147	0.005969379784408686	Zimbabwe
58	0.00592094985158569	Honduras
100	0.005731135760037494	Norway
33	0.0057058792896943185	CostaRica
138	0.005571134718533563	UnitedArabEmirates
63	0.0050967296776545335	Iran
136	0.00499609436025621	Uganda
11	0.004920064573243764	Bangladesh
96	0.004845857418111753	Nicaragua
142	0.004811097224392022	Uzbekistan
17	0.004697312919856272	Bolivia
65	0.004668931937718065	Ireland
49	0.004591600270791022	Georgia
48	0.004575717335832943	Gambia
51	0.0045434307139509455	Ghana
75	0.004519996875488205	Laos
104	0.004493698901213352	Paraguay
71	0.0043377336874446705	Kazakhstan
68	0.004321590376503671	IvoryCoast
0	0.00426326615632974	Afghanistan
89	0.0041053481226891635	Mongolia
6	0.00406381815341353	Armenia
39	0.004059782325678279	Ecuador
44	0.003990001562255897	Ethiopia
42	0.003959407384262876	Eritrea
86	0.003857470186949956	Malta
10	0.0038013591626308387	Bahrain
24	0.003791464875279904	Cambodia
16	0.0037745404363901474	Bhutan
92	0.0037196011039941678	Mozambique
22	0.0037071030568140394	BurkinaFaso
146	0.0036431807530073424	Zambia
97	0.0035217153569754725	Niger
60	0.0035055720460344737	Iceland
25	0.0033721293547883144	Cameroon
83	0.0033697859709420405	Malawi
101	0.003363667135343436	Oman
9	0.0033611935635057023	Azerbaijan
129	0.003360152059574025	Tajikistan
112	0.00329935426756236	Rwanda
15	0.003263292193928032	Benin
143	0.003182705827214498	Venezuela
57	0.003167604020205176	Guyana
85	0.0030699630266104254	Mali
14	0.0030480914440452014	Belize
125	0.0028469509972400145	Suriname
37	0.002774696661979899	DemocraticRepublicCongo
145	0.0027547778992865696	Yemen
113	0.002736942144456595	SaudiArabia
55	0.0026145654324845075	Guinea
23	0.002504426391709629	Burundi
27	0.0023858251314898713	CentralAfricanRepublic
32	0.002372155392386606	Congo
124	0.002255246576055825	Sudan
135	0.0022474352965682447	Turkmenistan
109	0.002126230276519294	Qatar
98	0.00208079466749987	Nigeria
73	0.0020597042128834035	Kuwait
56	0.0018681976774462324	Guinea-Bissau
87	0.0018622090298390877	Mauritania
2	0.0017812320991511742	Algeria
78	0.0017594907045774097	Liberia
47	0.0017301984064989845	Gabon
79	0.0016631515908972557	Libya
20	0.0016333385408529918	Brunei
28	0.0013236213091704422	Chad
64	0.0013043534864344113	Iraq
4	0.0011897880539499036	Angola
