67	0.019640031458161594	Italy
50	0.018860683930754144	Germany
30	0.01790604243061675	China
141	0.017684950933479885	USA
46	0.017609937746951305	France
123	0.017530976497973853	Spain
61	0.017414113849487226	India
13	0.016322869388618842	Belgium
94	0.015868842206998492	Netherlands
8	0.015222939190362937	Austria
107	0.015057910180000062	Poland
36	0.014699426109642432	CzechRepublic
139	0.014536765936748882	UnitedKingdom
134	0.013642134985834352	Turkey
108	0.013251276803395965	Portugal
52	0.01280988342161201	Greece
21	0.012133975130365023	Bulgaria
127	0.011888405646045147	Switzerland
131	0.011706005160907234	Thailand
119	0.01162151662450136	Slovenia
69	0.011496757851116986	Japan
62	0.011435957689404348	Indonesia
38	0.011416217377159985	Denmark
115	0.011263032554143728	Serbia
77	0.010877701659133763	Lebanon
34	0.010871384759215567	Croatia
19	0.01072135838615841	Brazil
43	0.010681088149179908	Estonia
66	0.010533430613592073	Israel
126	0.010493160376613573	Sweden
110	0.010469472001920338	Romania
26	0.010445783627227102	Canada
121	0.010164681580867373	SouthAfrica
118	0.010105460644134284	Slovakia
40	0.00983383394765185	Egypt
80	0.009739870061368682	Lithuania
72	0.009591422913291073	Kenya
76	0.009572472213536486	Latvia
137	0.009552731901292123	Ukraine
122	0.009330850791665483	SouthKorea
59	0.009291370167176757	Hungary
144	0.009052907195264852	Vietnam
88	0.008971577108818076	Mexico
102	0.008928148421880479	Pakistan
45	0.00891788345951341	Finland
95	0.00891788345951341	NewZealand
54	0.008853924847841673	Guatemala
133	0.008771805148905123	Tunisia
35	0.008583877376338788	Cyprus
18	0.008078525382883096	BosniaHerzegovina
81	0.00786059233570533	Macedonia
7	0.007857433885746232	Australia
12	0.007849537760848487	Belarus
140	0.007804529848931339	Uruguay
91	0.007693194487873131	Morocco
93	0.007548695402244394	Nepal
103	0.0074586795784100995	Panama
70	0.0074365704286964126	Jordan
1	0.007404196316615657	Albania
105	0.007401827479146334	Peru
31	0.007262855680946019	Colombia
41	0.007202055519233381	ElSalvador
116	0.006910688510506584	SierraLeone
106	0.006900423548139515	Philippines
84	0.0068704182735280835	Malaysia
117	0.006592474677127453	Singapore
114	0.006561679790026247	Senegal
74	0.0065150926531295505	Kyrgyzstan
130	0.0064977211783545106	Tanzania
82	0.00631768953068592	Madagascar
111	0.0062671543313403515	Russia
29	0.006190561919832223	Chile
132	0.0061226552457116145	Togo
147	0.005926041735757759	Zimbabwe
58	0.005792597224985866	Honduras
33	0.00577048807527218	CostaRica
100	0.005765750400333532	Norway
138	0.005532025103360275	UnitedArabEmirates
63	0.005099317458963839	Iran
142	0.004902703949009984	Uzbekistan
11	0.004888490924194042	Bangladesh
136	0.004858485649582611	Uganda
96	0.0047424126135857565	Nicaragua
17	0.004661082527138981	Bolivia
48	0.004634235702486647	Gambia
65	0.004623181127629805	Ireland
51	0.004576593990733108	Ghana
49	0.004545799103631901	Georgia
75	0.0045268484038773135	Laos
104	0.0045118457665715974	Paraguay
68	0.004379980480779253	IvoryCoast
0	0.0042986503943324775	Afghanistan
71	0.004231533332701643	Kazakhstan
6	0.004123356421602534	Armenia
89	0.004027813310339818	Mongolia
86	0.004012810673034102	Malta
44	0.0039970184232386114	Ethiopia
39	0.003995439198259063	Ecuador
42	0.003985174235891994	Eritrea
10	0.003892789574588375	Bahrain
24	0.0038090906506722763	Cambodia
16	0.003798036075815433	Bhutan
22	0.0036559058276560193	BurkinaFaso
92	0.0036314278404730093	Mozambique
146	0.0035887887660251854	Zambia
97	0.00354062240414894	Niger
60	0.003473505342518106	Iceland
83	0.0034458689053759976	Malawi
25	0.0033447985066848594	Cameroon
9	0.0033400608317462124	Azerbaijan
129	0.0033250581944404963	Tajikistan
101	0.0032966321448086137	Oman
15	0.0032231981832595833	Benin
112	0.0031939825211379264	Rwanda
57	0.003137130421874161	Guyana
143	0.003129234296976416	Venezuela
85	0.003055010722937611	Mali
14	0.0030234262233466303	Belize
125	0.0028749790752690208	Suriname
37	0.002812599688576834	DemocraticRepublicCongo
145	0.0027446930144562256	Yemen
113	0.0027067916149470486	SaudiArabia
55	0.0025709782667058313	Guinea
23	0.002550448341971694	Burundi
32	0.002378312819200849	Congo
27	0.0023419906446712213	CentralAfricanRepublic
124	0.0023293568448348287	Sudan
135	0.00222117993373572	Turkmenistan
109	0.0020893146479433753	Qatar
73	0.0020774704605967574	Kuwait
98	0.002068784723209238	Nigeria
87	0.0018469036135825981	Mauritania
56	0.0018271633013382353	Guinea-Bissau
2	0.0018097918265631958	Algeria
47	0.001768731977094921	Gabon
78	0.0017395163149732638	Liberia
79	0.0016763473157913023	Libya
20	0.0015752769171001638	Brunei
28	0.001407879069267966	Chad
64	0.0013020709956381806	Iraq
4	0.0011765226097640322	Angola
