67	0.019892569650178053	Italy
50	0.018580862036288916	Germany
141	0.017996079839602597	USA
30	0.017949945636452504	China
46	0.017684362250750617	France
123	0.017499825438150242	Spain
61	0.017327757329103948	India
13	0.01629160806375996	Belgium
94	0.015695604033874974	Netherlands
107	0.015383886445022992	Poland
8	0.01494623495027481	Austria
139	0.014760451267319029	UnitedKingdom
36	0.014559705140098354	CzechRepublic
134	0.013646996039939751	Turkey
108	0.013310341043979611	Portugal
52	0.01236147270351418	Greece
131	0.01203603954075271	Thailand
21	0.011999880300445881	Bulgaria
127	0.01184402150601989	Switzerland
62	0.01168192835981686	Indonesia
69	0.011570956898185554	Japan
38	0.011400135659494668	Denmark
119	0.011344026493501311	Slovenia
115	0.01128542358679714	Serbia
77	0.010922584313373432	Lebanon
43	0.010820340944229984	Estonia
34	0.010705628871532454	Croatia
19	0.010700641390110822	Brazil
26	0.010477451596492804	Canada
110	0.010319099061355997	Romania
126	0.010319099061355997	Sweden
66	0.010300396006024878	Israel
118	0.010186930803682756	Slovakia
121	0.010090921786316346	SouthAfrica
40	0.009782944808530588	Egypt
80	0.009654517161923571	Lithuania
76	0.009624592273393781	Latvia
137	0.009518608293184109	Ukraine
72	0.009441302331148817	Kenya
122	0.009376465072667605	SouthKorea
144	0.009363996369113526	Vietnam
59	0.009302899721698536	Hungary
133	0.008987441521780331	Tunisia
54	0.008920110522588303	Guatemala
88	0.008903901207968001	Mexico
45	0.008901407467257184	Finland
102	0.008827842116288117	Pakistan
95	0.00875427676531905	NewZealand
35	0.00835777199229933	Cyprus
18	0.008082213643754176	BosniaHerzegovina
12	0.007862764461202381	Belarus
81	0.007772989795613011	Macedonia
93	0.007708152537131799	Nepal
103	0.007708152537131799	Panama
7	0.007705658796420984	Australia
105	0.0075822186312355985	Peru
140	0.007579724890524783	Uruguay
91	0.007483715873158372	Morocco
70	0.007445062892140726	Jordan
41	0.007351547615485132	ElSalvador
31	0.007344066393352684	Colombia
1	0.007324116467666158	Albania
84	0.007129604692222522	Malaysia
106	0.006957536583176228	Philippines
114	0.006730606178491985	Senegal
116	0.006660781438589141	SierraLeone
74	0.006605919142951193	Kyrgyzstan
130	0.0065086632552293746	Tanzania
117	0.006366520034712871	Singapore
82	0.006265523535924829	Madagascar
29	0.0061732551296246425	Chile
111	0.0061657739074921945	Russia
132	0.006089714815812311	Togo
147	0.006017396335198651	Zimbabwe
58	0.005876499985037555	Honduras
100	0.005749319208785947	Norway
33	0.005690716302081775	CostaRica
138	0.005658297672841169	UnitedArabEmirates
63	0.005205683733828091	Iran
136	0.005114662197883313	Uganda
11	0.005022393791583126	Bangladesh
96	0.004844091330759793	Nicaragua
142	0.004776760331567765	Uzbekistan
49	0.004675763832779723	Georgia
17	0.004672023221713499	Bolivia
51	0.00461716092607555	Ghana
65	0.004610926574298511	Ireland
104	0.004566039241503826	Paraguay
75	0.004531126871552403	Laos
48	0.00449122702017935	Gambia
68	0.004359058762506109	IvoryCoast
0	0.004317912040777648	Afghanistan
71	0.004195718745947671	Kazakhstan
6	0.004137115839243499	Armenia
89	0.004113425302490748	Mongolia
86	0.003941357193444454	Malta
24	0.0039239010084687435	Cambodia
39	0.003917666656691704	Ecuador
44	0.0039164197863362955	Ethiopia
42	0.0038216576393252937	Eritrea
10	0.003779264047241424	Bahrain
92	0.0037655484733319367	Mozambique
16	0.0037368704551575547	Bhutan
146	0.003694476863073685	Zambia
22	0.003581011660731564	BurkinaFaso
97	0.003561061735045037	Niger
60	0.0035498399018463658	Iceland
129	0.0034326340884380207	Tajikistan
9	0.003426399736660981	Azerbaijan
101	0.003374031181733848	Oman
83	0.0033553281264027293	Malawi
112	0.003322909497162123	Rwanda
57	0.0032992189604093723	Guyana
15	0.0032792690347228457	Benin
25	0.0032468504054822397	Cameroon
85	0.003104707184965736	Mali
143	0.0030959790924778804	Venezuela
14	0.0030261543525750365	Belize
125	0.0028291488364205843	Suriname
145	0.0028079520403786495	Yemen
113	0.0027381273004758056	SaudiArabia
37	0.002734386689409582	DemocraticRepublicCongo
55	0.0025710466728511437	Guinea
23	0.002443865896599535	Burundi
27	0.002346610008877717	CentralAfricanRepublic
32	0.0023441162681669013	Congo
124	0.00226681030613161	Sudan
135	0.002240626028668043	Turkmenistan
73	0.0020311518089595115	Kuwait
109	0.0020311518089595115	Qatar
98	0.002022423716471656	Nigeria
87	0.0019114522548403508	Mauritania
56	0.0018653180516902575	Guinea-Bissau
47	0.0017917527007211898	Gabon
78	0.001790505830365782	Liberia
2	0.0017618278121913995	Algeria
20	0.00165335009127091	Brunei
79	0.0016284126841627515	Libya
64	0.001330410669220257	Iraq
28	0.0012443766146971102	Chad
4	0.001179539356215898	Angola
