67	0.019526280745530963	Italy
50	0.018630448695157505	Germany
30	0.017777485933939786	China
141	0.0176895358446798	USA
46	0.01764615620684364	France
61	0.017566371696470462	India
123	0.017442016734673462	Spain
13	0.01630070696901537	Belgium
94	0.01581145270071418	Netherlands
107	0.015276096934947895	Poland
8	0.015216556255564928	Austria
139	0.014641563408952264	UnitedKingdom
36	0.014577769823899083	CzechRepublic
134	0.013740627871774554	Turkey
108	0.013244909186854642	Portugal
52	0.012741365155501541	Greece
21	0.012066854316205917	Bulgaria
127	0.011953897141605087	Switzerland
131	0.01181389148694171	Thailand
69	0.011657384558277906	Japan
119	0.011536261804790268	Slovenia
62	0.01145001287779837	Indonesia
38	0.011365465113074555	Denmark
115	0.011272921885690741	Serbia
77	0.010795915985719764	Lebanon
34	0.010778223898131682	Croatia
19	0.010728379843676797	Brazil
43	0.010707115315325737	Estonia
126	0.010546185364764914	Sweden
66	0.01047745840913429	Israel
110	0.010474906665732161	Romania
26	0.010435779933566211	Canada
118	0.010151175486115624	Slovakia
121	0.00993563822674928	SouthAfrica
40	0.009843435231819084	Egypt
80	0.009843435231819084	Lithuania
72	0.00962891866981359	Kenya
137	0.009600849492390191	Ukraine
76	0.009550324973028072	Latvia
122	0.009285113775433652	SouthKorea
144	0.009233228326257066	Vietnam
59	0.009202097056751114	Hungary
88	0.008954748062971583	Mexico
102	0.00893739620783712	Pakistan
54	0.008886191223567767	Guatemala
95	0.00888449006129968	NewZealand
133	0.00883889891251501	Tunisia
45	0.008768981143296724	Finland
35	0.008450693682938057	Cyprus
18	0.00795905778746155	BosniaHerzegovina
12	0.007943917443275595	Belarus
81	0.007844739683046251	Macedonia
7	0.00783351201207689	Australia
93	0.0078042520210658325	Nepal
140	0.007709497282733509	Uruguay
91	0.0076569313686496885	Morocco
103	0.00757952848545183	Panama
70	0.007415366326581647	Jordan
31	0.007408391561282499	Colombia
105	0.007381683313673568	Peru
1	0.007305811476516986	Albania
41	0.0072466110295876345	ElSalvador
84	0.006986843551251086	Malaysia
106	0.006973404369333216	Philippines
116	0.0067604188533689985	SierraLeone
114	0.006655457141428167	Senegal
117	0.00654318043173457	Singapore
130	0.0064853409146196864	Tanzania
74	0.006472922430062668	Kyrgyzstan
111	0.006361666417729921	Russia
82	0.006282052023583552	Madagascar
29	0.006153954504796767	Chile
147	0.0059957464138648804	Zimbabwe
58	0.0059248079472857445	Honduras
132	0.005913240043862768	Togo
100	0.005680861278042384	Norway
33	0.005680010696908342	CostaRica
138	0.005524524465605391	UnitedArabEmirates
63	0.005122369705430144	Iran
136	0.004998184859859953	Uganda
11	0.0048626022270935945	Bangladesh
96	0.004831981306268068	Nicaragua
142	0.004766826791400421	Uzbekistan
65	0.00471647238826511	Ireland
17	0.004706605647110219	Bolivia
49	0.004621547533705979	Georgia
48	0.004571193130570668	Gambia
51	0.004542783720693652	Ghana
104	0.004497702920589405	Paraguay
75	0.0044953212934140865	Laos
68	0.004361099590462196	IvoryCoast
71	0.004317890068852841	Kazakhstan
0	0.00421292835691201	Afghanistan
89	0.004099971182311178	Mongolia
6	0.0040149130689069385	Armenia
39	0.0039660897118129045	Ecuador
44	0.003959795411420991	Ethiopia
42	0.003956393086884821	Eritrea
86	0.0038798407848210053	Malta
10	0.003859426837603988	Bahrain
16	0.003766373261539749	Bhutan
24	0.0037500421037661353	Cambodia
92	0.0037243545535180548	Mozambique
146	0.0037243545535180548	Zambia
22	0.0036513746922172165	BurkinaFaso
97	0.0035486244912248948	Niger
60	0.003544201469327874	Iceland
129	0.0033820807051793927	Tajikistan
83	0.0033769772183751385	Malawi
25	0.0033480574598176967	Cameroon
101	0.003311652587280682	Oman
9	0.0033039973570743	Azerbaijan
112	0.0032728660875683485	Rwanda
15	0.003250070513176012	Benin
57	0.003173007862431771	Guyana
143	0.003126736248739864	Venezuela
85	0.003053756387439026	Mali
14	0.0030421884840160494	Belize
125	0.002824439713701195	Suriname
37	0.0027863336788960954	DemocraticRepublicCongo
145	0.0027781681000092883	Yemen
113	0.002757754152792271	SaudiArabia
55	0.0026148565222731475	Guinea
23	0.002486078538579128	Burundi
27	0.0024182021640825444	CentralAfricanRepublic
32	0.002363084506596597	Congo
124	0.002277005695831506	Sudan
135	0.002254720470119595	Turkmenistan
109	0.0020919192410638796	Qatar
73	0.0020815421512285623	Kuwait
98	0.002072525991207713	Nigeria
87	0.0018726394247077487	Mauritania
56	0.00187025779753243	Guinea-Bissau
78	0.0017709099210762777	Liberia
2	0.0017669972478596826	Algeria
47	0.001734505048539263	Gabon
79	0.0016946978514660786	Libya
20	0.0016128719463711998	Brunei
64	0.0013282674989206125	Iraq
28	0.0013207823849410395	Chad
4	0.0011634248751431952	Angola
