surfNumber1: 200
surfNumber2: 25
tolerance: 0.5
gamma1:  0
gamma2:  -11
file1: barretBalanced/11_1.txt
file2: barretBalanced/11_2.txt
convergence reached, number of iterations:  1705
Final error 1:  0.4731182795698925  % 
Final error 2:  0.38705137227304715  %
iteration check  1705
