000 (141.004.000) 07/28 23:14:02 Job submitted from host: <192.168.0.160:9618?addrs=192.168.0.160-9618+[--1]-9618&noUDP&sock=482_30bd_3>
...
001 (141.004.000) 07/28 23:14:03 Job executing on host: <192.168.0.108:9618?addrs=192.168.0.108-9618+[--1]-9618&noUDP&sock=518_e225_4>
...
005 (141.004.000) 07/28 23:18:28 Job terminated.
	(1) Normal termination (return value 0)
		Usr 0 00:04:23, Sys 0 00:00:00  -  Run Remote Usage
		Usr 0 00:00:00, Sys 0 00:00:00  -  Run Local Usage
		Usr 0 00:04:23, Sys 0 00:00:00  -  Total Remote Usage
		Usr 0 00:00:00, Sys 0 00:00:00  -  Total Local Usage
	0  -  Run Bytes Sent By Job
	0  -  Run Bytes Received By Job
	0  -  Total Bytes Sent By Job
	0  -  Total Bytes Received By Job
...
