SDensity: 0.45
tolerance: 1.0
gamma1:  0
gamma2:  -5
file1: countriesTest3/g1_0_g2_m5_0.45_1.txt
file2: countriesTest3/g1_0_g2_m5_0.45_2.txt
s:  64 530
convergence reached, number of iterations:  4997
Final error 1:  0.8319467554076538  % 
Final error 2:  0.9159306509649985  %
iteration check  4997
