SDensity: 7.35
tolerance: 1.0
gamma1:  0
gamma2:  -5
file1: countriesTest3/g1_0_g2_m5_7.35_1.txt
file2: countriesTest3/g1_0_g2_m5_7.35_2.txt
s:  1037 8644
convergence reached, number of iterations:  612
Final error 1:  0.733074601121173  % 
Final error 2:  0.8879781420765027  %
iteration check  612
