SDensity: 5.399999999999999
tolerance: 1.0
gamma1:  0
gamma2:  -5
file1: countriesTest3/g1_0_g2_m5_5.399999999999999_1.txt
file2: countriesTest3/g1_0_g2_m5_5.399999999999999_2.txt
s:  762 6351
convergence reached, number of iterations:  706
Final error 1:  0.7240547063555913  % 
Final error 2:  0.9022556390977444  %
iteration check  706
