SDensity: 6.45
tolerance: 1.0
gamma1:  0
gamma2:  -5
file1: countriesTest3/g1_0_g2_m5_6.45_1.txt
file2: countriesTest3/g1_0_g2_m5_6.45_2.txt
s:  910 7586
convergence reached, number of iterations:  592
Final error 1:  0.8426966292134831  % 
Final error 2:  0.998502246630055  %
iteration check  592
