SDensity: 5.55
tolerance: 1.0
gamma1:  10
gamma2:  10
file1: countriesTest/g1_10_g2_10_5.55_1.txt
file2: countriesTest/g1_10_g2_10_5.55_2.txt
s:  783 6527
convergence reached, number of iterations:  702
Final error 1:  0.7739938080495357  % 
Final error 2:  0.7911771757372333  %
iteration check  702
SDensity: 5.55
tolerance: 1.0
gamma1:  10
gamma2:  10
file1: countriesTest/g1_10_g2_10_5.55_1.txt
file2: countriesTest/g1_10_g2_10_5.55_2.txt
s:  783 6527
convergence reached, number of iterations:  702
Final error 1:  0.7085267529929148  % 
Final error 2:  0.9097270818754375  %
iteration check  702
