SDensity: 3.45
tolerance: 1.0
gamma1:  10
gamma2:  10
file1: countriesTest/g1_10_g2_10_3.45_1.txt
file2: countriesTest/g1_10_g2_10_3.45_2.txt
s:  487 4058
convergence reached, number of iterations:  891
Final error 1:  0.7476635514018692  % 
Final error 2:  0.9240924092409241  %
iteration check  891
SDensity: 3.45
tolerance: 1.0
gamma1:  10
gamma2:  10
file1: countriesTest/g1_10_g2_10_3.45_1.txt
file2: countriesTest/g1_10_g2_10_3.45_2.txt
s:  487 4058
convergence reached, number of iterations:  957
Final error 1:  0.6519967400162999  % 
Final error 2:  0.87527352297593  %
iteration check  957
