SDensity: 1.65
tolerance: 1.0
gamma1:  10
gamma2:  10
file1: countriesTest/g1_10_g2_10_1.65_1.txt
file2: countriesTest/g1_10_g2_10_1.65_2.txt
s:  233 1941
convergence reached, number of iterations:  1662
Final error 1:  0.9615384615384616  % 
Final error 2:  0.9917355371900827  %
iteration check  1662
SDensity: 1.65
tolerance: 1.0
gamma1:  10
gamma2:  10
file1: countriesTest/g1_10_g2_10_1.65_1.txt
file2: countriesTest/g1_10_g2_10_1.65_2.txt
s:  233 1941
convergence reached, number of iterations:  1710
Final error 1:  0.9345794392523363  % 
Final error 2:  0.9935710111046172  %
iteration check  1710
