SDensity: 2.55
tolerance: 1.0
gamma1:  10
gamma2:  10
file1: countriesTest/g1_10_g2_10_2.55_1.txt
file2: countriesTest/g1_10_g2_10_2.55_2.txt
s:  360 2999
convergence reached, number of iterations:  1096
Final error 1:  0.8968609865470852  % 
Final error 2:  0.9604302727621975  %
iteration check  1096
SDensity: 2.55
tolerance: 1.0
gamma1:  10
gamma2:  10
file1: countriesTest/g1_10_g2_10_2.55_1.txt
file2: countriesTest/g1_10_g2_10_2.55_2.txt
s:  360 2999
convergence reached, number of iterations:  1112
Final error 1:  0.9671179883945842  % 
Final error 2:  0.977696303085854  %
iteration check  1112
