SDensity: 4.649999999999999
tolerance: 1.0
gamma1:  10
gamma2:  10
file1: countriesTest/g1_10_g2_10_4.649999999999999_1.txt
file2: countriesTest/g1_10_g2_10_4.649999999999999_2.txt
s:  656 5469
convergence reached, number of iterations:  718
Final error 1:  0.7493755203996669  % 
Final error 2:  0.967741935483871  %
iteration check  718
SDensity: 4.649999999999999
tolerance: 1.0
gamma1:  10
gamma2:  10
file1: countriesTest/g1_10_g2_10_4.649999999999999_1.txt
file2: countriesTest/g1_10_g2_10_4.649999999999999_2.txt
s:  656 5469
convergence reached, number of iterations:  676
Final error 1:  0.8528784648187633  % 
Final error 2:  0.8503401360544218  %
iteration check  676
