SDensity: 3.6
tolerance: 1.0
gamma1:  10
gamma2:  10
file1: countriesTest/g1_10_g2_10_3.6_1.txt
file2: countriesTest/g1_10_g2_10_3.6_2.txt
s:  508 4234
convergence reached, number of iterations:  900
Final error 1:  0.8324084350721421  % 
Final error 2:  0.9931506849315069  %
iteration check  900
SDensity: 3.6
tolerance: 1.0
gamma1:  10
gamma2:  10
file1: countriesTest/g1_10_g2_10_3.6_1.txt
file2: countriesTest/g1_10_g2_10_3.6_2.txt
s:  508 4234
convergence reached, number of iterations:  855
Final error 1:  0.955794504181601  % 
Final error 2:  0.9871668311944718  %
iteration check  855
