SDensity: 0.8
tolerance: 0.1
gamma1:  0
gamma2:  -5
file1: countriesTest4/g1_0_g2_m5_0.8_1.txt
file2: countriesTest4/g1_0_g2_m5_0.8_2.txt
sn:  113 941
s:  1
convergence reached, number of iterations:  8724
Final error 1:  0.07616146230007616  % 
Final error 2:  0.09191176470588235  %
iteration check  8724
