SDensity: 3.0
tolerance: 0.1
gamma1:  0
gamma2:  -5
file1: countriesTest4/g1_0_g2_m5_3_1.txt
file2: countriesTest4/g1_0_g2_m5_3_2.txt
sn:  423 3528
s:  3
convergence reached, number of iterations:  4280
Final error 1:  0.09865175928970733  % 
Final error 2:  0.09510725985416887  %
iteration check  4280
