SDensity: 4.600000000000001
tolerance: 0.1
gamma1:  0
gamma2:  -5
file1: countriesTest4/g1_0_g2_m5_4.600000000000001_1.txt
file2: countriesTest4/g1_0_g2_m5_4.600000000000001_2.txt
sn:  649 5410
s:  5
convergence reached, number of iterations:  4428
Final error 1:  0.06250976715111736  % 
Final error 2:  0.0978996084015664  %
iteration check  4428
