SDensity: 14.6
tolerance: 0.1
gamma1:  0
gamma2:  -5
file1: countriesTest4/g1_0_g2_m5_14.6_1.txt
file2: countriesTest4/g1_0_g2_m5_14.6_2.txt
sn:  2059 17170
s:  15
convergence reached, number of iterations:  3093
Final error 1:  0.07500117189331083  % 
Final error 2:  0.09563277016257571  %
iteration check  3093
