SDensity: 12.8
tolerance: 0.1
gamma1:  0
gamma2:  -5
file1: countriesTest4/g1_0_g2_m5_12.8_1.txt
file2: countriesTest4/g1_0_g2_m5_12.8_2.txt
sn:  1805 15053
s:  13
convergence reached, number of iterations:  3261
Final error 1:  0.07964161274265803  % 
Final error 2:  0.09414718343009572  %
iteration check  3261
