SDensity: 1.2
tolerance: 0.1
gamma1:  0
gamma2:  -5
file1: countriesTest4/g1_0_g2_m5_1.2_1.txt
file2: countriesTest4/g1_0_g2_m5_1.2_2.txt
sn:  170 1412
s:  2
convergence reached, number of iterations:  5409
Final error 1:  0.09324009324009325  % 
Final error 2:  0.09646922631680493  %
iteration check  5409
