SDensity: 20.8
tolerance: 0.1
gamma1:  0
gamma2:  -5
file1: countriesTest4/g1_0_g2_m5_20.8_1.txt
file2: countriesTest4/g1_0_g2_m5_20.8_2.txt
sn:  2933 24461
s:  21
convergence reached, number of iterations:  2652
Final error 1:  0.06302962392324392  % 
Final error 2:  0.09850275807722615  %
iteration check  2652
