000 (419.060.000) 07/29 00:27:46 Job submitted from host: <192.168.0.154:9618?addrs=192.168.0.154-9618+[--1]-9618&noUDP&sock=515_d35d_3>
...
001 (419.060.000) 07/29 00:28:00 Job executing on host: <192.168.0.150:9618?addrs=192.168.0.150-9618+[--1]-9618&noUDP&sock=510_6563_4>
...
005 (419.060.000) 07/29 02:04:10 Job terminated.
	(1) Normal termination (return value 0)
		Usr 0 01:36:03, Sys 0 00:00:00  -  Run Remote Usage
		Usr 0 00:00:00, Sys 0 00:00:00  -  Run Local Usage
		Usr 0 01:36:03, Sys 0 00:00:00  -  Total Remote Usage
		Usr 0 00:00:00, Sys 0 00:00:00  -  Total Local Usage
	0  -  Run Bytes Sent By Job
	0  -  Run Bytes Received By Job
	0  -  Total Bytes Sent By Job
	0  -  Total Bytes Received By Job
...
