SDensity: 17.2
tolerance: 0.1
gamma1:  0
gamma2:  -5
file1: countriesTest4/g1_0_g2_m5_17.2_1.txt
file2: countriesTest4/g1_0_g2_m5_17.2_2.txt
sn:  2426 20228
s:  18
convergence reached, number of iterations:  2753
Final error 1:  0.0715755569473025  % 
Final error 2:  0.0994809688581315  %
iteration check  2753
