000 (419.341.000) 07/29 00:27:46 Job submitted from host: <192.168.0.154:9618?addrs=192.168.0.154-9618+[--1]-9618&noUDP&sock=515_d35d_3>
...
007 (419.341.000) 07/29 00:55:35 Shadow exception!
	Error from slot1@actarus: Failed to open '/home/andrepoglia/bipartite_pagerank_interaction/countriesTest4/logs/rank341.out' as standard output: Permission denied (errno 13)
	0  -  Run Bytes Sent By Job
	0  -  Run Bytes Received By Job
...
012 (419.341.000) 07/29 00:55:36 Job was held.
	Error from slot1@actarus: Failed to open '/home/andrepoglia/bipartite_pagerank_interaction/countriesTest4/logs/rank341.out' as standard output: Permission denied (errno 13)
	Code 7 Subcode 13
...
