SDensity: 2.0
tolerance: 0.1
gamma1:  0
gamma2:  -5
file1: countriesTest4/g1_0_g2_m5_2_1.txt
file2: countriesTest4/g1_0_g2_m5_2_2.txt
sn:  282 2352
s:  2
convergence reached, number of iterations:  4801
Final error 1:  0.08449514152936206  % 
Final error 2:  0.09678668215253582  %
iteration check  4801
