67	0.020714676873320927	Italy
50	0.020002884693184737	Germany
30	0.019124577703197906	China
46	0.01905773725135645	France
141	0.019008486392104854	USA
123	0.01795662875523144	Spain
61	0.01790620525647385	India
13	0.017018517150439096	Belgium
94	0.016331350399928703	Netherlands
8	0.01603936316293709	Austria
139	0.015620730859298503	UnitedKingdom
107	0.01531349930872901	Poland
36	0.015125876987770542	CzechRepublic
134	0.01353108725962356	Turkey
69	0.013056168259697435	Japan
127	0.013006917400445838	Switzerland
108	0.012850956346149111	Portugal
52	0.01238541846227091	Greece
131	0.011997274785788077	Thailand
119	0.01186711180062314	Slovenia
21	0.011817860941371543	Bulgaria
38	0.011708805467314433	Denmark
62	0.01159388679572737	Indonesia
19	0.011305417477253726	Brazil
66	0.011225677990846375	Israel
126	0.011053299983465784	Sweden
115	0.010940726590890702	Serbia
26	0.010654602551429037	Canada
77	0.010557273472431832	Lebanon
43	0.010479879265036462	Estonia
34	0.01030750125765587	Croatia
110	0.010243006084826397	Romania
118	0.010110497820649478	Slovakia
122	0.010105807262625516	SouthKorea
121	0.010042484729302033	SouthAfrica
137	0.009576946845423833	Ukraine
80	0.009528868625678226	Lithuania
59	0.009348282141755699	Hungary
144	0.009289650166456179	Vietnam
40	0.009221637075108733	Egypt
45	0.009192321087458972	Finland
76	0.009174731494869116	Latvia
72	0.009128998554135489	Kenya
88	0.00907740241587191	Mexico
95	0.008903851768985328	NewZealand
102	0.00869629457642502	Pakistan
133	0.008670496507293231	Tunisia
54	0.008296424504882285	Guatemala
35	0.00822841141353484	Cyprus
7	0.007977466559252888	Australia
12	0.007877792201243702	Belarus
18	0.0077898442382944195	BosniaHerzegovina
103	0.007767564087680601	Panama
140	0.007694860438309195	Uruguay
81	0.0076549906951055196	Macedonia
93	0.007469713653159032	Nepal
84	0.0074450882235332335	Malaysia
91	0.0072809186926945735	Morocco
117	0.007129648196421808	Singapore
70	0.007113231243337942	Jordan
105	0.007041700233472526	Peru
31	0.006986586176690976	Colombia
106	0.006977205060643052	Philippines
41	0.006823589285358306	ElSalvador
1	0.0067673025890707655	Albania
116	0.006720397008831148	SierraLeone
111	0.006651211277977713	Russia
114	0.006304109984204546	Senegal
74	0.006190363952123475	Kyrgyzstan
29	0.0061716017200276274	Chile
130	0.006131731976823953	Tanzania
100	0.006013295386718919	Norway
82	0.005974598283021235	Madagascar
132	0.005661503534921791	Togo
147	0.005635705465790002	Zimbabwe
138	0.005514923596672987	UnitedArabEmirates
58	0.005396487006567954	Honduras
33	0.005237008033753256	CostaRica
63	0.005129125199202136	Iran
65	0.0048641086708482995	Ireland
142	0.004655378838782003	Uzbekistan
136	0.004650688280758041	Uganda
49	0.004599092142494462	Georgia
17	0.004580329910398615	Bolivia
48	0.004534596969664989	Gambia
11	0.004518180016581123	Bangladesh
51	0.004377463275862271	Ghana
96	0.004303586986984874	Nicaragua
71	0.004302414347478883	Kazakhstan
104	0.004239091814155401	Paraguay
0	0.004208603186999649	Afghanistan
68	0.004193358873421774	IvoryCoast
75	0.004117137305532396	Laos
6	0.004087821317882635	Armenia
89	0.004002218633945334	Mongolia
86	0.003951795135187746	Malta
44	0.003860329253720492	Ethiopia
42	0.0038286679870587503	Eritrea
39	0.0037583096166993245	Ecuador
10	0.003723130431519612	Bahrain
16	0.0037020229204117842	Bhutan
24	0.00358124105129477	Cambodia
92	0.00355427034265699	Mozambique
146	0.0034979836463694494	Zambia
22	0.003463977100695727	BurkinaFaso
60	0.0034217620784800715	Iceland
97	0.003349058429108665	Niger
129	0.0032575925476414115	Tajikistan
9	0.0031637813871621774	Azerbaijan
112	0.003147364434078311	Rwanda
101	0.0031379833180303876	Oman
143	0.003121566364946522	Venezuela
83	0.003054725913105067	Malawi
25	0.00303479104150323	Cameroon
57	0.0029503609970719193	Guyana
15	0.0028975922193023498	Benin
85	0.0028600677551106563	Mali
125	0.00273342268846369	Suriname
113	0.0027299047699457183	SaudiArabia
14	0.002712315177355862	Belize
37	0.002668927515634216	DemocraticRepublicCongo
145	0.0025586994020711158	Yemen
23	0.0025305560539273454	Burundi
55	0.002394529871232456	Guinea
32	0.0023722497206186376	Congo
27	0.002361695965064724	CentralAfricanRepublic
135	0.0021177869478187145	Turkmenistan
109	0.0021095784712767815	Qatar
124	0.001981760765123825	Sudan
73	0.0019805881256178344	Kuwait
98	0.0019641711725339682	Nigeria
78	0.0018187638737911553	Liberia
56	0.0017695130145395572	Guinea-Bissau
87	0.001692118807144189	Mauritania
47	0.0016803924120842846	Gabon
2	0.0016534217034465048	Algeria
79	0.0015924444491350026	Libya
20	0.0015103596837156724	Brunei
64	0.0013567439084309263	Iraq
28	0.0012781770615295676	Chad
4	0.0011186980887148692	Angola
