30	0.04202257073429182	China
50	0.028329363417639634	Germany
141	0.028082463178844327	USA
69	0.025091330574654677	Japan
46	0.023772965849719555	France
67	0.022952904342292284	Italy
61	0.022688555986317676	India
127	0.022516889026972912	Switzerland
13	0.021591013131490512	Belgium
139	0.021444486470017007	UnitedKingdom
123	0.019123136428516752	Spain
94	0.0190734186752639	Netherlands
8	0.018881677000454778	Austria
131	0.0157776006700077	Thailand
36	0.015408938839283704	CzechRepublic
103	0.014263929601162307	Panama
144	0.013872566456688894	Vietnam
62	0.013735608117539523	Indonesia
66	0.013337115634863814	Israel
19	0.013305221227116701	Brazil
119	0.012929992900680063	Slovenia
121	0.012877085706652499	SouthAfrica
108	0.012600917658395133	Portugal
122	0.012335068389114776	SouthKorea
26	0.012039388467882706	Canada
77	0.011436771775625468	Lebanon
126	0.01103377655303252	Sweden
107	0.010533409579729265	Poland
7	0.010367933887770709	Australia
117	0.010304520300602917	Singapore
133	0.010072629194865075	Tunisia
84	0.009891018684869744	Malaysia
21	0.009405660844623954	Bulgaria
45	0.00913155655216199	Finland
91	0.009023303179985022	Morocco
106	0.009008669275253992	Philippines
134	0.008988594559789632	Turkey
105	0.00823476085197843	Peru
38	0.00812200473988422	Denmark
111	0.008040767807210688	Russia
88	0.007851089888196968	Mexico
137	0.007599124066994766	Ukraine
140	0.007518074748484453	Uruguay
93	0.0072345897478615735	Nepal
43	0.007233276448719046	Estonia
95	0.007201757269298368	NewZealand
52	0.00671508612991005	Greece
72	0.0066970751702410914	Kenya
35	0.00660026626202044	Cyprus
115	0.006567621397620452	Serbia
17	0.006559929216928501	Bolivia
118	0.006478504670091751	Slovakia
110	0.00644173229410096	Romania
102	0.0063957668241124725	Pakistan
34	0.006336293134372266	Croatia
100	0.00628563731030332	Norway
138	0.006112281823489593	UnitedArabEmirates
1	0.006100086902880403	Albania
40	0.00609821076124822	Egypt
116	0.006077948431620641	SierraLeone
76	0.006066128739337887	Latvia
29	0.005727860403055259	Chile
142	0.0056991554360828565	Uzbekistan
130	0.005675140823190912	Tanzania
59	0.005649437682830002	Hungary
70	0.005179839432294551	Jordan
65	0.005102917625375041	Ireland
60	0.005039691652370467	Iceland
80	0.005035188912453228	Lithuania
81	0.004925247012807293	Macedonia
114	0.0047517039118303486	Senegal
82	0.004739696605384376	Madagascar
49	0.004665401396749922	Georgia
18	0.0045175614361338875	BosniaHerzegovina
97	0.004489982154140795	Niger
12	0.004466155155412068	Belarus
74	0.004453397392313222	Kyrgyzstan
41	0.004441952928356905	ElSalvador
71	0.0043772260420465855	Kazakhstan
147	0.004235202120490319	Zimbabwe
6	0.004115879512683468	Armenia
86	0.004099744694646692	Malta
132	0.004096930482198418	Togo
104	0.004082859419957044	Paraguay
11	0.0038734820138054005	Bangladesh
136	0.0038173853790031236	Uganda
54	0.00377535980644222	Guatemala
0	0.003541967787398632	Afghanistan
63	0.003424146092897528	Iran
68	0.003389249858538921	IvoryCoast
31	0.003277994659750458	Colombia
48	0.0032691767940791973	Gambia
146	0.003160172965249354	Zambia
37	0.003101637346325239	DemocraticRepublicCongo
75	0.0030235898544264186	Laos
143	0.0028149629049276483	Venezuela
32	0.0027329755156012435	Congo
42	0.0027031448636495306	Eritrea
44	0.0026046474279599135	Ethiopia
51	0.002597142861431181	Ghana
10	0.0025661865245001584	Bahrain
89	0.0024624358922404285	Mongolia
58	0.0024594340656289354	Honduras
14	0.0024114048398450457	Belize
33	0.0023175977582358866	CostaRica
112	0.0023151587741140484	Rwanda
113	0.0022928326886910684	SaudiArabia
92	0.0022781987839600396	Mozambique
109	0.00227707309898073	Qatar
129	0.002255497470210623	Tajikistan
16	0.0022031531186727125	Bhutan
39	0.002189457284757775	Ecuador
83	0.0021429289722796323	Malawi
22	0.002139364303178484	BurkinaFaso
96	0.0021029671555141305	Nicaragua
73	0.002099214872249764	Kuwait
85	0.002079702999275059	Mali
27	0.002064318637891157	CentralAfricanRepublic
57	0.002043305851610705	Guyana
101	0.002042180166631395	Oman
2	0.0020022183498658933	Algeria
24	0.0019309249678429324	Cambodia
125	0.0019061598982981144	Suriname
23	0.0018678866090015775	Burundi
55	0.0018065367776291875	Guinea
9	0.0017268007582614021	Azerbaijan
25	0.0017179828925901412	Cameroon
145	0.0016496913371786732	Yemen
124	0.0016403106290177572	Sudan
78	0.0015718314594430711	Liberia
79	0.0015335581701465342	Libya
135	0.0015260536036178014	Turkmenistan
47	0.0015243650761488366	Gabon
98	0.0015236146194959634	Nigeria
15	0.0014725835671005807	Benin
56	0.0014536345366155305	Guinea-Bissau
64	0.0013650806515764842	Iraq
87	0.0012337507373236614	Mauritania
28	0.0011416321831834672	Chad
20	0.0010975428548271624	Brunei
4	0.0010966047840110706	Angola
