153	0.002403195553119326	106
925	0.0022574321662270033	7204
813	0.00221913113672959	6203
999	0.0021451520692726714	7602
402	0.002128771754770633	2710
293	0.002109795213950461	1701
619	0.002083913246428449	4103
259	0.0020646690534105315	1211
640	0.002034210233307068	4407
617	0.001996605099523793	4101
616	0.0019952668385350646	4100
365	0.001967323949090411	2523
166	0.001966306870738977	303
323	0.001953780747884477	2202
595	0.001943449373051492	3923
255	0.0019199495100894173	1207
266	0.0018906951248758093	1404
169	0.0018885003768542945	306
332	0.0018611463222446812	2302
260	0.001786016350337456	1212
832	0.0017793250453938128	6305
524	0.001769288087978348	3401
231	0.0017574846260577615	910
814	0.0017522386429819452	6204
796	0.0017409704854568502	6103
797	0.0017365809894138203	6104
240	0.0016972896467847478	1101
637	0.0016922845506869026	4404
641	0.0016897953852478673	4408
802	0.0016834252629415191	6109
206	0.0016696144095378397	713
836	0.001664823435198191	6309
799	0.0016521902514645929	6106
165	0.001647051329267875	302
912	0.0016316077974579464	7108
168	0.001619429622460516	305
341	0.001618171657131111	2402
336	0.0016143174654835726	2306
618	0.0016108915173524273	4102
642	0.0016101688564185137	4409
211	0.0016061273082325534	804
795	0.001601577220870876	6102
668	0.0015922093939497756	4800
962	0.0015900414111480353	7313
283	0.001577649114392408	1517
222	0.001571386052965158	901
800	0.0015675586265373942	6107
307	0.0015605996693960054	2001
958	0.0015594755301654732	7309
707	0.0015508035989585118	5202
315	0.0015478058943437596	2009
758	0.0015464141029154818	5607
343	0.0015426669721470417	2501
187	0.0015394283805543183	508
801	0.001537073041214156	6108
636	0.0015341021018191784	4403
167	0.0015335400322039124	304
798	0.0015332188495666176	6105
202	0.0015295787796772756	709
295	0.0015279728664908013	1703
895	0.001510147230120936	7010
881	0.0015064803950118196	6910
794	0.0015000567422659222	6101
313	0.0014980493507828292	2007
807	0.0014965237332556784	6114
822	0.001495613715783343	6212
342	0.00148546969748878	2403
706	0.0014828467059508719	5201
1001	0.0014810534362259755	7604
319	0.0014705079396347938	2104
803	0.0014632545650758847	6110
225	0.0014617289475487342	904
291	0.0014594003734283462	1604
340	0.0014477842680461817	2401
296	0.0014435285981020246	1704
808	0.0014317251361814383	6115
317	0.0014289415533248826	2102
282	0.0014285133098084896	1516
186	0.0014225714310185343	507
957	0.0014137389084929255	7308
866	0.0014127485953612663	6810
1293	0.0014112229778341155	9406
414	0.001410446786460653	2806
218	0.0014096170646476411	811
759	0.0014062981773955941	5608
651	0.001406244646956045	4418
264	0.0014054416903628078	1302
502	0.0014047190294288945	3105
306	0.0014012127856384254	1905
499	0.001399928055089246	3102
541	0.0013977868375072801	3605
817	0.0013968768200349447	6207
242	0.0013968232895953956	1103
805	0.0013930493936071809	6112
650	0.001392781741409435	4417
241	0.0013906137586076946	1102
819	0.0013873751670149715	6209
837	0.0013865722104217343	6310
815	0.0013832533231696873	6205
318	0.0013756787659734832	2103
164	0.0013726542961389565	301
709	0.0013708342611942854	5204
172	0.0013659897564150879	402
1186	0.001364785321525232	8544
538	0.0013637414779540237	3602
205	0.001363420295316729	712
816	0.0013624032169652952	6206
175	0.0013616537908116072	405
170	0.0013592449210318956	307
401	0.001354641303230669	2709
842	0.0013530621552639694	6405
203	0.001349315024495529	710
635	0.001346692032957621	4402
821	0.0013462637894412278	6211
923	0.00133673537120148	7202
314	0.0013367086059817054	2008
714	0.0013327741186748433	5209
937	0.0013323191099386756	7217
959	0.0013314893881256637	7310
250	0.0013287593357086574	1202
955	0.0013266181181266915	7306
838	0.0013262969354893967	6401
217	0.0013250122049402171	810
179	0.0013238613004899105	409
204	0.0013216665524683957	711
653	0.0013196591609853027	4420
812	0.0013184279608756723	6202
207	0.0013181603086779266	714
1009	0.0013120846037890986	7612
594	0.001309622203569838	3922
811	0.0013062765510980163	6201
392	0.0012995049504950496	2621
916	0.0012979525677481243	7112
316	0.001292706584672308	2101
362	0.0012914218541231286	2520
712	0.0012823484446195484	5207
935	0.0012772630528623797	7214
239	0.0012764600962691425	1008
263	0.0012717226523690432	1301
590	0.0012701435044023433	3917
201	0.0012695011391277535	708
177	0.0012683769998972215	407
302	0.0012682967042378977	1806
522	0.0012662625475350303	3306
867	0.0012638269125355443	6811
936	0.0012628901298434342	7215
648	0.001262649242865463	4415
1290	0.0012596783034704855	9403
171	0.0012595444773716125	401
399	0.0012595444773716125	2707
713	0.001252317868032478	5208
829	0.0012517290331974375	6302
287	0.0012473930675939565	1522
710	0.00124624216314365	5205
639	0.0012431909280893488	4406
818	0.0012391493799033882	6208
1254	0.0012385605450683478	9028
1096	0.00123558960567337	8432
1199	0.0012354557795744973	8609
610	0.0012341978142450924	4012
1082	0.0012336892750693755	8418
752	0.0012313339357292131	5601
510	0.0012312536400698893	3208
886	0.0012278544571585185	7001
931	0.0012278544571585185	7210
1007	0.0012267570831477612	7610
740	0.0012244820394669224	5505
311	0.0012229296567199972	2005
348	0.0012227690654013498	2506
820	0.0012198516564459214	6210
189	0.0012197445955668231	511
245	0.001219557239028401	1106
281	0.0012158904039192846	1515
960	0.0012140971341943884	7311
907	0.0012129729949638562	7103
193	0.0012122235688101681	604
188	0.0012118488557333242	510
223	0.00120960057727226	902
278	0.0012079411336462366	1512
804	0.0012052646116687794	6111
974	0.0011984127154064887	7325
749	0.001196699741340916	5514
934	0.0011951473585939908	7213
441	0.0011941570454623318	2833
843	0.001190624036452088	6406
359	0.001189499897221556	2517
498	0.0011882419318921512	3101
755	0.0011870910274418445	5604
183	0.0011844680359039364	504
196	0.00118425391414574	703
214	0.001181497096508959	807
219	0.0011806941399157217	812
405	0.0011806941399157217	2713
998	0.0011793826441467677	7601
646	0.0011770005395868306	4413
407	0.001174912852444414	2715
357	0.001174725495905992	2515
243	0.0011711924868957485	1104
1223	0.0011654379646442153	8903
789	0.0011635911644797697	6002
609	0.0011626543817876598	4011
982	0.0011589607814587687	7408
557	0.0011584522422830518	3808
1224	0.0011581845900853062	8904
1215	0.0011575154595909417	8716
363	0.0011574083987118435	2521
176	0.001157381633492069	406
328	0.0011572745726129707	2207
835	0.0011561771986022132	6308
875	0.0011556954246462708	6904
436	0.0011548657028332592	2828
863	0.0011538218592620508	6807
512	0.0011535006766247558	3210
364	0.0011511988677241427	2522
765	0.001150047963273836	5705
840	0.0011481208674500667	6403
891	0.001147853215252321	7006
966	0.0011447752149782453	7317
750	0.001144346971461852	5515
220	0.001137655666518209	813
717	0.0011348720836616534	5212
708	0.0011346579619034567	5203
673	0.0011263607437733392	4823
1288	0.0011262001524546918	9401
288	0.0011260930915755936	1601
1135	0.0011254774915207784	8474
597	0.0011245942392682175	3925
918	0.0011245139436088937	7114
1062	0.0011225333173455754	8309
185	0.001122051543389633	506
347	0.001120177978005413	2505
320	0.0011184650039398403	2105
827	0.0011167520298742677	6217
970	0.001116671734214944	7321
1003	0.0011165379081160712	7606
930	0.001116163195039227	7209
322	0.0011156814210832849	2201
1095	0.0011154405341053137	8431
695	0.0011140219774572614	5103
981	0.0011139416817979376	7407
1016	0.0011138078556990646	7806
289	0.0011132457860837987	1602
149	0.0011099804292713008	102
173	0.001108963350919867	403
194	0.0011086956987221214	701
292	0.001108588637843023	1605
324	0.0011059924115248896	2203
831	0.0011036906026242763	6304
212	0.0011035567765254033	805
978	0.001100264654493131	7403
1322	0.0010980431412518415	9705
1188	0.0010921012624618863	8546
563	0.0010919406711432389	3814
1201	0.0010896923926821747	8702
1286	0.0010851423053204975	9306
523	0.0010849549487820754	3307
327	0.0010843393487272603	2206
554	0.001083482861694474	3805
546	0.0010833222703758266	3704
1222	0.0010828672616396587	8902
1012	0.0010808331049367913	7615
511	0.0010807795744972421	3209
760	0.0010799230874644558	5609
628	0.00107778186988249	4205
611	0.0010771930350474495	4013
1057	0.0010756406523005242	8304
1291	0.0010756406523005242	9404
403	0.0010751588783445818	2711
199	0.0010737403216965296	706
350	0.001071465278015691	2508
256	0.0010688958169173318	1208
1011	0.0010671025471924356	7614
1004	0.0010568247027989996	7607
575	0.0010559146853266642	3902
685	0.0010555399722498202	4911
929	0.0010553258504916235	7208
644	0.0010525155024152934	4411
862	0.0010518463719209291	6806
1149	0.0010513378327452123	8503
643	0.0010509898848881428	4410
1219	0.0010498925108773853	8804
729	0.0010495713282400905	5402
339	0.0010475104063174484	2309
574	0.0010455565452739046	3901
1014	0.0010454227191750317	7801
876	0.0010444324060433724	6905
770	0.0010426926667580253	5805
521	0.0010425053102196033	3305
728	0.0010415417623077187	5401
744	0.0010411402840111	5509
443	0.0010393470142862037	2835
379	0.0010391864229675563	2608
602	0.0010389187707698106	4004
308	0.0010326824745623352	2002
303	0.0010302200743430745	1902
230	0.0010290424046729932	909
833	0.0010286944568159238	6306
236	0.0010249740912672582	1005
191	0.0010239034824762753	602
210	0.0010204507691253554	803
528	0.0010195675168727947	3405
1179	0.0010191125081366267	8537
897	0.0010183363167631642	7013
446	0.0010182560211038404	2839
208	0.0010162486296207474	801
868	0.0010158739165439035	6812
903	0.0010150709599506663	7019
948	0.001014080646819007	7228
516	0.0010136791685223885	3214
459	0.0010126085597314057	2904
747	0.0010104941073692144	5512
1227	0.0010089684898420639	8907
371	0.0010078443506115317	2530
216	0.0010075499331940114	809
444	0.001006693446161225	2836
762	0.0010058904895679879	5702
634	0.0010053016547329474	4401
415	0.0010039901589639932	2807
596	0.001003374558909178	3924
351	0.0010031604371509815	2509
294	0.0010024913066566173	1702
265	0.0009993865411627668	1401
716	0.0009983426975915585	5211
358	0.00099729885402035	2516
631	0.0009970312018226044	4302
1141	0.000994675862482442	8480
209	0.0009939532015485286	802
422	0.0009927487666586729	2814
858	0.0009876901401212786	6802
828	0.0009862448182534516	6301
525	0.000983086522320052	3402
1156	0.0009816412004522252	8511
715	0.000978643495837473	5210
1013	0.000976769930453253	7616
917	0.0009765558086950564	7113
161	0.0009756993216622701	208
404	0.0009746019476515126	2712
1321	0.000974575182431738	9704
1203	0.0009736116345198534	8704
329	0.0009729960344650382	2208
423	0.0009723804344102231	2815
1204	0.0009701321559491589	8705
310	0.0009694094950152454	2004
1056	0.0009679641731474186	8303
864	0.0009655017729281579	6808
865	0.0009638958597416835	6809
1281	0.0009635479118846141	9301
285	0.0009621293552365617	1520
257	0.000961674346500394	1209
1235	0.000961674346500394	9007
879	0.0009572313200178149	6908
360	0.0009571242591387166	2518
849	0.0009565889547432252	6507
1300	0.0009562410068861557	9601
1147	0.0009529756500736579	8501
1078	0.0009514232673267327	8414
577	0.0009489341018876974	3904
956	0.000948398797492206	7307
1228	0.0009481579105142348	8908
680	0.0009474887800198705	4906
411	0.0009472746582616739	2803
1068	0.0009467928843057316	8404
614	0.0009463378755695639	4016
771	0.0009460434581520436	5806
753	0.0009453207972181301	5602
869	0.0009449460841412861	6813
947	0.0009439825362294015	7227
551	0.0009437684144712049	3802
1172	0.0009425372143615745	8530
774	0.0009423498578231526	5809
906	0.0009410651272739731	7102
743	0.0009400748141423138	5508
247	0.0009396198054061461	1108
971	0.0009395127445270479	7322
1298	0.0009390309705711056	9507
537	0.0009387365531535852	3601
1216	0.0009382815444174175	8801
790	0.0009375321182637295	6003
1313	0.0009373715269450821	9614
513	0.0009372912312857584	3211
215	0.0009367023964507177	808
337	0.0009365150399122958	2307
520	0.0009357388485388331	3304
973	0.0009354711963410874	7324
882	0.0009319381873308439	6911
1152	0.0009319381873308439	8506
378	0.0009310549350782829	2607
681	0.0009310549350782829	4907
1039	0.0009309478741991846	8201
213	0.0009305731611223406	806
1225	0.0009303055089245949	8905
246	0.0009293954914522594	1107
1017	0.0009285925348590222	7901
374	0.0009244439257939635	2603
286	0.0009221421168933503	1521
388	0.0009220082907944774	2617
975	0.000916146707663846	7326
779	0.0009148619771146665	5903
608	0.0009115698550823941	4010
964	0.000910820428928706	7315
674	0.0009098568810168214	4824
606	0.0009079565504128268	4008
607	0.0009074212460173352	4009
1005	0.0009071535938195896	7608
721	0.0009070465329404913	5305
1289	0.0009068859416218438	9402
697	0.0009062168111274796	5105
419	0.0009047179588201035	2811
734	0.0009044235414025831	5407
927	0.0009043432457432595	7206
234	0.0009022823238206174	1003
1303	0.0009021752629415191	9604
676	0.0009019343759635479	4902
1101	0.0009019076107437733	8437
432	0.0009018005498646751	2824
1211	0.0009018005498646751	8712
963	0.0009013455411285074	7314
763	0.0008988831409092467	5703
254	0.0008983746017335297	1206
280	0.0008964742711295351	1514
921	0.0008948148275035116	7118
699	0.0008946274709650896	5107
652	0.0008934230360752338	4419
152	0.0008903718010209326	105
387	0.0008880967573400939	2616
372	0.000886276722395423	2601
748	0.0008848849309671451	5513
645	0.0008826901829456302	4412
666	0.0008804954349241153	4706
1178	0.0008787289304189934	8536
1076	0.0008784880434410223	8412
1142	0.0008780865651444037	8481
535	0.0008749817996505533	3506
1092	0.0008732152951454315	8428
990	0.000872492634211518	7419
1200	0.0008719573298160266	8701
1208	0.0008719305645962521	8709
496	0.0008706993644866217	2942
786	0.000869173746959471	5910
787	0.000869173746959471	5911
1299	0.0008691202165199219	9508
1074	0.0008682101990475864	8410
454	0.0008675945989927713	2849
1063	0.000866978998937956	8310
989	0.0008665507554215629	7418
565	0.0008662295727842681	3816
604	0.0008661492771249443	4006
675	0.0008653463205317071	4901
148	0.0008649983726746377	101
669	0.0008644363030593717	4802
933	0.0008642221813011751	7212
872	0.0008640615899825276	6901
788	0.0008630445116310939	6001
806	0.0008630177464113194	6113
624	0.0008629106855322211	4115
928	0.0008624824420158278	7207
893	0.0008622415550378567	7008
1302	0.0008614385984446196	9603
406	0.0008610638853677755	2714
741	0.0008606088766316078	5506
841	0.0008604482853129603	6404
773	0.0008597523895988215	5808
1277	0.0008597256243790469	9206
505	0.0008574773459179828	3203
434	0.0008562996762479016	2826
390	0.000855148771797595	2619
1002	0.0008530878498749528	7605
711	0.0008506522148754668	5206
331	0.0008495548408647093	2301
623	0.0008495013104251602	4114
237	0.0008491265973483162	1006
221	0.0008488589451505704	814
151	0.0008466641971290555	104
497	0.0008464233101510843	3006
529	0.000845192110041454	3406
1146	0.0008409899705368461	8487
1244	0.0008401870139436089	9018
953	0.0008390628747130768	7304
1043	0.0008376710832847991	8205
1306	0.0008366807701531398	9607
1198	0.0008364666483949433	8608
1081	0.0008360651700983247	8417
1083	0.000835797517900579	8419
469	0.0008354763352632841	2914
1040	0.0008345663177909486	8202
1226	0.0008342183699338792	8906
1021	0.0008339507177361335	7907
1197	0.0008337098307581623	8607
900	0.0008336295350988386	7016
1241	0.0008336295350988386	9015
738	0.0008333886481208674	5503
1177	0.0008333351176813183	8535
725	0.0008328265785056014	5309
1174	0.0008326659871869539	8532
1055	0.0008326392219671794	8302
954	0.0008326124567474048	7305
961	0.0008323983349892083	7312
1046	0.0008323715697694337	8208
860	0.0008322377436705608	6804
1064	0.0008300429956490459	8311
735	0.0008299359347699476	5408
539	0.0008296147521326527	3603
1119	0.0008291062129569359	8455
612	0.0008289456216382884	4014
772	0.0008288920911987392	5807
154	0.0008284370824625715	201
672	0.0008278214824077564	4811
951	0.0008275805954297852	7302
1283	0.0008275805954297852	9303
792	0.0008274735345506869	6005
391	0.000826777638836548	2620
778	0.0008264564561992531	5902
569	0.0008260817431224091	3820
1140	0.0008259479170235363	8479
533	0.0008258943865839871	3503
698	0.0008255464387269177	5106
754	0.0008248773082325533	5603
704	0.000824770247353455	5112
270	0.0008245025951557093	1504
926	0.0008244222994963856	7205
701	0.0008236996385624722	5109
159	0.0008234855168042756	206
952	0.0008233249254856282	7303
620	0.000823271395046079	4104
550	0.000822521968892391	3801
312	0.0008209695861454658	2006
1018	0.0008203004556511014	7903
1098	0.0008199792730138065	8434
659	0.000819952507794032	4601
767	0.0008195510294974134	5802
1221	0.0008192566120798931	8901
857	0.0008179986467504882	6801
830	0.0008174901075747713	6303
693	0.0008155362465312276	5101
232	0.000815134768234609	1001
1259	0.000815000942135736	9033
769	0.000814251515982048	5804
229	0.0008097014286203707	908
277	0.0008069713762033643	1511
1175	0.0008025818801603344	8533
1207	0.0008024748192812361	8708
1097	0.0008020198105450683	8433
1106	0.0008014042104902532	8442
892	0.0007992629929082874	7007
1094	0.0007992362276885128	8430
582	0.0007984065058755011	3909
1025	0.0007983529754359518	8007
576	0.0007980050275788825	3903
671	0.0007964258796121827	4810
457	0.0007963723491726336	2902
603	0.0007960511665353387	4005
684	0.0007948199664257083	4910
1066	0.0007945523142279626	8402
679	0.0007940437750522457	4905
615	0.0007938831837335983	4017
412	0.0007935352358765289	2804
664	0.0007933211141183322	4704
593	0.0007928125749426154	3920
983	0.0007924110966459968	7409
910	0.0007920096183493782	7106
1093	0.0007919293226900545	8429
1089	0.0007919025574702799	8425
456	0.000791768731371407	2901
987	0.0007913404878550138	7413
873	0.0007910728356572682	6902
694	0.0007909390095583953	5102
722	0.0007894401572510193	5306
809	0.0007890119137346261	6116
757	0.0007888780876357532	5606
1060	0.0007885033745589091	8307
301	0.0007883695484600363	1805
1301	0.0007881554267018398	9602
638	0.0007879680701634177	4405
702	0.0007876201223063483	5110
745	0.00078751306142725	5510
261	0.0007871115831306314	1213
321	0.0007866833396142383	2106
493	0.0007862818613176197	2939
1196	0.0007851577220870876	8606
1117	0.000785130956867313	8453
519	0.0007843012350543013	3303
273	0.0007839800524170064	1507
305	0.0007836588697797115	1904
1309	0.0007833912175819658	9610
834	0.0007829629740655727	6307
1136	0.0007815711826372948	8475
197	0.0007812767652197746	704
601	0.0007812767652197746	4003
393	0.0007804470434067629	2701
195	0.000778118469286375	702
660	0.0007735951471444722	4602
297	0.0007711862773647607	1801
599	0.0007710524512658879	4001
455	0.0007699015468155812	2852
861	0.0007686435814861763	6805
471	0.000768349164068656	2916
1150	0.0007676265031347425	8504
1169	0.0007650570420363836	8526
600	0.0007647893898386378	4002
1090	0.0007643076158826955	8426
1100	0.0007633173027510364	8436
495	0.000762273459179828	2941
919	0.000762273459179828	7115
980	0.0007621663983007297	7406
1202	0.0007616846243447875	8703
506	0.0007613634417074926	3204
290	0.0007610690242899722	1603
781	0.0007601322415978622	5905
1171	0.0007598378241803419	8529
453	0.0007597575285210182	2847
568	0.0007596237024221454	3819
904	0.0007592489893453013	7020
1192	0.0007591686936859776	8602
398	0.0007590348675871047	2706
1054	0.0007587939806091336	8301
1000	0.0007584995631916133	7603
1116	0.0007584727979718387	8452
1148	0.0007584192675322896	8502
625	0.0007583657370927405	4201
1118	0.0007583389718729659	8454
588	0.0007568668847853644	3915
746	0.0007561709890712254	5511
885	0.0007560371629723526	6914
1067	0.0007560371629723526	8403
368	0.0007559568673130289	2526
1143	0.0007557962759943814	8482
500	0.0007554215629175374	3103
1115	0.0007553680324779883	8451
400	0.0007552342063791154	2708
356	0.0007549933194011442	2514
730	0.0007546721367638494	5403
1085	0.0007540565367090342	8421
267	0.000753815649731063	1501
969	0.0007535747627530919	7320
542	0.0007535212323135428	3606
883	0.0007535212323135428	6912
507	0.0007529591626982767	3205
1129	0.0007528521018191784	8468
1008	0.0007525576844016581	7611
425	0.0007516744321490972	2817
965	0.0007516744321490972	7316
932	0.0007513264842920278	7211
761	0.0007501488146219466	5701
184	0.0007480878926993045	505
844	0.000746428449073281	6501
839	0.0007463749186337319	6402
426	0.0007440731097331187	2818
823	0.000743484274898078	6213
382	0.0007432969183596561	2611
253	0.0007409951094590428	1205
977	0.0007371944482510535	7402
1157	0.0007357491263832265	8512
192	0.00073553500462503	603
155	0.0007343038045153997	202
1045	0.0007323767086916304	8207
1311	0.000732028760834561	9612
913	0.0007306102041865087	7109
1080	0.0007303425519887629	8416
1102	0.0007291648823186817	8438
1233	0.0007277998561101785	9005
558	0.0007275322039124328	3809
1180	0.0007274251430333345	8538
435	0.000726140412484155	2827
478	0.0007255248124293398	2923
736	0.0007255248124293398	5501
284	0.00072394566446264	1518
782	0.0007236512470451198	5906
344	0.000723570951385796	2502
1213	0.000723383594847374	8714
1162	0.0007233300644078249	8517
1187	0.0007230624122100791	8545
667	0.0007229018208914317	4707
1050	0.0007226609339134605	8212
555	0.0007214297338038302	3806
949	0.0007208944294083388	7229
433	0.0007205464815512693	2825
1160	0.0007204126554523965	8515
1061	0.0007201717684744253	8308
777	0.0007199308814964541	5901
1032	0.0007195829336393847	8107
756	0.0007193955771009627	5605
174	0.0007191546901229916	404
633	0.0007190743944636678	4304
1114	0.0007188335074856967	8450
768	0.0007188067422659221	5803
848	0.0007185926205077255	6506
1161	0.0007185658552879509	8516
689	0.0007180840813320086	5004
1037	0.0007175755421562918	8112
1006	0.0007175487769365172	7609
1139	0.0007172811247387715	8478
985	0.0007170402377608003	7411
156	0.0007168796464421529	203
884	0.0007161837507280139	6913
1070	0.0007161034550686902	8406
472	0.0007158090376511699	2917
1287	0.0007147116636404125	9307
1122	0.0007145778375415396	8459
627	0.0007142298896844702	4203
724	0.0007135607591901059	5308
504	0.000712677506937545	3202
1138	0.0007113392459488163	8477
889	0.0007112054198499435	7004
826	0.000710670115454452	6216
1308	0.0007095192110041454	9609
380	0.0007070835760046593	2609
810	0.0007040591061701326	6117
470	0.0007011952276542534	2915
824	0.0007010614015553804	6214
299	0.000699214601390935	1803
1151	0.0006963239576552811	8505
696	0.0006960295402377608	5104
1182	0.0006940221487546678	8540
578	0.0006939686183151187	3905
591	0.0006934868443591764	3918
1167	0.0006930050704032341	8523
483	0.0006923894703484189	2928
1212	0.0006917738702936038	8713
1145	0.0006915865137551817	8486
559	0.000691318861557436	3810
1285	0.0006908103223817191	9305
1292	0.000690194722326904	9405
1252	0.0006900073657884819	9026
1127	0.0006896594179314125	8465
514	0.0006894988266127651	3212
481	0.0006893114700743431	2926
731	0.0006888029308986262	5404
940	0.0006887226352393025	7220
1255	0.0006878661482065162	9029
508	0.0006873308438110247	3206
475	0.0006872505481517009	2920
785	0.0006871702524923772	5909
1155	0.0006868223046353078	8509
580	0.0006866617133166604	3907
1189	0.0006864208263386892	8547
448	0.0006852966871081572	2841
464	0.0006840654869985269	2909
1265	0.0006839316608996539	9106
162	0.0006833963565041625	209
944	0.0006827807564493474	7224
920	0.0006825131042516016	7117
571	0.0006824060433725034	3823
227	0.0006821919216143067	906
163	0.0006820580955154339	210
416	0.0006817101476583645	2808
180	0.0006814424954606187	410
1026	0.0006809071910651273	8101
431	0.0006807465997464799	2823
751	0.0006801845301312138	5516
1153	0.0006801042344718901	8507
663	0.0006797027561752715	4703
986	0.0006796759909554969	7412
647	0.0006793280430984275	4414
775	0.0006790871561204563	5810
304	0.000678980095241358	1903
629	0.0006787659734831615	4206
200	0.000678043312549248	707
905	0.0006774277124944328	7101
1088	0.0006773741820548837	8424
566	0.0006771868255164617	3817
939	0.0006767853472198431	7219
157	0.0006756076775497619	204
354	0.0006755809123299873	2512
381	0.0006741088252423858	2610
1320	0.000673787642605091	9703
178	0.0006729846860118538	408
325	0.0006729846860118538	2204
733	0.0006713520076056049	5406
300	0.0006700940422761999	1804
526	0.0006662933810682106	3403
279	0.000664018337387372	1513
238	0.000662198302442701	1007
1159	0.0006620912415636027	8514
1107	0.0006606459196957758	8443
572	0.0006575946846414745	3824
908	0.0006571664411250814	7104
896	0.0006568452584877865	7011
683	0.0006567381976086882	4909
1206	0.0006565508410702662	8707
1073	0.0006562831888725205	8409
943	0.0006558014149165781	7223
1236	0.0006548378670046935	9008
460	0.0006545166843673986	2905
561	0.0006530981277193463	3812
1058	0.000652803710301826	8305
517	0.0006523487015656583	3215
1038	0.0006523487015656583	8113
1133	0.0006517063362910685	8472
942	0.0006516528058515194	7222
1307	0.0006511442666758025	9608
458	0.0006509033796978313	2903
466	0.0006506892579396348	2911
1079	0.0006504751361814382	8415
1015	0.0006502342492034671	7804
1284	0.0006501271883243688	9304
581	0.0006498863013463976	3908
1249	0.000649484823049779	9023
1023	0.0006494045273904553	8002
1125	0.0006493242317311316	8462
945	0.000649110109972935	7225
271	0.0006489762838740622	1505
486	0.0006488156925554147	2932
1183	0.0006487086316763164	8541
258	0.0006473436054678132	1210
950	0.0006470759532700675	7301
1137	0.0006469956576107438	8476
564	0.0006468350662920964	3815
1024	0.0006467012401932235	8003
536	0.0006464871184350269	3507
552	0.0006462729966768303	3803
988	0.0006462462314570557	7415
473	0.0006458715183802117	2918
784	0.0006458447531604371	5908
586	0.0006457376922813389	3913
534	0.0006455503357429168	3505
1041	0.0006455503357429168	8203
1099	0.0006455235705231422	8435
440	0.000645416509644044	2832
413	0.0006452559183253966	2805
158	0.000644345900853061	205
1245	0.0006441853095344136	9019
888	0.0006439444225564424	7003
871	0.0006437570660180205	6815
1280	0.0006427132224468121	9209
531	0.0006423117441501935	3501
686	0.0006411340744801124	5001
338	0.0006409199527219158	2308
389	0.0006408396570625921	2618
370	0.0006404381787659735	2529
160	0.0006403311178868752	207
630	0.000639528161293638	4301
878	0.0006394211004145397	6907
532	0.000639153448216794	3502
852	0.0006390999177772449	6603
1217	0.0006388322655794991	8802
972	0.0006388055003597246	7323
150	0.0006385110829422042	103
703	0.0006382701959642331	5111
409	0.0006382434307444586	2801
355	0.0006377884220082908	2513
345	0.0006362092740415911	2503
776	0.0006356204392065504	5811
394	0.0006354866131076776	2702
825	0.0006348442478330878	6215
688	0.0006344962999760183	5003
1185	0.0006292770821199768	8543
967	0.0006249143512967214	7318
477	0.0006232816728904725	2922
467	0.0006216489944842235	2912
890	0.0006212742814073795	7005
1069	0.0006207389770118881	8405
1072	0.0006200966117372983	8408
479	0.0006192936551440611	2924
1173	0.0006189457072869916	8531
1251	0.0006187048203090206	9025
1258	0.0006185442289903731	9032
462	0.0006184104028915002	2907
1103	0.0006162424200897599	8439
1190	0.0006157071156942684	8548
1124	0.0006143420894857652	8461
1247	0.0006143420894857652	9021
1091	0.0006138603155298229	8427
1305	0.0006135926633320771	9606
1181	0.000613539132892528	8539
573	0.000612977063277262	3825
1010	0.0006129502980574875	7613
527	0.0006122811675631231	3404
946	0.0006116923327280826	7226
1126	0.0006116388022885333	8463
1315	0.0006116388022885333	9616
421	0.0006116120370687587	2813
1033	0.0006101399499811573	8108
408	0.0006096849412449896	2716
941	0.0006095243499263421	7221
1194	0.0006091764020692726	8604
361	0.0006088016889924286	2519
1209	0.0006078113758607695	8710
1059	0.0006076240193223475	8306
417	0.0006067407670697865	2809
909	0.0006063660539929425	7105
274	0.0006057504539381274	1508
427	0.0006053489756415088	2819
589	0.0006053489756415088	3916
1030	0.0006046798451471444	8105
632	0.0006043586625098496	4303
252	0.0006036092363561616	1204
791	0.0006031542276199939	6004
198	0.0006030739319606701	705
228	0.0006021639144883346	907
385	0.000601762436191716	2614
494	0.0006009862448182534	2940
353	0.0005998085751481722	2511
333	0.0005992197403131317	2303
377	0.0005987647315769639	2606
1048	0.0005979350097639522	8210
326	0.0005973997053684608	2205
386	0.0005965699835554489	2615
1144	0.0005890489567987941	8483
996	0.0005882192349857823	7507
461	0.0005855694782280997	2906
485	0.000584980643393059	2930
1176	0.0005813941039432663	8534
1250	0.0005813941039432663	9024
1077	0.0005813673387234917	8413
874	0.0005811799821850697	6903
509	0.0005793867124601733	3207
553	0.0005793599472403987	3804
1131	0.0005791725907019768	8470
480	0.0005781287471307684	2925
1256	0.0005777272688341498	9030
1028	0.0005776202079550516	8103
1317	0.0005772990253177567	9618
887	0.000576522833944294	7002
901	0.0005763622426256466	7017
1170	0.0005760678252081263	8527
691	0.0005756395816917332	5006
1071	0.0005754522251533112	8407
1087	0.0005754254599335366	8423
515	0.0005753183990544383	3213
570	0.0005752648686148891	3821
682	0.0005752648686148891	4908
1246	0.0005751310425160163	9020
585	0.0005749972164171435	3912
1271	0.0005745689729007503	9112
1210	0.0005738195467470623	8711
899	0.0005736054249888656	7015
1042	0.0005735518945493165	8204
764	0.0005728827640549522	5704
450	0.0005726686422967556	2844
727	0.0005724812857583337	5311
1022	0.0005724812857583337	8001
1205	0.0005719459813628421	8706
1163	0.0005718389204837439	8518
396	0.0005717318596046456	2704
272	0.0005715712682859981	1506
491	0.0005715445030662236	2937
621	0.0005705274247147898	4105
492	0.0005696174072424543	2938
367	0.0005695371115831306	2525
395	0.000569135633286512	2703
780	0.0005688947463085409	5904
719	0.0005677438418582343	5302
992	0.0005676635461989106	7502
783	0.0005668070591661243	5907
976	0.0005656561547158176	7401
626	0.0005646658415841584	4202
793	0.0005645855459248347	6006
298	0.0005634614066943026	1802
410	0.0005628993370790366	2802
268	0.0005626584501010654	1502
275	0.0005619090239473775	1509
846	0.0005608919455959437	6504
1257	0.0005547627102675665	9031
474	0.0005496505532906232	2919
1253	0.0005489546575764843	9027
592	0.0005478840487855014	3919
1084	0.0005474558052691082	8420
489	0.0005467063791154201	2935
938	0.000546652848675871	7218
880	0.000545716065983761	6909
420	0.0005449131093905238	2812
1121	0.0005435748484017952	8458
984	0.0005432269005447258	7410
562	0.0005430930744458529	3813
997	0.0005425310048305868	7508
476	0.0005424774743910377	2921
465	0.0005423168830723903	2910
346	0.0005422365874130665	2504
1276	0.000542209822193292	9205
911	0.0005419421699955463	7107
1248	0.0005419421699955463	9022
1112	0.0005418886395559972	8448
1165	0.000540577143787043	8521
1020	0.0005404165524683956	7905
1184	0.0005404165524683956	8542
1263	0.0005402827263695228	9104
1132	0.0005400418393915516	8471
1229	0.0005399080132926788	9001
567	0.0005389444653807941	3818
424	0.000538703578402823	2816
1111	0.0005385429870841755	8447
1164	0.0005384091609853027	8519
1191	0.0005381682740073316	8601
1297	0.0005378738565898113	9506
1105	0.0005370708999965741	8441
598	0.000536883543458152	3926
1242	0.0005366158912604063	9016
766	0.000536508830381308	5801
490	0.0005364820651615334	2936
518	0.0005360538216451403	3302
870	0.0005360538216451403	6814
1075	0.0005360538216451403	8411
856	0.0005360270564253657	6704
233	0.0005354649868100997	1002
894	0.0005351438041728048	7009
330	0.0005340196649422727	2209
1193	0.0005339661345027236	8603
1052	0.000533939369282949	8214
677	0.0005330561170303882	4903
1130	0.0005326814039535441	8469
855	0.0005325743430744459	6703
235	0.0005309416646681969	1004
1266	0.0005306740124704512	9107
397	0.0005305401863715784	2705
1275	0.0005290413340642023	9202
1279	0.0005279171948336702	9208
309	0.0005278101339545719	2003
847	0.0005270874730206584	6505
366	0.0005249194902189181	2524
503	0.000522483855219432	3201
1128	0.0005136245674740484	8467
1166	0.0005097168453869609	8522
1234	0.000508699767035527	9006
1243	0.0005082715235191339	9017
579	0.0005072544451677002	3906
428	0.0005071741495083765	2820
1238	0.000507013558189729	9011
1104	0.0005067994364315325	8440
482	0.0005066923755524341	2927
584	0.0005059697146185207	3911
583	0.0005058626537394223	3910
1049	0.0005056485319812258	8211
449	0.0005045243927506937	2843
463	0.0005037214361574566	2908
1237	0.0005033734883003871	9010
877	0.0005030523056630923	6906
1134	0.0005028114186851211	8473
484	0.0005027311230257974	2929
437	0.000502624062146699	2829
1029	0.0005025972969269245	8104
1123	0.0005025170012676008	8460
1027	0.0005024099403885025	8102
662	0.0005020619925314331	4702
739	0.0005016069837952653	5504
1282	0.0005006166706636062	9302
993	0.0005005363750042824	7504
438	0.0005002954880263113	2830
995	0.0005001348967076638	7506
979	0.000499626357531947	7405
488	0.0004995995923121724	2934
700	0.0004994925314330741	5108
1270	0.0004986628096200624	9111
1086	0.0004986360444002878	8422
1272	0.0004982345661036692	9113
429	0.0004973780790708829	2821
1214	0.0004973513138511083	8715
915	0.0004973245486313338	7111
1113	0.0004972977834115591	8449
226	0.0004969498355544897	905
244	0.0004968963051149405	1105
276	0.0004964680615985474	1510
548	0.0004959327572030559	3706
1294	0.00049537068758779	9503
384	0.0004952903919284663	2613
349	0.0004952100962691424	2507
1218	0.0004951030353900442	8803
687	0.0004946480266538765	5002
718	0.0004940859570386105	5301
649	0.0004927209308301072	4416
1019	0.0004921588612148412	7904
1154	0.0004907938350063381	8508
352	0.0004896429305560314	2510
1240	0.000489535869676933	9014
501	0.0004888667391825688	3104
262	0.000487474947754291	1214
845	0.0004864043389633081	6502
726	0.00048538726061187436	5310
373	0.000480837173250197	2602
530	0.00047331614649354206	3407
487	0.0004730217290760218	2933
1274	0.00047211171160368634	9201
451	0.0004710946332522526	2845
1230	0.0004689801808900613	9002
543	0.00046817722429682413	3701
1168	0.00046710661550584124	8525
968	0.0004662768936928295	7319
1231	0.00046611630237418204	9003
1268	0.00046552746753914144	9109
737	0.0004653936414402686	5502
605	0.00046493863270410084	4007
1312	0.00046491186748432627	9613
439	0.00046477804138545344	2831
898	0.0004647512761656789	7014
994	0.0004647512761656789	7505
678	0.0004642962674295111	4904
1044	0.0004637341978142451	8206
850	0.00046327918907807734	6601
1318	0.0004629044760012333	9701
1323	0.0004625832933639385	970
560	0.0004618338672102504	3811
902	0.00046135209325430814	7018
1260	0.0004608970845181404	9101
705	0.00045977294528760834	5113
1220	0.00045937146699098975	8805
1296	0.0004590235191339203	9505
556	0.0004573640755078968	3807
851	0.0004562934667169139	6602
445	0.00045578492754119705	2837
622	0.00045401842303607523	4106
190	0.0004521180924320806	601
249	0.0004453732570488883	1201
1110	0.0004324456558977697	8446
1108	0.0004320441776011511	8444
1047	0.0004315624036452088	8209
1278	0.00043140181232656136	9207
1120	0.00043054532529377505	8457
1273	0.0004287252903491041	9114
547	0.0004285914642502312	3705
452	0.00042851116859090753	2846
1261	0.00042802939463496524	9102
690	0.0004273334989208263	5005
1065	0.0004268784901846586	8401
1269	0.0004266108379869129	9110
742	0.00042612906403097055	5507
1053	0.0004255134639761554	8215
1036	0.0004248175682620165	8111
1316	0.00042393431600945563	9617
334	0.0004238540203501319	2304
269	0.00042380048991058275	1503
587	0.00042302429853712014	3914
732	0.0004226495854602761	5405
1304	0.0004224889941416287	9605
1314	0.00042203398540546094	9615
922	0.0004213916201308712	7201
181	0.0004210436722738018	501
670	0.0004208563157353798	4807
447	0.00041903628079070884	2840
442	0.0004187953938127377	2834
657	0.0004182065589776971	4503
924	0.0004182065589776971	7203
369	0.0004138705933742163	2528
224	0.0004122111497481928	903
720	0.00041052494090239474	5303
544	0.0003952955308506629	3702
545	0.0003948137568947206	3703
468	0.00039419815683990544	2913
1109	0.00039419815683990544	8445
692	0.00039312754804892255	5007
1319	0.0003926725393127548	9702
914	0.00039221753057658705	7110
430	0.00039061161739011274	2822
991	0.00039055808695056355	7501
661	0.0003899424868957484	4701
549	0.0003895410085991298	3707
1262	0.0003884703998081469	9103
1295	0.000388336573709274	9504
182	0.00038774773887423347	502
418	0.00038745332145671314	2810
613	0.00038723919969851656	4015
248	0.00038702507794032	1109
375	0.0003859009387097879	2604
251	0.00038528533865497274	1203
1051	0.0003850444516770016	8213
1195	0.000384830329918805	8605
723	0.00038303706019390864	5307
654	0.0003825820514577409	4421
859	0.00038148467744698346	6803
1158	0.0003810029034910411	8513
335	0.00038022671211757856	2305
665	0.0003779516684367399	4705
376	0.0003701629894823392	2605
1310	0.0003615178234951523	9611
1267	0.0003611698756380828	9108
1031	0.0003502496659700572	8106
658	0.0003498481876734386	4504
540	0.0003493931789372709	3604
1239	0.00031818493268011923	9013
1264	0.00031483928020829767	9105
1232	0.0003147589845489739	9004
656	0.0003075591404296139	4502
853	0.0002770467898866011	6701
1035	0.00027584235499674537	8110
655	0.00027495910274418444	4501
1034	0.0002748520418650862	8109
383	0.000274423798348693	2612
854	0.0002719881633492069	6702
