153	0.0023863413065613893	106
925	0.0022780417656621233	7204
813	0.0022072562925382734	6203
999	0.00213968631093803	7602
402	0.002123206916879544	2710
293	0.002104181925364869	1701
619	0.002069526072277104	4103
259	0.0020502331231354617	1211
640	0.002043266224834313	4407
616	0.001999499812429661	4100
617	0.0019932921274049198	4101
365	0.0019812340341913933	2523
166	0.0019669429607531395	303
595	0.001950016970649708	3923
323	0.0019464442022901446	2202
255	0.0019027671090944818	1207
169	0.0018855731613640829	306
266	0.0018811518605191231	1404
332	0.0018628414226763608	2302
832	0.0017863395201772093	6305
260	0.0017754872362850354	1212
524	0.0017611068436377928	3401
814	0.0017578020329051965	6204
796	0.0017532467532467534	6103
231	0.0017475303238714518	910
797	0.0017399381911073796	6104
240	0.0016993426106218404	1101
637	0.001684247664302685	4404
641	0.0016761642758891728	4408
802	0.0016744225513138857	6109
836	0.0016621411600778863	6309
206	0.0016588810089497848	713
165	0.0016566480287250576	302
799	0.0016366405259115025	6106
912	0.0016218135372193143	7108
336	0.0016134621911788349	2306
341	0.0016125243394844496	2402
211	0.0016091302095428642	804
168	0.0016081030386394899	305
642	0.0016073884849675771	4409
618	0.0016047982279068936	4102
795	0.0016032798013540792	6102
668	0.0015928294539023563	4800
958	0.0015851926615337894	7309
800	0.001572821951088801	6107
962	0.001567462798549456	7313
707	0.0015650511799067508	5202
283	0.001563264795726969	1517
222	0.001550090212401079	901
167	0.0015473213169224173	304
758	0.001540711695457225	5607
636	0.0015406223762482359	4403
801	0.0015406223762482359	6108
343	0.0015396845245538506	2501
798	0.001538255417210025	6105
307	0.001537898140374069	2001
315	0.0015378088211650798	2009
187	0.001534548670036978	508
881	0.0015329855838796692	6910
202	0.001532315689812251	709
295	0.0015299933903785347	1703
706	0.0015005180514121366	5201
895	0.0014995355401132568	7010
807	0.001495516175708748	6114
822	0.00149337251469301	6212
794	0.00149042498079637	6101
313	0.0014900677039604137	2007
319	0.0014897104271244573	2104
1001	0.0014864949356008504	7604
342	0.0014832794440772432	2403
225	0.0014631826220546991	904
803	0.0014612622590614338	6110
340	0.001452955572625449	2401
291	0.0014420586291287805	1604
296	0.0014417906715018132	1704
317	0.0014414333946658568	2102
808	0.0014412994158523732	6115
186	0.0014381285839332608	507
282	0.0014192822308365636	1516
957	0.001419058932814091	7308
1293	0.001418880294396113	9406
414	0.0014135211418567677	2806
306	0.00140695617999607	1905
866	0.0014061076475106737	6810
759	0.0014049464977938155	5608
502	0.0014048571785848264	3105
264	0.0014044552421443755	1302
499	0.001402758177173583	3102
650	0.0014006591757623394	4417
817	0.0014001679201128994	6207
651	0.0013990067703960414	4418
541	0.001397577663052216	3605
241	0.0013973543650297434	1102
837	0.001396505832544347	6310
819	0.0013957466192679397	6209
805	0.0013928437449757945	6112
218	0.0013911020204005074	811
815	0.0013903874667285947	6205
242	0.0013873506136229657	1103
205	0.0013787759695600135	712
538	0.0013757391164543847	3602
318	0.0013748012647599992	2103
164	0.0013685489201307633	301
203	0.0013671644723914325	710
709	0.0013659586630700798	5204
842	0.00136350238482288	6405
175	0.001361269404598153	405
172	0.001356669465335215	402
821	0.0013550617195734116	6211
1186	0.0013544811447149824	8544
401	0.0013527840797441899	2709
816	0.0013516229300273316	6206
635	0.0013505510995194627	4402
170	0.0013486307365261974	307
923	0.0013425570303149394	7202
955	0.001339877454045267	7306
937	0.0013363940048946926	7217
714	0.0013346969399239	5209
314	0.0013312581503778203	2008
959	0.001330498937101413	7310
838	0.0013284892548991586	6401
812	0.0013238446560317261	6202
217	0.00132152235659801	810
207	0.0013204058664856464	714
811	0.0013204058664856464	6201
179	0.001318306865074403	409
653	0.0013180389074474357	4420
250	0.001317324353775523	1202
204	0.0013160738848496758	711
594	0.0013103127958698799	3922
392	0.0013035245359867094	2621
316	0.0013005770020900695	2101
362	0.0012986566390968042	2520
916	0.001295262509155219	7112
712	0.0012935654441844262	5207
1009	0.0012918683792136336	7612
263	0.0012902606334518302	1301
935	0.0012794976687686454	7214
239	0.0012770413905214455	1008
648	0.0012742278354382895	4415
522	0.0012728433876989585	3306
177	0.0012687347040854606	407
590	0.0012673055967416353	3917
201	0.0012661891066292716	708
1290	0.001264492041658479	9403
287	0.0012626163382697083	1522
399	0.0012608746136944212	2707
302	0.0012581950374247486	1806
936	0.0012580163990067704	7215
713	0.001256989228103396	5208
867	0.0012569445684989015	6811
829	0.0012517193947730399	6302
818	0.0012487272012719054	6208
171	0.0012456903481662767	401
639	0.0012432340699190768	4406
710	0.001240777791671877	5205
510	0.0012390360670965898	3208
1254	0.0012339895317887064	9028
610	0.0012331856589078048	4012
752	0.0012330070204898266	5601
740	0.001231309955519034	5505
1082	0.0012309973382875722	8418
1199	0.0012297022097572303	8609
960	0.001226710016256096	7311
886	0.0012260401221886779	7001
931	0.0012253702281212597	7210
1096	0.0012247449936583362	8432
907	0.0012243877168223798	7103
1007	0.0012239411207774344	7610
189	0.0012234052055234998	511
348	0.001218314010611122	2506
820	0.001217331499312242	6210
281	0.0012171975204987584	1515
245	0.0012148752210650422	1106
188	0.0012128208792582932	510
804	0.0012121509851908752	6111
311	0.0012117490487504243	2005
974	0.0012112577931009843	7325
223	0.0012108558566605334	902
278	0.001209918004966148	1512
998	0.0012073277479054646	7601
359	0.0012002715303953268	2517
441	0.0011985298058200396	2833
193	0.0011963861448043016	604
183	0.001194689079833509	504
755	0.001194287143393058	5604
749	0.0011936619089301344	5514
934	0.001190491077011022	7213
243	0.0011880794583683167	1104
357	0.001187856160345844	2515
498	0.0011818717733435753	3101
407	0.0011788795798424409	2715
214	0.001177807749334572	807
405	0.0011775844513120992	2713
843	0.0011757980671323175	6406
328	0.0011739223637435468	2207
1224	0.001168116615159256	8904
196	0.001166866146233409	703
891	0.0011649011236356491	7006
646	0.0011636953143142963	4413
219	0.0011612390360670967	812
789	0.001161105057253613	6002
982	0.001161105057253613	7408
512	0.0011608817592311403	3210
875	0.0011603011843727112	6904
1223	0.001157978884938995	8903
363	0.0011579342253345004	2521
840	0.0011551653298558387	6403
765	0.0011551206702513442	5705
609	0.0011532449668625734	4011
176	0.0011527983708176281	406
750	0.0011509226674288572	5515
1215	0.0011509226674288572	8716
364	0.0011500294753389664	2522
557	0.0011494935600850319	3808
220	0.0011473052394647993	813
436	0.0011469033030243484	2828
835	0.0011456528340985012	6308
863	0.0011439111095232141	6807
717	0.001142749959806356	5212
966	0.0011410528948355633	7317
1016	0.0011320763143321602	7806
1095	0.001128682184390575	8431
288	0.0011274763750692223	1601
695	0.0011247074795905608	5103
981	0.0011238142875006699	7407
289	0.0011224298397613391	1602
673	0.0011215813072759427	4823
320	0.0011211347112309972	2105
1062	0.001120598795977063	8309
708	0.001119303667446721	5203
173	0.0011189463906107647	403
1288	0.0011174726236624448	9401
324	0.0011173833044534557	2203
597	0.0011169813680130048	3925
918	0.0011159541971096304	7114
322	0.0011156415798781686	2201
347	0.0011148377069972668	2505
827	0.0011140784937208597	6217
930	0.0011139891745118706	7209
970	0.001112381428750067	7321
185	0.001112292109541078	506
1003	0.0011114435770556816	7606
978	0.0011110416406152307	7403
1135	0.0011103717465478125	8474
292	0.0011092105968309545	1605
194	0.0011055931688668966	701
831	0.0011001446971185623	6304
523	0.0010982689937297915	3307
212	0.0010980456957073188	805
1322	0.0010975990996623733	9705
1201	0.0010947408849747227	8702
149	0.0010943836081387663	102
350	0.0010899623072938066	2508
628	0.0010897390092713339	4205
563	0.0010891584344129047	3814
546	0.0010883992211364977	3704
327	0.0010864788581432324	2206
554	0.0010851837296128905	3805
611	0.0010845138355454725	4013
511	0.0010833080262241197	3209
1012	0.0010822808553207454	7615
1188	0.0010813876632308544	8546
1286	0.0010787527465656763	9306
403	0.0010786634273566873	2711
1291	0.0010785294485432036	9404
1011	0.0010766984047589274	7614
760	0.0010749120205791457	5609
199	0.0010742421265117275	706
256	0.001074197466907233	1208
1057	0.0010733935940263313	8304
1222	0.0010670072705836117	8902
1004	0.001065131567194841	7607
521	0.0010628092677611248	3305
1149	0.0010615141392307829	8503
729	0.0010586112649386378	5402
1219	0.0010574501152217795	8804
929	0.0010555297522285142	7208
728	0.0010535647296307544	5401
685	0.0010527161971453582	4911
862	0.0010517783454509727	6806
602	0.0010509298129655763	4004
1014	0.001049991961271191	7801
643	0.0010482948963003984	4410
236	0.0010466871505385947	1005
770	0.0010455706604262313	5805
575	0.0010454366816127476	3902
644	0.001043650297432966	4411
574	0.0010413726576037443	3901
833	0.0010399882098644135	6306
339	0.0010375765912217082	2309
230	0.0010375319316172137	909
876	0.0010367280587363118	6905
303	0.0010360581646688936	1902
443	0.0010358348666464209	2835
379	0.0010343164400936065	2608
744	0.0010325747155183194	5509
1179	0.0010303863948980868	8537
308	0.001029582522017185	2002
191	0.0010272602225834687	602
210	0.0010265903285160507	803
903	0.0010232408581789599	7019
528	0.0010219010700441237	3405
459	0.0010216331124171564	2904
208	0.0010178370460351203	801
868	0.001017479769199164	6812
897	0.0010172118115721967	7013
415	0.0010156933850193823	2807
747	0.001014264277675557	5512
762	0.0010121652762643135	5702
716	0.0010108701477339716	5211
631	0.001009173082763179	4302
516	0.00100810125225531	3214
948	0.001007922613837332	7228
858	0.0010062255488665392	6802
446	0.001005778952821594	2839
444	0.0010050643991496811	2836
351	0.0010049304203361975	2509
209	0.0010043051858732738	802
596	0.0010042158666642848	3924
265	0.001003813930223834	1401
358	0.001002250844066525	2516
1227	0.0010017149288125903	8907
294	0.001000285821468765	1702
371	0.0009993926293788743	2530
216	0.0009977848836170706	809
634	0.0009964450954822344	4401
422	0.0009935868807945836	2814
828	0.000986039407635006	6301
1056	0.0009846996195001696	8303
1141	0.0009800550206327373	8480
404	0.0009797424034012755	2712
864	0.0009783579556619446	6808
917	0.0009773754443630647	7113
1013	0.0009761696350417121	7616
1156	0.0009755444005787885	8511
285	0.0009747405276978867	1520
1203	0.0009741152932349631	8704
525	0.000973534718376534	3402
161	0.0009731327819360832	208
879	0.0009721502706372033	6908
865	0.0009685775022776398	6809
1281	0.0009684435234641562	9301
849	0.0009663891816574072	6507
310	0.0009659425856124619	2004
1204	0.0009658532664034728	8705
329	0.0009650493935225709	2208
257	0.0009644688186641419	1209
1321	0.0009637989245967238	9704
1235	0.0009635756265742511	9007
360	0.0009591989853337859	2518
423	0.0009583951124528842	2815
680	0.0009561174726236625	4906
715	0.0009543310884438808	5210
1300	0.0009533039175405062	9601
1078	0.0009502224048303828	8414
882	0.0009495525107629647	6911
1147	0.0009495078511584701	8501
1068	0.0009487486378820629	8404
551	0.0009480340842101502	3802
869	0.0009480340842101502	6813
1172	0.0009474981689562157	8530
1017	0.0009467389556798085	7901
971	0.0009456671251719395	7322
411	0.0009439700602011468	2803
956	0.0009437467621786741	7307
1216	0.0009435234641562015	8801
513	0.0009433894853427178	3211
771	0.0009424516336483324	5806
774	0.000940933207095518	5809
1313	0.0009407992282820343	9614
753	0.0009406652494685507	5602
790	0.0009395040997516926	6003
743	0.0009385215884528126	5508
973	0.0009378070347809	7324
537	0.0009375390771539327	3601
577	0.0009373604387359545	3904
947	0.0009364672466460637	7227
520	0.0009361992890190965	3304
1039	0.0009359759909966238	8201
906	0.0009355740545561728	7102
1298	0.0009351274585112275	9507
1152	0.0009345468836527984	8506
215	0.0009343235856303256	808
1228	0.0009332070955179621	8908
614	0.000931956626592115	4016
388	0.0009302595616213223	2617
337	0.0009286071562550242	2307
779	0.0009278926025831115	5903
213	0.0009276246449561443	806
246	0.0009259722395898462	1107
378	0.0009258382607763625	2607
247	0.0009242305150145591	1108
374	0.0009228460672752282	2603
286	0.0009216402579538755	1521
1225	0.0009207470658639847	8905
681	0.0009174869147358831	4907
964	0.0009137801675628361	7315
721	0.0009120831025920434	5305
432	0.0009074831633291056	2824
607	0.0009071705460976438	4009
608	0.0009063220136122475	4010
1303	0.0009060987155897748	9604
280	0.0009058307579628075	1514
963	0.0009040443737830258	7314
697	0.0009022133299987495	5105
927	0.0009022133299987495	7206
606	0.0009017667339538041	4008
419	0.0009007842226549242	2811
734	0.0009004269458189678	5407
975	0.0008999803497740224	7326
674	0.0008993997749155933	4824
748	0.0008993997749155933	5513
1101	0.0008993997749155933	8437
921	0.0008993551153110988	7118
763	0.0008981939655942407	5703
676	0.0008970328158773826	4902
652	0.0008965862198324372	4419
234	0.000896407581414459	1003
1211	0.0008931474302863574	8712
699	0.0008925668554279284	5107
372	0.0008925221958234338	2601
1005	0.000891718322942532	7608
1289	0.0008915843441290483	9402
254	0.0008878775969560014	1206
645	0.0008847514246413834	4412
152	0.0008843494882009325	105
1092	0.0008801514853784455	8428
1063	0.000878052483967202	8310
387	0.0008732292466817914	2616
1076	0.0008728273102413405	8412
773	0.0008726933314278569	5808
434	0.0008722020757784169	2826
786	0.0008719341181514497	5910
893	0.0008709516068525697	7008
454	0.0008707729684345915	2849
1302	0.0008705050108076243	9603
669	0.0008704156915986352	4802
535	0.0008699244359491953	3506
1200	0.0008697457975312171	8701
741	0.0008695671591132389	5506
1142	0.0008688972650458208	8481
148	0.0008683613497918862	101
675	0.000868093392164919	4901
1178	0.0008680487325604245	8536
666	0.0008678700941424463	4706
990	0.0008677807749334572	7419
1074	0.0008665749656121045	8410
933	0.000864475964200861	7212
505	0.0008639400489469265	3203
1277	0.0008638507297379375	9206
788	0.0008634487932974866	6001
604	0.0008633148144840029	4006
331	0.0008629575376480466	2301
496	0.0008617963879311884	2942
841	0.0008615284303042213	6404
989	0.0008615284303042213	7418
565	0.0008611264938637703	3816
624	0.0008611264938637703	4115
787	0.0008601439825648904	5911
406	0.0008596973865199449	2714
806	0.0008596527269154504	6113
1208	0.0008591168116615159	8709
872	0.0008583129387806142	6901
390	0.0008569284910412833	2619
221	0.0008567498526233051	814
1002	0.000856571214205327	7605
928	0.0008532664034727308	7207
623	0.00085139070008396	4114
711	0.0008492023794637274	5206
1299	0.0008489790814412547	9508
469	0.0008472373568659676	2914
529	0.0008465674627985495	3406
754	0.0008435752692974152	5603
237	0.0008428607156255024	1006
151	0.0008427713964165133	104
1197	0.0008422354811625788	8607
550	0.0008417888851176334	3801
1081	0.0008412976294681935	8417
672	0.0008407617142142589	4811
1064	0.0008399131817288626	8311
1244	0.0008387073724075099	9018
1146	0.0008381267975490809	8487
900	0.0008379481591311028	7016
391	0.0008368316690187392	2620
1046	0.0008367423498097501	8208
1083	0.0008354918808839029	8419
1241	0.0008353579020704192	9015
860	0.0008349559656299684	6804
1119	0.0008349113060254739	8455
725	0.0008348219868164848	5309
1098	0.0008347326676074957	8434
951	0.0008346880080030011	7302
1177	0.0008342414119580557	8535
1043	0.0008341967523535611	8205
704	0.0008333035602636703	5112
497	0.0008332142410546812	3006
312	0.0008324103681737794	2006
926	0.0008322763893602958	7205
1226	0.0008321424105468122	8906
952	0.0008320977509423176	7303
1040	0.0008320084317333285	8202
612	0.0008315171760838886	4014
1055	0.000830981260829954	8302
1198	0.0008304900051805141	8608
953	0.000829909430322085	7304
539	0.0008296861322996124	3603
792	0.0008294181746726451	6005
569	0.0008292841958591615	3820
533	0.0008291055574411833	3503
659	0.0008287929402097215	4601
1018	0.0008279444077243252	7903
954	0.0008275424712838744	7305
961	0.0008274084924703907	7312
1306	0.0008260687043355544	9607
1174	0.0008259793851265653	8532
270	0.0008253988102681363	1504
620	0.0008249968738276854	4104
1283	0.0008240590221333	9303
1140	0.0008237017452973436	8479
698	0.0008227638936029582	5106
1021	0.000822004680326551	7907
693	0.0008219600207220565	5101
772	0.0008216920630950892	5807
857	0.0008210221690276711	6801
830	0.0008208435306096929	6303
769	0.0008202182961467693	5804
701	0.0008201736365422748	5109
232	0.0008201289769377803	1001
735	0.0008195484020793512	5408
154	0.0008194590828703621	201
767	0.0008169134854141732	5802
778	0.0008167795066006896	5902
738	0.000814591185980457	5503
229	0.0008119116097107844	908
1259	0.0008113756944568499	9033
277	0.0008113310348523554	1511
159	0.0008111523964343772	206
1221	0.0008107951195984208	8901
1106	0.0008085621393736937	8442
582	0.0008075349684703192	3909
457	0.0008049893710141303	2902
576	0.0008034262848568213	3903
1207	0.0008024437735579414	8708
722	0.0008022651351399632	5306
603	0.0008006127297736651	4005
664	0.0008004340913556869	4704
305	0.0008002107933332142	1904
593	0.000798960324407367	3920
873	0.0007986030475714107	6902
671	0.0007985583879669162	4810
615	0.0007978438342950035	4017
1097	0.0007972185998320799	8433
301	0.0007966826845781454	1805
1117	0.0007965040461601672	8453
493	0.0007959234713017381	2939
1094	0.0007955661944657818	8430
1025	0.0007949856196073527	8007
1060	0.0007940924275174619	8307
684	0.0007934225334500438	4910
1196	0.0007931992354275711	8606
1066	0.0007931545758230765	8402
1175	0.0007917254684792511	8533
412	0.0007915021704567784	2804
1136	0.0007901177227174476	8475
809	0.0007893585094410403	6116
987	0.000788509976955644	7413
679	0.0007882420193286769	4905
757	0.0007880633809106987	5606
694	0.0007875274656567641	5102
745	0.0007873041676342914	5510
1093	0.0007872148484253023	8429
910	0.0007869915504028297	7106
892	0.0007867682523803569	7007
456	0.0007866342735668733	2901
1089	0.0007865449543578842	8425
601	0.0007864556351488951	4003
321	0.0007855624430590043	2106
393	0.0007850265278050698	2701
261	0.0007843566337376516	1213
195	0.0007839546972972008	702
834	0.0007835081012522553	6307
660	0.0007834634416477608	4602
197	0.0007828828667893318	704
702	0.000782168313117419	5110
519	0.0007797120348702192	3303
273	0.0007791314600117901	1507
983	0.0007785062255488666	7409
1301	0.0007778363314814484	9602
1309	0.0007755586916522267	9610
599	0.0007731024134050269	4001
638	0.0007697529430679362	4405
471	0.0007693510066274853	2916
919	0.0007682791761196163	7115
267	0.0007675199628432091	1501
600	0.0007673859840297254	4002
495	0.000765867557476911	2941
781	0.0007654656210364601	5905
1169	0.0007653316422229765	8526
969	0.0007649743653870201	7320
368	0.000764304471319602	2526
904	0.000763723896461173	7020
1090	0.0007636345772521839	8426
1054	0.0007635005984387003	8301
1000	0.0007630986619982493	7603
1085	0.0007629646831847657	8421
1129	0.0007623841083263367	8468
542	0.0007620714910948749	3606
1202	0.0007613569374229622	8703
730	0.0007610443201915004	5403
506	0.0007608210221690276	3204
1115	0.0007603744261240823	8451
455	0.0007597491916611586	2852
861	0.000759615212847675	6805
1118	0.0007594365744296969	8454
1150	0.0007592132764072242	8504
1192	0.0007591686168027296	8602
398	0.000758632701548795	2706
1008	0.000758632701548795	7611
1067	0.0007580967862948606	8403
1148	0.0007580074670858715	8502
1116	0.0007578288286678933	8452
885	0.0007576501902499151	6914
297	0.000757560871040926	1801
1100	0.0007573822326229479	8436
568	0.0007572035942049698	3819
400	0.0007561317636971007	2708
453	0.0007556851676521553	2847
1171	0.0007553278908161989	8529
746	0.0007552385716072099	5511
588	0.0007547026563532753	3915
425	0.0007543900391218135	2817
883	0.0007533182086139445	6912
1143	0.0007530055913824828	8482
507	0.00075278229336001	3205
356	0.0007525589953375373	2514
382	0.0007525589953375373	2611
290	0.0007518444416656246	1603
625	0.0007512638668071955	4201
965	0.0007498347594633702	7316
253	0.0007487182693510067	1205
977	0.0007471105235892031	7402
844	0.0007470658639847085	6501
500	0.0007463959699172904	3103
823	0.0007463066507083013	6213
184	0.0007462173314993122	505
1045	0.0007434484360206506	8207
980	0.0007423319459082871	7406
155	0.0007421086478858143	202
426	0.0007409921577734508	2818
932	0.0007399649868700763	7211
761	0.0007388931563622073	5701
839	0.0007373300702048982	6402
558	0.0007370174529734365	3809
192	0.0007358116436520838	603
1213	0.0007340699190767966	8714
1162	0.000733355365404884	8517
1080	0.0007316583004340914	8416
1102	0.0007316583004340914	8438
1050	0.0007310330659711677	8212
1061	0.0007306757891352115	8308
1311	0.0007305864699262224	9612
504	0.0007301845334857714	3202
1187	0.0007272369995891317	8545
156	0.0007260758498722735	203
1157	0.0007258525518498008	8512
1114	0.0007257185730363172	8450
848	0.000724557423319459	6506
1006	0.0007245127637149645	7609
433	0.00072397684846103	2825
1138	0.0007234409332070955	8477
1037	0.0007233516139981064	8112
913	0.0007224584219082155	7109
777	0.0007222797834902374	5901
949	0.0007217885278407974	7229
782	0.0007210739741688848	5906
1032	0.0007205380589149502	8107
889	0.0007201361224744994	7004
472	0.0007200468032655103	2917
435	0.0007197341860340485	2827
1233	0.0007195108880115758	9005
756	0.0007191536111756194	5605
884	0.0007190196323621358	6913
1070	0.0007186176959216849	8406
1122	0.0007184837171082013	8459
478	0.000718215759481234	2923
1287	0.0007180371210632558	9307
985	0.0007175458654138159	7411
555	0.0007173672269958377	3806
1308	0.0007173672269958377	9609
1180	0.000717143928973365	8538
768	0.0007163847156969578	5803
689	0.0007163400560924632	5004
1161	0.0007163400560924632	8516
284	0.0007162507368834741	1518
633	0.0007161167580699905	4304
1160	0.0007152682255845942	8515
174	0.0007142410546812197	404
627	0.0007134818414048125	4203
667	0.0007130799049643616	4707
736	0.0007127672877328998	5501
344	0.0007114721592025581	2502
824	0.0007095517962092927	6214
380	0.000707095517962093	2609
299	0.0007060236874542239	1803
724	0.0007051304953643331	5308
1139	0.0007049518569463549	8478
1145	0.0007030761535575841	8486
810	0.000702897515139606	6117
1252	0.0006990567891530752	9026
483	0.0006971810857643045	2928
1212	0.0006949481055395773	8713
826	0.0006947694671215991	6216
1255	0.0006944568498901374	9029
508	0.0006936976366137301	3206
559	0.0006930724021508066	3810
939	0.0006920898908519266	7219
416	0.0006918219332249593	2808
1189	0.0006916879544114757	8547
785	0.0006913306775755194	5909
944	0.0006908394219260794	7224
1151	0.0006908394219260794	8505
1167	0.0006906161239036067	8523
663	0.0006905714642991121	4703
514	0.0006894996337912431	3212
481	0.0006891870165597814	2926
696	0.0006891870165597814	5104
475	0.0006886064417013523	2920
1155	0.0006884278032833741	8509
470	0.0006882491648653959	2915
905	0.000687757909215956	7101
1026	0.0006874006323799996	8101
1182	0.0006863734614766251	8540
591	0.0006863288018721306	3918
986	0.000685703567409207	7412
940	0.0006850336733417888	7220
578	0.0006844084388788653	3905
733	0.0006840511620429089	5406
180	0.0006837385448114472	410
1153	0.0006832026295575126	8507
178	0.0006830239911395344	408
448	0.000682086139445149	2841
464	0.0006819075010271709	2909
227	0.0006815948837957091	906
325	0.0006813269261687419	2204
731	0.0006811482877507637	5404
431	0.0006810589685417746	2823
1127	0.0006807016917058183	8465
1285	0.000679942478429411	9305
304	0.0006795852015934547	1903
580	0.0006784687114810912	3907
162	0.0006782007538541239	209
1265	0.0006781114346451348	9106
1320	0.0006779327962271566	9703
571	0.0006776201789956948	3823
920	0.0006773522213687276	7117
163	0.0006772629021597385	210
381	0.0006766823273013094	2610
647	0.0006754318583754623	4414
157	0.0006750745815395059	204
354	0.0006749406027260223	2512
775	0.0006745386662855713	5810
300	0.0006744940066810768	1804
751	0.0006743153682630987	5516
1088	0.0006721717072473607	8424
1292	0.0006719037496203934	9405
566	0.0006685096196788081	3817
238	0.0006643562764608157	1007
1307	0.0006623912538630558	9608
1245	0.000662078636631594	9019
460	0.0006620339770270994	2905
526	0.0006619446578181103	3403
200	0.0006616767001911431	707
629	0.0006610961253327141	4206
945	0.000661006806123725	7225
896	0.0006593990603619215	7011
1236	0.0006593990603619215	9008
908	0.0006589971239214706	7104
552	0.0006585951874810196	3803
1107	0.000658461208667536	8443
1183	0.0006579699530180961	8541
536	0.0006576573357866343	3507
279	0.0006567641436967434	1513
1206	0.0006567194840922489	8707
564	0.0006556476535843798	3815
586	0.0006552903767484235	3913
1280	0.0006549330999124672	9209
1038	0.0006546204826810054	8113
776	0.0006539505886135873	5811
943	0.0006538166098001036	7223
683	0.000652610800478751	4909
1079	0.0006519855660158274	8415
572	0.0006516729487843656	3824
1249	0.0006515389699708819	9023
517	0.0006514943103663874	3215
1125	0.0006514496507618928	8462
466	0.0006509137355079584	2911
486	0.0006507350970899802	2932
1133	0.0006505117990675075	8472
1041	0.0006501991818360456	8203
1058	0.0006501098626270565	8305
1159	0.0006499312242090784	8514
1137	0.0006498419050000894	8476
1284	0.0006496186069776166	9304
581	0.0006493953089551439	3908
473	0.0006477875631933403	2918
534	0.0006476535843798568	3505
988	0.0006473409671483949	7415
271	0.0006472069883349113	1505
950	0.0006468497114989549	7301
150	0.000646358455849515	103
1217	0.000646358455849515	8802
1073	0.0006463137962450205	8409
389	0.0006457332213865914	2618
1023	0.0006451973061326569	8002
630	0.0006442594544382715	4301
338	0.0006441701352292824	2308
258	0.0006441254756247879	1210
458	0.0006440808160202933	2903
561	0.0006434109219528752	3812
160	0.0006428303470944461	207
1024	0.0006410439629146644	8003
784	0.0006404633880562353	5908
852	0.0006404633880562353	6603
871	0.0006401061112202791	6815
413	0.0006400614516157845	2805
440	0.00064001679201129	2832
158	0.0006397041747798281	205
1099	0.0006389896211079155	8435
409	0.0006373372157416174	2801
370	0.0006368459600921775	2529
532	0.0006366673216741993	3502
686	0.0006366226620697047	5001
355	0.0006365780024652102	2513
888	0.0006355954911663302	7003
942	0.0006341663838225048	7222
878	0.0006340324050090212	6907
825	0.0006338984261955377	6215
531	0.000633273191732614	3501
688	0.0006330052341056467	5003
703	0.000632201361224745	5111
394	0.0006317994247842941	2702
972	0.0006309508922988978	7323
1015	0.0006301916790224906	7804
479	0.000630147019417996	2924
345	0.000629075188910127	2503
967	0.0006280480180067525	7318
1185	0.0006249218456921346	8543
1258	0.0006248325264831455	9032
1190	0.0006244752496471891	8548
941	0.0006236713767662873	7221
467	0.0006231354615123529	2912
477	0.0006228228442808911	2922
494	0.0006204558852426803	2940
1251	0.0006203665660336912	9025
462	0.0006187588202718877	2907
421	0.0006176423301595241	2813
1124	0.0006169277764876114	8461
1033	0.0006167937976741278	8108
527	0.0006166598188606442	3404
1072	0.0006156326479572697	8408
1247	0.0006155879883527752	9021
1173	0.0006154986691437861	8531
1181	0.0006145161578449062	8539
1194	0.0006141588810089498	8604
427	0.000612863752478608	2819
1048	0.0006127744332696189	8210
1091	0.0006123724968291681	8427
890	0.0006122385180156845	7005
1315	0.0006104521338359028	9616
1103	0.0006100501973954519	8439
1209	0.0006086210900516265	8710
1305	0.0006085764304471319	9606
589	0.0006082638132156702	3916
274	0.0006058521945729649	1508
1126	0.0006055842369459976	8463
946	0.0006054055985280194	7226
361	0.0006047357044606013	2519
791	0.0006046910448561068	6004
326	0.0006042891084156558	2205
909	0.0006039318315796996	7105
573	0.0006035745547437432	3825
632	0.0006030386394898087	4303
417	0.0006026367030493578	2809
353	0.0006022794262134014	2511
198	0.0006018774897729506	705
252	0.0006018774897729506	1204
385	0.0006008949784740707	2614
408	0.0006003590632201361	2716
1069	0.0006000911055931688	8405
333	0.0005992425731077725	2303
228	0.0005982154022043981	907
1010	0.0005948212722628128	7613
1030	0.0005938387609639329	8105
377	0.0005919183979706676	2606
1059	0.0005913378231122386	8306
386	0.0005878990335661588	2615
485	0.0005868272030582897	2930
491	0.0005841029671841226	2937
887	0.0005841029671841226	7002
1077	0.000582986477071759	8413
1028	0.0005829418174672645	8103
509	0.0005827631790492864	3207
682	0.00058240590221333	4908
1144	0.00058240590221333	8483
1256	0.0005821379445863627	9030
461	0.0005797709855481519	2906
1271	0.0005797709855481519	9112
1246	0.0005795923471301739	9020
691	0.0005790117722717448	5006
515	0.0005783865378088212	3213
1176	0.0005783865378088212	8534
1131	0.0005783418782043267	8470
553	0.0005779846013683703	3804
1022	0.0005779399417638757	8001
1170	0.0005779399417638757	8527
395	0.0005778506225548866	2703
621	0.0005767787920470176	4105
480	0.000576644813233534	2925
764	0.0005762428767930832	5704
996	0.0005758855999571268	7507
874	0.0005758409403526322	6903
780	0.0005754836635166759	5904
1205	0.0005754390039121813	8706
901	0.0005741885349863342	7017
570	0.0005737865985458833	3821
492	0.0005737419389413887	2938
1071	0.0005727147680380143	8407
450	0.0005723128315975633	2844
783	0.0005722235123885742	5907
585	0.0005720448739705962	3912
992	0.0005716429375301452	7502
899	0.000571374979903178	7015
268	0.0005712856606941889	1502
1250	0.0005712856606941889	9024
1042	0.0005706157666267708	8204
410	0.0005705711070222762	2802
1210	0.000569320638096429	8711
1087	0.0005682041479840654	8423
275	0.0005678915307526037	1509
367	0.0005677575519391201	2525
846	0.000567176977080691	6504
1163	0.0005657032101323711	8518
272	0.0005650779756694475	1506
719	0.0005639168259525893	5302
626	0.0005636488683256222	4202
1317	0.0005615498669143786	9618
396	0.0005589596098536951	2704
793	0.0005581557369727934	6006
976	0.0005573965236963861	7401
727	0.000556235373979528	5311
298	0.0005544936494042409	1802
1253	0.0005511888386716447	9027
489	0.0005506082638132157	2935
420	0.0005497597313278194	2812
1248	0.0005496704121188303	9022
567	0.0005479286875435431	3818
476	0.0005469908358491577	2921
880	0.0005462316225727505	6909
424	0.0005460083245502778	2816
677	0.0005456957073188159	4903
984	0.0005450704728558924	7410
562	0.0005448918344379142	3813
911	0.0005438200039300452	7107
1112	0.0005427928330266707	8448
1105	0.0005427481734221762	8441
997	0.0005425248753997034	7508
474	0.0005423908965862198	2919
490	0.0005421675985637472	2936
938	0.0005418996409367799	7218
1229	0.0005417210025188017	9001
518	0.000541006448846889	3302
1257	0.00053993461833902	9031
1184	0.0005387288090176673	8542
870	0.0005379249361367656	6814
330	0.000537790957323282	2209
1164	0.0005377462977187874	8519
1276	0.0005375229996963147	9205
1297	0.0005374336804873256	9506
598	0.0005368531056288966	3926
592	0.0005367191268154129	3919
1121	0.0005366298076064238	8458
1084	0.0005364958287929402	8420
766	0.0005362725307704675	5801
1132	0.0005360492327479947	8471
1165	0.0005350667214491148	8521
1279	0.0005349327426356312	9208
1111	0.0005346201254041694	8447
397	0.0005342628485682131	2705
1193	0.000534173529359224	8603
1242	0.0005336822737097841	9016
235	0.000533101698851355	1004
894	0.0005327444220153987	7009
1052	0.0005313599742760678	8214
1130	0.0005310920166491005	8469
1191	0.0005306454206041552	8601
856	0.0005303328033726934	6704
465	0.0005291269940513407	2910
847	0.0005291269940513407	6505
1020	0.0005286803980063952	7905
855	0.0005280998231479662	6703
1263	0.0005280998231479662	9104
346	0.0005278765251254935	2504
1275	0.0005276978867075153	9202
233	0.000526849354222119	1002
1075	0.0005267153754086354	8411
1266	0.0005255542256917772	9107
503	0.0005250629700423373	3201
309	0.00052430375676593	2003
366	0.0005238571607209847	2524
484	0.0005143000053591526	2929
584	0.0005083156183568838	3911
579	0.000507913681916433	3906
449	0.0005069758302220476	2843
488	0.000506931170617553	2934
1027	0.0005063952553636185	8102
463	0.0005048321692063095	2908
349	0.0005045195519748477	2507
649	0.0005045195519748477	4416
1104	0.0005044302327658586	8440
1166	0.0005036710194894514	8522
995	0.0005035370406759678	7506
437	0.0005033584022579896	2829
482	0.0005030011254220332	2927
662	0.0005028224870040551	4702
1154	0.000502733167795066	8508
1128	0.0005024205505636042	8467
1214	0.0005021972525411315	8715
1238	0.0005021079333321424	9011
1234	0.0005017059968916916	9006
979	0.0005013933796602297	7405
993	0.0005010807624287679	7504
583	0.0005009914432197788	3910
1029	0.0005007234855928116	8104
1123	0.0005006788259883171	8460
428	0.0005004108683613498	2820
429	0.0005001875703388771	2821
1270	0.0004998749531074152	9111
1134	0.0004996516550849426	8473
1282	0.0004992050590399971	9302
1049	0.0004991603994355026	8211
739	0.0004987138033905572	5504
1113	0.0004986691437860627	8449
438	0.0004981778881366227	2830
1086	0.0004979992497186445	8422
1218	0.0004977759516961717	8803
718	0.0004977312920916772	5301
1294	0.0004970613980242591	9503
1272	0.0004969274192107754	9113
501	0.0004967041211883027	3104
877	0.0004959895675163901	6906
1243	0.0004959449079118955	9017
548	0.000495900248307401	3706
352	0.0004958109290984119	2510
244	0.000494917737008521	1105
1240	0.000494828417799532	9014
1237	0.0004946497793815538	9010
726	0.0004944711409635756	5310
700	0.0004933993104557067	5108
915	0.000492193501134354	7111
276	0.0004908537129995177	1510
687	0.000490719734186034	5002
1019	0.0004900051805141214	7904
226	0.0004884420943568124	905
384	0.00048670036978152524	2613
262	0.00048549456046017257	1214
373	0.00048536058164668893	2602
845	0.0004833955590489291	6502
1274	0.0004772771932331767	9201
1318	0.00047616070312081314	9701
487	0.00047424034012754783	2933
605	0.0004701316565140499	4007
898	0.00046977437967809355	7014
543	0.00046821129352078456	3701
1044	0.00046812197431179547	8206
968	0.0004676307186623555	7319
994	0.0004672734418263992	7505
1231	0.00046722878222190463	9003
560	0.00046660354775898103	3811
737	0.00046638024973650835	5502
530	0.0004661569517140356	3407
851	0.00046611229210954106	6602
1268	0.0004659783132960575	9109
705	0.00046463852516122117	5113
1220	0.0004643259079297594	8805
556	0.00046383465228031943	3807
1296	0.00046365601386234124	9505
1230	0.00046347737544436305	9002
439	0.00046338805623537396	2831
902	0.000462896800585934	7018
451	0.0004622715661230104	2845
678	0.0004621375873095268	4904
1312	0.00046191428928705407	9613
1168	0.00046155701245109774	8525
445	0.00046093177798817414	2837
190	0.0004596366494578324	601
1323	0.00045820754211400703	970
249	0.0004581628825095125	1201
850	0.00045762696725557797	6601
622	0.00045610854070276353	4106
1260	0.0004539648796870255	9101
547	0.00044141553082405904	3705
1261	0.00043913789099483735	9102
1120	0.0004357437610532521	8457
269	0.00043284088676110686	1503
1273	0.00043159041783525964	9114
452	0.0004313224602082924	2846
1278	0.0004313224602082924	9207
1036	0.0004304292681184015	8111
742	0.0004290001607745762	5507
1110	0.0004282856071026635	8446
334	0.00042748173422176174	2304
1108	0.00042739241501277265	8444
1269	0.0004271244573858054	9110
1047	0.00042614194608692543	8209
447	0.00042582932885546366	2840
922	0.0004253380732060237	7201
1053	0.00042511477518355096	8215
1065	0.0004250701155790564	8401
924	0.00042484681755658373	7203
181	0.00042466817913860554	501
1314	0.00042404294467568194	9615
587	0.00042390896586219835	3914
732	0.00042364100823523106	5405
690	0.000421497347219493	5005
657	0.00042127404919702034	4503
442	0.00041783525965094053	2834
670	0.000417790600046446	4807
720	0.00041461976812733346	5303
369	0.00041417317208238805	2528
1316	0.0004139498740599153	9617
1304	0.00041198485146215545	9605
224	0.00040600046445988673	903
248	0.00040041801389806893	1109
1319	0.0003988995873452545	9702
468	0.0003977384376283964	2913
549	0.00039738116079244	3707
1295	0.00039648796870254917	9504
544	0.00039510352096321837	3702
430	0.0003944336268958002	2822
661	0.000388985155147466	4701
692	0.00038795798424409153	5007
914	0.00038724343057217883	7110
1109	0.0003867075153182443	8445
991	0.00038648421729577164	7501
376	0.00038527840797441897	2605
545	0.0003852337483699244	3703
665	0.0003842512370710445	4705
375	0.0003840725986530663	2604
1051	0.00038389396023508817	8213
182	0.0003838046410260991	502
1262	0.00038358134300362634	9103
251	0.0003833133853766591	1203
418	0.0003830007681451973	2810
1195	0.00038201825684631735	8605
335	0.0003815270011968774	2305
1158	0.0003807677879204702	8513
654	0.00038072312831597565	4421
723	0.00038072312831597565	5307
613	0.00038045517068900837	4015
859	0.0003749173797316851	6803
1267	0.0003600010718305079	9108
1310	0.00035959913539005696	9611
1031	0.00035294485432037014	8106
658	0.00034919344754282856	4504
540	0.00034521874274281425	3604
1239	0.0003229336001000375	9013
1264	0.00032043266224834313	9105
1232	0.0003165472766573179	9004
656	0.0003118133585808964	4502
854	0.0002808195930616838	6702
1034	0.0002753264617088551	8109
1035	0.000272602225834688	8110
853	0.0002720663105807535	6701
383	0.00027010128798299365	2612
655	0.00027001196877400455	4501
