153	0.0024093783256140416	106
925	0.0022616481549835657	7204
813	0.0022224805016751977	6203
999	0.002129812104536196	7602
402	0.002116756220100073	2710
293	0.0021008620999169673	1701
259	0.002091637833739272	1211
619	0.002086387097607353	4103
640	0.0020487804739598254	4407
617	0.0020201142929152953	4101
365	0.0019886098761237817	2523
616	0.001982649581055117	4100
166	0.001979811345308134	303
323	0.0019361025148045925	2202
595	0.001934115749781704	3923
169	0.0019148157467022183	306
255	0.0019000569208179057	1207
266	0.0018855819185082914	1404
332	0.0018447113237517333	2302
260	0.0017954679335415746	1212
832	0.0017853921966397843	6305
797	0.00176921425288198	6104
524	0.001762970134238617	3401
796	0.0017615510163651255	6103
231	0.0017544554269976673	910
814	0.0017534620444862232	6204
240	0.0017137267440284585	1101
641	0.001701806153891129	4408
206	0.001690311299115847	713
637	0.0016711532078237104	4404
836	0.0016687407074387746	6309
802	0.0016632061477321574	6109
912	0.0016439061446526717	7108
165	0.00164248702677918	302
799	0.0016420612914171326	6106
336	0.0016295730541304064	2306
795	0.0016194973172286161	6102
341	0.0016115502571370632	2402
168	0.0016048804031316526	305
962	0.0015959399605286555	7313
642	0.0015943789308678147	4409
668	0.0015861480472015635	4800
211	0.0015773495163859154	804
618	0.001572382603828695	4102
283	0.001561881131564857	1517
343	0.001561881131564857	2501
222	0.0015586171604558263	901
801	0.0015581914250937788	6108
800	0.0015526568653871616	6107
167	0.001546838482105846	304
307	0.0015466965703184968	2001
958	0.0015454193642323545	7309
315	0.0015435745109968154	2009
202	0.0015422973049106729	709
707	0.0015383237748648965	5202
187	0.001536337009842008	508
636	0.001531653920859486	4403
758	0.0015295252440492486	5607
295	0.0015262612729402178	1703
822	0.0015234230371932347	6212
798	0.001520300977871553	6105
881	0.001514766418164936	6910
794	0.0015090899466709694	6101
895	0.0014960340622348467	7010
807	0.0014931958264878635	6114
319	0.0014896480318041345	2104
313	0.0014893642082294363	2007
1001	0.001482126707074629	7604
342	0.001478720824178249	2403
706	0.00146169140969635	5201
803	0.0014606980271849059	6110
225	0.0014553053792656378	904
291	0.0014506222902831154	1604
340	0.0014504803784957663	2401
296	0.0014477840545361323	1704
317	0.0014398369944445793	2102
282	0.0014333090522265178	1516
808	0.0014300450811174873	6115
1293	0.0014294774339680906	9406
186	0.001426355374646409	507
218	0.0014222399328132835	811
759	0.0014194016970663001	5608
957	0.001419259785278951	7308
866	0.0014186921381295545	6810
837	0.0014179825791928087	6310
306	0.0014158539023825711	1905
650	0.001414718608083778	4417
241	0.0014132994902102862	1102
499	0.001413015666635588	3102
651	0.0014128737548482389	4418
264	0.001411170813400049	1302
817	0.001402372282584401	6207
502	0.001400669341136211	3105
805	0.0014001016939868144	6112
821	0.0013959862521536887	6211
414	0.0013945671342801972	2806
318	0.0013883230156368342	2103
170	0.0013859105152518984	307
205	0.0013854847798898508	712
242	0.0013844913973784067	1103
541	0.0013823627205681694	3605
815	0.0013778215433729963	6205
819	0.0013772538962235996	6209
538	0.0013754090429880606	3602
816	0.0013711516893675857	6206
635	0.0013673200711091585	4402
203	0.0013666105121724126	710
164	0.0013659009532356668	301
842	0.0013603663935290496	6405
175	0.001355541392759178	405
204	0.0013552575691844798	711
172	0.00135355462773629	402
709	0.0013514259509260524	5204
1186	0.001349297274115815	8544
714	0.0013475943326676251	5209
401	0.0013407825668748654	2709
812	0.001338653890064628	6202
179	0.0013369509486164382	409
923	0.0013281524178007903	7202
937	0.0013275847706513935	7217
959	0.0013273009470766953	7310
207	0.0013270171235019968	714
838	0.0013264494763526003	6401
811	0.0013231855052435696	6201
955	0.0013223340345194746	7306
1009	0.001321766387370078	7612
314	0.001320914916645983	2008
392	0.0013180766808989998	2621
217	0.0013162318276634607	810
316	0.0013097038854453995	2101
653	0.001306865649698416	4420
250	0.0013010472664171007	1202
935	0.0012997700603309581	7214
239	0.00129608035385988	1008
712	0.0012959384420725309	5207
1290	0.0012892685880671203	9403
594	0.0012874237348315812	3922
867	0.001287139911256883	6811
916	0.0012868560876821845	7112
177	0.0012797604983147265	407
399	0.0012787671158032824	2707
362	0.0012725229971599194	2520
287	0.0012702524085623328	1522
171	0.0012682656435394446	401
189	0.0012630149074075257	511
263	0.0012614538777466849	1301
201	0.0012610281423846375	708
1254	0.0012594671127237967	9028
713	0.001256203141614766	5208
648	0.0012546421119539251	4415
936	0.001253506817655132	7215
590	0.0012529391705057352	3917
510	0.0012520876997816404	3208
886	0.001251945787994291	7001
302	0.0012449921104141822	1806
522	0.0012442825514774366	3306
311	0.0012410185803684059	2005
829	0.0012404509332190092	6302
710	0.0012400251978569618	5205
818	0.001239457550707565	6208
740	0.001234916373512392	5505
639	0.0012302332845298696	4406
188	0.0012255501955473474	510
1007	0.0012241310776738557	7610
820	0.0012239891658865066	6210
1082	0.0012239891658865066	8418
281	0.0012227119598003642	1515
223	0.0012220024008636184	902
278	0.001220725194777476	1512
931	0.0012194479886913335	7210
1199	0.001219022253329286	8609
348	0.0012174612236684453	2506
804	0.0012174612236684453	6111
610	0.0012166097529443503	4012
960	0.0012164678411570012	7311
245	0.0012146229879214621	1106
1096	0.0012127781346859229	8432
752	0.001211926663961828	5601
907	0.0012090884282148447	7103
193	0.001208378869278099	604
755	0.0012068178396172583	5604
196	0.0012025604859967835	703
405	0.0012024185742094344	2713
359	0.0012000060738244986	2517
934	0.0011975935734395628	7213
407	0.001196884014502817	2715
498	0.0011961744555660711	3101
441	0.001193478131606437	2833
749	0.0011868082776010267	5514
843	0.0011856729833022333	6406
998	0.0011855310715148842	7601
243	0.001185389159727535	1104
357	0.0011784354821474262	2515
328	0.0011761648935498395	2207
220	0.001175455334613094	813
891	0.001173752393164904	7006
646	0.001168501657032985	4413
436	0.0011670825391594934	2828
219	0.001166656803797446	812
176	0.0011665148920100967	406
214	0.0011660891566480493	807
974	0.0011652376859239543	7325
840	0.0011612641558781777	6403
1224	0.0011604126851540828	8904
789	0.0011591354790679404	6002
609	0.0011585678319185437	4011
512	0.0011575744494070996	3210
765	0.0011570068022577031	5705
1223	0.0011527494486372283	8903
183	0.001151756066125784	504
863	0.0011476406242926585	6807
875	0.0011476406242926585	6904
717	0.0011470729771432618	5212
1095	0.0011462215064191668	8431
966	0.0011460795946318177	7317
1215	0.0011433832706721837	8716
557	0.001142957535310136	3808
363	0.0011415384174366446	2521
324	0.0011389840052643597	2203
1062	0.0011369972402414715	8309
708	0.0011362876813047257	5203
835	0.001135861945942678	6308
930	0.001135720034155329	7209
982	0.001134868563431234	7408
750	0.0011347266516438849	5515
364	0.0011324560630462982	2522
347	0.0011300435626613627	2505
831	0.0011256442972535387	6304
185	0.0011253604736788402	506
981	0.0011253604736788402	7407
1016	0.0011229479732939045	7806
320	0.0011211031200583654	2105
173	0.0011203935611216198	403
918	0.0011174134135872873	7114
292	0.0011172715017999382	1605
1135	0.0011172715017999382	8474
1288	0.0011157104721390974	9401
194	0.0011147170896276533	701
288	0.001114433266052955	1601
673	0.0011137237071162092	4823
970	0.0011130141481794633	7321
695	0.0011115950303059717	5103
1003	0.0011110273831565752	7606
212	0.0011098920888577817	805
597	0.0011066281177487512	3925
149	0.0011062023823867036	102
322	0.0011046413527258628	2201
1322	0.0011026545877029746	9705
827	0.0011025126759156255	6217
289	0.0011010935580421338	1602
978	0.0011006678226800864	7403
327	0.0010996744401686423	2206
546	0.0010993906165939439	3704
1286	0.0010961266454849134	9306
1012	0.0010877538500313128	7615
511	0.0010873281146692654	3209
554	0.0010869023793072178	3805
611	0.0010867604675198687	4013
523	0.0010839222317728856	3307
1057	0.0010829288492614415	8304
1201	0.0010825031138993939	8702
760	0.0010793810545777125	5609
563	0.0010792391427903632	3814
1222	0.0010778200249168717	8902
1149	0.0010751237009572377	8503
1188	0.001073846494871095	8546
256	0.0010714339944861593	1208
403	0.0010698729648253187	2711
729	0.0010697310530379694	5402
350	0.0010695891412506203	2508
1291	0.001069163405888573	9404
199	0.0010687376705265253	706
1011	0.0010673185526530338	7614
744	0.0010636288461819555	5509
443	0.00106121634579702	2835
575	0.0010606486986476232	3902
521	0.001057668551113291	3305
628	0.001055965609665101	4205
1004	0.0010512825206825786	7607
1219	0.0010494376674470395	8804
1014	0.0010474509024241514	7801
685	0.0010471670788494531	4911
770	0.0010471670788494531	5805
862	0.0010467413434874055	6806
602	0.0010453222256139138	4004
379	0.0010426259016542798	2608
728	0.0010423420780795816	5401
415	0.0010422001662922324	2807
833	0.0010410648719934392	6306
868	0.0010404972248440425	6812
303	0.0010389361951832017	1902
574	0.0010379428126717576	3901
339	0.0010362398712235677	2309
644	0.0010360979594362186	4411
747	0.001033117811901886	5512
236	0.0010314148704536963	1005
308	0.0010298538407928555	2002
876	0.0010298538407928555	6905
230	0.0010257383989597298	909
210	0.0010254545753850316	803
446	0.0010253126635976825	2839
191	0.0010243192810862382	602
929	0.00102403545751154	7208
528	0.001023183986787445	3405
643	0.001019636192103716	4410
294	0.0010166560445693837	1702
1179	0.0010159464856326378	8537
897	0.0010148111913338444	7013
516	0.0010145273677591461	3214
209	0.0010104119259260204	802
371	0.0010084251609031323	2530
716	0.0010077156019663864	5211
444	0.0010068641312422914	2836
208	0.0010054450133688	801
762	0.0010054450133688	5702
596	0.00100374207192061	3924
903	0.0010007619243862776	7019
422	0.0010003361890242302	2814
828	0.0009972141297025486	6301
459	0.0009963626589784536	2904
1227	0.0009952273646796604	8907
1013	0.0009946597175302637	7616
358	0.0009945178057429145	2516
265	0.0009940920703808672	1401
351	0.0009940920703808672	2509
634	0.0009938082468061687	4401
948	0.0009916795699959314	7228
1156	0.0009874222163754566	8511
525	0.0009854354513525684	3402
879	0.00098515162777787	6908
1300	0.0009848678042031717	9601
1141	0.0009827391273929344	8480
216	0.0009825972156055852	809
161	0.0009823133920308868	208
1056	0.0009823133920308868	8303
1204	0.0009813200095194427	8705
631	0.000980752362370046	4302
310	0.0009796170680712527	2004
1281	0.0009773464794736663	9301
577	0.000977204567686317	3904
1203	0.0009755016262381271	8704
329	0.0009732310376405406	2208
715	0.0009723795669164456	5210
858	0.0009719538315543982	6802
1235	0.0009715280961923507	9007
1321	0.0009703928018935573	9704
285	0.0009684060368706692	1520
423	0.0009684060368706692	2815
404	0.0009669869189971775	2712
864	0.0009658516246983843	6808
257	0.0009648582421869401	1209
869	0.0009634391243134485	6813
411	0.0009608847121411636	2803
743	0.000959465594267672	5508
360	0.0009570530938827364	2518
1172	0.0009562016231586414	8530
537	0.0009553501524345464	3601
865	0.0009550663288598481	6809
849	0.0009543567699231022	6507
917	0.0009543567699231022	7113
1313	0.000954072946348404	9614
790	0.0009529376520496106	6003
971	0.0009529376520496106	7322
973	0.0009518023577508173	7324
1078	0.0009506670634520241	8414
1152	0.0009498155927279291	8506
956	0.0009495317691532308	7307
1068	0.0009495317691532308	8404
520	0.0009479707394923901	3304
753	0.0009479707394923901	5602
680	0.0009462677980442002	4906
774	0.0009435714740845661	5809
1039	0.0009431457387225186	8201
1017	0.0009418685326363762	7901
374	0.0009405913265502337	2603
1298	0.0009374692672285522	9507
614	0.0009360501493550606	4016
213	0.000935482502205664	806
1147	0.000935482502205664	8501
215	0.0009349148550562673	808
947	0.0009326442664586808	7227
513	0.0009313670603725384	3211
882	0.0009293802953496501	6911
1216	0.0009290964717749517	8801
906	0.0009285288246255551	7102
1225	0.0009271097067520635	8905
551	0.0009261163242406194	3802
419	0.0009249810299418261	2811
721	0.000921291323470748	5305
247	0.0009208655881087005	1108
246	0.0009201560291719547	1107
378	0.0009185949995111139	2607
921	0.0009174597052123206	7118
607	0.0009170339698502732	4009
1228	0.0009168920580629239	8908
337	0.0009167501462755748	2307
388	0.0009137699987412424	2617
681	0.0009133442633791949	4907
771	0.0009119251455057034	5806
1289	0.0009114994101436559	9402
608	0.00091078985120691	4010
1303	0.0009100802922701643	9604
152	0.0009090869097587202	105
975	0.0009073839683105303	7326
286	0.000906248674011737	1521
676	0.0009049714679255945	4902
432	0.0009046876443508961	2824
763	0.0009035523500521029	5703
1005	0.0009035523500521029	7608
606	0.0009021332321786114	4008
963	0.000901849408603913	7314
387	0.000900997937879818	2616
964	0.0009007141143051197	7315
697	0.0008968824960466924	5105
779	0.0008954633781732008	5903
734	0.00089390234851236	5407
699	0.0008931927895756142	5107
280	0.0008929089660009159	1514
234	0.0008924832306388684	1003
1211	0.000891206024552726	8712
372	0.0008880839652310444	2601
1101	0.0008875163180816478	8437
652	0.0008855295530587596	4419
535	0.0008852457294840613	3506
786	0.0008835427880358713	5910
254	0.0008814141112256339	1206
927	0.0008801369051394915	7206
788	0.0008794273462027457	6001
989	0.0008785758754786508	7418
1092	0.0008774405811798574	8428
505	0.0008772986693925083	3203
1208	0.0008772986693925083	8709
748	0.0008757376397316675	5513
565	0.0008741766100708267	3816
1299	0.0008737508747087793	9508
1142	0.0008736089629214301	8481
990	0.000873467051134081	7419
674	0.0008727574921973351	4824
1074	0.0008727574921973351	8410
496	0.0008724736686226369	2942
933	0.0008713383743238436	7212
1063	0.0008706288153870977	8310
529	0.0008694935210883045	3406
893	0.0008677905796401146	7008
148	0.0008676486678527654	101
604	0.0008666552853413212	4006
741	0.0008662295499792738	5506
1200	0.0008660876381919246	8701
434	0.0008659457264045755	2826
645	0.0008648104321057822	4412
841	0.0008643846967437347	6404
669	0.0008629655788702431	4802
1198	0.0008599854313359107	8608
1178	0.0008595596959738633	8536
623	0.0008589920488244667	4114
666	0.0008557280777154359	4706
624	0.0008550185187786902	4115
675	0.0008545927834166427	4901
1046	0.0008544508716292935	8208
860	0.0008541670480545952	6804
151	0.0008535994009051985	104
237	0.0008534574891178494	1006
1002	0.0008528898419684528	7605
497	0.0008517545476696594	3006
773	0.0008517545476696594	5808
1302	0.000851328812307612	9603
1083	0.0008511869005202628	8419
1277	0.0008509030769455645	9206
454	0.0008499096944341204	2849
711	0.0008480648411985813	5206
1076	0.0008473552822618355	8412
806	0.0008463618997503914	6113
928	0.0008463618997503914	7207
1064	0.0008462199879630422	8311
469	0.0008450846936642489	2914
1244	0.0008439493993654556	9018
406	0.0008438074875781065	2714
221	0.0008430979286413606	814
787	0.0008421045461299166	5911
391	0.00084153689898052	2620
533	0.0008396920457449808	3503
754	0.0008395501339576317	5603
1177	0.0008388405750208858	8535
1040	0.0008382729278714892	8202
698	0.0008381310160841401	5106
390	0.000837989104296791	2619
1146	0.0008377052807220926	8487
1197	0.0008375633689347435	8607
1174	0.0008372795453600451	8532
778	0.0008368538099979976	5902
1021	0.0008368538099979976	7907
270	0.0008361442510612518	1504
331	0.0008360023392739027	2301
1043	0.0008360023392739027	8205
872	0.0008358604274865535	6901
1226	0.0008355766039118552	8906
1081	0.0008352927803371568	8417
738	0.0008351508685498077	5503
961	0.0008345832214004111	7312
1306	0.0008342993978257127	9607
550	0.0008337317506763161	3801
1055	0.0008328802799522212	8302
926	0.0008321707210154753	7205
659	0.0008320288092281262	4601
951	0.0008314611620787296	7302
953	0.0008313192502913804	7304
704	0.0008311773385040312	5112
539	0.0008299001324178888	3603
1241	0.0008297582206305397	9015
792	0.0008286229263317463	6005
1221	0.0008281971909696988	8901
1018	0.0008277714556076514	7903
1283	0.0008277714556076514	9303
229	0.0008264942495215089	908
769	0.0008263523377341598	5804
154	0.0008262104259468106	201
672	0.0008242236609239224	4811
620	0.0008237979255618749	4104
772	0.0008236560137745258	5807
569	0.0008235141019871765	3820
232	0.0008229464548377799	1001
767	0.0008228045430504308	5802
1259	0.0008228045430504308	9033
725	0.0008223788076883833	5309
900	0.0008222368959010341	7016
857	0.0008218111605389866	6801
952	0.0008211016016022409	7303
1140	0.0008209596898148916	8479
693	0.0008191148365793526	5101
582	0.0008186891012173051	3909
312	0.000818547189429956	2006
1119	0.0008169861597691152	8455
1098	0.0008152832183209252	8434
910	0.0008144317475968303	7106
954	0.000812303070786593	7305
671	0.0008120192472118946	4810
830	0.0008115935118498471	6303
261	0.0008107420411257521	1213
601	0.0008097486586143081	4003
593	0.0008081876289534672	3920
722	0.000807903805378769	5306
735	0.0008073361582293723	5408
277	0.0008053493932064841	1511
1106	0.0008046398342697383	8442
1207	0.0008046398342697383	8708
612	0.0008042140989076908	4014
1089	0.0008035045399709449	8425
1097	0.0008016596867354059	8433
892	0.0008005243924366127	7007
393	0.0008003824806492634	2701
159	0.0007995310099251685	206
519	0.0007989633627757719	3303
1025	0.0007988214509884227	8007
701	0.0007986795392010735	5109
1060	0.0007981118920516769	8307
679	0.000796408950603487	4905
1117	0.0007959832152414395	8453
1301	0.0007945640973679479	9602
456	0.0007934288030691546	2901
493	0.0007918677734083139	2939
757	0.0007901648319601239	5606
834	0.0007898810083854256	6307
1066	0.0007897390965980765	8402
1093	0.0007897390965980765	8429
1175	0.0007891714494486798	8533
457	0.0007890295376613306	2902
1094	0.0007890295376613306	8430
684	0.0007871846844257916	4910
664	0.0007859074783396491	4704
603	0.0007857655665523	4005
1136	0.0007857655665523	8475
412	0.0007856236547649508	2804
660	0.0007847721840408558	4602
321	0.00078406262510411	2106
197	0.0007837788015294117	704
702	0.0007834949779547134	5110
1309	0.0007834949779547134	9610
745	0.0007816501247191743	5510
873	0.0007812243893571268	6902
273	0.0007802310068456827	1507
495	0.0007802310068456827	2941
305	0.0007800890950583336	1904
576	0.0007798052714836352	3903
904	0.0007782442418227945	7020
615	0.0007779604182480962	4017
809	0.0007763993885872554	6116
987	0.0007758317414378587	7413
599	0.0007755479178631604	4001
1090	0.0007755479178631604	8426
638	0.0007752640942884621	4405
983	0.0007729935056908755	7409
932	0.0007722839467541298	7211
1196	0.0007721420349667806	8606
455	0.0007718582113920823	2852
1118	0.0007717162996047331	8454
600	0.0007705810053059398	4002
301	0.000769871446369194	1805
568	0.0007677427695589566	3819
919	0.0007677427695589566	7115
290	0.0007674589459842583	1603
694	0.000766323651685465	5102
844	0.0007657560045360684	6501
506	0.0007656140927487193	3204
195	0.0007653302691740209	702
1067	0.0007649045338119734	8403
861	0.0007644787984499259	6805
400	0.0007633435041511326	2708
885	0.0007626339452143869	6914
980	0.0007624920334270376	7406
426	0.0007622082098523394	2818
356	0.0007617824744902919	2514
453	0.0007613567391282444	2847
1169	0.0007613567391282444	8526
1143	0.0007610729155535461	8482
969	0.0007603633566168003	7320
368	0.000760079533042102	2526
839	0.0007593699741053561	6402
267	0.0007586604151686104	1501
297	0.0007585185033812612	1801
1150	0.0007585185033812612	8504
382	0.0007578089444445154	2611
471	0.0007576670326571662	2916
1085	0.0007572412972951187	8421
253	0.0007553964440595797	1205
730	0.0007548287969101831	5403
588	0.0007546868851228338	3915
1000	0.0007544030615481356	7603
398	0.0007542611497607864	2706
1116	0.0007541192379734372	8452
542	0.000753835414398739	3606
625	0.0007524162965252473	4201
500	0.0007517067375885015	3103
1129	0.0007511390904391048	8468
1171	0.0007511390904391048	8529
1100	0.0007509971786517557	8436
184	0.0007505714432897082	505
883	0.0007505714432897082	6912
1202	0.0007502876197150099	8703
1192	0.0007501457079276607	8602
1148	0.0007497199725656133	8502
823	0.0007474493839680267	6213
1115	0.0007467398250312809	8451
507	0.0007465979132439318	3205
425	0.0007456045307324877	2817
1008	0.000743333942134901	7611
761	0.0007400699710258704	5701
1054	0.000739786147451172	8301
746	0.000737941294215633	5511
504	0.0007377993824282838	3202
884	0.0007377993824282838	6913
977	0.0007375155588535855	7402
781	0.0007365221763421414	5905
667	0.0007359545291927448	4707
1045	0.0007355287938306973	8207
192	0.0007336839405951581	603
1311	0.0007322648227216666	9612
1233	0.0007311295284228732	9005
435	0.0007305618812734766	2827
756	0.0007302780576987784	5605
965	0.0007298523223367309	7316
1061	0.0007297104105493817	8308
1037	0.0007290008516126359	8112
155	0.0007277236455264935	202
1161	0.0007271559983770968	8516
1187	0.0007267302630150493	8545
558	0.0007260207040783035	3809
1080	0.0007260207040783035	8416
724	0.0007257368805036052	5308
1122	0.000724601586204812	8459
777	0.0007236082036933678	5901
689	0.0007233243801186695	5004
1180	0.0007233243801186695	8538
782	0.0007220471740325271	5906
174	0.0007209118797337337	404
736	0.0007207699679463846	5501
1102	0.0007207699679463846	8438
1308	0.0007207699679463846	9609
889	0.0007199184972222897	7004
913	0.0007199184972222897	7109
156	0.0007197765854349404	203
1114	0.0007186412911361472	8450
1160	0.0007186412911361472	8515
344	0.0007182155557740997	2502
284	0.0007177898204120522	1518
768	0.0007177898204120522	5803
1162	0.0007177898204120522	8517
1213	0.0007175059968373539	8714
627	0.0007170802614753064	4203
555	0.0007160868789638623	3806
985	0.0007152354082397673	7411
1032	0.0007146677610903707	8107
848	0.0007142420257283232	6506
1138	0.0007131067314295299	8477
949	0.0007128229078548316	7229
1157	0.0007112618781939909	8512
478	0.0007095589367458009	2923
433	0.0007091332013837535	2825
1145	0.0007091332013837535	8486
1070	0.000708707466021706	8406
944	0.0007082817306596585	7224
1139	0.0007068626127861669	8478
1287	0.0007065787892114686	9307
826	0.0007037405534644854	6216
472	0.0007033148181024379	2917
1050	0.0007033148181024379	8212
1006	0.000701611876654248	7609
508	0.000700760405930153	3206
824	0.0007006184941428039	6214
1255	0.0007004765823554547	9029
1252	0.0006997670234187089	9026
481	0.0006994831998440106	2926
299	0.0006993412880566614	1803
1189	0.0006984898173325665	8547
633	0.000698064081970519	4304
785	0.0006974964348211223	5909
1285	0.0006967868758843765	9305
431	0.0006965030523096782	2823
380	0.0006956515815855832	2609
1212	0.0006953677580108849	8713
416	0.00069451628728679	2808
1151	0.0006942324637120917	8505
180	0.0006935229047753458	410
1088	0.0006923876104765526	8424
1292	0.0006919618751145051	9405
571	0.0006916780515398068	3823
1153	0.0006916780515398068	8507
810	0.0006894074629422202	6117
464	0.0006884140804307761	2909
1155	0.0006871368743446337	8509
731	0.0006869949625572844	5404
1320	0.0006869949625572844	9703
162	0.0006868530507699353	209
325	0.0006860015800458403	2204
470	0.0006860015800458403	2915
1127	0.0006851501093217454	8465
559	0.0006840148150229521	3810
663	0.0006835890796609046	4703
986	0.0006834471678735554	7412
1182	0.0006828795207241588	8540
591	0.0006825956971494605	3918
1167	0.0006798993731898265	8523
483	0.0006796155496151281	2928
475	0.0006790479024657315	2920
514	0.0006789059906783824	3212
578	0.0006789059906783824	3905
1265	0.0006784802553163349	9106
939	0.0006783383435289856	7219
1026	0.0006781964317416365	8101
940	0.0006774868728048907	7220
905	0.0006769192256554941	7101
920	0.0006769192256554941	7117
354	0.0006764934902934466	2512
696	0.0006757839313567009	5104
733	0.0006757839313567009	5406
300	0.0006753581959946534	1804
157	0.000675074372419955	204
178	0.0006749324606326059	408
381	0.0006749324606326059	2610
751	0.0006749324606326059	5516
1236	0.00067422290169586	9008
304	0.0006740809899085109	1903
775	0.0006729456956097176	5810
279	0.0006695398127133377	1513
448	0.0006695398127133377	2841
629	0.000667978783052497	4206
580	0.0006678368712651478	3907
1249	0.0006678368712651478	9023
1125	0.0006672692241157512	8462
238	0.0006671273123284021	1007
163	0.0006662758416043071	210
338	0.0006632956940699747	2308
988	0.0006631537822826256	7415
945	0.0006618765761964831	7225
566	0.0006617346644091339	3817
1206	0.0006598898111735949	8707
460	0.0006594640758115474	2905
517	0.0006569096636392625	3215
647	0.0006557743693404693	4414
158	0.0006550648104037234	205
1079	0.0006546390750416759	8415
200	0.0006544971632543268	707
1183	0.0006542133396796285	8541
473	0.0006535037807428826	2918
526	0.0006535037807428826	3403
1159	0.0006533618689555335	8514
227	0.000652936133593486	906
896	0.0006527942218061369	7011
703	0.000652084662869391	5111
943	0.000652084662869391	7223
1245	0.000652084662869391	9019
1107	0.0006515170157199944	8443
534	0.0006513751039326453	3505
1099	0.0006505236332085503	8435
1217	0.0006495302506971061	8802
1073	0.0006492464271224079	8409
908	0.0006489626035477095	7104
683	0.0006486787799730112	4909
532	0.0006479692210362654	3502
581	0.0006476853974615671	3908
561	0.000647543485674218	3812
942	0.0006474015738868687	7222
160	0.0006472596620995196	207
1280	0.0006469758385248213	9209
586	0.0006468339267374721	3913
536	0.000645840544226028	3507
486	0.0006456986324386789	2932
389	0.0006452728970766314	2618
1137	0.0006452728970766314	8476
878	0.0006447052499272347	6907
531	0.0006438537792031397	3501
1284	0.0006438537792031397	9304
440	0.0006435699556284415	2832
564	0.0006435699556284415	3815
950	0.0006435699556284415	7301
409	0.000643144220266394	2801
466	0.000643144220266394	2911
888	0.000643144220266394	7003
355	0.0006430023084790448	2513
345	0.0006405898080941091	2503
630	0.0006405898080941091	4301
572	0.0006403059845194107	3824
1133	0.0006403059845194107	8472
150	0.0006401640727320616	103
871	0.0006401640727320616	6815
271	0.0006390287784332683	1505
1058	0.0006388868666459192	8305
1041	0.0006386030430712208	8203
394	0.0006373258369850784	2702
370	0.0006371839251977292	2529
1307	0.0006371839251977292	9608
784	0.0006364743662609834	5908
552	0.0006357648073242377	3803
1038	0.0006347714248127936	8113
972	0.0006346295130254443	7323
258	0.0006340618658760477	1210
1091	0.0006339199540886986	8427
852	0.0006334942187266511	6603
458	0.0006325008362152069	2903
688	0.0006325008362152069	5003
686	0.0006319331890658103	5001
413	0.0006310817183417153	2805
825	0.0006300883358302713	6215
1015	0.0006290949533188272	7804
1024	0.0006275339236579864	8003
776	0.0006252633350603998	5811
1185	0.0006251214232730506	8543
1023	0.0006249795114857015	8002
573	0.0006248375996983523	3825
462	0.000624553776123654	2907
1103	0.0006217155403766708	8439
1072	0.000621005981439925	8408
252	0.0006202964225031791	1204
1181	0.0006198706871411317	8539
967	0.0006197287753537825	7318
494	0.0006184515692676401	2940
1315	0.000618309657480291	9616
1190	0.0006170324513941485	8548
1209	0.0006164648042447519	8710
1258	0.0006163228924574027	9032
1033	0.0006160390688827044	8108
1069	0.0006156133335206569	8405
377	0.0006154714217333077	2606
417	0.0006141942156471653	2809
941	0.0006134846567104195	7221
946	0.0006127750977736737	7226
353	0.0006102206856013888	2511
385	0.0006099368620266905	2614
589	0.0006092273030899447	3916
326	0.0006086596559405481	2205
1124	0.0006082339205785006	8461
333	0.0006076662734291039	2303
361	0.0006072405380670564	2519
228	0.0006068148027050089	907
1126	0.0006065309791303107	8463
479	0.0006063890673429614	2924
477	0.0006062471555556123	2922
1251	0.0006062471555556123	9025
1305	0.0006051118612568191	9606
1247	0.0006048280376821207	9021
909	0.0006042603905327241	7105
408	0.0006021317137224867	2716
527	0.0006019898019351375	3404
1144	0.0006018478901477884	8483
386	0.0006009964194236934	2615
1048	0.0005998611251249001	8210
421	0.0005983000954640594	2813
632	0.0005983000954640594	4303
1010	0.000598016271889361	7613
467	0.0005975905365273135	2912
1194	0.0005970228893779169	8604
1176	0.0005965971540158694	8534
427	0.0005963133304411711	2819
890	0.0005958875950791236	7005
1059	0.0005958875950791236	8306
1173	0.0005958875950791236	8531
274	0.0005957456832917745	1508
719	0.0005947523007803304	5302
791	0.0005947523007803304	6004
198	0.000594468477205632	705
899	0.0005941846536309337	7015
992	0.0005939008300562354	7502
515	0.0005930493593321404	3213
1030	0.0005895015646484114	8105
480	0.0005866633289014282	2925
1131	0.0005865214171140791	8470
1042	0.0005860956817520316	8204
887	0.0005832574460050483	7002
585	0.0005826897988556517	3912
621	0.0005816964163442076	4105
1071	0.0005812706809821601	8407
1210	0.0005799934748960177	8711
553	0.0005798515631086686	3804
1256	0.0005797096513213193	9030
996	0.0005795677395339702	7507
874	0.0005792839159592719	6903
1250	0.0005780067098731294	9024
1317	0.0005780067098731294	9618
764	0.0005770133273616853	5704
1028	0.0005770133273616853	8103
1163	0.0005768714155743362	8518
272	0.0005765875919996378	1506
682	0.0005765875919996378	4908
485	0.0005763037684249395	2930
395	0.000575878033062892	2703
570	0.0005757361212755429	3821
492	0.0005744589151894004	2938
1271	0.0005741750916147022	9112
396	0.0005737493562526547	2704
1087	0.0005734655326779563	8423
461	0.000573181709103258	2906
901	0.000573181709103258	7017
783	0.000572330238379163	5907
727	0.0005719045030171155	5311
509	0.0005709111205056714	3207
1077	0.0005709111205056714	8413
268	0.0005706272969309731	1502
275	0.0005700596497815765	1509
367	0.0005686405319080849	2525
410	0.0005686405319080849	2802
626	0.0005680728847586883	4202
1170	0.0005676471493966408	8527
450	0.0005663699433104983	2844
691	0.0005658022961611016	5006
491	0.0005656603843737525	2937
793	0.0005648089136496575	6006
846	0.0005648089136496575	6504
1022	0.0005645250900749592	8001
780	0.0005639574429255626	5904
1246	0.000563389795776166	9020
1205	0.0005594162657303895	8706
592	0.0005526044999376298	3919
1257	0.0005521787645755823	9031
976	0.0005520368527882331	7401
1253	0.0005514692056388365	9027
1105	0.0005513272938514873	8441
490	0.0005497662641906466	2936
997	0.0005494824406159482	7508
677	0.0005489147934665516	4903
870	0.0005487728816792024	6814
298	0.0005480633227424567	1802
518	0.0005477794991677583	3302
476	0.000546644204868965	2921
1191	0.0005465022930816159	8601
1229	0.0005465022930816159	9001
465	0.00054579273414487	2910
1075	0.0005452250869954734	8411
911	0.0005447993516334259	7107
1121	0.0005419611158864428	8458
474	0.0005412515569496969	2919
1164	0.0005411096451623478	8519
503	0.0005405419980129511	3201
567	0.0005402581744382529	3818
766	0.0005401162626509036	5801
1165	0.0005389809683521104	8521
420	0.0005378456740533171	2812
424	0.0005371361151165713	2816
309	0.0005369942033292221	2003
562	0.000536852291541873	3813
1266	0.0005367103797545239	9107
1111	0.0005365684679671746	8447
397	0.0005362846443924764	2705
984	0.000536000820817778	7410
1263	0.0005354331736683814	9104
1184	0.0005352912618810322	8542
1132	0.0005351493500936831	8471
366	0.0005344397911569372	2524
489	0.0005342978793695881	2935
1248	0.0005342978793695881	9022
1275	0.0005337302322201915	9202
1084	0.0005330206732834456	8420
346	0.0005314596436226049	2504
894	0.0005311758200479066	7009
233	0.0005308919964732082	1002
235	0.0005304662611111607	1004
598	0.0005298986139617641	3926
1020	0.0005291890550250183	7905
330	0.0005284794960882726	2209
1193	0.0005283375843009233	8603
847	0.0005281956725135742	6505
855	0.0005280537607262251	6703
856	0.0005280537607262251	6704
1052	0.0005280537607262251	8214
1276	0.0005274861135768285	9205
880	0.0005273442017894792	6909
1242	0.0005266346428527335	9016
1279	0.000526208907490686	9208
938	0.0005252155249792418	7218
1297	0.0005240802306804486	9506
1130	0.0005226611128069569	8469
1027	0.0005208162595714179	8102
583	0.0005192552299105772	3910
1112	0.0005181199356117838	8448
482	0.0005117339051810716	2927
662	0.0005115919933937225	4702
1104	0.00051031478730758	8440
993	0.0005101728755202309	7504
579	0.0005097471401581834	3906
1029	0.0005096052283708343	8104
429	0.0005086118458593901	2821
1234	0.0005081861104973426	9006
1237	0.0005066250808365019	9010
428	0.0005059155218997561	2820
1128	0.0005056316983250577	8467
584	0.0005054897865377086	3911
438	0.0005052059629630102	2830
1238	0.0005052059629630102	9011
1019	0.000504922139388312	7904
687	0.0005043544922389153	5002
1086	0.000502225815428678	8422
1049	0.0005019419918539796	8211
244	0.0005018000800666305	1105
1294	0.000501374344704583	9503
1123	0.0005010905211298846	8460
1166	0.0004998133150437422	8522
1282	0.000499671403256393	9302
449	0.0004992456678943456	2843
437	0.0004988199325322981	2829
700	0.0004985361089575997	5108
349	0.0004982522853829014	2507
548	0.000497826550020854	3706
915	0.0004974008146588065	7111
718	0.0004972589028714573	5301
1218	0.0004971169910841081	8803
463	0.0004968331675094098	2908
845	0.0004966912557220607	6502
226	0.0004964074321473623	905
488	0.0004959816967853148	2934
995	0.0004959816967853148	7506
877	0.0004956978732106166	6906
1243	0.0004949883142738707	9017
484	0.0004945625789118232	2929
1240	0.0004945625789118232	9014
1113	0.0004941368435497758	8449
276	0.0004938530199750774	1510
1272	0.0004928596374636333	9113
1270	0.000492575813888935	9111
352	0.0004921500785268875	2510
262	0.0004917243431648401	1214
739	0.0004904471370786977	5504
1214	0.0004901633135039993	8715
979	0.0004900214017166502	7405
1154	0.0004891699309925552	8508
373	0.0004887441956305077	2602
1134	0.0004877508131190636	8473
649	0.00048675743060761943	4416
384	0.00048633169524557195	2613
501	0.00048562213630882616	3104
1168	0.00048250007698714465	8525
530	0.00047781698800462234	3407
439	0.0004758302229817341	2831
543	0.0004734177225967984	3701
487	0.0004729919872347509	2933
445	0.0004724243400853543	2837
190	0.0004718566929359576	601
1231	0.0004718566929359576	9003
1260	0.0004695861043383711	9101
726	0.0004694441925510219	5310
678	0.00046859272182692694	4904
1230	0.000467741251102832	9002
1274	0.0004675993393154828	9201
850	0.00046745742752813367	6601
556	0.0004670316921660862	3807
705	0.0004670316921660862	5113
898	0.000466889780378737	7014
1044	0.0004666059568040387	8206
737	0.0004663221332293404	5502
1296	0.00046547066250524543	9505
1268	0.00046532875071789625	9109
902	0.00046504492714319795	7018
451	0.0004636258092697063	2845
994	0.00046263242675826223	7505
1318	0.00046220669139621475	9701
968	0.0004590846320745332	7319
1312	0.0004582331613504382	9613
622	0.00045723977883899413	4106
851	0.000455394925603455	6602
1220	0.0004544015430920109	8805
249	0.00045369198415526514	1201
1323	0.00045369198415526514	970
560	0.0004524147780691227	3811
605	0.00044758977729925125	4007
587	0.00043907507005830164	3914
1261	0.0004345338928631285	9102
547	0.00043368242213903354	3705
670	0.00043354051035168436	4807
269	0.0004324052160528911	1503
690	0.00043141183354144695	5005
924	0.00043098609817939946	7203
1053	0.00043070227460470116	8215
1047	0.00043056036281735203	8209
1273	0.0004292831567312096	9114
1304	0.00042814786243241626	9605
1120	0.0004264449209842264	8457
442	0.0004260191856221789	2834
1278	0.0004260191856221789	9207
1108	0.00042403242059929066	8444
1065	0.0004237485970245923	8401
922	0.0004236066852372432	7201
742	0.00042232947915110073	5507
732	0.00042204565557640237	5405
1036	0.00042204565557640237	8111
1269	0.00042161992021435494	9110
452	0.0004213360966396566	2846
1314	0.0004210522730649583	9615
1110	0.00042076844949026	8446
334	0.0004206265377029108	2304
657	0.00041892359625472086	4503
181	0.00041594344872038854	501
1316	0.000412821389398707	9617
447	0.00041253756582400867	2840
369	0.00041225374224931037	2528
224	0.0004118280068872629	903
720	0.00041083462437581874	5303
182	0.0003979206517270452	502
468	0.00039650153385355354	2913
654	0.00039366329810657034	4421
1319	0.0003928118273824754	9702
549	0.0003921022684457296	3707
1295	0.0003921022684457296	9504
375	0.000391534621296333	2604
1195	0.0003912507977216346	8605
859	0.00038968976806079387	6803
430	0.00038699344410115984	2822
661	0.0003867096205264615	4701
418	0.0003858581498023666	2810
665	0.0003855743262276682	4705
544	0.0003854324144403191	3702
1262	0.00038486476729092243	9103
376	0.0003845809437162241	2605
1158	0.0003845809437162241	8513
248	0.00038358756120478	1109
1109	0.00038301991405538337	8445
692	0.0003821684433312884	5007
914	0.0003821684433312884	7110
991	0.00038188461975659005	7501
1051	0.00038131697260719344	8213
613	0.0003796140311590035	4015
723	0.0003793302075843052	5307
251	0.00037876256043490854	1203
545	0.00037578241290057616	3703
335	0.0003740794714523863	2305
1310	0.0003678353528090232	9611
1267	0.00036414564633794504	9108
1031	0.00035520520373494795	8106
658	0.00035477946837290047	4504
540	0.00034016255427593697	3604
1264	0.0003218559337078953	9105
1239	0.00031476034434043727	9013
656	0.00031390887361634236	4502
1232	0.00031248975574285073	9004
854	0.0002896419579796359	6702
383	0.0002851007807844628	2612
655	0.00027672798533086236	4501
1034	0.0002753088674573708	8109
853	0.00027417357315857746	6701
1035	0.00027062577847484847	8110
