153	0.002402200746774628	106
925	0.0022817294429802095	7204
813	0.0022313364588042697	6203
999	0.0021349372974143054	7602
402	0.002112007936655392	2710
293	0.0021029025474151165	1701
619	0.002090405677162268	4103
259	0.002066370398681864	1211
640	0.002034741151847222	4407
617	0.002008088534759289	4101
616	0.0020077936233668914	4100
365	0.0019635569145072516	2523
166	0.0019586540126086418	303
595	0.0019469312847608371	3923
323	0.001943760987292563	2202
255	0.0019186935189387674	1207
169	0.001896390844888699	306
266	0.001891709126534387	1404
332	0.001856246031598576	2302
832	0.0017771729145119703	6305
260	0.001775108534765187	1212
814	0.0017543172816011565	6204
797	0.0017502622499556897	6104
231	0.001745175028436831	910
796	0.0017412305885635131	6103
524	0.0017404564461584694	3401
240	0.0017137301012224372	1101
641	0.001682580085400441	4408
206	0.0016794466518562166	713
637	0.0016774928638815824	4404
802	0.001672774281603221	6109
836	0.0016592452214769812	6309
799	0.0016526465790720848	6106
165	0.0016503978797050532	302
912	0.0016300858575536688	7108
336	0.0016282795252752335	2306
642	0.00162746851894614	4409
341	0.0016200957341362002	2402
618	0.0016129072689465087	4102
795	0.0016101424746427812	6102
668	0.0016038387436302826	4800
211	0.0016002629429974617	804
168	0.0015966134145165415	305
800	0.001568449376542571	6107
707	0.0015682281929982726	5202
283	0.0015677120980615768	1517
962	0.0015667536360362848	7313
222	0.00155997067401114	901
758	0.001558385525277003	5607
958	0.0015472526202139937	7309
187	0.0015430132689482781	508
343	0.001542423446163483	2501
307	0.001541796759454638	2001
636	0.0015342396550244496	4403
801	0.0015314011328726228	6108
295	0.0015300371676827838	1703
202	0.0015300003037587342	709
798	0.0015298528480625353	6105
315	0.001529410480973939	2009
167	0.0015238071645183847	304
313	0.0015134852657844688	2007
794	0.0015111628385693376	6101
895	0.0015042324208479941	7010
822	0.0015017256740126146	6212
881	0.0014968596360380542	6910
807	0.0014928783322406866	6114
706	0.0014842890379371065	5201
1001	0.001482888208823218	7604
803	0.0014783908100891546	6110
342	0.001473930275279141	2403
319	0.0014707968417349165	2104
291	0.001462539322747784	1604
225	0.0014548347626213965	904
340	0.0014496369493303888	2401
317	0.001442890851229294	2102
808	0.0014390570031281252	6115
296	0.001429619838571402	1704
282	0.0014257491265461835	1516
186	0.0014194822594577347	507
414	0.0014185237974324424	2806
1293	0.0014145793575591247	9406
957	0.001411224740470602	7308
837	0.001411077284774403	6310
759	0.0014087179936352224	5608
866	0.001406801069584638	6810
306	0.0014014189366733818	1905
805	0.0013989121898380023	6112
650	0.0013966634904709705	4417
651	0.0013943410632558395	4418
819	0.0013938986961672432	6209
264	0.0013924241392052551	1302
815	0.00139183431642046	6205
218	0.0013917237246483109	811
242	0.0013915025411040127	1103
502	0.0013905072151546708	3105
817	0.001389253841736981	6207
499	0.0013831712942687804	3102
241	0.0013812912341422457	1102
541	0.0013805908195853014	3605
538	0.0013800009968005062	3602
205	0.0013765357879398346	712
172	0.00137218584490197	402
164	0.0013709324714842803	301
1186	0.0013700108733830376	8544
842	0.0013678727657881551	6405
170	0.0013662507531299684	307
318	0.001366177025281869	2103
175	0.0013647393322439307	405
401	0.001359172879712426	2709
635	0.001353164060092325	4402
816	0.001352906012623977	6206
203	0.0013526479651556293	710
709	0.001352058142370834	5204
821	0.0013492933480671065	6211
959	0.0013441323987001485	7310
937	0.0013420311550293156	7217
314	0.001339671863890135	2008
179	0.001336464702497811	409
923	0.0013344003227510279	7202
714	0.0013331100854092883	5209
955	0.0013276542246499327	7306
838	0.001327617360725883	6401
217	0.001325663572751249	810
812	0.0013240046961690126	6202
250	0.0013202077119918935	1202
204	0.001315378537941383	711
811	0.0013132404303465002	6201
653	0.0013105493638908721	4420
1009	0.0013096277657896297	7612
207	0.0013060888290808586	714
392	0.0012981262214861234	2621
594	0.0012966516645241354	3922
316	0.0012949559240178492	2101
362	0.001290790300600233	2520
239	0.0012891314240179967	1008
712	0.0012838967468029392	5207
935	0.0012835281075624424	7214
916	0.001282348461992852	7112
263	0.0012780722468030868	1301
1290	0.0012712524208538924	9403
399	0.0012706257341450475	2707
201	0.0012699253195881033	708
522	0.0012650592816135428	3306
302	0.001263437268955356	1806
287	0.0012627737183224614	1522
867	0.0012586449588288951	6811
177	0.0012570229461707082	407
648	0.0012562119398416148	4415
171	0.0012552534778163228	401
590	0.0012538895126264838	3917
829	0.0012530785062973904	6302
936	0.001252046316423999	7215
639	0.0012488022911076252	4406
510	0.0012450790347786056	3208
818	0.001242314240474878	6208
1254	0.0012385541202218089	9028
713	0.0012380011613610633	5208
710	0.0012371532911079203	5205
1096	0.0012358630537661808	8432
610	0.0012343516328801429	4012
348	0.0012334668987029503	2506
740	0.001232766484146006	5505
1199	0.0012311076075637694	8609
960	0.0012305177847789742	7311
245	0.0012295593227536821	1106
886	0.001225393699336066	7001
1007	0.0012248776043993703	7610
752	0.0012246195569310223	5601
931	0.0012244352373107737	7210
311	0.0012242140537664756	2005
193	0.0012195691993362135	604
278	0.0012179840506020764	1512
189	0.0012160671265514919	511
1082	0.001214592569589504	8418
281	0.0012118646392098261	1515
223	0.001211274816425031	902
907	0.0012099845790832916	7103
820	0.0012074409683238622	6210
804	0.0012071829208555145	6111
188	0.0012055609081973275	510
974	0.0011958288322482069	7325
749	0.0011923267594634854	5514
934	0.0011919581202229884	7213
357	0.0011881611360458693	2515
646	0.0011879030885775215	4413
498	0.0011877556328813226	3101
755	0.001187571313261074	5604
359	0.0011865391233876826	2517
441	0.0011857281170585892	2833
243	0.001185138294273794	1104
843	0.0011849539746535455	6406
407	0.0011825946835143646	2715
405	0.0011810095347802277	2713
998	0.0011807514873118797	7601
183	0.0011780604208562516	504
196	0.001175443082248723	703
219	0.0011753693544006235	812
214	0.0011735261581981387	807
328	0.0011709825474387093	2207
557	0.0011661165094641488	3808
1224	0.0011650843195907573	8904
1215	0.001164015265793316	8716
176	0.0011636834904768687	406
512	0.0011589649081985072	3210
789	0.0011589649081985072	6002
891	0.0011568636645276744	7006
982	0.0011563844335150282	7408
835	0.0011558683385783325	6308
863	0.0011551679240213882	6807
609	0.0011528823607303068	4011
765	0.0011528823607303068	5705
363	0.001151997626553114	2521
875	0.001150154430350629	6904
1223	0.0011494908797177344	8903
364	0.0011483849619962434	2522
840	0.0011442930664267268	6403
750	0.0011437401075659812	5515
708	0.0011431502847811862	5203
717	0.0011359249556674449	5212
966	0.0011357037721231467	7317
436	0.00113286524997132	2828
220	0.0011328283860472701	813
597	0.0011293263132625487	3925
1095	0.001129031401870151	8431
918	0.0011268932942752686	7114
347	0.0011236861328829447	2505
173	0.0011232437657943482	403
1016	0.0011225064873133543	7806
1003	0.0011214005695918633	7606
1322	0.0011190412784526824	9705
1062	0.0011187463670602848	8309
695	0.0011181565442754896	5103
1135	0.0011171612183261477	8474
320	0.001116755715161601	2105
212	0.001116645123389452	805
322	0.0011163870759211042	2201
185	0.0011155023417439114	506
673	0.0011155023417439114	4823
827	0.0011151337025034143	6217
149	0.001114801927186967	102
289	0.0011146176075667185	1602
292	0.0011141383765540724	1605
288	0.0011117053575667923	1601
970	0.0011115579018705934	7321
930	0.001109788433516208	7209
831	0.0011081295569339714	6304
1288	0.0011077609176934743	9401
981	0.001107318550604878	7407
978	0.0011038164778201566	7403
194	0.0011023419208581685	701
324	0.001098987303769646	2203
327	0.001095042863896328	2206
1201	0.001091614518959706	8702
1188	0.0010910246961749108	8546
523	0.0010895132752888731	3307
563	0.0010870433923775432	3814
546	0.0010861955221244	3704
760	0.0010859374746560522	5609
1286	0.0010843523259219151	9306
554	0.001084131142377617	3805
1291	0.0010820667626308337	9404
511	0.0010797811993397523	3209
256	0.0010795600157954542	1208
611	0.0010786015537701619	4013
1222	0.0010781960506056152	8902
1012	0.0010769426771879255	7615
628	0.001075541848074037	4205
403	0.0010719291835171664	2711
1057	0.0010696804841501346	8304
350	0.0010690169335172402	2508
199	0.0010684639746564946	706
1011	0.0010652199493401211	7614
685	0.0010618284683275487	4911
1219	0.0010615704208592007	8804
744	0.00105552473731505	5509
729	0.0010544556835176088	5402
1149	0.0010515065695936327	8503
644	0.0010511379303531358	4411
1004	0.0010508430189607382	7607
339	0.0010491104145304022	2309
643	0.0010478201771886627	4410
574	0.0010474515379481659	3901
379	0.0010464193480747741	2608
602	0.0010461244366823765	4004
1014	0.0010450185189608855	7801
521	0.0010439126012393946	3305
876	0.0010434702341507983	6905
728	0.0010412583987078163	5401
303	0.0010411109430116174	1902
575	0.001041037215163518	3902
770	0.0010395626582015301	5805
929	0.0010384567404800391	7208
862	0.0010370559113661506	6806
833	0.0010354338987079636	6306
443	0.0010339593417459758	2835
308	0.0010325953765561368	2002
236	0.001025959870227191	1005
210	0.0010252594556702467	803
747	0.0010238217626323083	5512
191	0.0010234531233918112	602
208	0.00102116756010073	801
230	0.0010210569683285807	909
903	0.0010189557246577479	7019
528	0.0010126151297211996	3405
446	0.0010120990347845039	2839
459	0.0010111405727592116	2904
265	0.0010104032942782177	1401
948	0.0010100715189617704	7228
716	0.0010095554240250745	5211
897	0.0010091867847845776	7013
596	0.0010086706898478816	3924
516	0.0010085600980757326	3214
358	0.0010067537657972973	2516
294	0.0010059058955441543	1702
1179	0.0010053898006074586	8537
868	0.00100520548098721	6812
1227	0.001005094889215061	8907
762	0.0010050211613669615	5702
415	0.0010045787942783652	2807
444	0.0010026987341518305	2836
351	0.001002477550607532	2509
209	0.00100151908858224	802
828	0.0010013347689619915	6301
422	0.001000155123392401	2814
216	0.0009991229335190096	809
858	0.0009983119271899162	6802
634	0.0009962106835190833	4401
631	0.0009942200316203995	4302
371	0.0009914183733926224	2530
1156	0.0009868472468104596	8511
1141	0.000984229908202931	8480
1013	0.0009836400854181357	7616
525	0.0009801748765574639	3402
161	0.0009779999050385315	208
1056	0.0009768939873170406	8303
1203	0.0009767096676967923	8704
423	0.0009765622120005933	2815
1321	0.000975124518962655	9704
360	0.0009750507911145557	2518
917	0.0009737605537728162	7113
1204	0.0009732444588361204	8705
864	0.0009715118544057845	6808
1300	0.0009692631550387528	9601
285	0.0009679729176970133	1520
849	0.0009677885980767649	6507
715	0.0009676042784565164	5210
865	0.0009666826803552738	6809
1235	0.0009655030347856835	9007
879	0.0009637335664312978	6908
310	0.0009626645126338566	2004
329	0.0009619640980769123	2208
257	0.0009608950442794711	1209
404	0.0009579827942795447	2712
1281	0.0009544807214948233	9301
947	0.000953043028456885	7227
956	0.0009505362816215054	7307
869	0.0009478083512418277	6813
1172	0.000947771487317778	8530
1313	0.0009468498892165354	9614
614	0.0009464812499760385	4016
680	0.0009452278765583487	4906
1147	0.000944822373393802	8501
551	0.0009444905980773547	3802
753	0.000944195686684957	5602
771	0.0009437533195963606	5806
537	0.0009426474018748697	3601
1078	0.0009425368101027206	8414
774	0.0009421681708622236	5809
971	0.0009412465727609811	7322
1068	0.0009408042056723847	8404
973	0.0009406198860521362	7324
411	0.0009394033765584961	2803
906	0.0009387766898496513	7102
1216	0.0009387398259256015	8801
1017	0.0009387029620015518	7901
1225	0.000938186867064856	8905
882	0.0009380025474446075	6911
520	0.0009374864525079117	3304
513	0.0009360118955459237	3211
1152	0.0009359381676978244	8506
790	0.0009357907120016256	6003
1298	0.0009357169841535261	9507
246	0.0009354589366851782	1107
1039	0.0009354589366851782	8201
247	0.0009351640252927806	1108
1228	0.000934500474659886	8908
681	0.0009333945569383951	4907
337	0.0009323623670650034	2307
577	0.0009300399398498724	3904
743	0.0009281967436473874	5508
213	0.0009280124240271389	806
388	0.0009269065063056479	2617
378	0.0009218192847867894	2607
374	0.0009216349651665409	2603
721	0.0009207870949133978	5305
215	0.000920381591748851	808
607	0.0009158104651666883	4009
286	0.0009147782752932967	1521
606	0.0009093224145339412	4008
280	0.000909101230989643	1514
779	0.0009088063195972454	5903
699	0.0009086588639010466	5107
676	0.0009068156676985616	4902
432	0.0009060046613694683	2824
975	0.000905046199344176	7326
1303	0.0009041614651669833	9604
1289	0.0009041246012429336	9402
697	0.0009033504588378899	5105
674	0.0009032030031416911	4824
1005	0.0009029818195973928	7608
1101	0.000902723772129045	8437
234	0.0009013229430151564	1003
921	0.0009010280316227588	7118
419	0.0009006225284582121	2811
963	0.000900143297445566	7314
734	0.0008999221139012678	5407
964	0.0008983369651671307	7315
608	0.0008980789176987828	4010
372	0.0008957196265596021	2601
1211	0.000894982348078608	8712
763	0.0008943925252938128	5703
254	0.00089350779111662	1206
652	0.0008934340632685207	4419
927	0.0008924387373191788	7206
152	0.0008917383227622345	105
387	0.000890816724660992	2616
748	0.000890816724660992	5513
1142	0.0008870934683319723	8481
1092	0.0008810109208637718	8428
1178	0.0008787990854207899	8536
535	0.0008766241139018576	3506
788	0.0008753338765601182	6001
666	0.000874744053775323	4706
645	0.0008746703259272235	4412
1200	0.0008736749999778816	8701
604	0.000873638136053832	4006
1076	0.0008728639936487882	8412
565	0.0008722004430158937	3816
496	0.0008713525727627506	2942
990	0.0008712419809906015	7419
1074	0.0008680716835223273	8410
1063	0.0008677030442818303	8310
893	0.0008657492563071962	7008
741	0.000865528072762898	5506
669	0.0008650857056743016	4802
1299	0.0008643115632692579	9508
773	0.0008642746993452082	5808
1208	0.0008636480126363634	8709
148	0.0008635742847882639	101
786	0.0008633531012439658	5910
933	0.0008628738702313196	7212
787	0.0008628001423832203	5911
505	0.000862578958838922	3203
434	0.0008618785442819777	2826
624	0.0008617679525098287	4115
989	0.0008617679525098287	7418
1002	0.0008615836328895801	7605
711	0.0008613993132693317	5206
454	0.000858781974661803	2849
806	0.0008577497847884114	6113
390	0.0008573442816238648	2619
1302	0.000856570139218821	9603
151	0.0008558697246618767	104
221	0.0008554273575732803	814
623	0.0008553904936492306	4114
1277	0.0008553167658011312	9206
872	0.0008542108480796403	6901
928	0.0008539528006112924	7207
529	0.0008538053449150936	3406
675	0.0008538053449150936	4901
406	0.0008504875917506205	2714
841	0.0008500452246620241	6404
1244	0.0008496028575734278	9018
331	0.0008482757563076386	2301
1146	0.0008459533290925075	8487
1043	0.0008426724398520843	8205
1241	0.0008413822025103448	9015
237	0.000841234746814146	1006
1046	0.0008408292436495993	8208
1306	0.0008399445094724064	9607
1040	0.0008389491835230646	8202
1174	0.0008385436803585179	8532
1081	0.0008383224968142197	8417
497	0.0008380644493458718	3006
1021	0.0008374008987129772	7907
469	0.0008364055727636353	2914
860	0.0008362212531433868	6804
1198	0.0008353733828902437	8608
1177	0.0008343043290928024	8535
1055	0.0008341937373206533	8302
1226	0.0008341568733966036	8906
954	0.0008339725537763552	7305
672	0.0008337145063080072	4811
778	0.0008332721392194109	5902
1197	0.0008331246835232121	8607
792	0.0008329034999789138	6005
953	0.0008328666360548641	7304
1083	0.000832276813270069	8419
232	0.0008310234398523792	1001
1064	0.0008308391202321307	8311
754	0.0008302861613713852	5603
612	0.0008302492974473355	4014
951	0.0008300649778270869	7302
738	0.0008297700664346893	5503
533	0.0008297332025106397	3503
926	0.0008296594746625402	7205
1119	0.0008287747404853475	8455
704	0.0008286272847891487	5112
391	0.0008284798290929499	2620
900	0.0008284429651689002	7016
550	0.000827853142384105	3801
857	0.0008274476392195583	6801
154	0.0008273001835233595	201
961	0.0008271527278271607	7312
1221	0.0008269315442828625	8901
725	0.0008266734968145146	5309
620	0.0008266366328904649	4104
539	0.000826378585422117	3603
772	0.0008247197088398805	5807
159	0.0008243142056753338	206
735	0.0008243142056753338	5408
270	0.0008240561582069859	1504
312	0.0008235031993462404	2006
1140	0.0008233557436500416	8479
1018	0.0008229502404854949	7903
569	0.0008225078733968985	3820
1283	0.0008223604177006997	9303
698	0.0008220286423842525	5106
701	0.0008213650917513578	5109
1098	0.0008208858607387118	8434
952	0.0008202960379539166	7303
229	0.0008189689366881273	908
769	0.0008184528417514316	5804
767	0.0008138079873211694	5802
659	0.0008132181645363742	4601
1259	0.000810305914536448	9033
830	0.0008098635474478516	6303
1207	0.0008072462088403229	8708
576	0.0008065089303593289	3903
1106	0.000806250882890981	8442
277	0.0008052555569416391	1511
603	0.00080514496516949	4005
693	0.000802564490486011	5101
1093	0.0008003157911189794	8429
1175	0.0007995416487139356	8533
457	0.0007994679208658363	2902
664	0.000799246737321538	4704
1089	0.0007992098733974884	8425
910	0.0007986569145367429	7106
582	0.0007984357309924446	3909
684	0.0007970349018785561	4910
1025	0.0007959658480811148	8007
1097	0.0007954128892203693	8433
892	0.0007937908765621825	7007
456	0.0007926480949166418	2901
1060	0.0007923531835242442	8307
722	0.0007922794556761448	5306
983	0.0007915790411192005	7409
671	0.0007907680347901072	4810
321	0.0007904362594736598	2106
1066	0.0007904362594736598	8402
702	0.0007903625316255605	5110
873	0.0007902150759293617	6902
195	0.000789551525296467	702
615	0.0007894040696002682	4017
638	0.0007881506961825784	4405
305	0.00078796637656233	1904
261	0.0007876346012458827	1213
679	0.0007874502816256341	4905
1309	0.0007871553702332365	9610
412	0.000786602411372491	2804
1136	0.0007860494525117456	8475
593	0.0007859757246636462	3920
1301	0.0007856439493471989	9602
757	0.0007848698069421552	5606
601	0.0007845011677016582	4003
1117	0.0007843905759295091	8453
1094	0.000783542705676366	8430
987	0.0007832109303599187	7413
1196	0.0007831003385877696	8606
834	0.0007828791550434714	6307
694	0.0007826211075751236	5102
519	0.0007824736518789248	3303
301	0.0007818101012460301	1805
809	0.0007809253670688374	6116
273	0.0007796351297270979	1507
197	0.0007794876740308991	704
745	0.0007790084430182529	5510
393	0.0007784186202334577	2701
660	0.0007769809271955195	4602
455	0.0007758750094740285	2852
493	0.00077569068985378	2939
471	0.0007735157183348477	2916
297	0.0007729996233981519	1801
599	0.0007719674335247603	4001
1202	0.0007692763670691322	8703
1169	0.0007677649461830945	8526
1115	0.0007668802120059017	8451
1143	0.0007659586139046593	8482
1008	0.0007650370158034168	7611
1129	0.0007640785537781246	8468
969	0.0007638942341578761	7320
861	0.0007637467784616773	6805
1000	0.0007637467784616773	7603
507	0.0007628620442844845	3205
730	0.0007628620442844845	5403
290	0.0007622353575756396	1603
1116	0.0007620141740313414	8452
506	0.0007615349430186953	3204
568	0.0007609451202339002	3819
1192	0.0007609451202339002	8602
919	0.000760834528461751	7115
1148	0.0007607239366896019	8502
980	0.0007602078417529061	7406
1085	0.0007601709778288564	8421
1100	0.0007600972499807571	8436
495	0.0007596180189681109	2941
453	0.0007595442911200116	2847
781	0.0007590281961833157	5905
1090	0.0007590281961833157	8426
368	0.000757406183525129	2526
542	0.0007572955917529799	3606
625	0.0007564845854238864	4201
883	0.0007560790822593397	6912
1118	0.0007557473069428925	8454
1150	0.0007557473069428925	8504
267	0.0007549731645378488	1501
1054	0.0007547888449176002	8301
977	0.000754457069601153	7402
398	0.0007544202056771033	2706
184	0.0007542358860568548	505
885	0.0007536829271961093	6914
1171	0.0007534986075758608	8529
425	0.0007531668322594135	2817
426	0.0007531299683353638	2818
904	0.000753093104411314	7020
356	0.0007529456487151154	2514
600	0.0007518397309936243	4002
588	0.0007517291392214752	3915
746	0.000750770677196183	5511
965	0.0007507338132721333	7316
1067	0.0007503283101075866	8403
839	0.000749554167702543	6402
400	0.0007490012088417975	2708
155	0.0007487062974493999	202
500	0.0007485588417532011	3103
932	0.000748190202512704	7211
823	0.0007479690189684059	6213
844	0.0007431029809938454	6501
253	0.000742181382892603	1205
382	0.0007412597847913606	2611
761	0.0007394534525129252	5701
1061	0.0007352878290953092	8308
1122	0.0007352878290953092	8459
949	0.0007334077689687744	7229
1311	0.0007320069398548859	9612
1050	0.0007318594841586871	8212
478	0.0007309010221333949	2923
1080	0.000729905696184053	8416
192	0.0007297951044119039	603
848	0.000728799778462562	6506
1233	0.000728320547449916	9005
1032	0.0007278781803613196	8107
756	0.0007264036233993315	5605
1162	0.000726219303779083	8517
1157	0.0007258138006145363	8512
1187	0.0007253714335259399	8545
284	0.0007253345696018903	1518
736	0.0007253345696018903	5501
1037	0.0007248553385892442	8112
1070	0.0007248553385892442	8406
433	0.0007245972911208963	2825
558	0.0007240443322601508	3809
1045	0.0007233070537791568	8207
782	0.0007232333259310574	5906
435	0.0007231964620070077	2827
1180	0.0007231227341589082	8538
768	0.0007224960474500634	5803
913	0.0007223485917538646	7109
884	0.0007223117278298149	6913
1213	0.0007218693607412185	8714
1160	0.0007217587689690694	8515
633	0.0007210583544121251	4304
174	0.0007208003069437772	404
1138	0.0007206159873235287	8477
504	0.0007202842120070815	3202
1114	0.0007202473480830317	8450
1102	0.0007189571107412922	8438
985	0.0007183304240324474	7411
472	0.0007182198322602982	2917
1006	0.0007181092404881491	7609
824	0.0007173350980831055	6214
1308	0.000716524091754012	9609
156	0.0007162291803616144	203
689	0.0007155287658046701	5004
344	0.0007147546233996265	2502
555	0.0007147546233996265	3806
1287	0.0007136855696021852	9307
777	0.0007134275221338372	5901
1161	0.0007133537942857379	8516
667	0.0007117686455516008	4707
627	0.0007111788227668056	4203
889	0.0007099991771972152	7004
1139	0.0007088195316276248	8478
299	0.0007058704177036488	1803
810	0.0007045433164378597	6117
826	0.0007044327246657105	6216
724	0.0007042852689695117	5308
380	0.0007042484050454621	2609
1285	0.0006961383417545281	9305
1252	0.0006934841392229498	9026
939	0.0006932260917546019	7219
1151	0.0006918252626407133	8505
785	0.000691493487324266	5909
1182	0.0006914197594761666	8540
514	0.0006912723037799678	3212
1026	0.0006908299366913714	8101
1127	0.0006905718892230235	8465
580	0.0006902032499825265	3907
475	0.0006890236044129361	2920
1212	0.0006890236044129361	8713
1189	0.0006888024208686379	8547
578	0.0006885812373243397	3905
559	0.0006883231898559918	3810
481	0.0006882863259319421	2926
940	0.0006882125980838428	7220
1145	0.0006875859113749978	8486
483	0.0006869960885902026	2928
1167	0.0006864431297294571	8523
920	0.0006862956740332583	7117
731	0.0006861850822611092	5404
775	0.0006861850822611092	5810
696	0.0006858901708687116	5104
591	0.0006857795790965626	3918
571	0.0006849317088434195	3823
448	0.0006843418860586242	2841
508	0.0006840838385902764	3206
986	0.0006840838385902764	7412
1155	0.0006839363828940776	8509
1265	0.0006835308797295309	9106
470	0.0006834571518814314	2915
1153	0.0006832359683371333	8507
416	0.0006829041930206859	2808
180	0.0006826461455523381	410
1255	0.0006826092816282883	9029
1292	0.0006823512341599404	9405
200	0.0006823143702358908	707
162	0.0006822406423877914	209
178	0.0006815033639067974	408
464	0.0006810978607422507	2909
629	0.0006799919430207597	4206
431	0.0006798813512486106	2823
944	0.0006798444873245609	7224
163	0.0006798076234005112	210
751	0.0006796601677043124	5516
1088	0.0006792915284638154	8424
227	0.0006791809366916663	906
300	0.000678111882894225	1804
566	0.0006779275632739766	3817
1320	0.0006774851961853801	9703
647	0.0006770428290967837	4414
663	0.0006752733607423982	4703
304	0.0006752364968183485	1903
733	0.0006752364968183485	5406
905	0.0006715501044133785	7101
238	0.0006692276771982475	1007
325	0.0006691170854260983	2204
157	0.0006682692151729552	204
354	0.0006680848955527067	2512
279	0.0006671264335274145	1513
1107	0.0006660205158059235	8443
526	0.0006649145980844325	3403
1183	0.0006637349525148422	8541
381	0.0006625921708693015	2610
1159	0.0006620023480845063	8514
943	0.0006604540632744189	7223
1249	0.0006599748322617728	9023
896	0.0006589426423883812	7011
271	0.0006585002752997848	1505
561	0.0006581684999833375	3812
572	0.0006581316360592878	3824
486	0.0006563621677049022	2932
1038	0.0006561409841606041	8113
532	0.0006558829366922561	3502
1099	0.0006556248892239082	8435
409	0.0006553299778315106	2801
1125	0.000655293113907461	8462
1137	0.0006552562499834113	8476
458	0.0006551456582112622	2903
581	0.0006542240601100196	3908
1133	0.0006541134683378706	8472
988	0.0006538554208695227	7415
1079	0.0006536711012492741	8415
942	0.0006535973734011748	7222
564	0.0006532655980847275	3815
586	0.0006531918702366281	3913
466	0.0006531550063125784	2911
908	0.0006530444145404293	7104
517	0.000652823230996131	3215
536	0.0006523808639075346	3507
1284	0.0006519384968189382	9304
460	0.0006507957151733976	2905
630	0.0006504270759329006	4301
473	0.0006503902120088508	2918
1015	0.0006503164841607515	7804
1280	0.0006503164841607515	9209
1307	0.0006499847088443042	9608
389	0.0006497266613759563	2618
945	0.0006495054778316581	7225
534	0.0006494686139076084	3505
552	0.0006494317499835587	3803
683	0.0006490631107430617	4909
1206	0.0006483995601101671	8707
950	0.0006477360094772725	7301
1023	0.000647183050616527	8002
1245	0.0006466300917557815	9019
1073	0.0006460402689709863	8409
1236	0.0006459296771988372	9008
871	0.0006451555347937936	6815
1217	0.0006446025759330481	8802
338	0.0006440864809963522	2308
1024	0.0006435335221356067	8003
1041	0.0006432386107432091	8203
258	0.0006430911550470103	1210
888	0.0006428699715027122	7003
972	0.0006423538765660164	7323
531	0.0006421695569457679	3501
150	0.0006418746455533703	103
394	0.0006414691423888236	2702
776	0.0006409161835280781	5811
345	0.000640805591755929	2503
784	0.0006406581360597302	5908
440	0.000640547544287581	2832
825	0.0006396996740344379	6215
703	0.0006389255316293943	5111
413	0.0006387412120091458	2805
158	0.0006377827499838536	205
355	0.0006376721582117045	2513
688	0.0006376721582117045	5003
160	0.0006369348797307105	207
686	0.0006360132816294681	5001
1058	0.0006354971866927722	8305
878	0.0006350916835282255	6907
370	0.0006328798480852436	2529
852	0.0006301519177055657	6603
477	0.0006272396677056395	2922
1181	0.000620677889224793	8539
467	0.0006205672974526438	2912
1185	0.0006205304335285942	8543
479	0.0006198668828956995	2924
967	0.0006187609651742086	7318
1258	0.0006183554620096619	9032
1251	0.0006178025031489164	9025
462	0.0006176550474527176	2907
527	0.0006173232721362702	3404
1247	0.0006170652246679224	9021
1091	0.0006162910822628787	8427
1033	0.0006158118512502326	8108
1103	0.0006157381234021332	8439
941	0.0006152957563135368	7221
1194	0.0006139686550477476	8604
890	0.0006132682404908033	7005
1190	0.0006126415537819585	8548
1069	0.0006112775885921195	8405
408	0.0006110564050478214	2716
1010	0.0006105771740351752	7613
1173	0.0006105034461870759	8531
946	0.0006103928544149268	7226
421	0.0006099504873263304	2813
1124	0.0006099504873263304	8461
1126	0.0006096555759339328	8463
573	0.000609139480997237	3825
494	0.000608881433528889	2940
1072	0.000608402202516243	8408
791	0.0006078861075795472	6004
1209	0.0006072225569466526	8710
1048	0.0006068170537821059	8210
1315	0.0006063378227694599	9616
427	0.0006056005442884658	2819
909	0.0006051581771998694	7105
198	0.0006045683544150742	705
417	0.000603978531630279	2809
333	0.0006038679398581299	2303
353	0.000603609892389782	2511
385	0.0006035361645416826	2614
589	0.0006034255727695335	3916
1305	0.0006029463417568875	9606
1059	0.0006015455126429989	8306
632	0.0006012874651746509	4303
274	0.0005999972278329115	1508
252	0.0005993705411240666	1204
228	0.0005992968132759672	907
1030	0.0005974536170734822	8105
361	0.0005953155094785996	2519
996	0.0005945413670735559	7507
326	0.0005942464556811583	2205
377	0.0005897121930230453	2606
461	0.0005880901803648585	2906
515	0.0005860995284661747	3213
887	0.0005850673385927831	7002
553	0.0005843669240358388	3804
1256	0.0005841457404915406	9030
386	0.0005839245569472424	2615
1028	0.0005837771012510436	8103
480	0.0005837402373269939	2925
1077	0.0005835190537826958	8413
1176	0.0005824131360612048	8534
1250	0.0005816758575802108	9024
485	0.0005804962120106203	2930
585	0.000580422484162521	3912
1087	0.0005803856202384713	8423
1144	0.0005800538449220239	8483
899	0.0005797589335296263	7015
1271	0.000579685205681527	9112
570	0.0005795746139093779	3821
1170	0.0005784686961878869	8527
1210	0.0005780263290992905	8711
1131	0.0005779894651752408	8470
1205	0.0005772521866942468	8706
691	0.0005770678670739983	5006
901	0.0005761462689727558	7017
491	0.000575998813276557	2937
783	0.000575998813276557	5907
367	0.0005750772151753145	2525
874	0.0005748191677069667	6903
764	0.0005745611202386187	5704
450	0.0005744873923905193	2844
780	0.0005744873923905193	5904
682	0.000573786977833575	4908
1022	0.0005732340189728295	8001
1163	0.0005719806455551398	8518
727	0.0005713908227703445	5311
1042	0.000571206503150096	8204
410	0.0005710590474538972	2802
492	0.0005706166803653008	2938
1317	0.0005705429525172015	9618
719	0.0005701374493526548	5302
1246	0.0005699162658083565	9020
626	0.0005695844904919093	4202
272	0.0005695107626438098	1506
268	0.0005694001708716608	1502
275	0.0005689209398590146	1509
509	0.0005687366202387662	3207
621	0.0005680730696058715	4105
1071	0.0005667459683400824	8407
793	0.0005658980980869393	6006
846	0.0005646815885932992	6504
395	0.000563723126568007	2703
992	0.00056335448732751	7502
976	0.0005617693385933729	7401
396	0.0005591519999858443	2704
298	0.000558930816441546	1802
1112	0.0005529957246695445	8448
1257	0.0005515211677075564	9031
1253	0.000548129686694984	9027
397	0.000548019094922835	2705
592	0.000547650455682338	3919
562	0.0005455492120115051	3813
489	0.0005449225253026602	2935
518	0.000544701341758362	3302
490	0.0005441852468216662	2936
420	0.0005435216961887716	2812
1297	0.0005426000980875292	9506
424	0.0005423789145432309	2816
997	0.0005421945949229824	7508
880	0.0005416416360622369	6909
1132	0.0005416047721381873	8471
1105	0.0005414573164419885	8441
1248	0.0005413098607457897	9022
1121	0.0005412729968217399	8458
567	0.0005411992689736405	3818
465	0.0005411255411255411	2910
1184	0.0005400196234040502	8542
1229	0.0005396509841635531	9001
476	0.0005393929366952052	2921
766	0.0005393192088471059	5801
1263	0.0005392823449230561	9104
1276	0.0005392086170749568	9205
1075	0.0005386556582142113	8411
1084	0.0005386187942901616	8420
938	0.0005381395632775154	7218
870	0.0005378446518851178	6814
1266	0.0005374391487205711	9107
911	0.0005373654208724718	7107
474	0.0005372916930243723	2919
330	0.0005369967816319747	2209
1020	0.0005365544145433783	7905
1164	0.0005361857753028814	8519
1242	0.000535853999986434	9016
366	0.0005355959525180861	2524
1052	0.0005353379050497383	8214
1191	0.0005348955379611419	8601
1193	0.0005348586740370922	8603
984	0.000534748082264943	7410
894	0.0005344900347965952	7009
1111	0.0005343794430244461	8447
1165	0.0005340476677079988	8521
677	0.000533162933530806	4903
855	0.0005325362468219611	6703
847	0.0005319464240371659	6505
1130	0.0005308036423916252	8469
1275	0.0005304350031511282	9202
598	0.0005297714525182337	3926
309	0.0005297345885941839	2003
856	0.0005294765411258361	6704
346	0.0005289973101131899	2504
233	0.0005261956518854128	1002
1279	0.0005229516265690392	9208
235	0.0005227673069487906	1004
503	0.0005154313860629005	3201
484	0.0005107496677085886	2929
482	0.0005081691930251096	2927
1104	0.0005080586012529605	8440
244	0.0005073213227719665	1105
1234	0.0005070632753036186	9006
1238	0.0005065471803669229	9011
1243	0.000506289132898575	9017
438	0.0005061785411264258	2830
584	0.0005061416772023762	3911
437	0.000506031085430227	2829
1154	0.0005055887183416307	8508
1128	0.0005051832151770839	8467
915	0.0005051463512530343	7111
463	0.000504814575936587	2908
583	0.0005047777120125372	3910
1113	0.0005047039841644379	8449
579	0.0005040772974555929	3906
1270	0.0005040772974555929	9111
1049	0.0005032294272024499	8211
1134	0.0005031188354303008	8473
488	0.000502602740493605	2934
1166	0.0005024921487214559	8522
1237	0.0005016442784683128	9010
1027	0.0005005014968227721	8102
662	0.0005004646328987224	4702
995	0.0005000959936582255	7506
428	0.0004997642183417781	2820
384	0.0004993218512531817	2613
1240	0.0004993218512531817	9014
739	0.0004988426202405357	5504
1294	0.0004984371170759889	9503
1218	0.0004982896613797901	8803
1029	0.0004981422056835914	8104
349	0.000497699838594995	2507
993	0.0004975892468228458	7504
1086	0.0004975523828987962	8422
1214	0.0004974786550506967	8715
429	0.000497441791126647	2821
877	0.0004973311993544979	6906
1019	0.000496335873405156	7904
548	0.0004959672341646591	3706
501	0.0004959303702406093	3104
262	0.0004958935063165596	1214
1272	0.00049585664239251	9113
1123	0.0004948244525191184	8460
979	0.0004944558132786214	7405
449	0.0004929812563166334	2843
226	0.0004923914335318382	905
276	0.0004919122025191921	1510
845	0.0004916541550508442	6502
718	0.0004909168765698502	5301
1282	0.0004902164620129059	9302
352	0.0004899215506205083	2510
649	0.0004894054556838126	4416
700	0.00048730421201297964	5108
373	0.00048723048416488023	2602
726	0.00048682498100033355	5310
687	0.000480631841759984	5002
487	0.0004781988227727038	2933
968	0.000474254382899386	7319
1231	0.0004741806550512866	9003
439	0.00047362769619054105	2831
1268	0.00047285355378549735	9109
530	0.000468724794291931	3407
1230	0.0004678769240387879	9002
1318	0.0004678769240387879	9701
898	0.0004678031961906885	7014
678	0.0004675082847982909	4904
737	0.0004670290537856448	5502
556	0.0004662549113806011	3807
1168	0.0004661074556844023	8525
1044	0.00046540704112745803	8206
543	0.0004650384018869611	3701
994	0.00046422739555786766	7505
451	0.00046415366770976825	2845
705	0.00046367443669712217	5113
560	0.0004631214778363767	3811
851	0.0004611308259376929	6602
445	0.00046068845884909647	2837
605	0.0004600986360643013	4007
1274	0.00045902958226686	9201
1260	0.0004587346708744624	9101
1323	0.0004583660316339654	970
190	0.00045744443353272295	601
902	0.00045744443353272295	7018
1220	0.000456817746823878	8805
1312	0.00045431099998849845	9613
1296	0.00045261525948221226	9505
850	0.0004514356139126219	6601
249	0.0004495555537860872	1201
622	0.00044900259492534173	4106
547	0.0004360633575838971	3705
1278	0.0004335197468244679	9207
1108	0.00043340915505231875	8444
1047	0.00043193459809033076	8209
1273	0.0004309761360650386	9114
742	0.0004295384430271003	5507
452	0.00042909607593850387	2846
1316	0.0004275477911284165	9617
269	0.00042662619302717404	1503
587	0.00042625755378667703	3914
334	0.00042588891454618	2304
1036	0.00042507790821708666	8111
1261	0.0004248198607487387	9102
1065	0.00042441435758419204	8401
1269	0.00042426690188799324	9110
1120	0.00042371394302724775	8457
690	0.00042308725631840286	5005
1110	0.00042308725631840286	8446
1304	0.00042253429745765737	9605
447	0.00042139151581211667	2840
1053	0.00042131778796401727	8215
1314	0.000420617373407073	9615
924	0.0004192165442931844	7203
732	0.00041910595252103527	5405
922	0.0004190322246729359	7201
181	0.0004182949461919419	501
657	0.0004182212183438425	4503
442	0.0004180737626476437	2834
224	0.00041678352530590424	903
670	0.0004164517499894569	4807
720	0.00041353949998953067	5303
369	0.00041350263606548094	2528
468	0.00040262777847081956	2913
545	0.0003990888417620484	3703
248	0.00039672955062286763	1109
1319	0.00039496008226848204	9702
914	0.00039440712340773655	7110
1195	0.0003933749335343449	8605
1109	0.00039212156011665515	8445
549	0.00039201096834450607	3707
1295	0.00038998345252177255	9504
991	0.00038928303796482825	7501
544	0.00038880380695218217	3702
613	0.00038865635125598337	4015
1262	0.000387108066445896	9103
430	0.0003864813797370511	2822
1051	0.0003861127404965541	8213
665	0.00038603901264845473	4705
692	0.0003855966455598583	5007
182	0.00038511741454721224	502
654	0.00038334794619282665	4421
375	0.00038312676264852844	2604
1158	0.00038294244302827996	8513
251	0.00038213143669918654	1203
859	0.00038161534176249073	6803
418	0.00038120983859794405	2810
661	0.0003776340379651232	4701
723	0.0003775234461929741	5307
335	0.0003764543923955328	2305
376	0.000376306936699334	2605
1267	0.0003568427848010926	9108
1031	0.00035381994302901724	8106
1310	0.0003531563923961226	9611
658	0.00034924881644685443	4504
540	0.0003461891107507294	3604
1232	0.00031784075315651036	9004
1239	0.00031761956961221216	9013
1264	0.0003143018164477392	9105
656	0.0003097306898655764	4502
1034	0.00028149292404350653	8109
854	0.0002799077753093694	6702
1035	0.0002790599050562263	8110
655	0.0002739358196133181	4501
853	0.000271982031638684	6701
383	0.0002703231550564475	2612
