50	0.024103151906401183	Germany
30	0.023518542655391057	China
67	0.02311794156207592	Italy
141	0.022958851175735456	USA
46	0.02145611788789303	France
61	0.019897798802413574	India
13	0.01914164027938572	Belgium
123	0.018904921451517682	Spain
139	0.01858386555137278	UnitedKingdom
94	0.018218724363446778	Netherlands
8	0.017742411580246725	Austria
69	0.017247889656441435	Japan
36	0.016612486486900918	CzechRepublic
127	0.01638247628978218	Switzerland
107	0.014972705456608577	Poland
131	0.012904530434182581	Thailand
108	0.012734897913807513	Portugal
134	0.01256622376925377	Turkey
66	0.012444510039945103	Israel
119	0.012292128284353939	Slovenia
126	0.012124412515621526	Sweden
62	0.011931778975534582	Indonesia
19	0.011714227664093108	Brazil
38	0.011684518013631937	Denmark
122	0.011612639827032332	SouthKorea
21	0.011308834691671332	Bulgaria
26	0.011078824494552593	Canada
52	0.011051031595734078	Greece
121	0.010854564552361822	SouthAfrica
45	0.0100619877481235	Finland
43	0.009996818192273191	Estonia
77	0.009939315642993506	Lebanon
115	0.0096728871646643	Serbia
118	0.009670970413021644	Slovakia
137	0.00954829830789165	Ukraine
110	0.009509963275038526	Romania
144	0.009404541934692439	Vietnam
88	0.009273244447170492	Mexico
34	0.00918411549578698	Croatia
59	0.008761471758581297	Hungary
95	0.008626340767774038	NewZealand
7	0.008573630097600994	Australia
117	0.008526669682355917	Singapore
84	0.008381954933335378	Malaysia
76	0.008336911269732959	Latvia
133	0.008249699069992103	Tunisia
72	0.008199863527283044	Kenya
35	0.008178779259213825	Cyprus
80	0.008050356899155862	Lithuania
40	0.007990937598233522	Egypt
103	0.007885516257887432	Panama
140	0.007690007590336505	Uruguay
102	0.007527083700710731	Pakistan
106	0.007339242039730428	Philippines
93	0.007232862323563011	Nepal
111	0.007213694807136449	Russia
12	0.007032561776905442	Belarus
116	0.006791051069930767	SierraLeone
1	0.006607042912235776	Albania
91	0.006600334281486479	Morocco
18	0.006574458134310621	BosniaHerzegovina
105	0.006561040872812028	Peru
54	0.006527497719065545	Guatemala
81	0.006413450996327504	Macedonia
70	0.006257235737451027	Jordan
100	0.006224650959525872	Norway
31	0.005795298591570893	Colombia
29	0.00568700212376082	Chile
74	0.005636208205230432	Kyrgyzstan
114	0.005599789924019965	Senegal
138	0.0055269533615990305	UnitedArabEmirates
41	0.0054867015771032515	ElSalvador
65	0.005469450812319346	Ireland
130	0.005449324920071457	Tanzania
82	0.005301735043586932	Madagascar
132	0.005147436536353111	Togo
147	0.00497876239179937	Zimbabwe
63	0.004788045603355082	Iran
142	0.004373068872720024	Uzbekistan
33	0.004352942980472134	CostaRica
71	0.004335692215688229	Kazakhstan
17	0.0042820231696938564	Bolivia
49	0.004265730780731279	Georgia
58	0.004228354123699484	Honduras
86	0.00420535310398761	Malta
6	0.004082680998857616	Armenia
0	0.004036678959433868	Afghanistan
104	0.003979176410154183	Paraguay
11	0.0039782180343328555	Bangladesh
136	0.003937007874015748	Uganda
48	0.003917840357589186	Gambia
51	0.0036868717846491195	Ghana
68	0.0036274524837267784	IvoryCoast
60	0.0035057387544181126	Iceland
89	0.0034760291039569423	Mongolia
42	0.003471237224850302	Eritrea
75	0.0033840250251094463	Laos
44	0.0033092717110458562	Ethiopia
16	0.0033006463286539035	Bhutan
10	0.0032402686519102347	Bahrain
146	0.003195224988307815	Zambia
39	0.0031683904653106287	Ecuador
97	0.003111846291852272	Niger
112	0.0030773447622844613	Rwanda
96	0.0029834239317943095	Nicaragua
143	0.002950839153869155	Venezuela
22	0.0029259213825146247	BurkinaFaso
113	0.0028473345651657224	SaudiArabia
101	0.002797499022456662	Oman
129	0.00279366551917135	Tajikistan
92	0.0027524553588542423	Mozambique
24	0.00274862185556893	Cambodia
9	0.0026086989856550307	Azerbaijan
85	0.0025952817241564376	Mali
37	0.0025655720736952672	DemocraticRepublicCongo
25	0.0024946522629169894	Cameroon
57	0.002438108089458633	Guyana
14	0.0024016898082481657	Belize
125	0.002394022801677541	Suriname
83	0.002368146654501683	Malawi
27	0.002357604520467074	CentralAfricanRepublic
32	0.002231098912051768	Congo
15	0.002208097892339894	Benin
55	0.002172637986950755	Guinea
23	0.0021400532090256	Burundi
109	0.00209021766631654	Qatar
145	0.001932085655797407	Yemen
135	0.0019234602734054544	Turkmenistan
73	0.0018669160999470976	Kuwait
98	0.0018515820868058484	Nigeria
78	0.0017768287727422582	Liberia
124	0.0017538277530303843	Sudan
2	0.0016809911906094503	Algeria
87	0.0016349891511857025	Mauritania
47	0.001603362749081876	Gabon
79	0.0015880287359406268	Libya
56	0.0015401099448742227	Guinea-Bissau
64	0.0013695190486778248	Iraq
20	0.0012554723259397833	Brunei
28	0.0011864692668041616	Chad
4	0.0011308834691671332	Angola
