30	0.04213588369962862	China
50	0.028089418132051198	Germany
141	0.027921163772876584	USA
69	0.024654070886485996	Japan
46	0.023404551150989245	France
67	0.0232233541488012	Italy
127	0.022965795552833904	Switzerland
61	0.02280844999277061	India
13	0.02160626335172298	Belgium
139	0.021224085593026357	UnitedKingdom
94	0.019420435841654527	Netherlands
123	0.018981680243499187	Spain
8	0.018583231733585677	Austria
131	0.015878774028478992	Thailand
36	0.015214631546989744	CzechRepublic
103	0.01434950830899192	Panama
144	0.013830693219053494	Vietnam
62	0.013822927633245434	Indonesia
19	0.01344463266745284	Brazil
66	0.013262880980564218	Israel
108	0.012876635534063373	Portugal
121	0.01284095081832634	SouthAfrica
119	0.012772169915454958	Slovenia
122	0.012386294258754496	SouthKorea
26	0.012189011400249757	Canada
77	0.011620459582159712	Lebanon
126	0.010806922021315423	Sweden
7	0.010705969405810655	Australia
133	0.010499626697196512	Tunisia
107	0.010376856483469102	Poland
117	0.010323236962413456	Singapore
84	0.009704763521271604	Malaysia
21	0.00945034813860757	Bulgaria
91	0.009090357767933974	Morocco
106	0.009006045693446475	Philippines
45	0.008966847974605795	Finland
134	0.008805989411438855	Turkey
38	0.008265356723277786	Denmark
105	0.008044962002249061	Peru
111	0.007929402689629134	Russia
88	0.007918863680318198	Mexico
137	0.007735447939327848	Ukraine
140	0.007519860485704111	Uruguay
95	0.0072025808369748385	NewZealand
93	0.007167820595738764	Nepal
43	0.00713306035450269	Estonia
52	0.006673411632625667	Greece
72	0.006666200731518183	Kenya
115	0.006643458658794581	Serbia
35	0.0066125812104625365	Cyprus
118	0.006434342526677561	Slovakia
110	0.0063272883794664595	Romania
34	0.006321556637560511	Croatia
17	0.006313606156852261	Bolivia
102	0.006311942102750534	Pakistan
100	0.006113180085044258	Norway
1	0.006091547381721808	Albania
40	0.006046987710775564	Egypt
116	0.006045693446474221	SierraLeone
76	0.005990040081516464	Latvia
138	0.0059669282189924785	UnitedArabEmirates
29	0.005943446566668109	Chile
142	0.0059327226624569795	Uzbekistan
59	0.005634487188447471	Hungary
130	0.005557386015067455	Tanzania
60	0.005188520689184647	Iceland
70	0.0051604166643554805	Jordan
65	0.005140448015134757	Ireland
81	0.005055396361046491	Macedonia
80	0.0049329959371194635	Lithuania
114	0.004774171217854635	Senegal
49	0.004751429145131033	Georgia
82	0.004682278452459269	Madagascar
97	0.004635130252910338	Niger
18	0.004600554906574456	BosniaHerzegovina
74	0.004596857008570618	Kyrgyzstan
41	0.004595377849369083	ElSalvador
12	0.0044946101287645064	Belarus
71	0.004388850245854749	Kazakhstan
147	0.004264046188225227	Zimbabwe
132	0.004151260299108178	Togo
6	0.004109843841465196	Armenia
86	0.0040273807159796155	Malta
104	0.0040079667514594675	Paraguay
11	0.003789236084532469	Bangladesh
136	0.003784798606927864	Uganda
54	0.0036864345200257817	Guatemala
0	0.003503018779035433	Afghanistan
63	0.0034967323524289088	Iran
48	0.0034728809103041556	Gambia
68	0.0033066603950316522	IvoryCoast
31	0.0032517466096746626	Colombia
146	0.0031088228518263363	Zambia
37	0.003101611950718853	DemocraticRepublicCongo
75	0.003031351888645937	Laos
143	0.002750681430154657	Venezuela
32	0.0027277544625308636	Congo
42	0.002706491549008797	Eritrea
44	0.002639559595139335	Ethiopia
51	0.002575770854573135	Ghana
89	0.0025016279995961894	Mongolia
10	0.0024999639454944627	Bahrain
58	0.00248202914017585	Honduras
14	0.002459841752152824	Belize
33	0.002363881298953236	CostaRica
112	0.002336331958824645	Rwanda
16	0.0022989831889858848	Bhutan
113	0.002286040545972453	SaudiArabia
92	0.0022830822275693827	Mozambique
39	0.0022422204546269763	Ecuador
129	0.0022357491331202605	Tajikistan
109	0.002214301324698002	Qatar
73	0.0021752885007575145	Kuwait
22	0.0021682624945502226	BurkinaFaso
83	0.002150697479031994	Malawi
27	0.0021159372377959197	CentralAfricanRepublic
85	0.002051408917628952	Mali
101	0.0020371720103141773	Oman
96	0.002000932609876568	Nicaragua
57	0.002000747714976376	Guyana
2	0.001987805071962944	Algeria
24	0.0019362193948094086	Cambodia
23	0.0019107038985829285	Burundi
125	0.0019049721566769802	Suriname
55	0.001841368311010972	Guinea
25	0.0017651916121319158	Cameroon
9	0.0017261787881914284	Azerbaijan
124	0.0016435307678056563	Sudan
145	0.0016365047615983647	Yemen
135	0.0015459062605043415	Turkmenistan
79	0.0015359219358939797	Libya
98	0.0015257527163834261	Nigeria
78	0.0015126251784698024	Liberia
47	0.0015111460192682674	Gabon
56	0.0014824873097385254	Guinea-Bissau
15	0.0014425500112970784	Benin
64	0.0013754331625274246	Iraq
87	0.0012236344494698879	Mauritania
28	0.0011369187412798942	Chad
4	0.0011004944459420932	Angola
20	0.0010960569683374879	Brunei
