30	0.04076771098191584	China
50	0.028293333785675515	Germany
141	0.02814669456903694	USA
69	0.024541646430305975	Japan
46	0.02382318122732337	France
67	0.023317644201925548	Italy
61	0.022769923292289232	India
127	0.022415266191469302	Switzerland
13	0.021804381053052595	Belgium
139	0.021395710724795017	UnitedKingdom
94	0.01945257370796789	Netherlands
123	0.019059303845384682	Spain
8	0.018546624575036426	Austria
36	0.015510724080793075	CzechRepublic
131	0.015346675642087821	Thailand
103	0.013720475744936149	Panama
62	0.013688558837813902	Indonesia
66	0.013518037739622318	Israel
19	0.013415367968459846	Brazil
144	0.013355551666999971	Vietnam
121	0.012716097548781533	SouthAfrica
119	0.0124913400279976	Slovenia
108	0.012475716367168528	Portugal
122	0.01244134431334457	SouthKorea
26	0.012123291217895609	Canada
77	0.011276042410650515	Lebanon
126	0.011144580464531612	Sweden
107	0.01082875932062966	Poland
7	0.010413393137731052	Australia
117	0.01040870603948233	Singapore
133	0.009974145073279433	Tunisia
84	0.009842683127160528	Malaysia
21	0.009441155043853384	Bulgaria
45	0.009167294589035226	Finland
106	0.008965972559494901	Philippines
134	0.008883613547410222	Turkey
91	0.00884187605348113	Morocco
38	0.008612654629603178	Denmark
111	0.00815644373339428	Russia
105	0.008020517884181356	Peru
137	0.00784508649258635	Ukraine
88	0.007836605076707711	Mexico
140	0.007610731580150273	Uruguay
95	0.007502705125274976	NewZealand
43	0.00720964988715253	Estonia
93	0.007187107176527726	Nepal
72	0.006793390923635117	Kenya
52	0.00678111519012656	Greece
118	0.006707237593920521	Slovakia
35	0.00657421328171871	Cyprus
115	0.00654809944861869	Serbia
110	0.006499442904893866	Romania
102	0.00647623060880496	Pakistan
34	0.006376015984344199	Croatia
100	0.006336510441962117	Norway
17	0.0062941033625689225	Bolivia
40	0.0061363043881952975	Egypt
1	0.006111976116332886	Albania
116	0.0060280547381653	SierraLeone
76	0.006001717709910579	Latvia
138	0.0059162339656600865	UnitedArabEmirates
29	0.005854855298117304	Chile
59	0.005731651572722338	Hungary
130	0.005676745564665886	Tanzania
142	0.005666701782704339	Uzbekistan
70	0.005295974630745936	Jordan
65	0.005178797174527898	Ireland
80	0.005056932620061138	Lithuania
82	0.004968547338799531	Madagascar
81	0.004936184041367883	Macedonia
60	0.004851369882581493	Iceland
49	0.004764993357712196	Georgia
114	0.0047446825986344025	Senegal
18	0.00468531268748393	BosniaHerzegovina
12	0.0046435751935548384	Belarus
74	0.004629290703653972	Kyrgyzstan
41	0.004458769605462389	ElSalvador
97	0.004380874496471731	Niger
71	0.0042697233094306205	Kazakhstan
147	0.004268607333657115	Zimbabwe
6	0.004096300674227923	Armenia
86	0.004071972402365512	Malta
104	0.0040634909864868726	Paraguay
132	0.004043180227409079	Togo
11	0.003913057452218381	Bangladesh
136	0.003815744364768734	Uganda
54	0.0037512409650601376	Guatemala
0	0.0035936651858412137	Afghanistan
63	0.0034512666771419594	Iran
48	0.0033561855412393223	Gambia
31	0.003303288289575179	Colombia
68	0.003294360483387138	IvoryCoast
146	0.0032820847498785818	Zambia
37	0.003128749678598977	DemocraticRepublicCongo
75	0.0030796467445647516	Laos
143	0.00291827664771591	Venezuela
32	0.002822079536039768	Congo
42	0.002684368125589235	Eritrea
44	0.0026676284889866585	Ethiopia
51	0.00264620175413536	Ghana
10	0.002569645816072908	Bahrain
58	0.0024975537811044767	Honduras
14	0.0024776894123360853	Belize
89	0.002447334871296746	Mongolia
112	0.002377921178184727	Rwanda
33	0.002360511956118047	CostaRica
92	0.0023457810759077795	Mozambique
16	0.0023118554123932235	Bhutan
129	0.002308061094763306	Tajikistan
39	0.00229801731280176	Ecuador
109	0.002275251407022255	Qatar
113	0.002247352012684627	SaudiArabia
22	0.002177268734108505	BurkinaFaso
73	0.0021491461446161756	Kuwait
83	0.0021049535039853727	Malawi
101	0.0020777236951118475	Oman
27	0.0020770541096477445	CentralAfricanRepublic
57	0.002055850569951147	Guyana
85	0.0020491547153101163	Mali
96	0.0020261656143759107	Nicaragua
24	0.0020047388795246123	Cambodia
2	0.0019882224380767363	Algeria
125	0.0019386731137331086	Suriname
23	0.0018964892294946148	Burundi
55	0.001820826072050967	Guinea
9	0.0017172635202696912	Azerbaijan
25	0.001698291932120104	Cameroon
124	0.0016275390680798789	Sudan
145	0.0015782129388909522	Yemen
135	0.001558571765277262	Turkmenistan
98	0.0015375914207353656	Nigeria
78	0.0015358058594977574	Liberia
47	0.001533350712796046	Gabon
79	0.001498532268662686	Libya
56	0.001463713824529326	Guinea-Bissau
15	0.0014306809416335742	Benin
64	0.00141885159843442	Iraq
87	0.001238063523126589	Mauritania
28	0.001192085321258178	Chad
20	0.001097004185355541	Brunei
4	0.001088745964631603	Angola
