30	0.04242404771924275	China
50	0.028135776440318467	Germany
141	0.028023687339544894	USA
69	0.02490619819188807	Japan
46	0.02359025449697942	France
67	0.023065995238243178	Italy
61	0.022888241341425874	India
127	0.022695659910018047	Switzerland
13	0.021801418359594545	Belgium
139	0.021343883006515643	UnitedKingdom
94	0.01945866789429239	Netherlands
123	0.0194064184866877	Spain
8	0.0184507485786749	Austria
131	0.01573730974860974	Thailand
36	0.015199988137972327	CzechRepublic
144	0.01424661296745568	Vietnam
103	0.014204248582911336	Panama
62	0.014040086592802009	Indonesia
19	0.013290236986367141	Brazil
66	0.013104716285716706	Israel
121	0.012873477353412169	SouthAfrica
108	0.012831466005405695	Portugal
119	0.012702784187352253	Slovenia
122	0.012556627060674272	SouthKorea
26	0.01207649736917172	Canada
77	0.01136583481844037	Lebanon
126	0.010612984401433611	Sweden
7	0.01060998359086172	Australia
107	0.010504072629500863	Poland
133	0.010421991634446199	Tunisia
117	0.010152977792589621	Singapore
84	0.009979460334226751	Malaysia
21	0.00942819378034349	Bulgaria
91	0.009151766171191653	Morocco
106	0.009148765360619763	Philippines
45	0.008981602559938543	Finland
134	0.008863158801483318	Turkey
105	0.008190977233379746	Peru
38	0.008127077620025363	Denmark
111	0.007998219283702986	Russia
88	0.007812875101321486	Mexico
137	0.007648360074674288	Ukraine
140	0.00762135277952727	Uruguay
93	0.0072889688791231136	Nepal
95	0.007199297598504255	NewZealand
43	0.007045373667993142	Estonia
52	0.006714931468547269	Greece
72	0.006677862632070969	Kenya
115	0.006615375164868063	Serbia
17	0.00658819135145211	Bolivia
35	0.0065587128005400045	Cyprus
110	0.006476278768947471	Romania
118	0.006450860138220865	Slovakia
102	0.006358541083567985	Pakistan
34	0.006170725645421399	Croatia
1	0.00615148515410751	Albania
100	0.0061112389887903835	Norway
40	0.0060457507110155875	Egypt
138	0.005970200891911509	UnitedArabEmirates
116	0.0059218348862233846	SierraLeone
142	0.005900476175682279	Uzbekistan
76	0.005879647019947976	Latvia
29	0.005773736058587119	Chile
130	0.005718309322141605	Tanzania
59	0.0055453214185855375	Hungary
70	0.005085667846279418	Jordan
65	0.005072605494378246	Ireland
81	0.005029711555027099	Macedonia
60	0.004971284008009693	Iceland
80	0.004938098573449958	Lithuania
114	0.004838189233232882	Senegal
97	0.004753990018951001	Niger
82	0.004691502551748095	Madagascar
49	0.004652315496044578	Georgia
18	0.004617188360526561	BosniaHerzegovina
41	0.0045513470462138945	ElSalvador
74	0.004441023128129669	Kyrgyzstan
12	0.004374299222472329	Belarus
71	0.004297866812023577	Kazakhstan
104	0.004179423053568352	Paraguay
147	0.004174833578576048	Zimbabwe
6	0.004108815745994448	Armenia
132	0.0041029906431196	Togo
11	0.003965659429888356	Bangladesh
86	0.003933003550135425	Malta
136	0.003853570329114782	Uganda
54	0.003680052870751911	Guatemala
0	0.003556490082497578	Afghanistan
63	0.0034353985500083315	Iran
48	0.003324015522310497	Gambia
68	0.0032578211714599614	IvoryCoast
31	0.003193745039836643	Colombia
37	0.0030895992611651335	DemocraticRepublicCongo
146	0.00307759601887757	Zambia
75	0.003024817056466076	Laos
32	0.0027983441174227767	Congo
143	0.0027979910808849074	Venezuela
42	0.0026941983387512676	Eritrea
44	0.0026606598676536626	Ethiopia
51	0.002581932719708759	Ghana
10	0.002511678448672724	Bahrain
89	0.0024735505025828153	Mongolia
14	0.002463312442984599	Belize
58	0.0024430128420571016	Honduras
33	0.0023969415738651287	CostaRica
92	0.002334807143200093	Mozambique
112	0.0023206856816853118	Rwanda
16	0.002255903476986254	Bhutan
129	0.002253961776027972	Tajikistan
113	0.0022368395039412997	SaudiArabia
39	0.0022207763414682368	Ecuador
83	0.0022163633847448677	Malawi
22	0.002161113166568287	BurkinaFaso
109	0.00214416741275055	Qatar
73	0.0021226321839405093	Kuwait
27	0.0021194548550996836	CentralAfricanRepublic
96	0.00209227104168373	Nicaragua
57	0.0020573204244346472	Guyana
85	0.002056790869627843	Mali
101	0.0020350791225488673	Oman
24	0.0019634127053613543	Cambodia
2	0.0019236960948510328	Algeria
125	0.0018633268468753442	Suriname
23	0.0018386142892244776	Burundi
55	0.0018006628614035038	Guinea
9	0.001720523567307122	Azerbaijan
25	0.00171452194616334	Cameroon
124	0.001679041774107453	Sudan
145	0.0015863696829167032	Yemen
78	0.0015275890993614275	Liberia
98	0.00152582391667208	Nigeria
135	0.0015233526609069931	Turkmenistan
47	0.0014988166215250613	Gabon
79	0.0014956392926842356	Libya
15	0.0014666902965789347	Benin
56	0.0014264441312618092	Guinea-Bissau
64	0.0013830206371038577	Iraq
87	0.001219917756608138	Mauritania
28	0.0011334238048301046	Chad
20	0.001093883712588718	Brunei
4	0.0010795857328050023	Angola
