153	0.0023874028584297954	106
925	0.0022746852637437007	7204
813	0.0022182159589548825	6203
402	0.0021354458820726425	2710
999	0.0021173779146891358	7602
293	0.002113344392918506	1701
619	0.002081905024596747	4103
259	0.002067428549200788	1211
640	0.00203040855486761	4407
617	0.0020094121401711806	4101
616	0.001991178411619018	4100
365	0.0019748785633678426	2523
166	0.001969905728308162	303
595	0.0019632200278390357	3923
323	0.0019520587758161969	2202
255	0.0019344880919386586	1207
266	0.0019015568730989957	1404
169	0.001881499771691617	306
332	0.0018691229377653007	2302
260	0.0017849162640880417	1212
832	0.0017821535779437747	6305
524	0.0017608256409100333	3401
231	0.0017590575217777023	910
797	0.0017519850452483788	6104
796	0.0017418183602374761	6103
814	0.0017396082113220624	6204
240	0.0017065664850366288	1101
637	0.0016944106660018539	4404
641	0.0016708173263298134	4408
206	0.0016677783715711198	713
802	0.0016668943120049544	6109
836	0.001663302820017407	6309
165	0.0016570591493313637	302
912	0.00164512434518813	7108
799	0.0016277746762021332	6106
336	0.001621420498070319	2306
341	0.0016206469459499242	2402
642	0.0016172764688539185	4409
795	0.0016118616040111551	6102
962	0.001608270112023608	7313
211	0.0016008661131569723	804
168	0.001600313575928119	305
618	0.0015994295163619535	4102
668	0.0015932963531216807	4800
283	0.0015869421749898664	1517
800	0.001579096146340148	6107
222	0.0015739575501118115	901
307	0.0015593153135471962	2001
707	0.0015568841497402412	5202
315	0.0015536794338128915	2009
958	0.001553624180090006	7309
801	0.001553126896584038	6108
343	0.001552795374246726	2501
167	0.001551193016283051	304
758	0.0015459439126089439	5607
636	0.0015390924509711616	4403
187	0.0015388161823567349	508
798	0.001533953854742825	6105
202	0.0015312464223214432	709
295	0.0015233451399488396	1703
881	0.0015231793787801834	6910
313	0.0015180407825518467	2007
807	0.001514338783118529	6114
895	0.0015134547235523634	7010
1001	0.0014989782481564043	7604
822	0.0014932318609763289	6212
706	0.0014920162790728513	5201
319	0.0014874854737962535	2104
794	0.0014864909067843174	6101
342	0.0014845570264833303	2403
225	0.0014728984909545236	904
803	0.001460797925642634	6110
340	0.001460632164473978	2401
291	0.0014468739874755282	1604
317	0.0014430614805964396	2102
296	0.0014421221673073888	1704
808	0.0014364862875730841	6115
282	0.0014275904381885443	1516
186	0.0014272036621283469	507
651	0.0014074780830582803	4418
866	0.0014063730086005734	6810
957	0.0014051021729742106	7308
759	0.0014043286208538159	5608
218	0.0014042181134080452	811
414	0.0014036655761791917	2806
306	0.0014035550687334212	1905
1293	0.001402560501721485	9406
650	0.0014025052479985996	4417
241	0.0014018422033239756	1102
837	0.0014008476363120395	6310
499	0.0013968141145414095	3102
264	0.0013957090400837028	1302
805	0.001395598532637932	6112
817	0.001393664652336945	6207
502	0.0013928911002165504	3105
242	0.001391675518313073	1103
815	0.0013906809513011369	6205
541	0.0013864264146389656	3605
175	0.0013843820268922078	405
819	0.0013823376391454503	6209
205	0.0013760387147365215	712
842	0.001374657371664388	6405
318	0.0013701265663877901	2103
172	0.0013682479398096886	402
538	0.0013665903281231283	3602
709	0.0013653194924967654	5204
203	0.0013633856121957786	710
164	0.0013555948372689455	301
1186	0.0013548212851485508	8544
170	0.0013499037038117554	307
635	0.0013474172862819151	4402
821	0.0013468647490530617	6211
816	0.0013423339437764637	6206
401	0.0013393502427406555	2709
923	0.001337968899668522	7202
812	0.0013377478847769804	6202
314	0.0013360350193675349	2008
937	0.0013338248704521214	7217
838	0.0013313937066451664	6401
179	0.0013302333784645742	409
217	0.0013301781247416888	810
959	0.00132957033378995	7310
955	0.0013282994981635872	7306
714	0.00132791272210339	5209
204	0.001326310364139715	711
250	0.0013225531109835118	1202
811	0.0013219453200317732	6201
207	0.001316585708911895	714
653	0.0013154806344541884	4420
1009	0.0013138782764905133	7612
316	0.0013094027249368008	2101
594	0.001307026814852731	3922
392	0.001295810309107007	2621
935	0.0012858646389876456	7214
1290	0.0012840965198553148	9403
362	0.0012837097437951174	2520
712	0.0012835439826264614	5207
916	0.0012773555656633033	7112
239	0.0012769135358802206	1008
522	0.0012765267598200231	3306
867	0.001271774939651884	6811
263	0.0012703935965797503	1301
399	0.0012698963130737824	2707
201	0.0012687912386160755	708
171	0.0012676861641583686	401
590	0.0012671336269295152	3917
177	0.0012642051796165922	407
648	0.0012558618674609059	4415
302	0.0012538174797141481	1806
936	0.0012535964648226069	7215
287	0.0012486236297629262	1522
829	0.0012476843164738753	6302
713	0.0012437613021490162	5208
1254	0.0012433745260888188	9028
610	0.0012428772425828508	4012
639	0.0012427114814141948	4406
1082	0.0012401698101614691	8418
818	0.001237407124017202	6208
1199	0.001236909840511234	8609
740	0.0012332630948008014	5505
752	0.0012321027666202093	5601
510	0.0012272404390062993	3208
281	0.0012263563794401339	1515
710	0.0012260801108257072	5205
886	0.0012248092751993443	7001
960	0.0012233174246814402	7311
1007	0.0012231516635127842	7610
193	0.0012207757534287145	604
189	0.0012204442310914025	511
311	0.0012202784699227465	2005
348	0.0012173500226098234	2506
931	0.0012158029183690338	7210
1096	0.001213095485947652	8432
278	0.0012127639636103401	1512
820	0.0012076253673820034	6210
188	0.0012049731886835072	510
804	0.0012043653977317683	6111
405	0.0012032603232740616	2713
245	0.001202376263707896	1106
223	0.0011998898461780558	902
907	0.0011990610403347756	7103
749	0.0011944197276124071	5514
359	0.0011931488919860443	2517
755	0.0011923200861427641	5604
974	0.001190220444673121	7325
441	0.0011874025048059689	2833
934	0.001186628952685574	7213
843	0.0011846950723845872	6406
219	0.0011838110128184218	812
243	0.0011832032218666829	1104
183	0.0011805510431681866	504
498	0.0011796117298791358	3101
407	0.0011782303868070024	2715
998	0.0011755229543856207	7601
196	0.0011745836410965698	703
357	0.0011744178799279138	2515
646	0.0011739205964219456	4413
328	0.001172815521964239	2207
789	0.0011715446863378761	6002
214	0.001169776567205545	807
1223	0.001168450477856297	8903
982	0.0011674559108443608	7408
363	0.0011657430454349153	2521
512	0.0011597756433632984	3210
891	0.001159057344965789	7006
717	0.0011580627779538529	5212
966	0.001156626181158834	7317
1224	0.00115596313648421	8904
835	0.0011557421215926686	6308
176	0.0011547475545807325	406
1215	0.0011546370471349618	8716
609	0.0011534767189543696	4011
863	0.0011517085998220388	6807
750	0.0011515428386533828	5515
557	0.0011506587790872174	3808
364	0.00115027200302702	2522
436	0.0011495537046295105	2828
765	0.001148172361557377	5705
840	0.0011420391983171041	6403
875	0.0011397185419559199	6904
1016	0.0011387239749439837	7806
185	0.001133088095209679	506
597	0.001131319976077348	3925
347	0.0011304911702340681	2505
708	0.0011296071106679025	5203
981	0.0011292755883305905	7407
1095	0.0011286125436559664	8431
220	0.0011278389915355717	813
173	0.0011244132607166806	403
695	0.0011226451415843497	5103
1062	0.0011215400671266429	8309
320	0.0011186116198137197	2105
673	0.0011178933214162103	4823
1135	0.0011175617990788983	8474
827	0.0011166224857898476	6217
194	0.0011158489336694527	701
288	0.001113915053368466	1601
918	0.0011114286358386255	7114
322	0.001110876098609772	2201
1322	0.0011105998299953453	9705
324	0.0011104893225495748	2203
978	0.0011101025464893774	7403
1003	0.0011101025464893774	7606
1288	0.0011098262778749507	9401
970	0.001109052725754556	7321
149	0.001108279173634161	102
292	0.0011070083380077982	1605
212	0.0011052954725983527	805
930	0.0011052402188754674	7209
289	0.0010976704588401757	1602
1012	0.0010943552354670553	7615
628	0.0010930843998406925	4205
1188	0.0010892166392387187	8546
611	0.0010888298631785212	4013
831	0.0010881668185038973	6304
1057	0.001086177684480025	8304
523	0.0010856251472511715	3307
1201	0.0010848515951307766	8702
511	0.0010847963414078914	3209
546	0.0010799340137939814	3704
350	0.0010797682526253254	2508
1291	0.0010787736856133893	9404
403	0.0010776133574327972	2711
563	0.0010772265813725997	3814
760	0.0010772265813725997	5609
327	0.00107402186544525	2206
199	0.0010730825521561992	706
1286	0.001071590701638295	9306
1222	0.00106998834367462	8902
256	0.0010692700452771106	1208
685	0.0010650707623378248	4911
574	0.0010620318075791311	3901
644	0.0010605399570612268	4411
729	0.0010598216586637174	5402
554	0.0010597664049408321	3805
575	0.0010583850618686985	3902
1004	0.0010583850618686985	7607
862	0.0010580535395313866	6806
1011	0.0010576667634711891	7614
643	0.0010572799874109917	4410
339	0.001056672196459253	2309
443	0.0010562301666761703	2835
521	0.001051644107676687	3305
602	0.001050483779496095	4004
744	0.0010502627646045534	5509
1149	0.001049212943869732	8503
1014	0.0010457319593279557	7801
1219	0.001045455690713529	8804
303	0.0010439085864727394	1902
929	0.0010426930045692618	7208
379	0.0010413669152200137	2608
308	0.0010363388264374477	2002
770	0.0010347364684737729	5805
208	0.0010320290360523912	801
728	0.0010318080211608497	5401
876	0.001031200230209111	6905
903	0.0010299293945827482	7019
191	0.0010288243201250413	602
210	0.0010273877233300224	803
236	0.001026503663763857	1005
230	0.0010241830074026728	909
948	0.0010235199627280486	7228
446	0.0010213650675355204	2839
833	0.0010188233962827946	6306
868	0.0010142373372833114	6812
294	0.0010134085314400315	1702
444	0.0010129665016569487	2836
351	0.0010125797255967513	2509
1179	0.0010124692181509806	8537
459	0.0010108668601873057	2904
716	0.001010259069235567	5211
422	0.0010094855171151722	2814
897	0.0010093750096694014	7013
747	0.0010085462038261215	5512
265	0.0010067780846937904	1401
528	0.0010067228309709052	3405
516	0.0010047889506699182	3214
209	0.0010030760852604726	802
631	0.0010025235480316192	4302
634	0.0010023577868629632	4401
371	0.0010014184735739125	2530
828	0.0010013079661281418	6301
358	0.0009980479964779067	2516
216	0.0009956720863938371	809
762	0.0009948985342734422	5702
415	0.0009945117582132448	2807
596	0.0009943459970445888	3924
864	0.0009909755199485832	6808
1227	0.000987549789129692	8907
858	0.0009874392816839213	6802
1156	0.0009872182667923798	8511
1013	0.0009850633715998516	7616
1321	0.0009846213418167689	9704
1141	0.0009836267748048327	8480
423	0.0009801457902630564	2815
865	0.0009785434322993815	6809
404	0.000978488178576496	2712
1056	0.0009767200594441652	8303
525	0.0009746756716974076	3402
849	0.0009746756716974076	6507
1203	0.0009732943286252741	8704
917	0.0009730733137337328	7113
285	0.0009713051946014018	1520
161	0.0009711946871556312	208
879	0.0009702553738665804	6908
1281	0.0009698133440834976	9301
310	0.0009686530159029055	2004
257	0.0009652825388068997	1209
715	0.0009649510164695877	5210
1204	0.0009638459420118809	8705
360	0.0009606412260845311	2518
329	0.0009569392266512133	2208
520	0.0009562209282537039	3304
1235	0.0009555578835790798	9007
1068	0.0009524084213746154	8404
1300	0.0009511375857482525	9601
411	0.0009508060634109405	2803
882	0.0009499772575676604	6911
1078	0.0009463305118572279	8414
869	0.0009457227209054891	6813
956	0.0009450596762308651	7307
378	0.000944562392724897	2607
947	0.0009441203629418143	7227
971	0.0009440098554960436	7322
1298	0.0009432363033756489	9507
337	0.0009431810496527635	2307
1147	0.0009431810496527635	8501
973	0.0009429047810383368	7324
513	0.0009424627512552541	3211
1172	0.0009406946321229232	8530
614	0.0009387054980990509	4016
1039	0.0009386502443761655	8201
551	0.0009384292294846242	3802
1228	0.0009379319459786561	8908
790	0.0009375451699184588	6003
771	0.0009368821252438347	5806
577	0.0009363848417378666	3904
537	0.0009354455284488159	3601
1017	0.0009353902747259305	7901
1216	0.0009352245135572744	8801
246	0.0009350587523886184	1107
753	0.000934506215159765	5602
1313	0.0009343957077139944	9614
680	0.0009340089316537969	4906
215	0.0009335669018707142	808
286	0.0009332353795334022	1521
213	0.0009319645439070394	806
374	0.0009310804843408739	2603
681	0.0009304174396662498	4907
906	0.0009290913503170017	7102
247	0.000928815081702575	1108
1152	0.0009280415295821802	8506
743	0.0009245052913175183	5508
1225	0.0009198639785951498	8905
388	0.0009185378892459016	2617
1289	0.0009176538296797362	9402
721	0.0009157199493787493	5305
774	0.0009151121584270105	5809
779	0.0009134545467404503	5903
606	0.000911631173885234	4008
921	0.0009094210249698204	7118
608	0.000909200010078279	4010
674	0.0009089237414638524	4824
676	0.0009078186670061455	4902
432	0.0009064373239340121	2824
763	0.0009063268164882413	5703
975	0.0009052769957534198	7326
963	0.0009042824287414838	7314
1303	0.0009024038021633821	9604
1005	0.0009017960112116434	7608
419	0.0009016302500429873	2811
697	0.0009016302500429873	5105
734	0.0009004699218623952	5407
964	0.0009003041606937392	7315
699	0.0008980940117783256	5107
254	0.0008977072357181283	1206
1211	0.0008977072357181283	8712
607	0.000896546907537536	4009
652	0.0008950550570196318	4419
748	0.0008943920123450078	5513
280	0.0008942262511763518	1514
1101	0.0008920161022609381	8437
372	0.0008875405507072255	2601
234	0.0008874852969843403	1003
927	0.0008865459836952894	7206
645	0.0008842805810569905	4412
387	0.0008825124619246596	2616
1142	0.0008811311188525261	8481
1092	0.0008800260443948192	8428
1076	0.0008798050295032779	8412
152	0.0008786999550455711	105
565	0.0008766555672988134	3816
787	0.0008747769407207119	5911
786	0.0008735613588172344	5910
1074	0.0008711854487331648	8410
1178	0.0008709644338416233	8536
1200	0.0008694173296008339	8701
454	0.0008689200460948658	2849
666	0.000868146493974471	4706
623	0.0008678702253600443	4114
1063	0.0008678149716371589	8310
989	0.0008675387030227323	7418
148	0.0008666546434565668	101
711	0.0008659915987819427	5206
872	0.0008659915987819427	6901
990	0.0008658258376132868	7419
841	0.0008657705838904014	6404
788	0.0008653838078302039	6001
669	0.000865052285492892	4802
1002	0.0008639472110351851	7605
434	0.000862621121685937	2826
1302	0.0008624553605172809	9603
535	0.0008615160472282301	3506
237	0.0008613502860595741	1006
675	0.0008606319876620647	4901
505	0.0008602452116018674	3203
331	0.000860189957878982	2301
741	0.0008599136892645553	5506
1208	0.0008597479280958993	8709
1299	0.0008593611520357018	9508
773	0.0008575377791804857	5808
933	0.0008572615105660589	7212
893	0.0008569299882287469	7008
604	0.0008545540781446772	4006
496	0.0008537252723013971	2942
928	0.0008530069739038877	7207
1277	0.0008520124068919515	9206
529	0.0008516256308317542	3406
624	0.0008513493622173275	4115
1043	0.0008504653026511621	8205
221	0.0008484209149044044	814
806	0.0008479236313984363	6113
406	0.0008465422883263029	2714
497	0.0008456582287601374	3006
1198	0.0008453819601457107	8608
390	0.0008453267064228254	2619
1241	0.00084527145269994	9015
1244	0.0008433928261218385	9018
1083	0.0008433375723989531	8419
792	0.000840574886254686	6005
926	0.00084040912508603	7205
539	0.0008387515133994698	3603
860	0.0008386410059536991	6804
1055	0.000838143722447731	8302
1146	0.0008380332150019604	8487
151	0.0008378122001104191	104
569	0.0008370386479900243	3820
1177	0.0008367071256527122	8535
1119	0.0008347179916288399	8455
951	0.0008344417230144133	7302
754	0.000834386469291528	5603
900	0.0008341654543999866	7016
550	0.0008336681708940185	3801
1064	0.0008333919022795918	8311
954	0.000832784111327853	7305
270	0.0008322315740989997	1504
1081	0.0008318447980388022	8417
469	0.0008312370070870635	2914
953	0.0008310712459184074	7304
1197	0.0008309607384726368	8607
738	0.0008307949773039808	5503
672	0.0008305187086895541	4811
857	0.000830187186352242	6801
772	0.0008297451565691593	5807
1226	0.0008280875448825991	8906
620	0.000827424500207975	4104
735	0.0008265404406418096	5408
1021	0.0008262089183044975	7907
1174	0.0008257668885214148	8532
1040	0.0008256011273527588	8202
961	0.0008252696050154467	7312
533	0.0008251590975696761	3503
1283	0.0008251038438467907	9303
704	0.0008247723215094786	5112
952	0.0008239435156661986	7303
767	0.0008238330082204279	5802
1046	0.0008237777544975425	8208
1018	0.0008237225007746572	7903
232	0.0008228936949313771	1001
612	0.0008226726800398357	4014
391	0.000819965247618454	2620
769	0.0008186944119920912	5804
698	0.0008184733971005498	5106
1098	0.0008184181433776645	8434
312	0.0008174788300886137	2006
1221	0.0008169262928597603	8901
693	0.0008164842630766775	5101
1140	0.0008162632481851362	8479
159	0.0008158212184020535	206
154	0.0008157659646791681	201
659	0.0008150476662816587	4601
830	0.0008149371588358881	6303
1306	0.0008133900545950985	9607
778	0.0008123954875831624	5902
576	0.0008118982040771943	3903
725	0.0008116219354627676	5309
701	0.0008084172195354178	5109
229	0.0008081409509209912	908
1259	0.0008080304434752205	9033
1175	0.0008067596078488576	8533
603	0.0008065385929573163	4005
277	0.0008062070706200043	1511
664	0.0008041626828732466	4704
519	0.0008030576084155398	3303
1117	0.0008020077876807184	8453
1207	0.0008009579669458969	8708
1106	0.0007994661164279927	8442
809	0.0007991898478135659	6116
301	0.0007991345940906807	1805
1309	0.000798858325476254	9610
722	0.0007981952808016298	5306
1060	0.0007980295196329738	8307
1089	0.0007976427435727765	8425
679	0.0007969796988981523	4905
321	0.0007967034302837257	2106
601	0.0007961508930548723	4003
1093	0.0007958746244404455	8429
457	0.0007952115797658215	2902
1066	0.0007950458185971654	8402
1196	0.0007949353111513948	8606
305	0.0007947142962598534	1904
456	0.0007926699085130958	2901
412	0.0007926146547902104	2804
1025	0.0007924488936215544	8007
582	0.0007923383861757838	3909
983	0.000791730595224045	7409
1097	0.0007904045058747968	8433
493	0.0007896862074772874	2939
593	0.0007896309537544021	3920
1094	0.0007896309537544021	8430
694	0.0007894099388628608	5102
1136	0.00078929943141709	8475
684	0.0007887468941882366	4910
910	0.0007871997899474471	7106
757	0.0007869787750559058	5606
873	0.0007854869245380016	6902
702	0.0007853764170922308	5110
660	0.0007851001484778041	4602
834	0.0007839950740200973	6307
261	0.0007838293128514413	1213
599	0.0007828347458395052	4001
638	0.0007826689846708491	4405
1301	0.0007826137309479638	9602
615	0.0007805693432012062	4017
745	0.0007803483283096649	5510
987	0.0007790222389604166	7413
197	0.0007787459703459899	704
195	0.0007777514033340538	702
495	0.0007765910751534617	2941
892	0.0007765910751534617	7007
1090	0.0007748229560211307	8426
671	0.0007739941501778507	4810
273	0.0007733863592261119	1507
1008	0.0007720602698768638	7611
393	0.00076819250927489	2701
1143	0.0007667559124798711	8482
471	0.0007667006587569857	2916
455	0.000766590151311215	2852
1085	0.0007662033752510177	8421
600	0.0007652640619619669	4002
919	0.0007643247486729161	7115
1000	0.0007637722114440627	7603
969	0.0007636064502754067	7320
1148	0.0007636064502754067	8502
1118	0.0007634406891067506	8454
506	0.0007625013758176998	3204
400	0.0007622251072032731	2708
297	0.0007618935848659611	1801
507	0.000761727823697305	3205
500	0.0007607332566853689	3103
1116	0.0007607332566853689	8452
1202	0.0007605122417938276	8703
932	0.0007604017343480569	7211
356	0.0007599597045649742	2514
267	0.0007596834359505475	1501
730	0.0007594071673361208	5403
1169	0.0007592966598903501	8526
1100	0.0007589651375530381	8436
1067	0.0007589098838301527	8403
588	0.0007584126003241847	3915
568	0.0007583573466012993	3819
861	0.0007583573466012993	6805
290	0.0007582468391555287	1603
425	0.0007581915854326433	2817
904	0.0007570865109749364	7020
977	0.0007570312572520512	7402
368	0.0007559261827943443	2526
453	0.0007551526306739495	2847
1171	0.0007548211083366375	8529
781	0.0007544895859993255	5905
253	0.0007544343322764401	1205
542	0.0007533292578187333	3606
883	0.0007522241833610265	6912
1129	0.0007520584221923705	8468
746	0.0007520031684694851	5511
625	0.000750842840288893	4201
980	0.0007502350493371543	7406
885	0.0007500692881684982	6914
823	0.0007499587807227276	6213
155	0.0007498482732769568	202
426	0.0007486326913734794	2818
1054	0.0007483011690361673	8301
184	0.000748245915313282	505
1115	0.0007470855871326898	8451
1150	0.0007469198259640338	8504
1192	0.0007464777961809511	8602
398	0.0007452069605545882	2706
839	0.0007443781547113082	6402
761	0.000743217826530716	5701
965	0.0007426652893018626	7316
382	0.0007366426335073604	2611
558	0.0007350402755436856	3809
756	0.0007349297680979149	5605
1032	0.0007348192606521442	8107
782	0.0007344877383148322	5906
1122	0.0007338799473630935	8459
844	0.000733161648965584	6501
1180	0.0007321118282307625	8538
1102	0.0007317250521705652	8438
1138	0.0007300674404840049	8477
1045	0.0007295701569780368	8207
1308	0.0007295701569780368	9609
1233	0.000728133560183018	9005
1311	0.0007280783064601327	9612
1213	0.0007273047543397379	8714
949	0.0007263101873278018	7229
1050	0.0007261996798820311	8212
156	0.0007259234112676043	203
777	0.000725702396376063	5901
1162	0.000725370874038751	8517
1037	0.0007245973219183562	8112
667	0.0007244868144725855	4707
1080	0.0007243763070268149	8416
736	0.0007242105458581588	5501
1157	0.0007234922474606494	8512
192	0.0007234369937377641	603
1070	0.0007234369937377641	8406
435	0.0007227739490631399	2827
1187	0.0007227739490631399	8545
1061	0.0007217241283283185	8308
478	0.0007216688746054332	2923
985	0.000720674307593497	7411
848	0.0007202322778104143	6506
1114	0.0007196797405815609	8450
344	0.0007191824570755928	2502
913	0.0007190719496298222	7109
1160	0.0007188509347382807	8515
768	0.0007185746661238541	5803
433	0.0007169723081601792	2825
174	0.0007166960395457525	404
472	0.0007159777411482431	2917
889	0.0007155357113651604	7004
1287	0.0007153699501965044	9307
1139	0.0007150384278591923	8478
824	0.0007140991145701415	6214
1161	0.0007137675922328294	8516
299	0.0007122757417149252	1803
1006	0.0007120547268233839	7609
627	0.0007119994731004986	4203
380	0.0007118889656547279	2609
689	0.0007117784582089573	5004
284	0.0007103971151368237	1518
724	0.0007082422199442954	5308
884	0.0007069161305950472	6913
633	0.0007065846082577352	4304
504	0.0007062530859204231	3202
555	0.0007037114146676975	3806
470	0.0007034903997761562	2915
810	0.0006991253556682143	6117
986	0.0006991253556682143	7412
826	0.000697136221644342	6216
1151	0.0006956996248493231	8505
591	0.0006954786099577817	3918
514	0.0006950918338975843	3212
1026	0.0006949813264518137	8101
1189	0.0006941525206085336	8547
1252	0.0006939867594398776	9026
1212	0.0006935999833796801	8713
559	0.0006931026998737121	3810
1292	0.0006928264312592853	9405
162	0.0006927711775364001	209
939	0.0006925501626448587	7219
944	0.0006920528791388907	7224
785	0.0006909478046811838	5909
696	0.0006897874765005917	5104
1255	0.0006897322227777063	9029
731	0.0006888481632115409	5404
1182	0.0006887929094886555	8540
448	0.0006885718945971142	2841
464	0.0006877983424767194	2909
751	0.000686914282910554	5516
920	0.0006866380142961273	7117
227	0.0006861407307901592	906
1088	0.0006860854770672738	8424
905	0.0006858644621757325	7101
1145	0.0006854776861155351	8486
508	0.0006854224323926498	3206
578	0.0006853671786697644	3905
629	0.0006853671786697644	4206
580	0.0006852566712239937	3907
1265	0.0006852566712239937	9106
1155	0.000684648880272255	8509
940	0.0006845383728264843	7220
481	0.0006838753281518602	2926
178	0.0006837095669832042	408
663	0.0006833780446458921	4703
775	0.0006833780446458921	5810
1127	0.0006832122834772361	8465
475	0.0006830465223085802	2920
1320	0.0006822729701881854	9703
180	0.0006817756866822173	410
163	0.0006812231494533639	210
300	0.0006807811196702812	1804
647	0.0006800628212727717	4414
157	0.000679123507983721	204
431	0.0006788472393692942	2823
416	0.0006787919856464089	2808
1285	0.0006781289409717848	9305
325	0.0006771343739598487	2204
1153	0.0006765818367309952	8507
1167	0.0006763608218394539	8523
354	0.0006746479564300083	2512
279	0.0006743164340926963	1513
483	0.0006740954192011549	2928
566	0.0006722720463459387	3817
200	0.000669564613924557	707
571	0.0006692883453101303	3823
733	0.0006682937782981942	5406
1073	0.0006651995698166151	8409
486	0.0006650338086479591	2932
381	0.0006638734804673669	2610
458	0.000661773838997724	2903
238	0.0006608345257086732	1007
304	0.0006607240182629025	1903
1245	0.0006606135108171319	9019
466	0.0006598952124196224	2911
1041	0.0006592874214678836	8203
271	0.0006572982874440114	1505
572	0.0006571325262753554	3824
896	0.00065707727255247	7011
517	0.0006550881385285977	3215
532	0.0006549223773599417	3502
526	0.000654646108745515	3403
942	0.000654646108745515	7222
1159	0.000654480347576859	8514
460	0.0006537067954564643	2905
1038	0.0006537067954564643	8113
1099	0.0006534857805649229	8435
561	0.0006532095119504962	3812
1236	0.0006530437507818402	9008
1015	0.0006524359598301014	7804
473	0.0006519386763241333	2918
150	0.0006518834226012481	103
1249	0.0006518281688783627	9023
389	0.0006512203779266239	2618
586	0.0006498942885773758	3913
1280	0.0006497285274087197	9209
871	0.0006493970050714077	6815
1206	0.000649286497625637	8707
534	0.0006487339603967837	3505
1024	0.0006485129455052422	8003
338	0.0006481814231679302	2308
988	0.0006479604082763889	7415
630	0.0006474631247704208	4301
1284	0.0006474078710475354	9304
1107	0.0006464685577584847	8443
972	0.0006464133040355993	7323
1058	0.0006463580503127139	8305
1137	0.0006463027965898287	8476
908	0.000646192289144058	7104
945	0.0006455844981923191	7225
950	0.0006454739907465485	7301
943	0.0006453082295778925	7223
440	0.0006451977221321218	2832
413	0.0006450319609634658	2805
1183	0.0006448109460719245	8541
564	0.0006445899311803831	3815
581	0.0006444794237346124	3908
888	0.0006444794237346124	7003
370	0.0006443689162888417	2529
1125	0.0006443689162888417	8462
878	0.0006438163790599883	6907
345	0.0006434848567226762	2503
158	0.0006434296029997909	205
258	0.0006434296029997909	1210
683	0.0006433743492769056	4909
536	0.0006432638418311349	3507
1217	0.0006430428269395935	8802
1133	0.0006426560508793962	8472
160	0.0006424902897107401	207
1307	0.0006423245285420841	9608
1023	0.0006416614838674601	8002
784	0.0006405564094097532	5908
825	0.0006382357530485689	6215
776	0.0006369096636993207	5811
409	0.0006361361115789259	2801
1079	0.0006361361115789259	8415
703	0.0006355835743500726	5111
394	0.000633870708940627	2702
355	0.0006315500525794427	2513
686	0.0006315500525794427	5001
852	0.0006306107392903919	6603
1251	0.0006300582020615385	9025
552	0.0006297819334471118	3803
1185	0.000628842620158061	8543
531	0.0006284558440978636	3501
688	0.00062624569518245	5003
1033	0.0006252511281705139	8108
462	0.0006207755766168012	2907
1103	0.0006207755766168012	8439
1091	0.0006197810096048652	8427
477	0.0006177918755809929	2922
1194	0.0006177918755809929	8604
198	0.0006172945920750249	705
1258	0.0006163552787859741	9032
573	0.0006160790101715474	3825
1190	0.000615360711774038	8548
967	0.0006152502043282672	7318
1173	0.0006152502043282672	8531
333	0.0006144213984849872	2303
890	0.0006140346224247897	7005
1209	0.000613758353810363	8710
1126	0.0006131505628586243	8463
1072	0.0006129848016899682	8408
467	0.000612929547967083	2912
421	0.0006128190405213122	2813
417	0.0006123217570153442	2809
941	0.0006122112495695735	7221
946	0.0006114929511720641	7226
1247	0.0006114376974491788	9021
1124	0.0006112719362805227	8461
1181	0.000611161428834752	8539
1048	0.0006100563543770452	8210
494	0.0006093380559795357	2940
361	0.0006092275485337651	2519
274	0.0006091722948108798	1508
1069	0.000608067220353173	8405
479	0.0006070726533412369	2924
1059	0.0006065753698352688	8306
427	0.0006051387730402499	2819
252	0.0006047519969800525	1204
1010	0.0006038126836910017	7613
527	0.0006031496390163777	3404
589	0.0006030391315706069	3916
408	0.0006029286241248363	2716
353	0.000600773728932308	2511
909	0.000598674087462665	7105
791	0.0005971269832218756	6004
386	0.0005969612220532195	2615
1315	0.0005964639385472514	9616
632	0.0005964086848243661	4303
1305	0.00059624292365571	9606
228	0.0005961324162099394	907
1030	0.0005960219087641687	8105
377	0.0005953036103666593	2606
385	0.0005943642970776085	2614
326	0.0005935907449572137	2205
996	0.0005926514316681629	7507
480	0.0005894467157408132	2925
461	0.0005891151934035012	2906
1131	0.0005885074024517624	8470
1144	0.0005866840295965461	8483
268	0.0005817111945368655	1502
553	0.0005816006870910948	3804
509	0.0005808271349707001	3207
367	0.000580495612633388	2525
485	0.0005796115530672226	2930
1077	0.0005790037621154838	8413
1176	0.0005785617323324011	8534
491	0.0005784512248866304	2937
1250	0.0005783959711637451	9024
1028	0.000577898687657777	8103
492	0.0005776776727662356	2938
626	0.0005773461504289236	4202
1042	0.0005773461504289236	8204
899	0.0005772356429831529	7015
1256	0.0005770698818144969	9030
783	0.0005768488669229555	5907
887	0.0005766831057542996	7002
874	0.0005764620908627581	6903
1087	0.0005757437924652487	8423
682	0.0005755780312965927	4908
1022	0.0005747492254533126	8001
764	0.0005732573749354084	5704
515	0.0005730363600438671	3213
1205	0.0005716550169717335	8706
780	0.0005707157036826827	5904
1271	0.0005707157036826827	9112
585	0.0005706604499597974	3912
1317	0.0005701631664538293	9618
395	0.0005699974052851733	2703
570	0.0005694448680563199	3821
901	0.0005693343606105492	7017
846	0.0005691685994418931	6504
396	0.0005683950473214985	2704
1246	0.0005683397935986131	9020
450	0.000567842510092645	2844
1170	0.0005668479430807089	8527
992	0.0005660743909603141	7502
1210	0.0005658533760687728	8711
621	0.0005653560925628047	4105
793	0.000564748301611066	6006
1071	0.0005639194957677858	8407
691	0.0005636984808762445	5006
727	0.000563145943647391	5311
1163	0.0005624276452498816	8518
410	0.0005613225707921749	2802
275	0.0005604385112260094	1509
272	0.0005580626011419397	1506
298	0.0005577310788046276	1802
976	0.000557123287852889	7401
719	0.000552924004913603	5302
997	0.0005504928411066481	7508
1253	0.0005490562443116292	9027
397	0.0005486142145285465	2705
1248	0.0005482826921912344	9022
1297	0.0005445806927579166	9506
911	0.0005433651108544391	7107
1229	0.0005428678273484711	9001
476	0.0005425363050111591	2921
1112	0.0005423705438425031	8448
424	0.0005417074991678789	2816
1052	0.0005415417379992229	8214
1132	0.0005415417379992229	8471
880	0.0005414864842763375	6909
1279	0.0005414864842763375	9208
1121	0.0005413759768305669	8458
465	0.0005409339470474841	2910
870	0.0005409339470474841	6814
1276	0.0005406576784330575	9205
1193	0.0005403261560957454	8603
1257	0.0005402709023728601	9031
1164	0.0005401603949270894	8519
938	0.0005399946337584333	7218
1191	0.0005399946337584333	8601
309	0.0005398288725897774	2003
984	0.0005393315890838093	7410
420	0.0005390000667464972	2812
894	0.0005382817683489878	7009
474	0.0005382265146261025	2919
490	0.0005378397385659051	2936
766	0.000537342455059937	5801
1184	0.0005372872013370516	8542
856	0.0005372319476141664	6704
592	0.0005365689029395422	3919
567	0.0005361268731564595	3818
1075	0.0005356295896504914	8411
1275	0.0005354638284818355	9202
233	0.0005354085747589501	1002
489	0.0005353533210360647	2935
598	0.0005350770524216381	3926
677	0.0005348007838072114	4903
1130	0.0005346902763614407	8469
1263	0.0005346902763614407	9104
1111	0.0005344692614698993	8447
1105	0.0005341929928554726	8441
518	0.0005341377391325872	3302
562	0.0005341377391325872	3813
235	0.0005329774109519951	1004
1242	0.0005308225157594668	9016
855	0.0005307672620365815	6703
1165	0.0005303252322534988	8521
1266	0.0005298832024704161	9107
1020	0.0005298279487475307	7905
1084	0.000529220157795792	8420
366	0.0005280045758923145	2524
847	0.0005275072923863464	6505
346	0.0005251866360251621	2504
330	0.0005239710541216846	2209
503	0.0005169538313152464	3201
1128	0.0005109311755207443	8467
995	0.0005106549069063175	7506
1282	0.000509107802665528	9302
1294	0.000509107802665528	9503
1234	0.0005081684893764772	9006
1237	0.0005076712058705091	9010
244	0.000507339683533197	1105
1123	0.0005072291760874264	8460
584	0.0005070634149187704	3911
449	0.0005069529074729997	2843
915	0.0005065661314128024	7111
1086	0.0005055715644008662	8422
1240	0.0005050190271720128	9014
993	0.0005045217436660447	7504
484	0.0005038034452685353	2929
1049	0.0005036929378227646	8211
1243	0.0005032509080396819	9017
583	0.0005031404005939112	3910
1104	0.0005020905798590897	8440
429	0.0005019800724133191	2821
548	0.0005010960128471536	3706
428	0.0005007092367869563	2820
662	0.0005003777144496442	4702
488	0.0005000461921123321	2934
1154	0.0004993278937148227	8508
1113	0.0004989963713775107	8449
1029	0.000498554341594428	8104
1238	0.0004982228192571159	9011
1218	0.0004980018043655746	8803
1270	0.0004975597745824919	9111
739	0.0004972835059680651	5504
482	0.0004971729985222944	2927
1272	0.0004967309687392117	9113
1027	0.0004966757150163263	8102
384	0.000496454700124785	2613
579	0.000496454700124785	3906
463	0.0004955153868357342	2908
438	0.0004951838644984221	2830
718	0.0004949628496068808	5301
1134	0.0004949075958839955	8473
373	0.0004948523421611102	2602
649	0.0004941340437636007	4416
845	0.0004939130288720594	6502
979	0.0004933604916432059	7405
1166	0.0004927527006914671	8522
501	0.0004922554171854991	3104
877	0.0004922001634626138	6906
1214	0.0004920896560168431	8715
349	0.0004913161038964483	2507
687	0.0004899900145472002	5002
437	0.0004894927310412321	2829
1019	0.0004894374773183468	7904
700	0.000488498164029296	5108
226	0.0004880008805233279	905
352	0.0004872825821258185	2510
276	0.00048711682095716244	1510
262	0.0004852934481019462	1214
726	0.00047921553858455875	5310
1044	0.00047319288279005665	8206
678	0.000470982733874643	4904
737	0.00047048545036867495	5502
1168	0.0004701539280313629	8525
445	0.0004688278386821147	2837
1323	0.0004675570030557519	970
1318	0.0004672807344413252	9701
898	0.0004671702269955545	7014
556	0.0004671149732726692	3807
1274	0.0004671149732726692	9201
705	0.00046694921210401315	5113
1220	0.00046650718232093045	8805
1230	0.00046578888392342097	9002
439	0.000465623122754765	2831
968	0.000463523481285122	7319
1268	0.00046341297383935135	9109
543	0.000463357720116466	3701
605	0.00046302619777915396	4007
487	0.0004625289142731859	2933
851	0.0004617001084299058	6602
994	0.0004608713025866257	7505
1312	0.0004598214818518042	9613
530	0.0004597109744060335	3407
451	0.0004593794520687215	2845
622	0.00045827437761101467	4106
1231	0.0004581086164423587	9003
190	0.00045755607921350524	601
560	0.00045634049731002775	3811
1296	0.00045484864679212354	9505
902	0.00045324628882844866	7018
850	0.0004530252739369073	6601
1260	0.00044573178251604235	9101
249	0.00044374264849217013	1201
1036	0.00043821727620363605	8111
269	0.0004336864709270381	1503
1273	0.00043346545603549676	9114
1108	0.0004334102023126114	8444
1047	0.0004332996948668407	8209
547	0.00043313393369818473	3705
690	0.0004324708890235606	5005
1065	0.00043086853105988573	8401
1269	0.00043070276989122975	9110
1120	0.00043037124755391766	8457
452	0.0004301502326623763	2846
1110	0.000430094978939491	8446
922	0.00043003972521660563	7201
720	0.0004282163523613894	5303
1261	0.00042755330768676534	9102
587	0.0004257851885544344	3914
334	0.0004257299348315491	2304
447	0.0004253431587713517	2840
1278	0.00042523265132558103	9207
1314	0.0004245696066509569	9615
181	0.0004245143529280716	501
1053	0.00042440384548230093	8215
924	0.0004231882635788234	7203
670	0.0004231330098559381	4807
742	0.00042258047262708464	5507
442	0.00042213844284400194	2834
657	0.0004195415178683909	4503
369	0.0004188232194708815	2528
1316	0.00041727611523009197	9617
732	0.0004163920556639265	5405
1304	0.00041572901098930245	9605
224	0.00041180599666444326	903
545	0.0003973847749913694	3703
468	0.00039732952126848403	2913
549	0.00039694274520828663	3707
544	0.00039639020797943325	3702
1051	0.00039534038724461175	8213
692	0.00039246719365457406	5007
1195	0.00039213567131726203	8605
1319	0.0003918594027028353	9702
1109	0.0003913068654739819	8445
914	0.0003911963580282112	7110
1295	0.0003910305968595552	9504
613	0.0003899807761247337	4015
375	0.0003888204479441416	2604
248	0.0003868313139202693	1109
182	0.0003864445378600719	502
859	0.0003864445378600719	6803
665	0.0003861130155227599	4705
1262	0.0003828530458725248	9103
430	0.00038263203098098345	2822
251	0.00038230050864367137	1203
654	0.0003813059416317353	4421
991	0.0003808086581257672	7501
335	0.00038075340440288185	2305
376	0.0003792063001620923	2605
418	0.0003790405389934363	2810
723	0.000378985285270551	5307
1158	0.00037843274804169754	8513
661	0.00037760394219841744	4701
1267	0.0003617461237303247	9108
1310	0.0003548394083696571	9611
658	0.0003481537079005309	4504
1031	0.00034760117067167754	8106
540	0.00034478323080452516	3604
1239	0.0003199190555061219	9013
1264	0.0003170458619160842	9105
1232	0.0003136201310971931	9004
656	0.000307928997640003	4502
853	0.00028019162875156205	6701
854	0.00027671064420978556	6702
1034	0.00027588183836650546	8109
655	0.00027510828624611067	4501
1035	0.0002718483165958756	8110
383	0.00026731751131927765	2612
