153	0.0024257328603673202	106
925	0.0022812111157196184	7204
813	0.0022127689073803613	6203
402	0.0021375706012222075	2710
999	0.002111427440096912	7602
293	0.0021103993382549056	1701
259	0.0020725064417923987	1211
619	0.0020601692196883267	4103
640	0.002030207394578437	4407
616	0.0019940769584165115	4100
365	0.001993489471649651	2523
617	0.0019915801396573544	4101
166	0.00196719943883264	303
323	0.001958827752404877	2202
595	0.0019419375078576354	3923
266	0.001911828811056031	1404
255	0.0018809857557958508	1207
332	0.0018611580774143062	2302
169	0.0018589550020385792	306
260	0.0017888972050904553	1212
832	0.0017827285940384193	6305
524	0.0017808192620461223	3401
814	0.001770244500242632	6204
797	0.001755851074454548	6104
796	0.0017495355917107967	6103
240	0.001735582780997858	1101
231	0.001731470373629834	910
641	0.0017107614650979986	4408
637	0.0017047397257376777	4404
206	0.0016954868091596236	713
836	0.0016831495870555516	6309
802	0.001656125195779965	6109
912	0.001637913106007287	7108
165	0.0016364443890901357	302
341	0.0016254290122114999	2402
168	0.0016252821405197849	305
336	0.0016249883971363546	2306
642	0.0016207291180766153	4409
799	0.001611182458115131	6106
211	0.0016104480996565551	804
618	0.0015975233907856226	4102
668	0.0015913547797335864	4800
962	0.0015801925311632356	7313
283	0.0015791644293212295	1517
800	0.0015753457653366358	6107
307	0.0015734364333443388	2001
795	0.001568442795826024	6102
707	0.0015672678222923028	5202
187	0.0015593367509396851	508
343	0.0015536087549627945	2501
958	0.001552286909737358	7309
758	0.0015496432192864855	5607
222	0.001538774714099565	901
636	0.0015334873331978196	4403
202	0.0015326061030475288	709
167	0.0015324592313558138	304
295	0.0015270249787623534	1703
798	0.0015252625184617717	6105
822	0.0015245281600031958	6212
881	0.0015217375978606082	6910
313	0.0015212969827854627	2007
801	0.0015185064206428751	6108
315	0.0015066098136139482	2009
1001	0.0015055817117719424	7604
895	0.0015016161760956334	7010
706	0.0015014693044039184	5201
342	0.0014945663348933066	2403
794	0.001487957108766125	6101
319	0.0014864883918489736	2104
807	0.0014792916789549315	6114
803	0.0014631357928662657	6110
317	0.0014556453365887933	2102
291	0.001455204721513648	1604
340	0.0014500642123036179	2401
225	0.001449182982153327	904
296	0.001444042472943297	1704
808	0.0014427206277178607	6115
414	0.0014397831938835577	2806
282	0.0014253897680954737	1516
759	0.0014178993118180013	5608
651	0.0014167243382842802	4418
264	0.0014137869044499774	1302
186	0.0014102619838488137	507
805	0.0014093807536985229	6112
241	0.0014049746029470686	1102
1293	0.0014045339878719233	9406
499	0.001401155938962475	3102
306	0.001400421580503899	1905
815	0.0013966029165193054	6205
650	0.001394987327910439	4417
837	0.001394252969451863	6310
242	0.0013938123543767176	1103
817	0.0013924905091512814	6207
957	0.001392196765767851	7308
218	0.0013917561506927056	811
866	0.0013914624073092753	6810
175	0.0013833844642649423	405
541	0.0013827969774980818	3605
842	0.0013825032341146515	6405
1186	0.0013797126719720639	8544
502	0.0013792720568969183	3105
819	0.0013761877513709005	6209
205	0.0013601787369739496	712
164	0.0013597381218988043	301
318	0.0013582694049816529	2103
635	0.0013560663296059256	4402
955	0.0013551850994556348	7306
172	0.0013540101259219136	402
923	0.001353422639155053	7202
821	0.0013528351523881925	6211
217	0.001351366435471041	810
709	0.001351366435471041	5204
203	0.0013484290016367382	710
401	0.0013466665413361565	2709
538	0.0013456384394941504	3602
959	0.001344169722576999	7310
937	0.0013424072622764173	7217
816	0.001342260390584702	6206
170	0.001332860602314933	307
179	0.0013271326063380422	409
314	0.001325957632804321	2008
207	0.0013253701460374605	714
811	0.001322873327278303	6201
250	0.001322726455586588	1202
1009	0.001320670251902576	7612
653	0.001318760919910279	4420
714	0.0013153828710008306	5209
594	0.00131479538423397	3922
916	0.0013133266673168186	7112
838	0.0013103892334825158	6401
204	0.0013048081091973404	711
316	0.0012929115021684137	2101
392	0.0012907084267926865	2621
201	0.001290120940025826	708
287	0.0012870366344998078	1522
302	0.0012849804308157958	1806
263	0.0012835117138986444	1301
362	0.0012824836120566385	2520
812	0.0012805742800643415	6202
1290	0.0012798399216057657	9403
935	0.0012793993065306204	7214
239	0.0012701463899525663	1008
522	0.0012689714164188452	3306
399	0.0012673558278099785	2707
712	0.0012633902921336698	5207
1254	0.0012608934733745122	9028
177	0.0012601591149159364	407
590	0.0012510530700295976	3917
867	0.001250612454954452	6811
648	0.0012492906097290159	4415
1199	0.001246353175894713	8609
818	0.0012448844589775616	6208
829	0.0012448844589775616	6302
752	0.001242240768526689	5601
171	0.0012419470251432585	401
1082	0.0012406251799178224	8418
713	0.0012385689762338104	5208
936	0.00123827523285038	7215
245	0.0012348971839409317	1106
510	0.0012348971839409317	3208
189	0.0012340159537906409	511
639	0.0012334284670237803	4406
740	0.0012332815953320652	5505
960	0.0012332815953320652	7311
931	0.0012301972898060471	7210
348	0.0012275535993551746	2506
278	0.0012246161655208717	1512
1096	0.0012240286787540112	8432
886	0.0012237349353705809	7001
1007	0.001220944373227993	7610
907	0.0012205037581528475	7103
710	0.0012196225280025567	5205
610	0.0012160976074013933	4012
804	0.0012159507357096782	6111
223	0.0012115445849582237	902
311	0.0012103696114245026	2005
934	0.0012090477661990664	7213
407	0.0012086071511239209	2715
820	0.0012083134077404906	6210
188	0.0012074321775901997	510
974	0.0012074321775901997	7325
891	0.0011986198760872912	7006
193	0.0011946543404109822	604
843	0.001194507468719267	6406
755	0.001194360597027552	5604
357	0.001193479366877261	2515
405	0.0011931856234938308	2713
183	0.0011917169065766794	504
359	0.0011899544462760977	2517
281	0.0011878982425920857	1515
998	0.0011870170124417948	7601
196	0.0011849608087577826	703
498	0.0011845201936826373	3101
749	0.0011833452201489162	5514
219	0.0011746797903377227	812
1215	0.001173064201728856	8716
176	0.00117203609988685	406
243	0.0011718892281951348	1104
328	0.0011713017414282743	2207
1223	0.0011702736395862684	8903
441	0.0011677768208271109	2833
512	0.0011654268737596686	3210
214	0.0011646925153010928	807
363	0.0011641050285342322	2521
646	0.0011623425682336505	4413
863	0.001160873851316499	6807
557	0.001160726979624784	3808
609	0.0011564677005650448	4011
364	0.001153677138422457	2522
789	0.0011504459612047238	6002
875	0.0011497116027461482	6904
717	0.0011491241159792877	5212
982	0.0011470679122952754	7408
1224	0.0011458929387615543	8904
436	0.0011426617615438212	2828
750	0.0011416336597018153	5515
1062	0.0011408993012432395	8309
765	0.0011397243277095183	5705
708	0.0011391368409426578	5203
835	0.0011372275089503608	6308
220	0.0011367868938752155	813
840	0.0011337025883491974	6403
1095	0.0011328213581989065	8431
1016	0.001130177667748034	7806
673	0.0011297370526728886	4823
320	0.0011275339772971614	2105
1288	0.0011265058754551553	9401
194	0.0011232746982374222	701
1003	0.0011229809548539919	7606
966	0.0011222465963954163	7317
289	0.0011210716228616951	1602
1135	0.0011210716228616951	8474
695	0.001117987317335677	5103
981	0.001117987317335677	7407
827	0.0011178404456439618	6217
149	0.0011165186004185256	102
347	0.0011157842419599498	2505
185	0.0011147561401179439	506
292	0.0011115249629002108	1605
324	0.0011102031176747744	2203
930	0.001109762502599629	7209
918	0.001107853170607332	7114
831	0.0011075594272239018	6304
970	0.0011071188121487563	7321
1291	0.0011071188121487563	9404
563	0.0011043282500061687	3814
1201	0.0010999220992547144	8702
322	0.001099628355871284	2201
288	0.001098600254029278	1601
212	0.0010983065106458477	805
173	0.0010959565635784054	403
597	0.0010956628201949752	3925
1322	0.0010936066165109632	9705
1188	0.0010931660014358176	8546
199	0.001091403541135236	706
546	0.0010889067223760784	3704
628	0.0010878786205340725	4205
350	0.0010871442620754967	2508
978	0.0010846474433163394	7403
760	0.0010845005716246241	5609
1057	0.0010840599565494788	8304
256	0.0010837662131660485	1208
1219	0.0010837662131660485	8804
1011	0.001079360062414594	7614
327	0.0010786257039560184	2206
1222	0.0010765695002720064	8902
1286	0.0010753945267382853	9306
403	0.0010745132965879944	2711
523	0.001069079043994534	3307
511	0.0010689321723028188	3209
1012	0.0010684915572276735	7615
554	0.001065847866776801	3805
729	0.001063791663092789	5402
1149	0.0010604136141833405	8503
574	0.0010601198707999103	3901
862	0.0010593855123413344	6806
876	0.0010573293086573224	6905
685	0.0010563012068153165	4911
611	0.001053657516364444	4013
379	0.0010532169012892985	2608
644	0.0010532169012892985	4411
443	0.0010523356711390076	2835
575	0.0010520419277555773	3902
521	0.0010516013126804318	3305
643	0.0010479295203875533	4410
728	0.001047782648695838	5401
1004	0.0010470482902372625	7607
1014	0.001044551471478105	7801
236	0.00104440459978639	1005
929	0.0010417609093355171	7208
339	0.0010379422453509234	2309
770	0.0010373547585840629	5805
833	0.0010361797850503417	6306
230	0.0010314798909154572	909
744	0.0010308924041485966	5509
308	0.001028248713697724	2002
210	0.001026339381705427	803
303	0.001026339381705427	1902
602	0.0010245769214048453	4004
265	0.001023108204487694	1401
1227	0.0010197301555782455	8907
1179	0.0010194364121948153	8537
191	0.001016939593435658	602
516	0.0010166458500522277	3214
747	0.0010163521066687974	5512
858	0.0010144427746765004	6802
422	0.0010135615445262096	2814
903	0.0010115053408421976	7019
897	0.0010101834956167612	7013
716	0.0010098897522333309	5211
596	0.001005777344865307	3924
208	0.0010056304731735919	801
762	0.0010051898580984463	5702
209	0.0010047492430233008	802
948	0.001002839911031004	7228
358	0.0010023992959558585	2516
351	0.001000930579038707	2509
444	0.0010004899639635618	2836
459	0.0009994618621215557	2904
634	0.0009994618621215557	4401
868	0.0009950557113701014	6812
528	0.0009934401227612347	3405
828	0.0009921182775357985	6301
371	0.0009899152021600713	2530
1203	0.0009888871003180654	8704
294	0.000987565255092629	1702
446	0.0009872715117091987	2839
525	0.000985509051408617	3402
1235	0.0009850684363334715	9007
423	0.0009849215646417565	2815
1156	0.0009841872061831806	8511
310	0.0009827184892660292	2004
1321	0.0009825716175743142	9704
404	0.0009799279271234416	2712
865	0.000978312338514575	6809
1013	0.0009775779800559993	7616
415	0.000977284236672569	2807
285	0.0009765498782139932	1520
1204	0.000976256134830563	8705
360	0.0009758155197554175	2518
917	0.0009756686480637024	7113
1056	0.0009736124443796904	8303
161	0.0009733187009962601	208
216	0.0009728780859211147	809
864	0.0009709687539288177	6808
849	0.000970234395470242	6507
1147	0.0009700875237785269	8501
537	0.0009697937803950966	3601
1141	0.0009696469087033814	8480
257	0.0009687656785530906	1209
1172	0.0009672969616359391	8530
631	0.0009668563465607937	4302
551	0.0009636251693430606	3802
247	0.0009628908108844849	1108
1300	0.0009609814788921879	9601
1281	0.0009601002487418971	9301
715	0.0009599533770501819	5210
879	0.0009590721468998911	6908
329	0.0009540785093815762	2208
1313	0.0009533441509230005	9614
1298	0.000952903535847855	9507
411	0.0009526097924644247	2803
1017	0.0009517285623141338	7901
1216	0.0009515816906224187	8801
1068	0.0009493786152466916	8404
520	0.0009492317435549764	3304
971	0.0009489380001715461	7322
774	0.0009458536946455281	5809
1078	0.000944678721111807	8414
790	0.0009440912343449464	6003
882	0.0009437974909615161	6911
947	0.0009437974909615161	7227
1152	0.0009432100041946555	8506
753	0.0009415944155857889	5602
680	0.0009410069288189283	4906
513	0.0009405663137437829	3211
681	0.0009401256986686375	4907
215	0.0009395382119017769	808
1228	0.0009352789328420378	8908
246	0.0009351320611503226	1107
337	0.0009349851894586075	2307
577	0.0009343977026917469	3904
956	0.0009343977026917469	7307
614	0.0009338102159248862	4016
388	0.00093248837069945	2617
973	0.0009320477556243045	7324
771	0.000930432167015438	5806
286	0.0009301384236320077	1521
1039	0.0009280822199479957	8201
213	0.0009279353482562805	806
869	0.0009266135030308443	6813
906	0.0009257322728805534	7102
378	0.000924410427655117	2607
743	0.000920298020287093	5508
964	0.0009188293033699416	7315
374	0.0009183886882947962	2603
1005	0.0009167730996859296	7608
674	0.0009166262279942145	4824
963	0.0009150106393853479	7314
1303	0.0009150106393853479	9604
721	0.0009147168960019175	5305
763	0.0009122200772427601	5703
1211	0.0009107513603256087	8712
1225	0.0009098701301753178	8905
254	0.0009075201831078755	1206
779	0.000906932696341015	5903
734	0.0009047296209652877	5407
975	0.000903995262506712	7326
1178	0.0009019390588227	8536
697	0.000900910956980694	5105
419	0.0008987078816049669	2811
608	0.0008987078816049669	4010
280	0.0008982672665298214	1514
607	0.0008975329080712457	4009
372	0.0008965048062292397	2601
606	0.0008960641911540943	4008
387	0.0008953298326955185	2616
927	0.0008916580404026399	7206
152	0.0008912174253274945	105
432	0.0008900424517937734	2824
652	0.0008897487084103431	4419
676	0.0008885737348766219	4902
645	0.0008869581462677554	4412
1200	0.0008866644028843251	8701
699	0.0008863706595008947	5107
921	0.0008862237878091795	7118
1289	0.0008849019425837433	9402
748	0.0008826988672080161	5513
151	0.0008818176370577253	104
234	0.0008818176370577253	1003
1101	0.000881523893674295	8437
1302	0.0008807895352157193	9603
1076	0.0008802020484488587	8412
893	0.0008788802032234224	7008
624	0.0008769708712311255	4115
565	0.0008757958976974043	3816
787	0.000875502154313974	5911
535	0.000874474052471968	3506
990	0.0008737396940133923	7419
1142	0.000873445950629962	8481
1208	0.0008716834903293803	8709
237	0.0008708022601790895	1006
788	0.0008691866715702229	6001
669	0.0008690397998785078	4802
505	0.0008630180605181868	3203
1299	0.0008630180605181868	9508
1002	0.0008622837020596111	7605
989	0.0008603743700673143	7418
604	0.000860080626683884	4006
1092	0.0008594931399170234	8428
741	0.0008587587814584477	5506
773	0.0008565557060827205	5808
434	0.000856115091007575	2826
841	0.000856115091007575	6404
148	0.000855086989165569	101
786	0.0008539120156318479	5910
1081	0.0008539120156318479	8417
933	0.0008531776571732722	7212
1046	0.000853030785481557	8208
497	0.0008528839137898419	3006
1226	0.000852002683639551	8906
666	0.0008518558119478359	4706
675	0.0008518558119478359	4901
806	0.0008506808384141148	6113
221	0.0008495058648803936	814
623	0.0008481840196549572	4114
1277	0.0008480371479632421	9206
454	0.0008478902762715269	2849
331	0.0008471559178129512	2301
1063	0.0008468621744295209	8310
469	0.0008458340725875149	2914
1083	0.0008458340725875149	8419
953	0.0008453934575123695	7304
1244	0.0008442184839786484	9018
529	0.0008436309972117878	3406
406	0.0008420154086029212	2714
390	0.0008409873067609152	2619
1197	0.0008409873067609152	8607
872	0.0008403998199940547	6901
1074	0.0008402529483023395	8410
496	0.0008398123332271941	2942
754	0.0008386373596934729	5603
1040	0.000837756129543182	8202
1198	0.0008361405409343154	8608
1064	0.0008359936692426003	8311
860	0.0008355530541674549	6804
928	0.0008355530541674549	7207
926	0.0008354061824757397	7205
725	0.0008339374655585883	5309
1283	0.000833643722175158	9303
1021	0.0008334968504834429	7907
1241	0.0008333499787917277	9015
711	0.0008330562354082974	5206
672	0.0008324687486414369	4811
1119	0.0008320281335662914	8455
620	0.0008317343901828612	4104
569	0.0008310000317242854	3820
900	0.0008307062883408552	7016
270	0.0008295313148071339	1504
1146	0.0008292375714237036	8487
1043	0.0008286500846568431	8205
704	0.0008283563412734128	5112
778	0.0008283563412734128	5902
961	0.0008279157261982673	7312
391	0.0008270344960479765	2620
612	0.0008265938809728311	4014
533	0.0008264470092811159	3503
1306	0.0008261532658976856	9607
954	0.0008255657791308251	7305
232	0.0008254189074391099	1001
738	0.0008251251640556796	5503
550	0.0008242439339053888	3801
154	0.0008239501905219585	201
539	0.0008233627037550979	3603
1098	0.0008221877302213768	8434
951	0.0008213065000710859	7302
1140	0.0008207190133042254	8479
830	0.0008204252699207951	6303
1174	0.0008204252699207951	8532
1018	0.0008202783982290799	7903
159	0.0008198377831539344	206
1221	0.0008196909114622193	8901
857	0.000819397168078789	6801
952	0.000819397168078789	7303
769	0.0008191034246953587	5804
698	0.0008180753228533527	5106
1097	0.0008169003493196316	8433
792	0.0008157253757859104	6005
312	0.0008155785040941953	2006
1094	0.0008151378890190498	8430
772	0.0008148441456356196	5807
664	0.0008133754287184681	4704
277	0.0008129348136433227	1511
659	0.0008126410702598924	4601
679	0.0008124941985681773	4905
1066	0.0008113192250344561	8402
1055	0.0008108786099593107	8302
576	0.0008094098930421592	3903
1177	0.0008077943044332926	8535
671	0.0008069130742830018	4810
735	0.0008057381007492806	5408
1175	0.0008057381007492806	8533
693	0.0008052974856741352	5101
1259	0.0008042693838321292	9033
701	0.0008038287687569838	5109
603	0.0008022131801481172	4005
456	0.0008014788216895415	2901
767	0.000801038206614396	5802
983	0.0008007444632309657	7409
1207	0.0008003038481558202	8708
892	0.0007992757463138142	7007
197	0.0007991288746220991	704
1106	0.0007985413878552385	8442
615	0.0007978070293966628	4017
638	0.0007978070293966628	4405
229	0.0007973664143215174	908
694	0.0007966320558629417	5102
1060	0.0007964851841712265	8307
1093	0.0007961914407877963	8429
195	0.0007957508257126508	702
1196	0.0007957508257126508	8606
519	0.0007953102106375054	3303
809	0.0007947227238706448	6116
987	0.0007945758521789297	7413
1025	0.0007944289804872145	8007
910	0.0007941352371037843	7106
301	0.0007922259051114874	1805
593	0.0007920790334197723	3920
601	0.0007914915466529116	4003
702	0.0007913446749611964	5110
321	0.0007911978032694813	2106
1136	0.0007889947278937542	8475
582	0.0007885541128186087	3909
412	0.0007882603694351785	2804
493	0.0007875260109766027	2939
745	0.0007873791392848876	5510
1117	0.0007863510374428816	8453
873	0.0007850291922174453	6902
1309	0.0007850291922174453	9610
722	0.0007845885771422999	5306
1129	0.0007832667319168636	8468
684	0.0007809167848494212	4910
261	0.0007801824263908455	1213
393	0.0007793011962405547	2701
457	0.0007793011962405547	2902
506	0.0007793011962405547	3204
1089	0.0007772449925565427	8425
305	0.0007746013021056701	1904
861	0.0007743075587222398	6805
834	0.0007732794568802338	6307
1118	0.000772545098421658	8454
297	0.0007710763815045066	1801
730	0.0007700482796625006	5403
1150	0.0007696076645873552	8504
184	0.0007672577175199129	505
599	0.0007668171024447674	4001
919	0.0007656421289110463	7115
1301	0.0007652015138359009	9602
1143	0.0007644671553773252	8482
600	0.0007641734119938949	4002
455	0.0007629984384601736	2852
932	0.0007627046950767433	7211
1090	0.0007625578233850282	8426
757	0.0007624109516933131	5606
969	0.0007624109516933131	7320
1085	0.0007624109516933131	8421
1000	0.0007621172083098828	7603
1115	0.0007621172083098828	8451
426	0.0007612359781595919	2818
507	0.0007609422347761616	3205
1169	0.0007606484913927314	8526
192	0.0007605016197010162	603
398	0.0007600610046258708	2706
495	0.0007596203895507254	2941
453	0.0007593266461672951	2847
980	0.0007593266461672951	7406
1192	0.0007581516726335739	8602
400	0.0007580048009418588	2708
1100	0.0007578579292501436	8436
471	0.0007577110575584285	2916
1171	0.0007574173141749982	8529
1148	0.0007565360840247074	8502
904	0.0007558017255661317	7020
542	0.0007556548538744165	3606
425	0.0007550673671075559	2817
883	0.0007546267520324105	6912
588	0.0007541861369572651	3915
568	0.0007538923935738348	3819
625	0.0007535986501904044	4201
368	0.0007533049068069741	2526
1008	0.0007528642917318287	7611
1116	0.0007528642917318287	8452
1067	0.0007519830615815378	8403
660	0.0007518361898898227	4602
267	0.000751101831431247	1501
1054	0.0007506612163561016	8301
273	0.0007505143446643864	1507
885	0.0007503674729726713	6914
781	0.0007494862428223804	5905
839	0.0007484581409803744	6402
478	0.0007481643975969441	2923
965	0.0007453738354543564	7316
290	0.000744933220379211	1603
500	0.0007437582468454898	3103
746	0.0007408208130111869	5511
155	0.0007405270696277566	202
1311	0.0007399395828608961	9612
844	0.0007396458394774658	6501
1202	0.0007386177376354598	8703
761	0.0007383239942520295	5701
1187	0.0007372958924100235	8545
1233	0.0007364146622597326	9005
382	0.0007346522019591508	2611
823	0.0007345053302674357	6213
1080	0.0007343584585757205	8416
1157	0.0007343584585757205	8512
472	0.0007340647151922902	2917
1160	0.0007333303567337145	8515
1037	0.0007328897416585691	8112
977	0.0007325959982751388	7402
356	0.0007324491265834237	2514
253	0.0007308335379745571	1205
1162	0.000730686666282842	8517
1180	0.0007289242059822603	8538
1114	0.0007280429758319694	8450
1061	0.000727602360756824	8308
1050	0.0007273086173733937	8212
667	0.0007270148739899634	4707
1161	0.0007264273872231028	8516
174	0.0007249586703059513	404
433	0.0007242243118473756	2825
558	0.0007242243118473756	3809
689	0.0007233430816970847	5004
826	0.0007223149798550787	6216
949	0.0007214337497047879	7229
1139	0.000720552519554497	8478
156	0.0007198181610959213	203
1045	0.000719524417712491	8207
504	0.0007193775460207759	3202
848	0.0007177619574119093	6506
1070	0.000717468214028479	8406
1308	0.0007173213423367639	9609
724	0.0007167338555699033	5308
985	0.0007167338555699033	7411
736	0.000716440112186473	5501
913	0.000716440112186473	7109
884	0.0007158526254196124	6913
1287	0.0007158526254196124	9307
1122	0.0007149713952693215	8459
756	0.0007145307801941761	5605
1102	0.0007143839085024609	8438
299	0.000713355806660455	1803
464	0.000712327704818449	2909
782	0.0007121808331267338	5906
1032	0.0007107121162095824	8107
435	0.0007104183728261521	2827
483	0.0007101246294427218	2928
1138	0.0007096840143675764	8477
1006	0.0007095371426758612	7609
1213	0.0007086559125255704	8714
768	0.0007083621691421401	5803
633	0.000708215297450425	4304
555	0.0007076278106835644	3806
824	0.000707187195608419	6214
785	0.0007067465805332735	5909
810	0.0007060122220746977	6117
1151	0.0007045435051575463	8505
344	0.0007043966334658312	2502
284	0.0007038091466989706	1518
627	0.00070322165993211	4203
578	0.0007030747882403949	3905
889	0.0006996967393309466	7004
470	0.0006995498676392315	2915
591	0.0006994029959475163	3918
1127	0.0006994029959475163	8465
178	0.0006988155091806557	408
940	0.0006986686374889406	7220
1155	0.0006982280224137952	8509
475	0.0006955843319629225	2920
1182	0.0006947031018126316	8540
1167	0.0006944093584292014	8523
1145	0.0006941156150457711	8486
1255	0.0006936749999706256	9029
163	0.0006926468981286196	210
508	0.0006919125396700439	3206
380	0.0006916187962866137	2609
777	0.0006916187962866137	5901
448	0.0006911781812114682	2841
559	0.0006900032076777471	3810
566	0.0006898563359860319	3817
775	0.0006898563359860319	5810
1252	0.0006898563359860319	9026
514	0.0006891219775274562	3212
238	0.0006889751058357411	1007
647	0.0006889751058357411	4414
1285	0.0006880938756854502	9305
1292	0.0006875063889185897	9405
986	0.0006872126455351593	7412
663	0.0006867720304600138	4703
481	0.0006860376720014381	2926
939	0.0006851564418511473	7219
1265	0.0006839814683174261	9106
696	0.000683834596625711	5104
733	0.0006831002381671353	5406
381	0.0006822190080168444	2610
416	0.0006810440344831233	2808
944	0.0006808971627914081	7224
731	0.0006806034194079779	5404
1026	0.0006801628043328324	8101
920	0.0006795753175659719	7117
629	0.000676784755423384	4206
571	0.0006750222951228023	3823
1212	0.0006748754234310872	8713
460	0.000674728551739372	2905
1153	0.0006745816800476569	8507
325	0.0006742879366642266	2204
580	0.0006737004498973661	3907
905	0.0006737004498973661	7101
431	0.0006732598348222206	2823
1088	0.0006729660914387903	8424
300	0.0006723786046719298	1804
279	0.0006719379895967843	1513
354	0.0006716442462133541	2512
751	0.0006712036311382086	5516
1189	0.0006709098877547783	8547
1133	0.0006679724539204754	8472
572	0.0006676787105370451	3824
1236	0.0006667974803867543	9008
157	0.0006640069182441665	204
162	0.0006632725597855908	209
564	0.0006628319447104454	3815
200	0.0006619507145601546	707
945	0.0006618038428684394	7225
532	0.0006615100994850091	3502
552	0.0006607757410264334	3803
271	0.0006606288693347183	1505
180	0.0006596007674927123	410
950	0.000659307024109282	7301
304	0.0006591601524175668	1903
227	0.0006587195373424213	906
988	0.0006579851788838456	7415
581	0.0006576914355004153	3908
1159	0.0006575445638087002	8514
1320	0.0006569570770418396	9703
338	0.0006568102053501245	2308
896	0.0006562227185832639	7011
413	0.0006559289751998336	2805
526	0.0006556352318164033	3403
1107	0.000655341488432973	8443
466	0.0006547540016661125	2911
1125	0.0006546071299743973	8462
517	0.0006541665148992519	3215
1079	0.000653285284748961	8415
1038	0.0006531384130572459	8113
943	0.0006529915413655308	7223
1024	0.0006521103112152399	8003
458	0.0006515228244483793	2903
908	0.0006515228244483793	7104
473	0.000651229081064949	2918
389	0.0006507884659898036	2618
1307	0.0006506415942980885	9608
888	0.0006497603641477976	7003
150	0.0006488791339975067	103
409	0.0006485853906140764	2801
1217	0.0006479979038472158	8802
158	0.0006474104170803552	205
536	0.000647116673696925	3507
972	0.000647116673696925	7323
1183	0.000647116673696925	8541
1245	0.0006469698020052098	9019
586	0.0006465291869300644	3913
1206	0.0006465291869300644	8707
871	0.0006462354435466341	6815
1280	0.0006462354435466341	9209
1023	0.0006449135983211978	8002
534	0.0006431511380206161	3505
1015	0.0006431511380206161	7804
1099	0.0006424167795620404	8435
683	0.0006421230361786101	4909
160	0.000640948062644889	207
486	0.0006406543192614587	2932
1284	0.0006406543192614587	9304
1073	0.0006400668324945981	8409
258	0.0006397730891111677	1210
1058	0.0006396262174194526	8305
1137	0.0006391856023443071	8476
531	0.0006381575005023012	3501
688	0.000638010628810586	5003
852	0.000638010628810586	6603
784	0.0006378637571188709	5908
345	0.0006368356552768649	2503
477	0.0006368356552768649	2922
1249	0.0006363950402017194	9023
630	0.000635954425126574	4301
776	0.0006358075534348589	5811
394	0.000634926323284568	2702
1190	0.0006346325799011377	8548
370	0.0006344857082094226	2529
703	0.0006344857082094226	5111
1041	0.000633898221442562	8203
1185	0.0006336044780591317	8543
355	0.0006327232479088409	2513
942	0.0006319888894502652	7222
1103	0.0006305201725331136	8439
561	0.0006300795574579682	3812
440	0.0006297858140745379	2832
686	0.0006287577122325319	5001
878	0.0006278764820822411	6907
825	0.0006271421236236654	6215
909	0.0006267015085485199	7105
1258	0.0006246453048645079	9032
1173	0.0006234703313307868	8531
967	0.0006227359728722111	7318
1194	0.000620679769188199	8604
1247	0.0006203860258047687	9021
274	0.000617595463662181	1508
408	0.0006170079768953204	2716
1124	0.0006164204901284599	8461
417	0.0006162736184367447	2809
1010	0.0006162736184367447	7613
462	0.0006161267467450296	2907
1181	0.0006159798750533144	8539
467	0.0006158330033615993	2912
890	0.0006158330033615993	7005
479	0.0006156861316698841	2924
589	0.0006149517732113084	3916
1033	0.0006140705430610176	8108
1209	0.0006140705430610176	8710
632	0.0006127486978355813	4303
385	0.00061157372430186	2614
1091	0.00061157372430186	8427
494	0.0006109862375349995	2940
1315	0.0006109862375349995	9616
1251	0.0006099581356929935	9025
421	0.0006092237772344178	2813
527	0.0006090769055427026	3404
361	0.0006084894187758421	2519
946	0.0006081956753924118	7226
1072	0.0006081956753924118	8408
198	0.0006068738301669755	705
1048	0.0006067269584752603	8210
1059	0.0006065800867835452	8306
228	0.0006048176264829635	907
353	0.0006046707547912484	2511
573	0.0006046707547912484	3825
427	0.0006043770114078181	2819
1126	0.0006040832680243878	8463
1030	0.0006037895246409575	8105
1069	0.0006032020378740969	8405
491	0.0006008520908066545	2937
268	0.0005989427588143577	1502
333	0.0005989427588143577	2303
326	0.0005974740418972063	2205
252	0.0005973271702054911	1204
1087	0.0005970334268220608	8423
941	0.00059615219667177	7221
1250	0.00059615219667177	9024
377	0.0005957115815966246	2606
791	0.000593067891145752	6004
1144	0.0005923335326871762	8483
386	0.0005914523025368853	2615
874	0.000589102355469443	6903
480	0.0005889554837777279	2925
367	0.0005877805102440068	2525
682	0.0005873398951688613	4908
509	0.0005844024613345585	3207
1305	0.0005844024613345585	9606
450	0.0005836681028759828	2844
515	0.0005826400010339767	3213
1022	0.0005823462576505464	8001
395	0.0005821993859588312	2703
461	0.000581905642575401	2906
1256	0.0005813181558085404	9030
1071	0.0005805837973499647	8407
1163	0.0005792619521245284	8518
1028	0.000578821337049383	8103
1205	0.000578821337049383	8706
485	0.0005783807219742375	2930
719	0.0005783807219742375	5302
764	0.0005774994918239467	5704
1077	0.0005763245182902255	8413
585	0.0005758839032150801	3912
396	0.0005754432881399347	2704
553	0.0005754432881399347	3804
1176	0.0005752964164482195	8534
887	0.0005751495447565044	7002
783	0.0005742683146062135	5907
901	0.0005742683146062135	7017
899	0.0005738276995310681	7015
846	0.000573680827839353	6504
1042	0.0005729464693807772	8204
691	0.0005723589826139166	5006
1317	0.0005720652392304863	9618
621	0.0005716246241553409	4105
1246	0.0005705965223133349	9020
275	0.0005704496506216197	1509
1170	0.0005698621638547592	8527
626	0.0005695684204713289	4202
272	0.0005691278053961834	1506
298	0.0005648685263364443	1802
996	0.0005641341678778685	7507
1131	0.0005635466811110079	8470
410	0.0005629591943441474	2802
992	0.0005619310925021414	7502
793	0.0005616373491187111	6006
780	0.0005613436057352808	5904
1271	0.0005613436057352808	9112
570	0.0005600217605098445	3821
727	0.0005576718134424022	5311
1132	0.000556349968216966	8471
420	0.00055532186637496	2812
592	0.0005545875079163841	3919
976	0.000554440636224669	7401
911	0.0005541468928412387	7107
1210	0.0005529719193075176	8711
490	0.0005517969457737964	2936
1257	0.0005512094590069359	9031
766	0.0005509157156235056	5801
1112	0.000549300127014639	8448
880	0.0005478314100974876	6909
562	0.0005475376667140573	3813
492	0.0005469501799471967	2938
1248	0.0005469501799471967	9022
1130	0.0005459220781051907	8469
1191	0.0005448939762631846	8601
1253	0.0005447471045714695	9027
1266	0.0005446002328797543	9107
233	0.0005444533611880392	1002
938	0.000544306489496324	7218
1020	0.0005429846442708878	7905
1121	0.0005428377725791726	8458
1165	0.0005421034141205969	8521
1084	0.0005419565424288818	8420
870	0.0005413690556620212	6814
997	0.0005412221839703061	7508
474	0.0005409284405868758	2919
397	0.0005407815688951606	2705
424	0.0005403409538200152	2816
894	0.0005401940821283001	7009
1275	0.0005400472104365849	9202
518	0.0005396065953614395	3302
346	0.0005385784935194335	2504
677	0.0005379910067525729	4903
1229	0.0005379910067525729	9001
567	0.0005376972633691426	3818
476	0.0005375503916774275	2921
1111	0.0005371097766022821	8447
1075	0.0005368160332188518	8411
1263	0.0005363754181437064	9104
855	0.0005357879313768458	6703
489	0.0005331442409259731	2935
1105	0.0005325567541591125	8441
856	0.0005322630107756823	6704
1052	0.0005322630107756823	8214
984	0.000531969267392252	7410
1276	0.000531969267392252	9205
465	0.0005305005504751006	2910
1164	0.0005290318335579491	8519
847	0.0005287380901745188	6505
309	0.0005285912184828037	2003
1297	0.0005282974750993734	9506
1193	0.0005258006563402159	8603
330	0.0005240381960396342	2209
503	0.0005225694791224828	3201
366	0.0005219819923556222	2524
1184	0.0005215413772804768	8542
1238	0.0005193383019047496	9011
598	0.0005191914302130345	3926
993	0.0005186039434461739	7504
235	0.0005183102000627436	1004
995	0.000517722713295883	7506
1128	0.0005174289699124528	8467
1242	0.0005159602529953012	9016
449	0.0005149321511532952	2843
1279	0.000514638407769865	9208
1243	0.0005137571776195741	9017
349	0.000512582204085853	2507
1123	0.0005117009739355621	8460
1272	0.0005114072305521318	9113
1237	0.0005078823099509684	9010
1294	0.000507441694875823	9503
244	0.0005072948231841078	1105
1027	0.000506560464725532	8102
662	0.0005053854911918109	4702
1019	0.0005049448761166654	7904
1270	0.0005046511327332352	9111
1218	0.0005033292875077989	8803
584	0.0005030355441243686	3911
482	0.000502448057357508	2927
1049	0.000502448057357508	8211
915	0.0005020074422823626	7111
583	0.0005015668272072172	3910
438	0.0005011262121320717	2830
1240	0.0005005387253652112	9014
739	0.0004995106235232052	5504
1134	0.0004992168801397749	8473
488	0.0004987762650646295	2934
979	0.0004987762650646295	7405
548	0.0004986293933729143	3706
501	0.0004980419066060538	3104
463	0.0004978950349143386	2908
1086	0.0004978950349143386	8422
1154	0.0004978950349143386	8508
451	0.0004977481632226234	2845
1166	0.0004974544198391931	8522
579	0.0004973075481474779	3906
437	0.0004958388312303265	2829
1113	0.0004956919595386114	8449
1029	0.0004952513444634659	8104
1234	0.0004940763709297448	9006
877	0.0004930482690877388	6906
484	0.0004926076540125934	2929
428	0.0004923139106291631	2820
352	0.000491138937095442	2510
726	0.0004909920654037268	5310
1104	0.0004906983220202965	8440
373	0.0004904045786368662	2602
429	0.0004902577069451511	2821
649	0.0004892296051031451	4416
700	0.0004887889900279997	5108
226	0.0004880546315694239	905
276	0.0004877608881859936	1510
718	0.0004873202731108482	5301
1214	0.0004870265297274179	8715
384	0.0004862921712688422	2613
687	0.0004858515561936967	5002
262	0.00048350160912625443	1214
487	0.00048320786574282415	2933
845	0.0004815922771339576	6502
1282	0.00048100479036709696	9302
994	0.00048056417529195153	7505
898	0.0004798298168333758	7014
678	0.00047351433408962464	4904
605	0.0004730737190144792	4007
1044	0.00047292684732276407	8206
902	0.00047175187378904293	7018
560	0.0004707237719470369	3811
968	0.0004707237719470369	7319
1220	0.0004704300285636066	8805
1231	0.0004683738248795946	9003
1312	0.000466758236270728	9613
1230	0.0004654363910452917	9002
249	0.00046528951935357655	1201
556	0.00046455516089500084	3807
705	0.00046455516089500084	5113
1323	0.0004630864439778494	970
439	0.000462645828902704	2831
622	0.000462645828902704	4106
850	0.0004617645987524131	6601
1318	0.0004614708553689828	9701
1168	0.00045985526676011623	8525
543	0.0004591209083015405	3701
530	0.0004564772178506679	3407
1268	0.00045633034615895276	9109
1274	0.0004544210141666559	9201
737	0.0004541272707832256	5502
445	0.00045324604063293476	2837
851	0.0004507492218737773	6602
190	0.00045060235018206215	601
1296	0.0004501617351069167	9505
547	0.00044355250897973526	3705
1260	0.0004428181505211595	9101
924	0.00044267127882944435	7203
269	0.00043841199976970516	1503
1108	0.00043635579608569317	8444
1110	0.00043635579608569317	8446
1065	0.0004325371321010994	8401
1316	0.00043121528687566313	9617
922	0.000431068415183948	7201
1047	0.0004307746718005177	8209
1304	0.0004294528265750814	9605
334	0.0004293059548833663	2304
1314	0.00042871846811650565	9615
452	0.0004282778530413602	2846
670	0.0004281309813496451	4807
181	0.0004278372379662148	501
1261	0.0004268091361242088	9102
1273	0.0004263685210490634	9114
1053	0.00042460606074848166	8215
1278	0.0004238717022899059	9207
742	0.00042225611368103933	5507
732	0.0004213748835307485	5405
1036	0.00042122801183903333	8111
447	0.00042093426845560305	2840
1120	0.0004204936533804576	8457
442	0.0004184374496964456	2834
224	0.00041594063093728815	903
1269	0.00041476565740356696	9110
690	0.0004125625820278398	5005
544	0.00041197509526097925	3702
587	0.00041065325003554297	3914
369	0.00041021263496039754	2528
657	0.0004074220728178098	4503
1295	0.0004031627937580706	9504
720	0.00040007848823205255	5303
661	0.0003967004393226043	4701
1319	0.0003952317224054528	9702
1109	0.0003949379790220225	8445
914	0.00039302864702972566	7110
549	0.00039258803195458023	3707
182	0.0003924411602628651	502
613	0.0003905318282705682	4015
468	0.0003899443415037076	2913
859	0.0003897974698119925	6803
418	0.0003895037264285622	2810
375	0.0003887693679699865	2604
1195	0.0003884756245865562	8605
248	0.00038832875289484105	1109
545	0.0003878881378196956	3703
723	0.00038730065105283505	5307
1051	0.00038700690766940477	8213
654	0.00038362885875995644	4421
430	0.0003834819870682413	2822
251	0.0003827476286096656	1203
692	0.000382160141842805	5007
665	0.0003798101947753627	4705
1158	0.00037863522124164154	8513
1262	0.00037790086278306583	9103
335	0.0003752571723321932	2305
991	0.00037466968556533264	7501
376	0.00036894168958844203	2605
1310	0.0003630668219198363	9611
540	0.00035866067116838195	3604
1267	0.000351610829966055	9108
658	0.000338392377711692	4504
1031	0.00033751114756140117	8106
656	0.00032003341624729906	4502
1264	0.00031680223902956587	9105
1232	0.00031283670335325697	9004
1239	0.0003126898316615418	9013
1034	0.0002861060554611007	8109
853	0.00027979057271734954	6701
854	0.0002778812407250527	6702
383	0.00027112514290615603	2612
655	0.0002689220675304289	4501
1035	0.00025555674358435077	8110
