153	0.0024089129567756305	106
925	0.002265488606947204	7204
813	0.002225064528023599	6203
999	0.0021344572120883753	7602
402	0.002117384564445247	2710
293	0.0021044507404731805	1701
259	0.0020849324242971524	1211
619	0.002078747704834146	4103
640	0.0020380414333875142	4407
617	0.0020017561781349707	4101
616	0.00198416617753296	4100
166	0.0019681752678947684	303
365	0.0019597330082475467	2523
595	0.0019488215640238397	3923
323	0.001946305347360183	2202
255	0.0019240591701282282	1207
266	0.0018974390087893565	1404
169	0.0018938410541207633	306
332	0.0018484315739570165	2302
832	0.0017896414649930768	6305
260	0.0017808934967792427	1212
524	0.001765020167358979	3401
231	0.0017576596457166938	910
814	0.0017493584823309854	6204
797	0.001747994551803022	6104
796	0.0017451255944855818	6103
240	0.0017019031063752934	1101
637	0.0016891574107519114	4404
641	0.0016790455120101139	4408
206	0.0016752594289928362	713
802	0.0016711676374089458	6109
836	0.0016634308590692914	6309
165	0.0016442887995906327	302
799	0.0016393504304376618	6106
912	0.0016292385316958643	7108
618	0.001615434614111131	4102
336	0.0016104727289145747	2306
795	0.0016094850550839805	6102
642	0.001608285736861116	4409
341	0.0016078859641201614	2402
168	0.001605134587020649	305
211	0.0015981268060321473	804
668	0.0015918480223947986	4800
962	0.0015779265245921376	7313
800	0.0015706365510806091	6107
283	0.0015688258157245199	1517
958	0.0015561036361447234	7309
707	0.0015559860559267954	5202
222	0.0015518472322557343	901
187	0.0015480141171512853	508
343	0.0015476378604539162	2501
758	0.001547426216061646	5607
636	0.0015456625127927277	4403
167	0.0015439693576545662	304
315	0.0015414296249473241	2009
307	0.0015401832746372885	2001
801	0.001537267285232677	6108
295	0.001533010881343688	1703
202	0.0015311531139004274	709
798	0.0015260971645295286	6105
881	0.0015180076455360905	6910
895	0.0015177019369694781	7010
313	0.0015143391427367408	2007
794	0.00150940077358377	6101
822	0.0014983247170549637	6212
807	0.0014894826846667871	6114
706	0.001487272176569743	5201
342	0.0014794648500993319	2403
319	0.0014789710131840347	2104
1001	0.0014718926840647764	7604
225	0.0014628625233279152	904
291	0.0014582298627415567	1604
340	0.0014516924026247667	2401
803	0.0014474359987357774	6110
296	0.0014472243543435072	1704
317	0.0014380530973451327	2102
808	0.001436265878032629	6115
282	0.0014327619875383782	1516
186	0.001421850543314671	507
957	0.0014170062383360425	7308
866	0.0014157128559388356	6810
651	0.0014139961847570886	4418
306	0.0014055068930226959	1905
1293	0.001402990676359039	9406
759	0.0014016502618746614	5608
837	0.0014014151014388055	6310
541	0.0014013680693516345	3605
414	0.0014006625880440672	2806
817	0.0013999335906929144	6207
502	0.0013982874676419241	3105
499	0.0013967589248088615	3102
241	0.0013945954487989886	1102
264	0.0013938664514478358	1302
815	0.0013932315182710253	6205
819	0.0013929493257479983	6209
650	0.0013927141653121426	4417
805	0.001390809365781711	6112
242	0.0013864824137619649	1103
218	0.0013839426810547228	811
318	0.001376064806453555	2103
1186	0.001371949498826079	8544
538	0.001371126437300584	3602
175	0.001368680768767684	405
164	0.001364965233881163	301
172	0.001363530755222443	402
821	0.0013634131750045152	6211
203	0.0013608969583408584	710
842	0.0013596270919872375	6405
205	0.0013576752603696345	712
816	0.0013570168111492384	6206
170	0.0013552531078803202	307
709	0.0013536775329600866	5204
635	0.001345611530010234	4402
401	0.0013440829871771717	2709
314	0.0013382510083679488	2008
937	0.0013335713156944194	7217
179	0.0013310080669435916	409
955	0.0013310080669435916	7306
204	0.0013299028128950696	711
959	0.0013269162753597014	7310
714	0.0013263048582264764	5209
217	0.001324282478478117	810
838	0.0013238591896935765	6401
923	0.0013228715158629823	7202
811	0.0013191089488892903	6201
812	0.0013176039220998135	6202
653	0.0013136767428210223	4420
1009	0.0013073979591836735	7612
250	0.0013073274110529168	1202
207	0.0013071863147914033	714
392	0.0013006958867617844	2621
594	0.0013006488546746132	3922
916	0.0012986029588826682	7112
316	0.0012962043224369394	2101
239	0.0012859513274336284	1008
362	0.0012840700439467822	2520
712	0.0012815538272831256	5207
263	0.001278543773704172	1301
935	0.001275369107820119	7214
201	0.0012725001505026789	708
1290	0.0012722414740232377	9403
522	0.0012717241210643548	3306
171	0.001268996260008428	401
177	0.0012688786797905003	407
399	0.0012677969417855639	2707
302	0.0012677028776112214	1806
287	0.0012645752438143398	1522
867	0.0012621530913250257	6811
590	0.0012617298025404853	3917
936	0.0012605540003612064	7215
648	0.0012551923424236951	4415
710	0.0012547220215519837	5205
818	0.00124804346517368	6208
829	0.0012477377566070676	6302
713	0.0012446806709409427	5208
639	0.0012428464195412678	4406
1254	0.0012353918337246403	9028
510	0.0012344511919812173	3208
1082	0.001231582234663777	8418
931	0.0012301007239178857	7210
752	0.0012294893067846607	5601
610	0.0012274904430798867	4012
348	0.0012260559644211666	2506
278	0.0012255621275058695	1512
1199	0.0012254680633315273	8609
740	0.001223657327975438	5505
1007	0.001223492715670339	7610
1096	0.001223375135452411	8432
189	0.0012231164589729697	511
960	0.0012209764990066822	7311
281	0.0012195185043043766	1515
886	0.0012193774080428632	7001
907	0.0012142979426283788	7103
193	0.001213286752754199	604
820	0.0012127693997953163	6210
188	0.0012115230494852808	510
804	0.0012098298943471193	6111
245	0.0012092655093010655	1106
311	0.0012053383300222743	2005
223	0.0012049620733249051	902
974	0.0012018344395280235	7325
359	0.001195602687977846	2517
755	0.0011945679820600807	5604
441	0.001193439211967973	2833
498	0.0011913698001324424	3101
934	0.001189606096863524	7213
405	0.0011889241315995425	2713
749	0.0011885478749021734	5514
843	0.0011865254951538137	6406
998	0.0011855613373668052	7601
196	0.0011821279950033111	703
243	0.0011818222864366985	1104
183	0.0011803642917343929	504
214	0.0011793766179037986	807
328	0.0011792355216422852	2207
357	0.001178976845162844	2515
407	0.0011777304948528083	2715
219	0.001168817914333875	812
512	0.0011666544383240021	3210
646	0.0011664192778881464	4413
363	0.0011647026067063994	2521
891	0.001163620868701463	7006
609	0.001163503288483535	4011
789	0.001160845975558365	6002
1224	0.0011594114968996449	8904
1223	0.0011590352402022757	8903
863	0.0011589411760279333	6807
1215	0.0011577418578050688	8716
176	0.001156519023538619	406
875	0.0011525448121726567	6904
750	0.001151533622298477	5515
835	0.0011514395581241346	6308
557	0.0011513690099933778	3808
840	0.0011504048522063693	6403
982	0.0011496288227680453	7408
765	0.0011489703735476492	5705
364	0.0011462425124917222	2522
717	0.0011448550659201734	5212
220	0.0011426445578231292	813
966	0.0011410454668593101	7317
436	0.001136671482752393	2828
708	0.0011295931536331348	5203
1016	0.0011289582204563242	7806
1288	0.001128299771235928	9401
1003	0.001128135158930829	7606
1135	0.0011251721374390465	8474
981	0.0011244901721750647	7407
289	0.0011241844636084523	1602
918	0.0011238082069110831	7114
673	0.0011229616293420024	4823
1095	0.0011204454126783456	8431
695	0.0011197869634579495	5103
347	0.0011195282869785083	2505
930	0.0011184230329299861	7209
597	0.001118376000842815	3925
322	0.0011156716558304738	2201
970	0.0011154835274817892	7321
185	0.0011152953991331045	506
1062	0.00111510727078442	8309
149	0.0011150132066100776	102
173	0.001114989690566492	403
194	0.001114613433869123	701
827	0.0011120031530311239	6217
288	0.0011116504123773402	1601
831	0.0011086873908855578	6304
320	0.0011078643293600625	2105
1322	0.001107723233098549	9705
324	0.0011059360137860453	2203
292	0.0011058654656552886	1605
212	0.0011053245966528204	805
978	0.001099304489494913	7403
1286	0.0010992574574077419	9306
523	0.0010910738742399614	3307
760	0.0010883460131840346	5609
1188	0.0010880167885738367	8546
350	0.0010871231789175847	2508
327	0.001087052630786828	2206
546	0.0010854770558665944	3704
611	0.001082514034374812	4013
563	0.0010823259060261273	3814
1011	0.0010806562669315514	7614
256	0.001079456948708687	1208
1012	0.0010780930181807237	7615
554	0.0010775521491782553	3805
628	0.0010775286331346698	4205
1057	0.0010773405047859851	8304
1201	0.0010750359325145988	8702
1291	0.0010748713202094998	9404
511	0.0010735073896815364	3209
199	0.0010733192613328517	706
1222	0.001072190491240744	8902
403	0.0010705443681897537	2711
685	0.0010640539401601348	4911
729	0.0010608087261453254	5402
644	0.001056552322256336	4411
1004	0.0010522724023237613	7607
929	0.0010516609851905364	7208
1219	0.0010494975091806635	8804
1149	0.0010490036722653664	8503
862	0.001047192936909277	6806
575	0.0010460406507735837	3902
643	0.0010453586855096021	4410
744	0.0010448413325507193	5509
770	0.001043971238938053	5805
728	0.001043477402022756	5401
574	0.001043430369935585	3901
443	0.001043148177412558	2835
521	0.0010424662121485762	3305
379	0.0010410082174462706	2608
602	0.0010406789928360724	4004
876	0.0010405849286617302	6905
1014	0.00104037328426946	7801
339	0.001039432642526037	2309
833	0.0010350351423755342	6306
303	0.0010341885648064535	1902
191	0.0010308022545301306	602
210	0.0010285447143459153	803
236	0.0010260990458130154	1005
230	0.0010253700484618626	909
308	0.0010228067997110348	2002
868	0.0010203846472217205	6812
1179	0.0010195380696526397	8537
903	0.0010193734573475408	7019
208	0.001016480983986515	801
516	0.0010153522138944074	3214
459	0.0010136120266690746	2904
948	0.0010125773207513094	7228
897	0.0010124127084462104	7013
528	0.0010110722939618325	3405
747	0.001009096946300644	5512
762	0.0010086266254289327	5702
415	0.0010080622403828789	2807
596	0.001007944660164951	3924
446	0.00100789762807778	2839
294	0.0010072626949009693	1702
716	0.0010070745665522846	5211
351	0.0010061339248088616	2509
444	0.0010032649674914214	2836
858	0.0010024889380530974	6802
216	0.0010014307160917464	809
265	0.0010014307160917464	1401
634	0.001000513590391909	4401
358	0.0010003724941303955	2516
631	0.0009979268255974956	4302
371	0.000996798055505388	2530
209	0.0009959044458491362	802
828	0.0009955046731081813	6301
1227	0.0009954811570645958	8907
422	0.000994634579495515	2814
1156	0.0009907309162603094	8511
525	0.0009811363704773945	3402
423	0.0009810187902594665	2815
1141	0.000979161022816206	8480
1203	0.000978173348985612	8704
1321	0.0009769975468063331	9704
865	0.0009768799665884052	6809
1056	0.0009752808756245861	8303
310	0.0009736582686171814	2004
257	0.0009726470787430016	1209
1013	0.0009723884022635603	7616
285	0.0009722237899584613	1520
404	0.0009717064369995786	2712
1204	0.0009708128273433267	8705
1281	0.0009704836027331287	9301
917	0.0009702249262536874	7113
864	0.0009695899930768768	6808
161	0.0009665564234543375	208
715	0.0009664623592799951	5210
1300	0.000965968522364698	9601
329	0.000963758014267654	2208
849	0.0009631230810908434	6507
360	0.0009621824393474204	2518
879	0.0009583022921558004	6908
1235	0.0009578319712840889	9007
1078	0.0009576908750225754	8414
869	0.0009525408614773343	6813
1147	0.0009506595779904882	8501
551	0.0009505184817289748	3802
537	0.0009496954202034796	3601
947	0.0009484255538498586	7227
1068	0.000947343815844922	8404
680	0.0009465677864065981	4906
771	0.0009465442703630125	5806
513	0.000944686502919752	3211
973	0.0009420527060381675	7324
614	0.0009418645776894829	4016
1039	0.0009405947113358617	8201
1172	0.0009404300990307628	8530
882	0.000940030326289808	6911
956	0.0009397951658539522	7307
1298	0.000939583521461682	9507
577	0.0009387134278490157	3904
411	0.0009384782674131599	2803
753	0.0009384547513695743	5602
246	0.0009382666230208898	1107
971	0.0009379138823671061	7322
1216	0.0009368791764493408	8801
1313	0.0009368556604057553	9614
774	0.0009358209544879899	5809
1017	0.0009352565694419361	7901
1225	0.0009350214090060803	8905
520	0.0009329990292577208	3304
790	0.0009329049650833785	6003
906	0.000932599256516766	7102
1228	0.0009325287083860093	8908
213	0.0009318702591656131	806
743	0.0009315645505990007	5508
1152	0.000931494002468244	8506
388	0.0009298949115044248	2617
337	0.0009284604328457047	2307
378	0.0009268613418818855	2607
681	0.0009244391893925712	4907
247	0.0009241569968695442	1108
286	0.0009237807401721751	1521
374	0.0009221111010775992	2603
674	0.0009169846035759437	4824
215	0.0009162085741376197	808
779	0.0009156677051351514	5903
721	0.000913363132863765	5305
1101	0.0009125165552946842	8437
606	0.0009117405258563603	4008
607	0.0009086128920594786	4009
608	0.0009070138010956595	4010
1289	0.0009069197369213172	9402
964	0.0009033688143398952	7315
734	0.0009031101378604539	5407
280	0.0009024046565528866	1514
419	0.0009022870763349587	2811
763	0.0009009231458069954	5703
1005	0.0009008761137198242	7608
1303	0.0009005468891096261	9604
432	0.0008996062473662031	2824
975	0.0008994416350611041	7326
372	0.0008993710869303474	2601
1211	0.0008984539612305099	8712
676	0.000896784322135934	4902
927	0.0008965961937872494	7206
963	0.0008957496162181687	7314
152	0.0008957261001745832	105
234	0.0008956790680874119	1003
697	0.0008954674236951417	5105
652	0.0008942916215158629	4419
921	0.0008939859129492505	7118
254	0.0008914696962855938	1206
699	0.0008886007389681536	5107
387	0.0008876600972247306	2616
748	0.0008850263003431461	5513
1142	0.0008798998028414906	8481
1178	0.0008772424899163205	8536
645	0.0008766310727830955	4412
1076	0.0008750319818192763	8412
535	0.0008748438534705918	3506
1092	0.0008723981849376919	8428
434	0.0008723746688941063	2826
787	0.0008715516073686112	5911
1074	0.0008712458988019986	8410
786	0.0008695762597074228	5910
1063	0.0008695057115766661	8310
773	0.000869176486966468	5808
1200	0.0008688472623562699	8701
669	0.0008682123291794593	4802
624	0.0008678595885256758	4115
933	0.0008675303639154777	7212
989	0.0008675068478718921	7418
666	0.0008663780777797845	4706
1302	0.0008657666606465595	9603
496	0.0008655785322978749	2942
454	0.0008655315002107037	2849
788	0.0008648730509903076	6001
741	0.0008645908584672807	5506
1002	0.0008641440536391548	7605
1208	0.0008633445081572452	8709
990	0.0008628741872855337	7419
1299	0.0008628036391547769	9508
565	0.0008621687059779664	3816
529	0.0008613691604960568	3406
604	0.0008612986123653001	4006
872	0.0008591351363554271	6901
928	0.0008590410721810848	7207
711	0.0008585237192222021	5206
148	0.0008585002031786166	101
505	0.0008584531710914454	3203
1277	0.0008573714330865089	9206
841	0.0008572538528685811	6404
675	0.0008560310186021312	4901
221	0.0008533266735897899	814
893	0.0008532796415026188	7008
331	0.0008524565799771236	2301
406	0.0008515629703208718	2714
151	0.000850104975618566	104
806	0.0008496816868340257	6113
497	0.0008493759782674131	3006
623	0.0008488586253085305	4114
237	0.0008475887589549094	1006
390	0.000843896740111974	2619
1083	0.0008432618069351634	8419
1043	0.000842180068930227	8205
1198	0.0008419449084943712	8608
1046	0.0008402987854433809	8208
1146	0.0008398754966588405	8487
1064	0.000839734400397327	8311
1241	0.0008394992399614713	9015
469	0.0008393581436999579	2914
1244	0.0008391464993076877	9018
1119	0.0008379236650412378	8455
391	0.0008376414725182108	2620
154	0.0008372887318644272	201
672	0.0008355485446390945	4811
754	0.0008346079028956715	5603
1283	0.0008334556167599784	9303
533	0.0008332439723677082	3503
539	0.0008330558440190236	3603
1040	0.0008328677156703389	8202
1140	0.0008317154295346457	8479
1021	0.0008316919134910601	7907
1081	0.0008311510444885919	8417
900	0.0008311040124014208	7016
926	0.0008307277557040515	7205
792	0.00083025743483234	6005
270	0.0008302339187887545	1504
738	0.0008302339187887545	5503
612	0.0008297871139606285	4014
1197	0.0008296225016555294	8607
1306	0.0008294343733068448	9607
725	0.0008292462449581603	5309
1226	0.0008292462449581603	8906
704	0.0008288935043043766	5112
961	0.0008288935043043766	7312
1055	0.0008284231834326651	8302
1177	0.0008282115390403949	8535
778	0.0008272708972969719	5902
569	0.0008265654159894046	3820
860	0.0008264243197278912	6804
954	0.0008258834507254229	7305
620	0.0008256718063331527	4104
1174	0.0008255542261152249	8532
951	0.0008244019399795316	7302
232	0.0008242373276744326	1001
1221	0.0008241667795436759	8901
735	0.0008233672340617663	5408
953	0.0008233202019745951	7304
772	0.0008232026217566673	5807
952	0.0008228733971464693	7303
857	0.0008223325281440009	6801
550	0.0008211567259647222	3801
1098	0.0008208039853109386	8434
698	0.0008200985040033713	5106
312	0.0008179350279934982	2006
659	0.0008178879959063271	4601
229	0.0008175352552525435	908
1018	0.0008175117392089579	7903
159	0.000816618129552706	206
830	0.000816288904942508	6303
701	0.0008156539717656974	5109
767	0.0008139373005839503	5802
693	0.0008136551080609235	5101
1259	0.0008125498540124015	9033
769	0.0008120795331406899	5804
1207	0.0008078466452952863	8708
277	0.0008063416185058094	1511
603	0.0008056596532418277	4005
457	0.0008051187842393595	2902
576	0.0008050247200650172	3903
664	0.0008034961772319547	4704
1175	0.0008029082761423154	8533
679	0.0008013327012220818	4905
671	0.0008007448001324423	4810
582	0.0007995219658659924	3909
1060	0.0007992162572993799	8307
593	0.0007985813241225694	3920
1089	0.0007985342920353982	8425
1025	0.000798440227861056	8007
983	0.0007970762973330926	7409
321	0.0007963002678947685	2106
1106	0.0007961356555896695	8442
1093	0.000795829947023057	8429
809	0.0007954066582385167	6116
745	0.0007933137303594004	5510
1309	0.0007931961501414725	9610
615	0.0007926552811390043	4017
301	0.0007918322196135091	1805
1117	0.0007916676073084101	8453
910	0.0007909856420444284	7106
493	0.0007909150939136717	2939
684	0.0007908210297393293	4910
987	0.0007907504816085726	7413
1097	0.0007901860965625188	8433
456	0.0007900450003010054	2901
305	0.0007894806152549515	1904
1094	0.0007894100671241948	8430
694	0.0007888927141653122	5102
1136	0.0007886340376858708	8475
261	0.0007885399735115285	1213
757	0.0007885164574679429	5606
412	0.0007884223932936006	2804
519	0.0007880696526398169	3303
273	0.0007880226205526458	1507
1066	0.0007878344922039612	8402
873	0.0007877639440732045	6902
702	0.0007870114306784661	5110
892	0.0007861178210222142	7007
834	0.0007850360830172778	6307
722	0.000784518730058395	5306
638	0.0007842835696225393	4405
601	0.0007826139305279634	4003
393	0.0007821671256998374	2701
1301	0.00078125	9602
197	0.0007793922325567396	704
1196	0.0007793922325567396	8606
195	0.0007789924598157847	702
919	0.0007752298928420926	7115
660	0.0007722198392631389	4602
599	0.0007710440370838601	4001
455	0.000770220975558365	2852
1115	0.0007686218845945458	8451
297	0.0007669052134127987	1801
471	0.0007667641171512853	2916
1129	0.0007657294112335199	8468
1169	0.0007639657079646018	8526
600	0.0007638246117030883	4002
1202	0.0007637775796159172	8703
1100	0.0007632602266570345	8436
1171	0.0007626723255673951	8529
568	0.0007620373923905846	3819
495	0.0007619433282162422	2941
730	0.0007615435554752875	5403
904	0.0007612143308650894	7020
861	0.0007611437827343327	6805
267	0.0007607675260369634	1501
969	0.0007605558816446932	7320
1085	0.0007605558816446932	8421
1148	0.0007605323656011077	8502
781	0.0007599444645114683	5905
1143	0.0007591449190295587	8482
1118	0.0007587921783757751	8454
542	0.0007586510821142616	3606
500	0.000758298341460478	3103
507	0.000758298341460478	3205
1116	0.0007581572451989645	8452
506	0.0007576163761964963	3204
400	0.0007575693441093252	2708
1000	0.0007574517638913973	7603
453	0.0007572166034555415	2847
1054	0.0007567227665402444	8301
1192	0.0007560408012762627	8602
398	0.0007535245846126061	2706
932	0.0007533834883510927	7211
426	0.0007528896514357956	2818
368	0.0007526780070435254	2526
980	0.0007526780070435254	7406
1008	0.0007524428466076696	7611
625	0.0007522312022153994	4201
746	0.0007520901059538859	5511
253	0.0007519019776052013	1205
155	0.0007518079134308591	202
1067	0.0007518079134308591	8403
965	0.0007508202396002649	7316
883	0.0007506556272951658	6912
844	0.000750538047077238	6501
356	0.0007495738892902294	2514
977	0.0007495033411594726	7402
1150	0.0007492211486364457	8504
588	0.0007490565363313467	3915
184	0.0007489154400698333	505
290	0.0007487508277647342	1603
382	0.0007486802796339775	2611
885	0.0007477396378905545	6914
1090	0.0007461640629703209	8426
425	0.000745764290229366	2817
839	0.0007455291297935103	6402
823	0.0007454820977063392	6213
761	0.0007385918969357655	5701
1233	0.0007349704262235867	9005
913	0.0007345236213954609	7109
192	0.0007310197309012101	603
1037	0.0007307140223345975	8112
478	0.0007302907335500572	2923
1180	0.0007301496372885437	8538
1070	0.0007294206399373909	8406
558	0.0007292325115887063	3809
1157	0.0007292325115887063	8512
1162	0.0007288797709349227	8517
985	0.0007279861612786708	7411
1213	0.000727915613147914	8714
1006	0.0007278920971043284	7609
284	0.0007277274847992295	1518
1032	0.0007276334206248871	8107
1160	0.0007273982601890313	8515
156	0.000726974971404491	203
782	0.0007260813617482392	5906
1050	0.0007260578457046536	8212
1122	0.0007249525916561315	8459
1102	0.0007249290756125459	8438
736	0.0007248585274817891	5501
1080	0.00072448227078442	8416
1045	0.0007244587547408344	8207
1187	0.0007241295301306363	8545
756	0.0007239414017819518	5605
848	0.0007232359204743845	6506
1311	0.000722318794774547	9612
1061	0.0007216838615977364	8308
472	0.0007212135407260249	2917
344	0.0007207432198543134	2502
949	0.000719990706459575	7229
1114	0.0007190030326289807	8450
667	0.0007185562278008549	4707
433	0.0007185327117572693	2825
504	0.0007184621636265125	3202
1287	0.0007179212946240443	9307
1161	0.0007175450379266751	8516
689	0.0007175215218830895	5004
1308	0.0007170041689242068	9609
435	0.0007165103320089098	2827
1139	0.0007157578186141714	8478
884	0.0007150523373066041	6913
1138	0.0007138295030401542	8477
174	0.0007136648907350551	404
724	0.0007136648907350551	5308
627	0.0007129594094274878	4203
768	0.0007129358933839023	5803
555	0.0007126772169044609	3806
777	0.0007122539281199206	5901
824	0.0007119717355968937	6214
633	0.0007107018692432725	4304
889	0.0007075272033592198	7004
826	0.0007071039145746794	6216
299	0.0007063043690927698	1803
810	0.0007050580187827343	6117
380	0.0007019068689422672	2609
1127	0.0006981443019685751	8465
470	0.0006960984061766299	2915
1145	0.0006946168954307387	8486
1252	0.0006934175772078743	9026
514	0.0006929707723797484	3212
1151	0.0006926180317259647	8505
508	0.000689890170670038	3206
944	0.0006897255583649389	7224
1255	0.000689607978147011	9029
475	0.0006894198497983264	2920
559	0.0006891846893624707	3810
731	0.0006891376572752995	5404
1285	0.0006887849166215159	9305
1212	0.0006887378845343447	8713
986	0.0006886908524471736	7412
1189	0.0006885497561856601	8547
178	0.0006872563737884534	408
481	0.0006872093417012823	2926
785	0.0006868095689603275	5909
578	0.0006863627641322016	3905
1026	0.0006862922160014448	8101
464	0.0006858218951297333	2909
939	0.0006856337667810486	7219
751	0.0006854456384323641	5516
1182	0.0006854456384323641	8540
1167	0.0006853515742580218	8523
1292	0.0006853280582144362	9405
580	0.0006853045421708506	3907
663	0.0006852810261272651	4703
1155	0.000685116413822166	8509
591	0.0006846460929504545	3918
162	0.000684175772078743	209
431	0.000684175772078743	2823
483	0.000683728967250617	2928
448	0.0006837054512070315	2841
1088	0.0006833291945096623	8424
571	0.0006826942613328517	3823
1265	0.0006811657184997892	9106
354	0.0006810011061946903	2512
696	0.0006803896890614653	5104
940	0.0006803896890614653	7220
227	0.0006786259857925471	906
920	0.0006780145686593221	7117
325	0.000677356119438926	2204
180	0.0006768857985672145	410
381	0.0006764860258262597	2610
775	0.000676250865390404	5810
1153	0.0006761803172596472	8507
1320	0.0006755689001264223	9703
416	0.0006748399027752694	2808
566	0.0006746988065137559	3817
629	0.0006742284856420444	4206
905	0.0006740168412497742	7101
647	0.0006736641005959906	4414
157	0.000673475972247306	204
163	0.0006706775630606225	210
279	0.0006691960523147312	1513
733	0.0006682789266148938	5406
238	0.0006675499292637409	1007
300	0.0006654570013846247	1804
200	0.0006649161323821564	707
304	0.000664657455902715	1903
526	0.0006643987794232737	3403
581	0.0006609889531033653	3908
1249	0.0006596250225754019	9023
896	0.0006594133781831317	7011
1206	0.0006578378032628981	8707
572	0.0006572734182168443	3824
460	0.0006566855171272048	2905
1159	0.0006559800358196376	8514
1107	0.000655509714947926	8443
389	0.0006554626828607549	2618
466	0.0006554626828607549	2911
1183	0.0006549218138582867	8541
532	0.0006536989795918368	3502
517	0.0006529464661970983	3215
943	0.0006527818538919993	7223
1125	0.0006524761453253867	8462
1023	0.0006517471479742339	8002
486	0.0006516530837998916	2932
531	0.0006512768271025224	3501
1133	0.0006511122147974234	8472
1284	0.0006510886987538379	9304
1038	0.0006507359581000542	8113
271	0.000650524313707784	1505
945	0.0006504772816206129	7225
440	0.0006502891532719282	2832
1073	0.0006501480570104148	8409
586	0.0006500539928360725	3913
458	0.0006499599286617302	2903
1024	0.0006494425757028476	8003
703	0.000649136867136235	5111
534	0.0006489487387875504	3505
473	0.0006487135783516946	2918
942	0.0006487135783516946	7222
1041	0.0006486665462645235	8203
561	0.0006482902895671543	3812
1307	0.0006480551291312986	9608
683	0.0006480080970441273	4909
1079	0.0006478670007826139	8415
908	0.0006475848082595871	7104
1236	0.0006473261317801456	9008
1058	0.0006472555836493889	8305
552	0.0006471380034314611	3803
536	0.0006464560381674794	3507
1245	0.0006460562654265246	9019
888	0.0006457975889470833	7003
564	0.0006451626557702727	3815
1137	0.0006447158509421467	8476
871	0.0006445042065498765	6815
1015	0.0006440574017217507	7804
370	0.0006439868535909939	2529
160	0.0006436105968936247	207
394	0.0006435400487628679	2702
784	0.0006431637920654988	5908
1217	0.0006428345674553007	8802
1280	0.0006427875353681295	9209
852	0.000642764019324544	6603
258	0.0006425994070194449	1210
825	0.0006425053428451026	6215
776	0.0006422231503220758	5811
688	0.0006421761182349046	5003
1099	0.0006417763454939498	8435
413	0.0006416587652760219	2805
878	0.0006410943802299681	6907
686	0.0006407651556197701	5001
345	0.000640600543314671	2503
988	0.0006405770272710854	7415
338	0.0006405535112274999	2308
630	0.0006402242866173018	4301
950	0.0006392601288302932	7301
158	0.0006389544202636807	205
972	0.000638883872132924	7323
409	0.0006348861447233761	2801
355	0.0006327697008006743	2513
150	0.0006324404761904762	103
1185	0.0006242568930226958	8543
477	0.0006204708100054181	2922
462	0.0006202356495695623	2907
1251	0.0006198358768286076	9025
421	0.0006186835906929144	2813
1247	0.0006182132698212029	9021
479	0.0006179545933417615	2924
967	0.0006178840452110047	7318
946	0.0006171315318162663	7226
1190	0.0006166141788573837	8548
1033	0.0006161908900728433	8108
494	0.0006153443125037625	2940
1091	0.0006149445397628078	8427
1173	0.0006142390584552405	8531
467	0.0006140038980193848	2912
1072	0.0006136511573656011	8408
890	0.0006134159969297453	7005
1124	0.000613157320450304	8461
1209	0.0006126869995785925	8710
941	0.000612545903317079	7221
527	0.0006116993257479983	3404
1181	0.0006116758097044128	8539
1126	0.0006112290048762868	8463
573	0.000610500007525134	3825
1315	0.0006100767187405936	9616
1194	0.000609888590391909	8604
909	0.000609441785563783	7105
361	0.0006093477213894407	2519
1103	0.0006092536572150985	8439
1258	0.0006091831090843417	9032
252	0.0006090655288664139	1204
1010	0.000606337667810487	7613
198	0.0006060319592438746	705
1048	0.0006056321865029197	8210
353	0.0006054910902414062	2511
333	0.0006041271597134429	2303
427	0.0006034687104930468	2819
385	0.0006031394858828488	2614
1059	0.0006031394858828488	8306
1069	0.0006030924537956775	8405
1305	0.0006029513575341641	9606
1030	0.0006020342318343267	8105
632	0.0006020107157907411	4303
417	0.0006019166516163987	2809
791	0.0006013052344831738	6004
589	0.0006006232692191921	3916
408	0.0006001764643910662	2716
274	0.0006000588841731382	1508
386	0.000597965956294022	2615
326	0.0005966490578532298	2205
228	0.0005944150337126	907
377	0.0005903467581722955	2606
1028	0.0005855730013244236	8103
480	0.0005854083890193245	2925
1144	0.0005851732285834688	8483
1256	0.0005850791644091265	9030
485	0.0005830332686171814	2930
461	0.0005823983354403708	2906
996	0.0005818809824814882	7507
1250	0.0005810814369995786	9024
682	0.0005808462765637229	4908
515	0.000579835086689543	3213
1271	0.0005797410225152008	9112
1077	0.0005795999262536873	8413
1131	0.0005792236695563181	8470
887	0.0005790825732948046	7002
509	0.0005786122524230931	3207
691	0.000577789190897598	5006
1042	0.000577624578592499	8204
874	0.0005773894181566432	6903
780	0.0005768015170670038	5904
367	0.0005765193245439769	2525
1205	0.0005762606480645355	8706
1163	0.0005761430678466077	8518
1170	0.0005757432951056529	8527
1246	0.0005756962630184818	9020
491	0.000575178910059599	2937
450	0.0005750142977545	2844
899	0.0005743323324905183	7015
992	0.0005741442041418337	7502
1087	0.0005740971720546626	8423
585	0.0005737679474444646	3912
492	0.0005732741105291674	2938
553	0.0005728743377882127	3804
1176	0.0005728037896574559	8534
570	0.0005723805008729156	3821
1210	0.0005718396318704473	8711
719	0.0005717220516525194	5302
1022	0.0005713457949551502	8001
783	0.0005712046986936368	5907
1071	0.0005710165703449522	8407
272	0.0005706638296911685	1506
1317	0.0005705227334296551	9618
901	0.0005698878002528445	7017
764	0.0005696291237734032	5704
268	0.0005685709018120522	1502
621	0.0005677478402865571	4105
727	0.00056725400337126	5311
410	0.0005667836824995485	2802
626	0.0005644791102281621	4202
395	0.0005634914363975679	2703
396	0.0005633033080488833	2704
793	0.000561986409608091	6006
275	0.0005615160887363795	1509
846	0.0005615160887363795	6504
298	0.0005595407410751911	1802
976	0.0005522507675636626	7401
1253	0.0005483941364156282	9027
465	0.0005477121711516465	2910
1132	0.000546959657756908	8471
997	0.0005465598850159533	7508
424	0.0005459954999698994	2816
1248	0.000545572211185359	9022
476	0.000545078374270062	2921
1105	0.0005442553127445669	8441
1164	0.000543855540003612	8519
984	0.0005437849918728553	7410
474	0.0005437379597856842	2919
1184	0.0005435027993498285	8542
880	0.0005433146710011438	6909
489	0.0005431500586960448	2935
938	0.0005431265426524592	7218
1276	0.0005427738019986756	9205
420	0.0005426562217807477	2812
567	0.0005424916094756486	3818
1229	0.0005423975453013064	9001
1242	0.0005423034811269641	9016
1165	0.000541974256516766	8521
1191	0.000541974256516766	8601
1275	0.0005416685479501535	9202
1084	0.00054152745168864	8420
562	0.0005414804196014689	3813
1075	0.0005407043901631449	8411
1193	0.0005400694569863343	8603
1257	0.0005398578125940642	9031
911	0.0005395521040274517	7107
1112	0.0005392934275480104	8448
1297	0.0005381881734994883	9506
309	0.0005378589488892903	2003
894	0.0005378589488892903	7009
397	0.0005374121440611643	2705
518	0.0005374121440611643	3302
490	0.0005373415959304076	2936
592	0.0005367772108843537	3919
855	0.0005363539220998133	6703
598	0.0005356954728794173	3926
1121	0.0005354367963999759	8458
870	0.0005352251520077058	6814
330	0.0005349194434410932	2209
346	0.0005338377054361568	2504
1052	0.0005333673845644453	8214
366	0.0005329676118234905	2524
1020	0.000532497290951779	7905
1263	0.0005323561946902655	9104
1130	0.0005322150984287521	8469
1266	0.0005314861010775992	9107
235	0.0005313214887725002	1004
1279	0.0005309687481187165	9208
233	0.0005299340422009512	1002
847	0.0005296753657215099	6505
677	0.0005292050448497983	4903
766	0.0005284290154114744	5801
856	0.0005276294699295647	6704
1111	0.0005267358602733128	8447
503	0.0005214682665101439	3201
1027	0.0005083933462765637	8102
484	0.0005070764478357715	2929
1128	0.0005067942553127446	8467
995	0.0005067237071819878	7506
1243	0.0005061122900487629	9017
584	0.000505665485220637	3911
1104	0.0005051246162181686	8440
488	0.0005049600039130697	2934
1086	0.0005047953916079706	8422
1166	0.0005045837472157004	8522
915	0.0005043956188670158	7111
1234	0.0005041134263439889	9006
428	0.0005038782659081332	2820
449	0.0005037371696466198	2843
463	0.000503219816687737	2908
1238	0.0005031492685569803	9011
1029	0.0005029846562518813	8104
1282	0.000502443787249413	9302
482	0.0005023026909878995	2927
583	0.0005023026909878995	3910
662	0.0005022321428571428	4702
579	0.0005021615947263861	3906
349	0.0005018088540726025	2507
1134	0.0005017853380290169	8473
438	0.0005012444690265487	2830
1237	0.0005011033727650352	9010
1218	0.0005003508593702968	8803
244	0.0005003038272831256	1105
1049	0.0005002803112395401	8211
429	0.0005000686668472699	2821
1294	0.0004998805384985853	9503
993	0.0004997394422370719	7504
501	0.0004996218620191439	3104
739	0.0004994572497140449	5504
548	0.0004991515411474324	3706
877	0.0004979992550117392	6906
1270	0.0004977405785322979	9111
1154	0.000496682356570947	8508
226	0.0004965882923966046	905
1240	0.0004963531319607489	9014
979	0.0004958122629582807	7405
384	0.0004954830383480826	2613
649	0.0004953419420865692	4416
1123	0.0004953184260429836	8460
437	0.000495012717476371	2829
1019	0.0004942131719944615	7904
687	0.0004938369152970922	5002
1272	0.00049374285112275	9113
1214	0.0004936017548612365	8715
262	0.0004929433056408404	1214
352	0.0004926375970742279	2510
700	0.0004918615676359039	5108
276	0.0004913442146770213	1510
845	0.0004900508322798146	6502
373	0.000489086674492806	2602
1113	0.0004853241075191138	8449
726	0.00048344282403226777	5310
718	0.0004800094816687737	5301
1231	0.00047528275690807294	9003
560	0.0004709087728011559	3811
968	0.00047029735566793087	7319
898	0.00046827497591957136	7014
1044	0.0004679692673529589	8206
530	0.0004677576229606887	3407
1220	0.00046752246252483294	8805
1168	0.00046634666034555414	8525
994	0.0004657352432123292	7505
678	0.0004652178902534465	4904
1318	0.00046517085816627534	9701
1268	0.0004651238260791042	9109
1312	0.0004647240533381494	9613
556	0.0004644653768587081	3807
1230	0.00046444186081512253	9002
737	0.0004643713126843658	5502
543	0.00046430076455360907	3701
451	0.0004640891201613389	2845
1274	0.0004637834115947264	9201
1260	0.0004634071548973572	9101
445	0.00046305441424357354	2837
487	0.00046246651315393414	2933
439	0.00046237244897959185	2831
1296	0.0004621372885437361	9505
1323	0.00046107906658238515	970
851	0.00046025600505689	6602
605	0.00046011490879537654	4007
705	0.00045983271627234967	5113
622	0.00045959755583649387	4106
902	0.0004588215263981699	7018
190	0.0004561642134729998	601
249	0.0004536715128529288	1201
850	0.0004527543871530913	6601
1273	0.00043521141863825174	9114
1278	0.00043452945337427005	9207
547	0.0004332125549334778	3705
1120	0.0004330244265847932	8457
742	0.00043238949340798264	5507
587	0.0004302495334416953	3914
1261	0.0004294029558726145	9102
1269	0.000428156605562579	9110
1065	0.00042752167238576847	8401
447	0.00042740409216784057	2840
1108	0.00042698080338330024	8444
269	0.00042665157877310215	1503
690	0.0004266280627295166	5005
1110	0.00042660454668593103	8446
452	0.0004262047739449762	2846
1047	0.00042589906537836373	8209
922	0.0004252641322015532	7201
334	0.0004250760038528686	2304
1316	0.00042366504123773403	9617
442	0.00042354746101980613	2834
181	0.00042352394497622057	501
732	0.00042121937270483414	5405
1036	0.00042091366413822166	8111
1314	0.00042063147161519474	9615
1053	0.0004203492790921678	8215
657	0.00041945566943591594	4503
1304	0.00041910292878213234	9605
924	0.0004185385437360785	7203
670	0.0004169864848594305	4807
369	0.00041665726024923245	2528
224	0.00041463488050087294	903
720	0.0004109898937451087	5303
468	0.0004020067650954187	2913
545	0.00040047822226235626	3703
544	0.0003933293450123412	3702
1109	0.0003930471524893143	8445
914	0.0003921535428330624	7110
1295	0.00039175377009210765	9504
430	0.00039144806152549517	2822
692	0.0003913069652639817	5007
549	0.00039088367647944133	3707
248	0.00039067203208717114	1109
991	0.00039041335560772983	7501
859	0.0003903428074769731	6803
1051	0.00038999006682318945	8213
1195	0.00038881426464391065	8605
1319	0.00038749736620311844	9702
654	0.000386133435675155	4421
1158	0.00038531037414965986	8513
418	0.00038465192492926373	2810
665	0.0003832174462705436	4705
1262	0.0003828411895731744	9103
613	0.00038248844891939076	4015
182	0.0003795254274276082	502
661	0.000378373141291915	4701
335	0.0003778793043766179	2305
375	0.00037764414394076215	2604
251	0.0003775030476792487	1203
376	0.0003752219914514478	2605
723	0.00037334070796460176	5307
1267	0.0003561034480163747	9108
1310	0.00035598586779844683	9611
1031	0.00035448084100896994	8106
658	0.0003507417900788634	4504
540	0.0003445335545722714	3604
1239	0.0003177017488411294	9013
1232	0.00031527959635181506	9004
1264	0.00031527959635181506	9105
656	0.00031052935554752874	4502
854	0.00027939411384022634	6702
1034	0.00027774799078923604	8109
853	0.0002776068945277226	6701
1035	0.000272927201854193	8110
655	0.0002720806242851123	4501
383	0.0002697995680573114	2612
