30	0.028429209249509653	China
50	0.026850418086094768	Germany
141	0.025412924538040674	USA
67	0.024181248064416228	Italy
46	0.02307861050892949	France
61	0.02100043873232167	India
69	0.020748812841953134	Japan
13	0.02074236089604625	Belgium
139	0.020564932383606897	UnitedKingdom
94	0.01928034995354599	Netherlands
123	0.01898549602560132	Spain
127	0.018980979663466502	Switzerland
8	0.0182035201816868	Austria
36	0.0168563538763291	CzechRepublic
107	0.01378329204087953	Poland
131	0.013501987199339321	Thailand
66	0.013106482915247238	Israel
122	0.01259355321564984	SouthKorea
19	0.012567745432022298	Brazil
126	0.012439996903065964	Sweden
62	0.012389671724992257	Indonesia
119	0.012367735108908847	Slovenia
108	0.011918679673789614	Portugal
134	0.011461236708991431	Turkey
26	0.011425105811912873	Canada
121	0.011363812325797461	SouthAfrica
38	0.011037343862909053	Denmark
21	0.01055731908743677	Bulgaria
144	0.010111489625270982	Vietnam
45	0.010079875090327243	Finland
77	0.009910188912976153	Lebanon
52	0.009718566119541654	Greece
117	0.009630174460617322	Singapore
88	0.009321771446268194	Mexico
118	0.009236605760297306	Slovakia
84	0.009199829668628059	Malaysia
7	0.008983044286156705	Australia
137	0.008974656756477753	Ukraine
103	0.008972721172705688	Panama
43	0.008950139362031588	Estonia
110	0.00851269742954475	Romania
115	0.008384303705997728	Serbia
95	0.008289460101166511	NewZealand
59	0.008119773923815422	Hungary
133	0.007939764633013317	Tunisia
34	0.007937183854650563	Croatia
106	0.00791137607102302	Philippines
35	0.007855244141633116	Cyprus
111	0.007617167337669041	Russia
72	0.007599101889129762	Kenya
140	0.007597811499948384	Uruguay
76	0.007454578300815526	Latvia
40	0.007273278620832043	Egypt
93	0.007158433983689481	Nepal
80	0.0069700371632084234	Lithuania
102	0.006863580055744813	Pakistan
116	0.00658421079797667	SierraLeone
91	0.006540337565809848	Morocco
105	0.006524852895633323	Peru
100	0.0064196861773510895	Norway
1	0.006372586972230825	Albania
12	0.006323552183338495	Belarus
70	0.0057570713327139466	Jordan
18	0.005713843295137813	BosniaHerzegovina
65	0.0056886807061009605	Ireland
29	0.005643517084752761	Chile
81	0.005623516052441416	Macedonia
138	0.005542221534014659	UnitedArabEmirates
114	0.005349953545989471	Senegal
74	0.005263497470837204	Kyrgyzstan
82	0.005259626303293073	Madagascar
130	0.005217688654898318	Tanzania
54	0.005117683493341592	Guatemala
41	0.004861541240838237	ElSalvador
31	0.004789279446681119	Colombia
147	0.00465959533395272	Zimbabwe
142	0.004559590172395995	Uzbekistan
132	0.0044873283782388765	Togo
63	0.004433777227211727	Iran
17	0.004407324248993497	Bolivia
49	0.004288608444306803	Georgia
86	0.004255703520181687	Malta
71	0.004106018375141943	Kazakhstan
6	0.0040763394239702695	Armenia
0	0.003999561267678332	Afghanistan
11	0.0039021368844843604	Bangladesh
104	0.0038763291008568185	Paraguay
60	0.0037956797770207495	Iceland
48	0.0037627748528956334	Gambia
136	0.003674383193971302	Uganda
33	0.0035440538866522145	CostaRica
68	0.0034659853411788994	IvoryCoast
58	0.003295653969237122	Honduras
51	0.0032588778775678746	Ghana
75	0.0032530711262516777	Laos
89	0.003199519975224528	Mongolia
42	0.003153065964694952	Eritrea
97	0.0031408072674718695	Niger
146	0.003124677402704656	Zambia
44	0.0030698358624961287	Ethiopia
10	0.0029956384845669453	Bahrain
143	0.0029956384845669453	Venezuela
16	0.00294015174976773	Bhutan
39	0.002819500361308971	Ecuador
37	0.002810467637039331	DemocraticRepublicCongo
112	0.002783369464230412	Rwanda
113	0.0027175596159801797	SaudiArabia
129	0.002568519665531124	Tajikistan
101	0.002493677093011252	Oman
92	0.002465288531020956	Mozambique
22	0.002445287498709611	BurkinaFaso
24	0.002422060493444823	Cambodia
14	0.00238786518013833	Belize
32	0.002355605450603902	Congo
96	0.0023375400020646227	Nicaragua
9	0.0022833436564467843	Azerbaijan
125	0.00228076287808403	Suriname
57	0.00222721172705688	Guyana
85	0.0021955971921131415	Mali
27	0.0021839836894807473	CentralAfricanRepublic
83	0.0021723701868483535	Malawi
23	0.0021575307112625167	Burundi
109	0.0021259161763187776	Qatar
55	0.002118173841230515	Guinea
25	0.0021013987818726126	Cameroon
73	0.001942680912563229	Kuwait
15	0.0018400949726437494	Benin
135	0.0018213843295137814	Turkmenistan
2	0.0018181583565603386	Algeria
98	0.0017568648704449261	Nigeria
124	0.0016794415195623	Sudan
78	0.0016646020439764634	Liberia
145	0.0016316971198513473	Yemen
56	0.0015768555796428203	Guinea-Bissau
47	0.0015045937854857026	Gabon
79	0.0014768504180860949	Libya
87	0.0014136213481986167	Mauritania
64	0.0013129709920512026	Iraq
28	0.0012007071332713946	Chad
20	0.0011878032414576237	Brunei
4	0.0010916692474450295	Angola
