30	0.03986560870232005	China
50	0.028211867030956496	Germany
141	0.02797791794101357	USA
69	0.024396640901334046	Japan
46	0.0239512096486661	France
67	0.023333857561635085	Italy
127	0.022524071358868136	Switzerland
61	0.022471322921052195	India
13	0.021793652018555727	Belgium
139	0.021608788280469304	UnitedKingdom
94	0.019617534752917526	Netherlands
8	0.018858054930660225	Austria
123	0.018815318927800088	Spain
36	0.015567138504699006	CzechRepublic
131	0.015364203542546011	Thailand
62	0.01386771082524931	Indonesia
66	0.013465259781172129	Israel
19	0.013368065900381644	Brazil
103	0.013292850535347803	Panama
144	0.012907493892414678	Vietnam
122	0.012656206195597068	SouthKorea
119	0.012628122536574693	Slovenia
121	0.012356565764114848	SouthAfrica
108	0.012121151439788147	Portugal
26	0.011932624615742283	Canada
126	0.01131429570578875	Sweden
107	0.010964104688066252	Poland
77	0.010952138607265413	Lebanon
117	0.010389977015356633	Singapore
7	0.010180936909937903	Australia
84	0.01010254687040588	Malaysia
133	0.00957408566932395	Tunisia
21	0.009467856176500181	Bulgaria
45	0.009361138272215151	Finland
134	0.009073708127264398	Turkey
106	0.009032193153057406	Philippines
38	0.008726691784040081	Denmark
88	0.008230954150862486	Mexico
91	0.008220453304445423	Morocco
111	0.008100304084975779	Russia
137	0.00777721990335314	Ukraine
105	0.0077425426896037715	Peru
140	0.007626789173285456	Uruguay
43	0.007510791451236511	Estonia
95	0.007474404797372737	NewZealand
93	0.007469032271298891	Nepal
118	0.006943257333253885	Slovakia
72	0.006926651343571089	Kenya
35	0.006848261304039065	Cyprus
52	0.006832876343009416	Greece
115	0.0067999085693744524	Serbia
110	0.006712482917809143	Romania
34	0.006411377251943145	Croatia
102	0.006400387994064824	Pakistan
100	0.006355454139629022	Norway
1	0.006267540076602454	Albania
40	0.006203069763716303	Egypt
116	0.006092688773471834	SierraLeone
76	0.00607901325255659	Latvia
17	0.005927605699566388	Bolivia
138	0.005927361493835759	UnitedArabEmirates
29	0.00582821396720024	Chile
59	0.005808189097288633	Hungary
130	0.0054912100589317265	Tanzania
142	0.00547094098328949	Uzbekistan
80	0.005295845474428241	Lithuania
65	0.0052956012686976115	Ireland
70	0.00520133785667468	Jordan
81	0.005023556084776508	Macedonia
82	0.0049290484670229465	Madagascar
114	0.004917570797683367	Senegal
60	0.004744428934667153	Iceland
49	0.004712193778224077	Georgia
74	0.004692901525504358	Kyrgyzstan
12	0.004604987462477789	Belarus
18	0.0046015685822489785	BosniaHerzegovina
41	0.004395214739867172	ElSalvador
71	0.004335384335862979	Kazakhstan
147	0.004318289934718924	Zimbabwe
97	0.0042596805593678785	Niger
132	0.0042296432545004675	Togo
86	0.004119750675717257	Malta
6	0.004070909529591385	Armenia
104	0.00392853758863447	Paraguay
54	0.0038396467026853838	Guatemala
11	0.0037995969628621695	Bangladesh
136	0.0037441622620093054	Uganda
0	0.0037246258035589564	Afghanistan
63	0.003590801063174069	Iran
48	0.0035023985886862416	Gambia
68	0.0033378039262420547	IvoryCoast
31	0.003329256725670027	Colombia
146	0.0031661272976096166	Zambia
37	0.0030970170758415085	DemocraticRepublicCongo
75	0.0030242437681139603	Laos
143	0.002877231918275087	Venezuela
42	0.002764408870724324	Eritrea
51	0.002703845849528243	Ghana
32	0.0026923681801886636	Congo
44	0.0026833325681553774	Ethiopia
58	0.0025780798982541243	Honduras
89	0.0025749052237559428	Mongolia
33	0.002532169220895805	CostaRica
10	0.0025153190254823795	Bahrain
14	0.0024784439601573467	Belize
16	0.002423741876496371	Bhutan
112	0.0023858899882488204	Rwanda
113	0.0023724586730642055	SaudiArabia
129	0.0023377814593148367	Tajikistan
39	0.0022823467584619727	Ecuador
22	0.002238145521218059	BurkinaFaso
92	0.002225691028955962	Mozambique
109	0.002191013815206593	Qatar
83	0.002127276119512331	Malawi
73	0.0021065186324088357	Kuwait
96	0.002101878723526878	Nicaragua
101	0.0020899126427260393	Oman
27	0.002046444022674014	CentralAfricanRepublic
57	0.0020449787882902376	Guyana
24	0.0020400946736776502	Cambodia
85	0.0020264191527624062	Mali
2	0.00195657631380241	Algeria
125	0.0018947922639531828	Suriname
23	0.0018916175894550013	Burundi
55	0.0018291009224138857	Guinea
25	0.0017761082788673153	Cameroon
9	0.0017702473413322107	Azerbaijan
124	0.0016742744891948733	Sudan
98	0.0016061410903492825	Nigeria
135	0.0016032106215817302	Turkmenistan
78	0.001587337249090822	Liberia
145	0.0015743943453674662	Yemen
47	0.0015336119883523635	Gabon
79	0.0015172502044001966	Libya
15	0.0014938064542597783	Benin
56	0.0014720721442337654	Guinea-Bissau
64	0.0014127301516908316	Iraq
87	0.0012459376376709806	Mauritania
28	0.0011301841213526653	Chad
4	0.0011152875717842746	Angola
20	0.0011050309310978415	Brunei
