30	0.03370765809487535	China
50	0.028204680405169404	Germany
141	0.02749119330498107	USA
67	0.024200639944395398	Italy
46	0.023713573104783434	France
69	0.023349808771415584	Japan
61	0.022089578173788958	India
139	0.021767499741108618	UnitedKingdom
13	0.021728007835194133	Belgium
127	0.021219878645761116	Switzerland
94	0.019979832800046338	Netherlands
123	0.018637107998953902	Spain
8	0.018498447529298606	Austria
36	0.016468124766339555	CzechRepublic
131	0.014124060750837667	Thailand
66	0.013670342631775714	Israel
62	0.013235492867761791	Indonesia
19	0.012887086497805128	Brazil
122	0.01278352994451826	SouthKorea
107	0.012206509319212197	Poland
119	0.012199049736983906	Slovenia
126	0.01206609365373848	Sweden
121	0.011814661852749602	SouthAfrica
108	0.011475031461885046	Portugal
26	0.01133812618804817	Canada
144	0.0112262324546238	Vietnam
103	0.010841844570389496	Panama
117	0.010598311150583515	Singapore
77	0.010226209637078161	Lebanon
21	0.010098080342333393	Bulgaria
134	0.009941429115539276	Turkey
38	0.009909835590807688	Denmark
84	0.009859373711028071	Malaysia
45	0.009800574651110951	Finland
7	0.00950877334629838	Australia
88	0.008875147655848225	Mexico
133	0.008519281703663268	Tunisia
106	0.008450829066744832	Philippines
137	0.008390713609963896	Ukraine
118	0.008184916900253978	Slovakia
111	0.008155078571340811	Russia
43	0.008069951574147369	Estonia
52	0.008027388075550649	Greece
95	0.00766801173172885	NewZealand
140	0.007665378938001218	Uruguay
110	0.00750785011329789	Romania
115	0.00750126812897881	Serbia
35	0.0072616838997642775	Cyprus
93	0.007196741654482682	Nepal
91	0.007191914865982024	Morocco
34	0.007114247451016873	Croatia
72	0.007098011889696474	Kenya
105	0.006981291367771446	Peru
59	0.006976025780316181	Hungary
76	0.006753115911376653	Latvia
102	0.006632884997814781	Pakistan
40	0.006600852674128589	Egypt
100	0.006506510898888434	Norway
116	0.006409536329920648	SierraLeone
1	0.006299836591269305	Albania
80	0.006062446356827799	Lithuania
65	0.005833832101478402	Ireland
138	0.0056885896475040235	UnitedArabEmirates
29	0.005652608133226383	Chile
70	0.005617943015812559	Jordan
130	0.005216441972348645	Tanzania
81	0.005183532050753242	Macedonia
12	0.005180021659116399	Belarus
114	0.005138335758428889	Senegal
82	0.005126049387699939	Madagascar
74	0.005090945471331509	Kyrgyzstan
18	0.005023809231276887	BosniaHerzegovina
17	0.005017227246957807	Bolivia
142	0.004942631424674894	Uzbekistan
49	0.004649513722998507	Georgia
41	0.004458197378790565	ElSalvador
147	0.004436257431060296	Zimbabwe
86	0.004432747039423453	Malta
54	0.004368243593096463	Guatemala
132	0.00432875168718198	Togo
71	0.00430505654363329	Kazakhstan
6	0.004211592366302346	Armenia
60	0.0042054491809378714	Iceland
31	0.003957966570540442	Colombia
63	0.003950945787266756	Iran
104	0.003811846518656854	Paraguay
0	0.0037824469886982943	Afghanistan
11	0.003779814194970662	Bangladesh
97	0.003579721871670613	Niger
48	0.0035270659971179683	Gambia
136	0.0035165348222074397	Uganda
68	0.0032760729950836965	IvoryCoast
146	0.0030799298623750957	Zambia
75	0.003051407930325747	Laos
37	0.00294872897494809	DemocraticRepublicCongo
42	0.0029263502282632164	Eritrea
51	0.002910992264852028	Ghana
33	0.002910553465897423	CostaRica
143	0.0029013386878507103	Venezuela
89	0.0028824703328026793	Mongolia
44	0.0028280592624316133	Ethiopia
58	0.002817089288566479	Honduras
10	0.00280085372724608	Bahrain
16	0.0026205073569032728	Bhutan
113	0.002600322604991426	SaudiArabia
112	0.002590230229035502	Rwanda
39	0.0025476667304387816	Ecuador
32	0.002496327252749953	Congo
14	0.002419098636739408	Belize
92	0.0024125166524203274	Mozambique
129	0.0023344104385005712	Tajikistan
109	0.0022444566528064705	Qatar
22	0.0022255882977584396	BurkinaFaso
101	0.0022115467312110674	Oman
57	0.002192239577208431	Guyana
24	0.002142216496383419	Cambodia
83	0.0021180825538801235	Malawi
27	0.0021071125800149896	CentralAfricanRepublic
9	0.0020987753998774872	Azerbaijan
85	0.0020755190552834025	Mali
125	0.0020623550866452414	Suriname
96	0.002051823911734713	Nicaragua
23	0.001991708454953777	Burundi
2	0.001970207306178114	Algeria
55	0.001970207306178114	Guinea
73	0.0019482673584478452	Kuwait
25	0.0019258886117629714	Cameroon
124	0.0017095607271425237	Sudan
135	0.001691131171049098	Turkmenistan
15	0.001652955661998431	Benin
78	0.001637597698587243	Liberia
98	0.001579676236579334	Nigeria
145	0.0015682674637595942	Yemen
47	0.0015520319024391956	Gabon
56	0.0015094684038424748	Guinea-Bissau
79	0.0014651497094273322	Libya
64	0.001357205166594411	Iraq
87	0.0012773437568562337	Mauritania
28	0.0011869511722075274	Chad
20	0.0011259581175173808	Brunei
4	0.0010759350366923686	Angola
