153	0.002403591707500302	106
925	0.002276705393097426	7204
813	0.002222135113429742	6203
402	0.0021323232638392623	2710
999	0.002128949070974314	7602
293	0.0021035801394341464	1701
619	0.00209149969584359	4103
259	0.0020610903033570177	1211
640	0.0020481767257257335	4407
617	0.0020109772908072283	4101
616	0.0020090194258115175	4100
365	0.001975985661096652	2523
595	0.0019630720834653676	3923
166	0.0019593229802820915	303
323	0.0019571151750741624	2202
255	0.0019079186099691737	1207
266	0.0018967546138234184	1404
169	0.0018956298828684355	306
332	0.0018630543418759705	2302
260	0.0017860727565127026	1212
832	0.0017682853447431597	6305
814	0.001751872604140818	6204
524	0.0017506645597817623	3401
231	0.001749706455634925	910
796	0.001749498172124743	6103
797	0.0017444577111783385	6104
240	0.0017099243051901627	1101
637	0.0016916370129961829	4404
802	0.0016771404806875155	6109
206	0.0016686425134720898	713
641	0.001668559200068017	4408
836	0.0016649767236928867	6309
912	0.0016587282183874266	7108
165	0.0016373583302427533	302
799	0.0016324011827004215	6106
168	0.001623195051550377	305
341	0.001622861797934086	2402
336	0.0016131141296575682	2306
211	0.0016079486986050546	804
642	0.0016015752231934852	4409
795	0.0016011586561731214	6102
618	0.0015994507313896289	4102
668	0.0015921608085332588	4800
222	0.0015754564710166621	901
283	0.001574290083359643	1517
962	0.0015723738750659686	7313
958	0.0015704993234743306	7309
800	0.0015641675047647977	6107
307	0.0015571275221206461	2001
758	0.0015547114334025349	5607
707	0.001554503149892353	5202
202	0.00155025416628464	709
801	0.0015409230650284863	6108
315	0.0015403398711999767	2009
343	0.001538173722694084	2501
187	0.0015360492308902276	508
798	0.0015313420235601141	6105
295	0.0015301339792010587	1703
636	0.0015301339792010587	4403
167	0.0015281761142053479	304
313	0.0015186783861410485	2007
881	0.0015062230322321647	6910
822	0.0015052232713832913	6212
794	0.0015033487197916532	6101
895	0.001498349915547285	7010
807	0.0014900602318420415	6114
706	0.0014868526657852387	5201
291	0.0014801459367573782	1604
1001	0.001476271863467993	7604
319	0.0014714813427338068	2104
803	0.0014652328374283468	6110
342	0.0014540271845805551	2403
340	0.0014524025732011354	2401
225	0.0014496948875687694	904
296	0.001443821292581637	1704
808	0.0014378643841904317	6115
282	0.00143394865419901	1516
317	0.0014327406098399546	2102
186	0.001424867493155075	507
414	0.0014132036165848828	2806
866	0.0014131619598828464	6810
759	0.0014123704825441548	5608
957	0.0014096211402097522	7308
837	0.001406163633940731	6310
651	0.0014035809184144742	4418
1293	0.0014027894410757827	9406
218	0.0014012897998024723	811
264	0.0014007066059739627	1302
241	0.0013970824728967957	1102
306	0.0013966659058764319	1905
502	0.0013966659058764319	3105
650	0.0013962909955581042	4417
541	0.001392000355248355	3605
817	0.001387751371640642	6207
805	0.0013877097149386057	6112
499	0.0013855852231347493	3102
819	0.0013847937457960578	6209
242	0.0013841688952655118	1103
815	0.0013832941045227472	6205
318	0.0013722967351851377	2103
172	0.001368714258810007	402
175	0.0013661315432837503	405
635	0.0013656316628593136	4402
205	0.0013648818422226582	712
203	0.0013646735587124763	710
401	0.0013592581874477443	2709
1186	0.0013585083668110891	8544
538	0.0013582584265988706	3602
842	0.0013579668296846159	6405
709	0.0013573003224520335	5204
816	0.001354134413097267	6206
164	0.0013526347718239567	301
170	0.001350593593424173	307
821	0.001346219639710351	6211
955	0.001344345088118713	7306
838	0.0013385131498336168	6401
923	0.0013370551652623428	7202
714	0.0013325145847403752	5209
937	0.0013306400331487371	7217
314	0.0013293486753856087	2008
217	0.0013273908103898979	810
179	0.0013273491536878615	409
653	0.0013223503494434936	4420
959	0.0013210589916803652	7310
204	0.0013208923648722196	711
812	0.0013160185307339606	6202
811	0.0013155603070115602	6201
207	0.0013095200852162822	714
594	0.0013081870707511174	3922
250	0.0013059792655431882	1202
1009	0.0013045212809719142	7612
316	0.0013028133561884217	2101
916	0.0012971480447114712	7112
712	0.00129369053844245	5207
392	0.0012904829723856472	2621
362	0.0012871920929247715	2520
590	0.0012829847660190952	3917
263	0.0012827348258068769	1301
239	0.0012804437071948747	1008
935	0.001277444424648254	7214
1290	0.001276527977203453	9403
302	0.0012733204111466502	1806
201	0.001269238054347083	708
648	0.0012659471748862074	4415
171	0.0012604068335153663	401
867	0.0012593654159644562	6811
177	0.0012584906252216918	407
639	0.0012542416416139789	4406
936	0.001253741761189542	7215
522	0.0012507841353449577	3306
287	0.001248617986839065	1522
886	0.0012476182259901912	7001
399	0.0012466184651413177	2707
713	0.0012453687640802257	5208
710	0.0012448688836557888	5205
818	0.0012429526753621144	6208
1082	0.0012428277052560052	8418
1254	0.0012408698402602944	9028
829	0.0012407032134521489	6302
931	0.0012381621546279284	7210
510	0.0012362042896322176	3208
740	0.001236037662824072	5505
960	0.0012328300967672692	7311
610	0.001228664426563629	4012
1199	0.001227831292522901	8609
1007	0.0012272480986943914	7610
804	0.0012257068007190447	6111
752	0.0012227491748744602	5601
348	0.0012222076377479871	2506
278	0.001219708235625803	1512
1096	0.001218250251054529	8432
193	0.0012175004304178737	604
245	0.0012175004304178737	1106
820	0.001216583982973073	6210
189	0.001216167415952709	511
907	0.0012147927447855077	7103
281	0.0012117101488348142	1515
188	0.0012112102684103774	510
311	0.0012069612848026644	2005
223	0.0012003378691788768	902
498	0.0011966304226976373	3101
755	0.0011951307814243267	5604
359	0.0011938394236611983	2517
405	0.0011934645133428708	2713
219	0.0011933395432367616	812
934	0.0011922981256858515	7213
441	0.0011899653503718132	2833
974	0.0011894654699473764	7325
196	0.001187674231759811	703
407	0.0011850082028294815	2715
749	0.0011838001584704258	5514
243	0.0011834669048541348	1104
328	0.0011825088007072974	2207
183	0.001181842293474715	504
357	0.0011796761449688223	2515
646	0.001179426204756604	4413
843	0.0011783847872056938	6406
998	0.0011735942664715079	7601
214	0.0011733443262592893	807
1223	0.0011684288354189942	8903
512	0.0011633050610685169	3210
557	0.0011601808084157868	3808
1224	0.0011583479135261854	8904
609	0.0011578480331017485	4011
863	0.0011555985711917828	6807
840	0.0011554736010856736	6403
789	0.0011549737206612367	6002
835	0.0011547237804490184	6308
765	0.0011546404670449456	5705
982	0.0011544738402368	7408
891	0.001154265556726618	7006
436	0.0011535157360899628	2828
176	0.0011531824824736717	406
875	0.001148641901951704	6904
750	0.0011474338575926484	5515
966	0.001145017768874537	7317
364	0.0011441846348338091	2522
1215	0.0011432681873890084	8716
363	0.0011421017997319891	2521
220	0.0011378528161242762	813
717	0.001134062056238964	5212
1095	0.001133978742834891	8431
708	0.001132520758263617	5203
981	0.0011261889395540842	7407
185	0.0011242727312604098	506
1135	0.0011242310745583734	8474
918	0.001120440314673061	7114
1003	0.0011203570012689882	7606
1016	0.0011200237476526969	7806
1062	0.0011195655239302966	8309
597	0.0011191489569099325	3925
930	0.0011186490764854957	7209
673	0.0011181491960610588	4823
695	0.0011178992558488405	5103
827	0.0011158580774490569	6217
970	0.0011142751227716738	7321
347	0.001113900212453346	2505
173	0.0011137335856452005	403
1288	0.0011136086155390914	9401
320	0.0011125255412861449	2105
194	0.001112442227882072	701
292	0.0011109425866087615	1605
149	0.0011093596319313784	102
1322	0.0011081515875723228	9705
322	0.0011075267370417767	2201
289	0.0011056105287481023	1602
212	0.0011021530224790811	805
831	0.00110181976886279	6304
324	0.0011003201275894795	2203
978	0.001096820964618422	7403
288	0.0010962377707899123	1601
546	0.0010931551748392186	3704
523	0.0010897809819742702	3307
1286	0.0010865734159174673	9306
1057	0.0010864484458113582	8304
511	0.001085906908684885	3209
1201	0.001084032357093247	8702
1012	0.0010829492828403006	7615
1188	0.0010827409993301187	8546
327	0.0010826576859260457	2206
554	0.0010822411189056818	3805
350	0.001081116387950699	2508
199	0.0010794917765712794	706
256	0.0010777005383837141	1208
563	0.0010769923744490954	3814
628	0.001075409419771712	4205
1011	0.0010748262259432026	7614
611	0.001074243032114693	4013
1291	0.0010719519135026908	9404
1222	0.0010716603165884361	8902
403	0.0010694108546784704	2711
760	0.0010690776010621793	5609
1149	0.0010615377379935907	8503
729	0.0010549559790718394	5402
644	0.0010543311285412934	4411
929	0.001053956218222966	7208
728	0.0010538729048188932	5401
1219	0.0010514151593987455	8804
443	0.0010510402490804178	2835
685	0.0010498322047213624	4911
574	0.0010491240407867436	3901
602	0.0010489574139785978	4004
1004	0.0010484158768521246	7607
862	0.0010472078324930691	6806
1014	0.001043042162289429	7801
521	0.001042625595269065	3305
575	0.0010420840581425918	3902
876	0.001039834596232626	6905
379	0.001039084775595971	2608
230	0.001038584895171534	909
339	0.0010381683281511702	2309
643	0.0010372518807063693	4410
833	0.0010369186270900782	6306
770	0.0010367103435798962	5805
744	0.001034919105392331	5509
308	0.0010322530764620013	2002
303	0.0010321697630579286	1902
236	0.0010315032558253462	1005
208	0.0010297953310418537	801
191	0.0010252130938178496	602
528	0.0010228803185038113	3405
747	0.0010228803185038113	5512
1179	0.0010227136916956656	8537
903	0.0010204225730836636	7019
210	0.0010185063647899892	803
897	0.0010170900369207516	7013
444	0.0010166318131983512	2836
716	0.0010146739482026403	5211
459	0.0010115496955499102	2904
415	0.001010799874913255	2807
948	0.0010107165615091823	7228
516	0.0010088836666195806	3214
634	0.0010072590552401611	4401
596	0.0010058427273709235	3924
209	0.0010048013098200134	802
358	0.0010048013098200134	2516
762	0.001004343086097613	5702
294	0.0010032183551426303	1702
858	0.001003176698440594	6802
828	0.0010023852211019021	6301
868	0.0010022185942937566	6812
1227	0.0010019686540815383	8907
351	0.0010014687736571014	2509
265	0.0010013021468489559	1401
216	0.0010011355200408103	809
631	0.0010006356396163735	4302
446	0.0010002190725960094	2839
371	0.0009925542394213119	2530
422	0.0009870972114545433	2814
865	0.0009866806444341794	6809
1141	0.0009858058536914148	8480
1056	0.0009834730783773765	8303
525	0.0009814735566796293	3402
864	0.000980515452532792	6808
1013	0.0009784742741330084	7616
1203	0.000977599483390244	8704
715	0.0009766413792434067	5210
1156	0.0009764330957332248	8511
917	0.0009758915586067516	7113
310	0.0009736004399947495	2004
1235	0.0009733921564845676	9007
257	0.0009733504997825312	1209
1204	0.000971767545105148	8705
161	0.0009709760677664563	208
404	0.0009709760677664563	2712
1321	0.0009685599790483451	9704
423	0.0009681434120279812	2815
329	0.0009661438903302339	2208
360	0.0009627696974652855	2518
879	0.0009624364438489943	6908
285	0.0009622281603388123	1520
1281	0.0009603536087471742	9301
1300	0.0009575209530086991	9601
1078	0.0009563962220537162	8414
956	0.0009528137456785858	7307
849	0.0009507309105767658	6507
215	0.0009491479558993826	808
947	0.0009490229857932734	7227
614	0.0009471484342016353	4016
246	0.0009454821661201793	1107
378	0.0009453571960140702	2607
774	0.0009453571960140702	5809
1017	0.0009440658382509418	7901
680	0.0009439825248468689	4906
537	0.0009437742413366869	3601
1147	0.0009436909279326142	8501
1216	0.000942732823785777	8801
1068	0.0009422329433613401	8404
1172	0.0009413998093206121	8530
1313	0.0009392336608147193	9614
337	0.0009382338999658457	2307
753	0.0009381505865617729	5602
551	0.0009380672731577	3802
973	0.000937650706137336	7324
577	0.0009375257360312269	3904
790	0.0009373591092230812	6003
1298	0.0009371091690108629	9507
513	0.00093702585560679	3211
906	0.00093702585560679	7102
869	0.0009365676318843897	6813
1152	0.0009358594679497709	8506
882	0.0009344847967825697	6911
1225	0.0009344847967825697	8905
1228	0.0009333600658275868	8908
1039	0.0009328601854031501	8201
771	0.0009324019616807496	5806
247	0.0009313605441298396	1108
520	0.000929111082219874	3304
388	0.0009287778286035828	2617
411	0.0009284445749872916	2803
681	0.0009266533367997264	4907
971	0.0009254452924406707	7322
213	0.0009240706212734696	806
721	0.000919655010857611	5305
743	0.0009195716974535383	5508
286	0.0009158642509722987	1521
676	0.0009126983416175322	4902
921	0.0009114486405564403	7118
374	0.000910073969389239	2603
606	0.000908407701307783	4008
734	0.0009076578806711278	5407
234	0.0009070330301405818	1003
608	0.0009063665229079994	4010
779	0.0009060332692917082	5903
419	0.0009054917321652349	2811
763	0.0009054500754631985	5703
1289	0.0009048252249326525	9402
674	0.0009045752847204342	4824
975	0.0009037838073817425	7326
432	0.0009034505537654513	2824
699	0.0009033672403613786	5107
1211	0.0009022425094063958	8712
964	0.0009018259423860317	7315
1303	0.0009012010918554857	9604
152	0.0009009928083453038	105
697	0.0009009511516432674	5105
1005	0.000900284644410685	7608
254	0.0008999930474964302	1206
280	0.0008989516299455202	1514
607	0.000897993525798683	4009
963	0.0008967854814396273	7314
1101	0.0008962439443131541	8437
927	0.0008950358999540985	7206
652	0.0008945360195296617	4419
748	0.0008910785132606405	5513
387	0.0008901204091138033	2616
645	0.000884163500722598	4412
372	0.000883955217212416	2601
604	0.0008836219635961248	4006
535	0.0008821639790248508	3506
990	0.0008781649356293563	7419
1063	0.0008763736974417911	8310
669	0.0008753322798908811	4802
787	0.0008750823396786627	5911
1074	0.0008729578478748063	8410
1178	0.0008729578478748063	8536
1200	0.0008729161911727698	8701
1142	0.0008726245942585151	8481
1092	0.0008725829375564786	8428
1302	0.000869916908626149	9603
434	0.0008697919385200399	2826
1076	0.0008694586849037487	8412
496	0.0008687921776711663	2942
933	0.000868667207565057	7212
786	0.0008685838941609842	5910
788	0.0008679590436304382	6001
1208	0.0008668759693774918	8709
666	0.0008647931342756718	4706
454	0.0008647514775736355	2849
711	0.0008627519558758882	5206
675	0.000862210418749415	4901
623	0.0008616688816229418	4114
505	0.0008614189414107233	3203
1002	0.0008604191805618497	7605
989	0.0008602108970516678	7418
1299	0.0008597943300313038	9508
841	0.0008590445093946485	6404
148	0.0008573365846111561	101
741	0.000856586763974501	5506
872	0.0008562118536561734	6901
773	0.0008557952866358093	5808
565	0.0008552954062113725	3816
406	0.0008539623917462077	2714
529	0.0008533375412156617	3406
1277	0.0008531709144075161	9206
221	0.0008519628700484605	814
928	0.0008519212133464241	7207
806	0.0008515879597301329	6113
624	0.0008510464226036597	4115
893	0.0008508381390934776	7008
1244	0.000849838378244604	9018
151	0.0008492551844160944	104
331	0.0008467557822939105	2301
469	0.0008466724688898377	2914
1083	0.00084629755857151	8419
1146	0.0008453811111267093	8487
390	0.0008452977977226364	2619
237	0.0008421735450699064	1006
1241	0.0008418402914536152	9015
754	0.0008398824264579044	5603
1177	0.0008387160388008851	8535
961	0.0008367165171031379	7312
1021	0.0008361749799766648	7907
926	0.0008355084727440824	7205
1043	0.000835258532531864	8205
1226	0.0008351335624257548	8906
1046	0.0008346753387033543	8208
1174	0.0008345920252992815	8532
1064	0.0008340921448748447	8311
1081	0.0008340921448748447	8417
1040	0.0008336339211524443	8202
953	0.0008327174737076435	7304
704	0.0008324258767933887	5112
497	0.0008323842200913523	3006
672	0.0008320926231770975	4811
1119	0.0008319676530709883	8455
792	0.0008317593695608063	6005
860	0.0008313844592424787	6804
550	0.0008312178324343331	3801
312	0.0008310928623282239	2006
612	0.0008309678922221147	4014
738	0.0008308429221160056	5503
533	0.0008295515643528771	3503
767	0.0008295515643528771	5802
1283	0.0008294265942467679	9303
1197	0.0008293016241406587	8607
569	0.0008290516839284403	3820
952	0.0008289683705243675	7303
1221	0.0008285518035040035	8901
778	0.0008277603261653119	5902
620	0.0008276770127612391	4104
1055	0.0008273437591449479	8302
1140	0.0008269688488266203	8479
154	0.000826843878720511	201
391	0.0008265106251042198	2620
735	0.0008264689684021834	5408
698	0.000825177610639055	5106
954	0.0008250526405329459	7305
1306	0.0008240945363861086	9607
951	0.000823719626067781	7302
900	0.0008236779693657447	7016
1198	0.0008236363126637083	8608
725	0.0008234696858555626	5309
1098	0.0008221783280924342	8434
270	0.0008220117012842887	1504
539	0.0008205537167130146	3603
769	0.0008205537167130146	5804
232	0.0008205120600109782	1001
857	0.0008194706424600682	6801
701	0.0008190124187376678	5109
1018	0.0008171795238480662	7903
693	0.0008170128970399205	5101
772	0.0008155549124686466	5807
659	0.0008150133753421733	4601
830	0.0008109310185426061	6303
1175	0.0008097229741835505	8533
277	0.0008084316164204221	1511
229	0.0008080567061020945	908
159	0.0008073485421674757	206
1106	0.0008069319751471117	8442
1207	0.0008043492596208549	8708
603	0.0008032661853679085	4005
1060	0.0008023080812210713	8307
457	0.0008021414544129256	2902
679	0.0008008917533518336	4905
1097	0.0008008500966497972	8433
576	0.0007996003955887053	3903
1259	0.00079885057495205	9033
1089	0.0007979341275072492	8425
1025	0.000797600873890958	8007
1094	0.0007972259635726304	8430
638	0.0007964761429359752	4405
684	0.0007955596954911744	4910
664	0.000795518038789138	4704
412	0.0007953930686830288	2804
1066	0.0007940183975158276	8402
1136	0.0007936434871974999	8475
873	0.000793018636666954	6902
456	0.0007926020696465899	2901
745	0.0007926020696465899	5510
321	0.0007920605325201168	2106
671	0.0007920605325201168	4810
892	0.0007919355624140075	7007
1093	0.000791768935605862	8429
910	0.0007905608912468063	7106
305	0.0007892695334836779	1904
1117	0.0007887696530592412	8453
593	0.0007886446829531319	3920
757	0.0007885197128470227	5606
582	0.0007884780561449863	3909
1301	0.0007880614891246223	9602
694	0.0007878115489124039	5102
722	0.0007877282355083311	5306
1309	0.0007874366385940764	9610
197	0.0007865618478513119	704
1196	0.0007863535643411299	8606
301	0.0007855204303004019	1805
493	0.0007852704900881835	2939
601	0.0007850205498759651	4003
615	0.0007846039828556011	4017
261	0.0007841041024311642	1213
834	0.0007839374756230187	6307
519	0.0007832293116883999	3303
809	0.0007830210281782179	6116
455	0.0007805216260560339	2852
983	0.0007803966559499246	7409
987	0.0007803133425458519	7413
393	0.0007800634023336334	2701
195	0.0007788970146766143	702
702	0.0007779805672318134	5110
599	0.0007763142991503574	4001
660	0.0007745230609627922	4602
273	0.000773773240326137	1507
471	0.0007708572711835889	2916
1202	0.0007706073309713705	8703
453	0.0007699824804408246	2847
600	0.0007683162123593685	4002
542	0.0007673581082125314	3606
969	0.0007669831978942037	7320
861	0.0007668582277880945	6805
297	0.0007661500638534757	1801
1129	0.0007656085267270025	8468
1192	0.0007656085267270025	8602
568	0.0007654002432168206	3819
904	0.0007652752731107113	7020
1085	0.0007641088854536921	8421
1169	0.0007630258112007456	8526
1000	0.0007624009606701996	7603
507	0.0007621926771600177	3205
1143	0.0007615678266294717	8482
1148	0.0007614845132253989	8502
1100	0.000761401199821326	8436
368	0.0007609429760989257	2526
506	0.0007608180059928165	3204
625	0.0007600265286541248	4201
1115	0.0007600265286541248	8451
1118	0.0007596516183357972	8454
781	0.000759318364719506	5905
1008	0.0007591933946133969	7611
398	0.0007587351708909964	2706
1171	0.0007586102007848873	8529
500	0.0007581103203604504	3103
1150	0.0007575687832339773	8504
495	0.000757027246107504	2941
965	0.0007565273656830673	7316
400	0.0007563607388749216	2708
746	0.0007561107986627032	5511
980	0.0007552776646219752	7406
844	0.000755152694515866	6501
290	0.0007550277244097568	1603
730	0.0007544861872832836	5403
919	0.000754319560475138	7115
267	0.0007541529336669924	1501
1090	0.0007541529336669924	8426
426	0.000754111276964956	2818
1054	0.0007535280831364463	8301
977	0.0007528199192018276	7402
588	0.0007522783820753544	3915
425	0.0007519867851610996	2817
885	0.0007517368449488812	6914
253	0.000751611874842772	1205
155	0.0007514452480346264	202
932	0.0007505288005898255	7211
1067	0.0007504038304837164	8403
1116	0.000749945606761316	8452
883	0.0007486542489981876	6912
839	0.0007471962644269135	6402
184	0.0007459049066637851	505
823	0.0007435721313497467	6213
356	0.0007407394756112715	2514
382	0.0007400313116766526	2611
1162	0.0007331162991386102	8517
761	0.000732574762012137	5701
1157	0.0007322415083958458	8512
913	0.0007319915681836274	7109
1114	0.0007304502702082806	8450
1045	0.0007298254196777345	8207
1080	0.0007293255392532978	8416
1102	0.0007285757186166426	8438
478	0.0007279508680860966	2923
1138	0.0007272427041514778	8477
1233	0.0007268261371311137	9005
756	0.0007260346597924222	5605
433	0.0007256597494740946	2825
1037	0.0007254514659639125	8112
736	0.0007250348989435486	5501
949	0.0007245766752211481	7229
1160	0.0007245766752211481	8515
1006	0.0007245350185191117	7609
848	0.0007241601082007841	6506
284	0.0007239518246906022	1518
1032	0.0007239518246906022	8107
344	0.0007238268545844929	2502
667	0.0007237851978824565	4707
1311	0.0007235769143722745	9612
192	0.0007233269741600562	603
558	0.0007228270937356193	3809
1050	0.0007220772730989641	8212
824	0.0007220356163969277	6214
985	0.0007217856761847093	7411
782	0.0007211608256541633	5906
1213	0.0007207859153358357	8714
1187	0.0007200777514012169	8545
555	0.0007188280503401249	3806
1180	0.0007185364534258701	8538
435	0.0007181198864055061	2827
777	0.0007180365730014333	5901
1070	0.0007178699461932877	8406
889	0.0007167868719403413	7004
1061	0.0007166202451321956	8308
1308	0.0007161620214097953	9609
174	0.0007158287677935041	404
156	0.0007154538574751765	203
826	0.0007153288873690672	6216
504	0.0007150789471568489	3202
472	0.0007150372904548124	2917
627	0.000714995633752776	4203
1287	0.000714579066732412	9307
1122	0.0007137042759896476	8459
810	0.00071332936567132	6117
689	0.0007127461718428105	5004
884	0.0007117047542919004	6913
1161	0.0007109965903572816	8516
1139	0.0007098302027002624	8478
724	0.0007096635758921168	5308
768	0.0007079556511086244	5803
514	0.0007014988622929823	3212
1252	0.0007009989818685455	9026
633	0.0007009573251665092	4304
299	0.0007002491612318904	1803
1212	0.0006995409972972715	8713
380	0.0006993327137870895	2609
470	0.0006976247890035971	2915
1145	0.0006975831323015606	8486
944	0.0006948754466691947	7224
1265	0.0006929175816734838	9106
940	0.0006928759249714474	7220
1182	0.0006919178208246102	8540
1151	0.0006916678806123918	8505
1255	0.0006901265826370451	9029
578	0.0006900016125309358	3905
431	0.0006897100156166811	2823
1167	0.000689293448596317	8523
1285	0.0006892101351922442	9305
481	0.0006887935681718802	2926
508	0.0006887935681718802	3206
775	0.000688460314555589	5810
1026	0.0006881687176413342	8101
559	0.0006880020908331886	3810
580	0.0006879187774291158	3907
354	0.0006874188970046791	2512
448	0.000686794046474133	2841
1155	0.0006862108526456234	8509
731	0.0006861275392415506	5404
939	0.0006853777186048954	7219
416	0.000685336061902859	2808
464	0.000685127778392677	2909
785	0.0006850444649886041	5909
591	0.0006848778381804586	3918
483	0.0006844612711600946	2928
1127	0.0006840447041397305	8465
663	0.0006839613907356578	4703
571	0.0006833781969071481	3823
1189	0.0006833781969071481	8547
475	0.0006830032865888206	2920
163	0.0006829199731847478	210
180	0.0006820451824419833	410
920	0.0006819202123358742	7117
647	0.0006814619886134737	4414
905	0.0006810454215931097	7101
304	0.0006803789143605273	1903
1088	0.0006802956009564546	8424
696	0.0006790875565973989	5104
162	0.0006790458998953625	209
986	0.0006785876761729622	7412
1153	0.0006782960792587073	8507
751	0.0006780044823444525	5516
157	0.0006776295720261249	204
325	0.000677213005005761	2204
1320	0.0006768380946874333	9703
178	0.0006757550204344869	408
1292	0.0006749635430957953	9405
629	0.0006745053193733949	4206
381	0.0006740470956509945	2610
227	0.0006732972750143393	906
200	0.0006717559770389925	707
300	0.0006717143203369561	1804
566	0.0006706312460840097	3817
238	0.000670256335765682	1007
896	0.0006649242779050228	7011
733	0.0006645077108846588	5406
279	0.000664007830460222	1513
1280	0.0006627997861011664	9209
1107	0.0006615500850400744	8443
536	0.0006614667716360016	3507
1038	0.0006603836973830551	8113
1073	0.0006583841756853079	8409
526	0.0006580925787710531	3403
517	0.0006572177880282888	3215
945	0.0006570511612201431	7225
581	0.0006565512807957064	3908
1183	0.0006551766096285052	8541
458	0.0006545934157999955	2903
572	0.0006543434755877771	3824
158	0.000654218505481668	205
1284	0.0006536353116531583	9304
532	0.0006533853714409399	3502
1133	0.0006532604013348307	8472
943	0.0006528854910165031	7223
1236	0.0006525522374002119	9008
908	0.0006525105806981754	7104
466	0.0006523022971879935	2911
460	0.0006521356703798479	2905
561	0.0006520940136778115	3812
888	0.0006513025363391199	7003
394	0.0006511775662330106	2702
1024	0.0006509276260207923	8003
871	0.0006507193425106103	6815
1023	0.0006507193425106103	8002
1137	0.0006505527157024646	8476
1249	0.0006503860888943191	9023
534	0.000650177805384137	3505
486	0.0006497612383637731	2932
564	0.0006497195816617367	3815
942	0.0006495112981515546	7222
1159	0.0006494279847474819	8514
409	0.0006486781641108267	2801
630	0.000648511537302681	4301
1041	0.0006479700001762079	8203
1245	0.0006479283434741715	9019
1015	0.0006475950898578802	7804
950	0.0006472201795395526	7301
1206	0.0006471368661354798	8707
271	0.0006468036125191886	1505
258	0.0006463870454988247	1210
473	0.0006463453887967883	2918
440	0.0006462620753927154	2832
586	0.0006461787619886426	3913
413	0.000645595568160133	2805
703	0.0006455122547560602	5111
160	0.0006452623145438418	207
1125	0.0006450540310336598	8462
683	0.0006450123743316235	4909
1099	0.0006442625536949682	8435
988	0.0006438043299725678	7415
776	0.000643096166037949	5811
688	0.0006428045691236942	5003
552	0.0006426379423155486	3803
1058	0.0006423880021033302	8305
531	0.0006414715546585294	3501
150	0.0006411799577442746	103
686	0.0006410966443402018	5001
389	0.0006408467041279834	2618
370	0.0006404301371076194	2529
338	0.0006400552267892918	2308
1079	0.0006390971226424546	8415
1217	0.0006388888391322726	8802
1307	0.0006373891978589621	9608
345	0.0006370559442426709	2503
972	0.0006353063627571421	7323
878	0.0006345148854184506	6907
784	0.0006341816318021594	5908
355	0.0006334318111655041	2513
825	0.0006317655430840481	6215
852	0.0006315156028718297	6603
967	0.0006253087542684061	7318
1258	0.0006243923068236052	9032
462	0.0006201433232158924	2907
1194	0.0006197267561955284	8604
890	0.0006178522046038904	7005
1173	0.0006178522046038904	8531
946	0.0006163942200326164	7226
1126	0.0006159776530122523	8463
1091	0.0006155610859918883	8427
1072	0.0006154777725878156	8408
421	0.0006148112653552332	2813
1251	0.0006145613251430147	9025
1247	0.0006142697282287599	9021
479	0.0006139364746124687	2924
1185	0.0006137281911022868	8543
1315	0.0006127284302534132	9616
1124	0.0006120619230208307	8461
1190	0.000611770326106576	8548
632	0.0006114787291923212	4303
477	0.00061114547557603	2922
494	0.0006109788487678843	2940
1069	0.0006101457147271563	8405
1181	0.0006100207446210471	8539
573	0.0006094375507925376	3825
1103	0.0006093542373884647	8439
941	0.0006086460734538459	7221
361	0.0006083961332416275	2519
1305	0.0006083128198375547	9606
252	0.0006082295064334819	1204
527	0.0006081878497314455	3404
333	0.0006073547156907175	2303
198	0.0006070631187764626	705
909	0.0006066048950540623	7105
467	0.0006059800445235163	2912
385	0.0006057301043112978	2614
1059	0.0006049802836746427	8306
1010	0.0006046053733563151	7613
427	0.0006042721197400239	2819
417	0.0006032723588911503	2809
589	0.0006032307021891139	3916
408	0.0006030224186789318	2716
1209	0.0006029391052748591	8710
274	0.0006024392248504222	1508
1033	0.000602314254744313	8108
1048	0.0006013978072995122	8210
791	0.0006011478670872938	6004
1030	0.000598773435071219	8105
326	0.000597523734010127	2205
353	0.0005971904803938358	2511
386	0.0005969405401816174	2615
228	0.000593358063806487	907
377	0.0005925249297657589	2606
874	0.0005865680213745537	6903
461	0.0005839853058482969	2906
1176	0.0005827772614892412	8534
1144	0.0005826106346810957	8483
1028	0.0005825273212770229	8103
485	0.00058244400787295	2930
480	0.0005819857841505496	2925
515	0.0005810693367057488	3213
899	0.0005799862624528024	7015
1256	0.0005792780985181836	9030
585	0.0005792364418161473	3912
996	0.0005788615314978197	7507
1163	0.0005788615314978197	8518
553	0.0005779867407550552	3804
509	0.0005778201139469096	3207
1250	0.0005773202335224728	9024
491	0.000576820353098036	2937
887	0.0005767786963959996	7002
367	0.0005766953829919268	2525
992	0.00057619550256749	7502
450	0.0005756539654410168	2844
1170	0.0005753207118247256	8527
1077	0.0005752790551226892	8413
682	0.0005752373984206528	4908
780	0.0005752373984206528	5904
901	0.0005743626076778884	7017
1071	0.0005740293540615972	8407
1271	0.0005734045035310512	9112
691	0.0005733211901269784	5006
570	0.0005727796530005052	3821
1131	0.0005723630859801412	8470
268	0.0005716965787475588	1502
1087	0.0005714882952373767	8423
410	0.0005705718477925759	2802
783	0.0005701552807722119	5907
396	0.0005701136240701755	2704
764	0.0005701136240701755	5704
1246	0.0005696554003477752	9020
1205	0.0005688222663070471	8706
1317	0.0005684473559887195	9618
492	0.0005677808487561371	2938
626	0.0005676142219479915	4202
275	0.0005673226250337367	1509
272	0.0005668227446092999	1506
395	0.0005662395507807903	2703
1210	0.0005655730435482079	8711
1042	0.0005654480734420987	8204
846	0.0005649898497196983	6504
298	0.0005640734022748975	1802
1022	0.0005636568352545335	8001
719	0.0005635735218504607	5302
621	0.0005626987311076962	4105
727	0.0005619905671730774	5311
976	0.0005591995681366387	7401
793	0.0005534509432556154	6006
997	0.0005507432576232494	7508
562	0.0005466192441216458	3813
1112	0.0005460360502931362	8448
474	0.000545702796676845	2919
1257	0.0005454111997625901	9031
1121	0.0005449946327422262	8458
309	0.0005445780657218621	2003
1229	0.0005443697822116801	9001
1253	0.0005442031554035345	9027
465	0.0005434116780648429	2910
490	0.0005427868275342969	2936
424	0.0005425785440241149	2816
489	0.0005424535739180057	2935
592	0.00054228694710986	3919
1132	0.0005418703800894961	8471
911	0.0005416204398772777	7107
476	0.0005415371264732049	2921
1248	0.0005414538130691321	9022
766	0.0005408289625385861	5801
894	0.000540620679028404	7009
1052	0.0005405790223263677	8214
984	0.0005405373656243313	7410
1263	0.0005405373656243313	9104
1164	0.0005403290821141492	8519
1165	0.0005402874254121128	8521
598	0.0005398292016897125	3926
1266	0.0005394959480734213	9107
567	0.0005391210377550937	3818
1184	0.0005386211573306568	8542
1193	0.0005384128738204749	8603
420	0.0005379963068001108	2812
235	0.0005377463665878925	1004
346	0.0005375380830777105	2504
518	0.0005368299191430917	3302
1242	0.0005368299191430917	9016
1111	0.0005367466057390189	8447
880	0.0005356635314860724	6909
1020	0.000535621874784036	7905
1084	0.000535621874784036	8420
330	0.0005351219943595993	2209
397	0.0005347887407433081	2705
1075	0.0005347887407433081	8411
1191	0.0005347470840412716	8601
1105	0.0005346637706371988	8441
1276	0.0005332474427679612	9205
855	0.0005331224726618521	6703
938	0.0005314978612824324	7218
870	0.0005309979808579956	6814
233	0.0005308730107518864	1002
1297	0.0005307480406457772	9506
366	0.0005286652055439572	2524
1130	0.0005284569220337751	8469
1279	0.0005262074601238096	9208
856	0.0005254159827851179	6704
677	0.0005240413116179167	4903
503	0.0005237913714056983	3201
847	0.0005237913714056983	6505
1275	0.0005228749239608975	9202
583	0.0005134188525986347	3910
1128	0.0005130855989823435	8467
993	0.000510336256647941	7504
1086	0.0005089615854807398	8422
1134	0.0005083783916522302	8473
1272	0.0005080867947379753	9113
1234	0.0005070453771870653	9006
428	0.0005068787503789198	2820
1166	0.0005068370936768834	8522
1243	0.000506587153464665	9017
1049	0.0005055040792117186	8211
584	0.0005050041987872818	3911
995	0.0005048375719791362	7506
484	0.0005040877513424809	2929
349	0.0005031296471956437	2507
662	0.0005031296471956437	4702
1104	0.0005027130801752797	8440
548	0.0005023381698569521	3706
437	0.000502213199750843	2829
463	0.0005021298863467701	2908
429	0.0005016716626243697	2821
1238	0.0005015466925182606	9011
579	0.0005013800657101149	3906
915	0.0005011301254978965	7111
1123	0.0005010884687958601	8460
700	0.0005006719017754961	5108
482	0.0005006302450734597	2927
438	0.000500546931669387	2830
1019	0.0005004636182653141	7904
1270	0.0005004219615632777	9111
1282	0.0005001720213510593	9302
1027	0.0004992972306082949	8102
1240	0.0004992555739062586	9014
1237	0.0004989639769920037	9010
1294	0.000498255813057385	9503
1154	0.0004978392460370209	8508
488	0.000497547649122766	2934
449	0.0004970477686983293	2843
1218	0.0004967561717840745	8803
1214	0.0004967145150820381	8715
384	0.0004964229181677833	2613
1029	0.0004951732171066913	8104
501	0.0004948399634904	3104
979	0.0004936735758333809	7405
244	0.0004935069490252352	1105
718	0.0004932570088130168	5301
877	0.0004930070686007985	6906
739	0.0004918823376458156	5504
262	0.0004916740541356337	1214
276	0.0004910075469030513	1510
649	0.0004905493231806508	4416
352	0.0004903410396704688	2510
1113	0.0004902160695643596	8449
726	0.0004898828159480684	5310
373	0.0004890496819073405	2602
845	0.0004876750107401392	6502
226	0.00048663359318922917	905
687	0.00048392590755686317	5002
1220	0.00047072073301132427	8805
678	0.00046922109173801386	4904
543	0.0004690128082278318	3701
1231	0.000468512927803395	9003
898	0.00046792973397488544	7014
1044	0.000467679793762667	8206
1323	0.00046759648035859424	970
530	0.0004673465401463758	3407
190	0.00046726322674230304	601
1274	0.00046709659993415743	9201
851	0.0004668050030199026	6602
737	0.0004667216896158298	5502
487	0.0004665134061056478	2933
994	0.0004654719885547378	7505
1268	0.0004650137648323374	9109
902	0.000464138974089573	7018
968	0.0004633891534529178	7319
1168	0.0004633891534529178	8525
451	0.000462472706008117	2845
560	0.0004623477359020078	3811
705	0.00046188951217960737	5113
1318	0.00046072312452258816	9701
445	0.0004605148410124062	2837
1230	0.00045988999048186016	9002
1312	0.00045943176675945974	9613
556	0.00045926513995131414	3807
1260	0.0004559742604904385	9101
850	0.00045572432027822014	6601
605	0.0004546412460252737	4007
439	0.0004545162759191645	2831
249	0.0004536414851764001	1201
622	0.0004526417243275265	4106
1296	0.0004522668140091989	9505
1108	0.00043764531159442237	8444
1120	0.00043622898372518474	8457
452	0.0004336046114968915	2846
1269	0.00043302141766838194	9110
1273	0.0004313968062889623	9114
1278	0.00043052201554619787	9207
1065	0.0004303137320360159	8401
690	0.0004297305382075063	5005
269	0.0004296055681013971	1503
447	0.00042952225469732426	2840
547	0.0004291473443789967	3705
1047	0.00042802261342401386	8209
1261	0.00042798095672197747	9102
1314	0.0004279393000199411	9615
587	0.00042756438970161344	3914
742	0.00042685622576699465	5507
670	0.00042581480821608466	4807
1110	0.0004252732710896114	8446
334	0.00042514830098350226	2304
181	0.0004242318535387014	501
1053	0.0004236070030081554	8215
1316	0.0004226488988613182	9617
442	0.00042252392875520903	2834
924	0.000420857660673753	7203
1036	0.000420857660673753	8111
922	0.0004207326905676438	7201
657	0.000420649377163571	4503
1304	0.0004201078400370978	9605
732	0.0004188997956780422	5405
224	0.00041814997504138697	903
369	0.0004145674986662565	2528
720	0.0004074025459159957	5303
468	0.0003980297879578056	2913
549	0.00039532210232543955	3707
545	0.0003952387889213668	3703
1051	0.00039386411775416553	8213
914	0.00039240613318289156	7110
1109	0.0003910314620156903	8445
1195	0.00039028164137903514	8605
544	0.0003898234176566347	3702
1319	0.0003893651939342343	9702
1158	0.0003890319403179431	8513
991	0.0003883654330853607	7501
248	0.0003882404629792515	1109
1295	0.00038811549287314233	9504
692	0.0003870324186201959	5007
182	0.0003849079268163395	502
859	0.00038378319586135666	6803
1262	0.00038361656905321105	9103
418	0.0003828667484165559	2810
430	0.00038261680820433745	2822
335	0.00038257515150230106	2305
375	0.00038257515150230106	2604
665	0.0003818669875676823	4705
723	0.00038057562980455385	5307
613	0.0003802007194862262	4015
661	0.0003797008390617894	4701
654	0.00037795125757626063	4421
251	0.0003762849894948046	1203
376	0.0003759517358785134	2605
540	0.00035603983230511404	3604
1310	0.0003554982951786408	9611
1267	0.0003546651611379128	9108
1031	0.0003511659981668552	8106
658	0.00034887487955485315	4504
1239	0.00032396417173708575	9013
1264	0.00031684087568886125	9105
1232	0.0003085511919836176	9004
656	0.00030446883518405035	4502
853	0.00028109942534162974	6701
854	0.00027410109939951445	6702
1034	0.00027405944269747807	8109
655	0.00027376784578322325	4501
1035	0.0002726847715302769	8110
383	0.0002725181447221313	2612
