67	0.019396984924623117	Italy
50	0.018647081561654427	Germany
30	0.017680711248550446	China
46	0.017663703131039814	France
141	0.017522999613451874	USA
123	0.017425589485890992	Spain
61	0.017385388480865866	India
13	0.016273676072671047	Belgium
94	0.015967529957479708	Netherlands
107	0.015628913799768072	Poland
8	0.015219172787011983	Austria
139	0.014613065326633166	UnitedKingdom
36	0.014464630846540394	CzechRepublic
134	0.013468882875918051	Turkey
108	0.013263239273289524	Portugal
52	0.012570545032856591	Greece
21	0.012318515655199072	Bulgaria
127	0.012126787785079243	Switzerland
131	0.011927328952454581	Thailand
38	0.011584074217240047	Denmark
69	0.011568612292230383	Japan
62	0.01150521839969076	Indonesia
119	0.011469655972168535	Slovenia
115	0.011103208349439505	Serbia
77	0.010846540394279089	Lebanon
34	0.010840355624275223	Croatia
19	0.01063316582914573	Brazil
43	0.010583687669114805	Estonia
110	0.010571318129107074	Romania
26	0.01038577502899111	Canada
126	0.010333204483958252	Sweden
66	0.010081175106300735	Israel
118	0.009960572091225358	Slovakia
121	0.00989563200618477	SouthAfrica
40	0.009787398531117123	Egypt
80	0.009785852338616157	Lithuania
72	0.009765751836103596	Kenya
76	0.009645148821028219	Latvia
122	0.009464244298415152	SouthKorea
137	0.009339002705836878	Ukraine
144	0.00924777734827986	Vietnam
59	0.00916737533822961	Hungary
102	0.008943177425589486	Pakistan
95	0.008907614998067259	NewZealand
88	0.008802473908001545	Mexico
54	0.008785465790490917	Guatemala
45	0.00866486277541554	Finland
133	0.008576729802860457	Tunisia
35	0.008426749130266718	Cyprus
12	0.008061847700038654	Belarus
7	0.007972168534982605	Australia
81	0.007891766524932354	Macedonia
140	0.007860842674913026	Uruguay
18	0.007794356397371473	BosniaHerzegovina
103	0.007696946269810591	Panama
93	0.007695400077309625	Nepal
91	0.0076057209122535755	Morocco
105	0.007489756474681098	Peru
31	0.007379976807112485	Colombia
70	0.007321221492075763	Jordan
1	0.007319675299574797	Albania
41	0.007151140316969463	ElSalvador
84	0.0071449555469655975	Malaysia
116	0.0069547738693467335	SierraLeone
106	0.006936219559335138	Philippines
114	0.006722844994201778	Senegal
130	0.0066022419791264015	Tanzania
111	0.006579049091611906	Russia
117	0.006545032856590646	Singapore
74	0.006429068419018168	Kyrgyzstan
82	0.006416698879010437	Madagascar
29	0.006200231928875145	Chile
147	0.006187862388867414	Zimbabwe
132	0.006045612678778508	Togo
58	0.005770390413606494	Honduras
33	0.0056374178585233865	CostaRica
100	0.005586393505991496	Norway
138	0.005521453420950909	UnitedArabEmirates
63	0.005185929648241206	Iran
136	0.005032856590645536	Uganda
11	0.004921530730575957	Bangladesh
17	0.004859683030537302	Bolivia
65	0.004791650560494781	Ireland
48	0.004763819095477387	Gambia
142	0.004760726710475454	Uzbekistan
96	0.00466486277541554	Nicaragua
49	0.004647854657904909	Georgia
68	0.004516428295322767	IvoryCoast
75	0.004480865867800541	Laos
51	0.004457672980286045	Ghana
104	0.0044514882102821805	Paraguay
0	0.004159257827599536	Afghanistan
71	0.004134518747584074	Kazakhstan
89	0.00410204870506378	Mongolia
39	0.004075763432547353	Ecuador
6	0.004	Armenia
42	0.003975260919984538	Eritrea
44	0.003975260919984538	Ethiopia
86	0.0038902203324313878	Malta
10	0.0038144568998840357	Bahrain
24	0.003800541167375338	Cambodia
92	0.003720139157325087	Mozambique
16	0.0036505604947816004	Bhutan
146	0.0036505604947816004	Zambia
22	0.0036211828372632393	BurkinaFaso
60	0.0035315036722071897	Iceland
97	0.003465017394665636	Niger
101	0.0034340935446463086	Oman
83	0.0033938925396211827	Malawi
129	0.00335678391959799	Tajikistan
15	0.0033505991495941245	Benin
25	0.0033505991495941245	Cameroon
112	0.0033351372245844606	Rwanda
9	0.003330498647081562	Azerbaijan
143	0.0032129880170081175	Venezuela
57	0.003123308851952068	Guyana
85	0.0030258987243911867	Mali
37	0.002906841901816776	DemocraticRepublicCongo
125	0.0028867413993042134	Suriname
14	0.0028449942017781216	Belize
145	0.0027243911867027445	Yemen
113	0.0026872825666795514	SaudiArabia
23	0.002643989176652493	Burundi
55	0.0025898724391186703	Guinea
27	0.0025032856590645534	CentralAfricanRepublic
135	0.0023563973714727485	Turkmenistan
32	0.0023347506764592194	Congo
124	0.0022991882489369927	Sudan
109	0.0022064166988790103	Qatar
98	0.002096637031310398	Nigeria
73	0.0020703517587939697	Kuwait
87	0.0019265558562040974	Mauritania
56	0.0018507924236567453	Guinea-Bissau
2	0.0018136838036335525	Algeria
78	0.0017889447236180904	Liberia
79	0.0016930807885581756	Libya
47	0.0016884422110552764	Gabon
20	0.001674526478546579	Brunei
64	0.0013544646308465405	Iraq
28	0.0013328179358330112	Chad
4	0.0011704677232315423	Angola
