401	0.006293571562291404	2709
402	0.005596044508557259	2710
153	0.005526455541928853	106
925	0.0047738031107086775	7204
169	0.004580045595782526	306
616	0.0045355632367220155	4100
618	0.004524374422479801	4102
706	0.004436501295992166	5201
255	0.004435682602267127	1207
912	0.004279312100784472	7108
332	0.004202354890630706	2302
640	0.004088556462850135	4407
293	0.003999591744729114	1701
259	0.003982399176503271	1211
166	0.0038836101336817692	303
403	0.0038252099812955773	2711
222	0.0037719948891679726	901
260	0.0036153514897769713	1212
619	0.00352474938420587	4103
206	0.00345461462176077	713
836	0.003406857487800099	6309
263	0.0033852985530407106	1301
641	0.0032207411143076554	4408
636	0.0031983634858232268	4403
617	0.0031413278229787678	4101
168	0.003140236231345381	305
165	0.0031339595794534075	302
999	0.0030570023692996404	7602
211	0.002996964829463368	804
223	0.0029857760152211536	902
340	0.0029666731616368853	2401
250	0.002956575939028058	1202
266	0.0029019963573587194	1404
240	0.002856149508756475	1101
231	0.0028062091915290305	910
167	0.0027936558877450827	304
499	0.002792837194020043	3102
186	0.002756268874301586	507
907	0.0027221566357582497	7103
707	0.002688863090939953	5202
201	0.0026743995017975784	708
341	0.0026607546063802437	2402
208	0.0026432891402460557	801
170	0.002633191917637228	307
813	0.0026310087343704544	6203
365	0.0026274610615619476	2523
599	0.0025876179669433305	4001
422	0.002551049647224874	2814
796	0.0025374047518075394	6103
797	0.0024918308011136416	6104
151	0.002488010230396788	104
802	0.0024036847767176604	6109
297	0.002388948289666939	1801
164	0.002387310902216859	301
795	0.0023777594754247245	6102
798	0.002342282747339655	6105
978	0.0023283649540139736	7403
807	0.002317176139771759	6114
642	0.002302166754812691	4409
323	0.0022928882259289035	2202
708	0.00228988634893709	5203
1322	0.0022830639012284227	9705
832	0.0022677816183610078	6305
295	0.002195190774740788	1703
405	0.0021831832667735334	2713
637	0.002177452410698253	4404
281	0.0021504355177719304	1515
721	0.0021433401721549167	5305
459	0.0021406111930714496	2904
210	0.002136517724446249	803
187	0.0021239644206623013	508
245	0.002108136341978193	1106
645	0.0021064989545281133	4412
794	0.0021040428733529928	6101
207	0.002101313894269526	714
342	0.0020955830381942453	2403
291	0.0020497361895920013	1604
283	0.002045642720966801	1517
635	0.0020434595377000274	4402
837	0.0020096201970650376	6310
799	0.0019894257518473825	6106
639	0.0019798743250552483	4406
906	0.0019744163668883145	7102
241	0.0019689584087213803	1102
202	0.0019577695944791662	709
225	0.0019577695944791662	904
188	0.0019555864112123927	510
282	0.0019539490237623124	1516
336	0.0019405770262533246	2306
372	0.0019171078061355092	2601
399	0.001916289112410469	2707
998	0.001912741439601962	7601
239	0.0019102853584268419	1008
374	0.0018889993215757998	2603
713	0.0018857245466756395	5208
541	0.0018838142613172128	3605
242	0.0018827226696838258	1103
962	0.0018532496955823833	7313
196	0.001830326271281261	703
308	0.0018284159859228344	2002
710	0.0018262328026560607	5205
524	0.0018175000695889666	3401
172	0.0018172271716806198	402
287	0.0018142252946888064	1522
380	0.001791574768296031	2609
803	0.0017877541975791773	6110
714	0.0017825691373205901	5209
214	0.001761283100469548	807
923	0.0017503671841356805	7202
653	0.0017454550217854401	4420
313	0.0017399970636185062	2007
382	0.0017369951866266925	2611
392	0.0017307185347347188	2621
681	0.001716254945592344	4907
814	0.0017094324978836767	6204
717	0.0016925128275661818	5212
286	0.0016903296442994083	1521
498	0.0016884193589409816	3101
362	0.0016881464610326348	2520
574	0.0016862361756742078	3901
315	0.001685144584040821	2009
217	0.0016810511154156209	810
538	0.0016794137279655405	3602
388	0.0016775034426071138	2617
1199	0.0016753202593403403	8609
1225	0.0016556716099393784	8905
801	0.0016532155287642583	6108
821	0.0016532155287642583	6211
650	0.0016504865496807914	4417
815	0.0016406622249803104	6205
358	0.001619921983945962	2516
595	0.001619921983945962	3923
709	0.0016193761881292685	5204
264	0.001609278965520441	1302
895	0.001609278965520441	7010
192	0.0015855368474942788	603
204	0.001578987297693958	711
563	0.0015759854207021446	3814
236	0.0015669797897267038	1005
348	0.0015617947294681166	2506
345	0.0015555180775761426	2503
759	0.001544602161242275	5608
811	0.001544602161242275	6201
298	0.0015353236323584875	1802
331	0.0015306843679165937	2301
833	0.0015265908992913933	6306
1204	0.0015200413494910728	8705
386	0.0015184039620409926	2615
817	0.001509125433157205	6207
646	0.0015069422498904315	4413
292	0.0015023029854485377	1605
610	0.00149056837538963	4012
277	0.001488658090031203	1511
423	0.001482654336047576	2815
189	0.001480744050689149	511
1222	0.001470373930171975	8902
191	0.0014695552364469347	602
406	0.0014690094406302413	2714
193	0.0014673720531801612	604
748	0.0014635514824633076	5513
758	0.001460549605471494	5607
278	0.0014567290347546403	1512
935	0.0014548187493962134	7214
464	0.0014504523828626663	2909
819	0.0014485420975042394	6209
1277	0.0014477234037791995	9206
343	0.0014425383435206123	2501
761	0.001437626181170372	5701
820	0.001437626181170372	6210
149	0.0014348972020869048	102
712	0.0014335327125451715	5207
693	0.0014220710003946104	5101
1221	0.00141879622549445	8901
831	0.001413611165235863	6304
319	0.0014125195736024762	2104
329	0.0014095176966106625	2208
927	0.0014081532070689292	7206
209	0.001400239167726875	802
414	0.0013882316597596206	2806
456	0.0013819550078676467	2901
928	0.00138086341623426	7207
818	0.00138004472250922	6208
502	0.0013794989266925264	3105
237	0.0013756783559756727	1006
393	0.0013694017040836988	2701
203	0.0013663998270918853	710
1235	0.0013655811333668452	9007
316	0.001360396073108258	2101
230	0.0013593044814748712	909
611	0.001357939991933138	4013
328	0.0013568484002997512	2207
936	0.0013546652170329774	7215
575	0.0013543923191246309	3902
800	0.0013513904421328172	6107
194	0.0013478427693243103	701
311	0.0013464782797825768	2005
842	0.0013415661174323364	6405
185	0.0013402016278906029	506
651	0.0013377455467154826	4418
822	0.0013366539550820958	6212
390	0.001334743669723669	2619
314	0.001333106282273589	2008
436	0.0013322875885485488	2828
1223	0.0013301044052817753	8903
371	0.0013271025282899616	2530
379	0.0013191884889479076	2608
917	0.00130909126633908	7113
212	0.001306362287255613	805
958	0.0013030875123554529	7309
219	0.0013014501249053727	812
387	0.0012965379625551321	2616
916	0.0012965379625551321	7112
324	0.0012902613106631582	2203
752	0.0012883510253047315	5601
918	0.0012872594336713447	7114
265	0.001286986535762998	1401
960	0.001286986535762998	7311
377	0.0012853491483129178	2606
806	0.0012845304545878778	6113
179	0.0012796182922376372	409
829	0.0012768893131541704	6302
243	0.0012738874361623567	1104
1001	0.0012706126612621964	7604
322	0.001269248171720463	2201
765	0.0012667920905453428	5705
441	0.0012659733968203026	2833
220	0.001253420093036355	813
444	0.0012493266244111545	2836
279	0.0012487808285944612	1513
303	0.0012485079306861144	1902
426	0.0012359546269021667	2818
816	0.0012354088310854733	6206
1093	0.0012354088310854733	8429
1228	0.0012334985457270464	8908
296	0.0012264032001100325	1704
216	0.001220672344034752	809
317	0.0012182162628596317	2102
238	0.0012092106318841909	1007
363	0.001208937733975844	2521
261	0.0012081190402508041	1213
805	0.0012078461423424573	6112
183	0.0012056629590756838	504
977	0.0012056629590756838	7402
660	0.0011996592050920567	4602
307	0.0011972031239169364	2001
804	0.0011881974929414956	6111
1293	0.0011813750452328283	9406
1227	0.0011811021473244817	8907
701	0.0011791918619660547	5109
256	0.0011759170870658945	1208
1057	0.0011756441891575477	8304
357	0.0011734610058907742	2515
812	0.0011729152100740808	6202
1009	0.0011729152100740808	7612
205	0.0011704591288989607	712
863	0.0011677301498154936	6807
1224	0.0011647282728236802	8904
1018	0.0011633637832819466	7903
881	0.0011622721916485599	6910
407	0.0011617263958318665	2715
1260	0.00116145349792352	9101
199	0.001157632927206666	706
921	0.0011562684376649327	7118
867	0.0011557226418482394	6811
175	0.0011543581523065058	405
695	0.0011540852543981592	5103
155	0.0011469899087811451	202
694	0.0011448067255143716	5102
400	0.0011442609296976782	2708
688	0.0011423506443392513	5003
381	0.0011349824008138906	2610
1094	0.0011322534217304238	8430
270	0.0011306160342803436	1504
762	0.0011289786468302635	5702
415	0.0011270683614718366	2807
1011	0.0011235206886633297	7614
909	0.0011213375053965562	7105
749	0.0011153337514129289	5514
891	0.0011109673848793819	7006
566	0.0011096028953376483	3817
554	0.001106328120437488	3805
1152	0.0011049636308957547	8506
1030	0.0011022346518122876	8105
934	0.0011000514685455141	7213
229	0.001097595387370394	908
412	0.0010951393061952737	2804
838	0.00109213742920346	6401
318	0.0010913187354784201	2103
1017	0.0010902271438450334	7901
828	0.0010869523689448729	6301
350	0.0010864065731281795	2508
1095	0.0010776738400610855	8431
493	0.0010713971881691116	2939
299	0.0010697598007190314	1803
454	0.0010643018425520977	2849
1135	0.001057752292751777	8474
755	0.00105502331366831	5604
952	0.0010517485387681498	7303
327	0.0010512027429514564	2206
966	0.0010449260910594825	7317
913	0.0010394681328925487	7109
301	0.0010337372768172682	1805
1002	0.0010334643789089214	7605
1217	0.0010318269914588413	8802
1320	0.0010318269914588413	9703
347	0.0010263690332919075	2505
300	0.0010225484625750536	1804
929	0.001022275564666707	7208
808	0.0010184549939498534	6115
687	0.0010146344232329996	5002
955	0.0010056287922575588	7306
411	0.0010031727110824387	2803
919	0.0009996250382739316	7115
981	0.0009889820198484107	7407
434	0.0009867988365816372	2826
886	0.0009865259386732904	7001
659	0.0009813408784147032	4601
1012	0.0009794305930562765	7615
378	0.0009756100223394228	2607
285	0.0009750642265227294	1520
364	0.0009739726348893426	2522
631	0.0009723352474392625	4302
1321	0.0009717894516225691	9704
1208	0.0009709707578975291	8709
872	0.0009690604725391021	6901
1241	0.0009685146767224088	9015
668	0.0009676959829973687	4800
215	0.0009646941060055551	808
157	0.0009567800666635011	204
835	0.0009540510875800342	6308
982	0.0009535052917633407	7408
373	0.0009515950064049139	2602
750	0.0009461370482379801	5515
359	0.0009450454566045933	2517
1300	0.0009384959068042727	9601
770	0.0009374043151708859	5805
360	0.0009363127235374991	2518
195	0.0009338566423623789	702
937	0.0009327650507289922	7217
355	0.0009218491343951246	2513
496	0.0009199388490366976	2942
905	0.0009188472574033109	7101
1186	0.0009144808908697639	8544
716	0.0009068397494360565	5211
550	0.0009062939536193631	3801
443	0.0009057481578026698	2835
827	0.0009024733829025094	6217
306	0.0009022004849941627	1905
1203	0.0008991986080023491	8704
625	0.0008986528121856558	4201
173	0.0008951051393771487	403
976	0.0008929219561103752	7401
184	0.0008915574665686418	505
218	0.0008860995084017079	811
1215	0.0008841892230432811	8716
289	0.0008836434272265877	1602
697	0.0008809144481431208	5105
257	0.0008790041627846939	1209
228	0.0008787312648763472	907
159	0.0008765480816095737	206
376	0.0008757293878845336	2605
1304	0.0008727275108927201	9605
310	0.0008689069401758663	2004
213	0.0008678153485424796	806
790	0.0008678153485424796	6003
979	0.0008653592673673594	7405
733	0.0008645405736423193	5406
520	0.0008626302882838924	3304
1003	0.0008623573903755457	7606
221	0.000861265798742159	814
740	0.0008596284112920788	5505
404	0.0008552620447585317	2712
226	0.0008544433510334916	905
1301	0.000850622780316638	9602
1298	0.0008481666991415177	9507
432	0.0008476209033248243	2824
680	0.000847075107508131	4906
868	0.0008462564137830909	6812
1244	0.0008457106179663975	9018
273	0.0008451648221497041	1507
1216	0.0008438003326079707	8801
779	0.0008432545367912773	5903
304	0.0008413442514328505	1903
1167	0.0008410713535245038	8523
519	0.0008394339660744236	3303
177	0.0008391610681660769	407
246	0.0008380694765326901	1107
1286	0.0008372507828076501	9306
557	0.0008369778848993034	3808
767	0.0008334302120907964	5802
689	0.000832065722549063	5004
841	0.0008312470288240228	6404
840	0.0008307012330073295	6403
176	0.0008296096413739427	406
1116	0.0008296096413739427	8452
368	0.0008282451518322093	2526
232	0.000824970376932049	1001
843	0.000824970376932049	6406
747	0.0008244245811153556	5512
1014	0.0008241516832070089	7801
594	0.0008238787852986621	3922
1196	0.0008238787852986621	8606
983	0.0008195124187651151	7409
1129	0.0008184208271317284	8468
858	0.0008156918480482614	6802
674	0.000814327358506528	4824
930	0.0008121441752397545	7209
1313	0.0008118712773314078	9614
448	0.0008061404212561272	2841
385	0.0008015011568142335	2614
711	0.0007979534840057265	5206
458	0.000795770300738953	2903
148	0.0007938600153805261	101
1219	0.0007938600153805261	8804
875	0.0007903123425720191	6904
431	0.0007900394446636724	2823
924	0.000789493648846979	7203
523	0.0007892207509386323	3307
546	0.0007884020572135923	3704
876	0.0007878562613968989	6905
760	0.0007875833634885522	5609
879	0.0007873104655802055	6908
171	0.0007870375676718588	401
274	0.0007867646697635121	1508
1074	0.0007867646697635121	8410
1007	0.0007859459760384721	7610
959	0.0007834898948633519	7310
1254	0.0007832169969550051	9028
686	0.0007821254053216183	5001
503	0.0007793964262381515	3201
1023	0.0007785777325131114	8002
351	0.0007753029576129511	2509
931	0.0007747571617962576	7210
1179	0.0007747571617962576	8537
366	0.0007742113659795643	2524
596	0.0007742113659795643	3924
675	0.0007728468764378308	4901
505	0.0007717552848044441	3203
910	0.0007706636931710573	7106
1177	0.0007695721015376706	8535
600	0.0007671160203625504	4002
410	0.0007654786329124701	2802
337	0.0007649328370957768	2307
769	0.0007646599391874301	5804
1281	0.0007632954496456966	9301
715	0.0007613851642872698	5210
792	0.0007600206747455364	6005
1016	0.0007600206747455364	7806
320	0.0007597477768371897	2105
1039	0.0007597477768371897	8201
590	0.0007450112897864683	3917
950	0.000744465493969775	7301
987	0.000744465493969775	7413
249	0.0007433739023363882	1201
539	0.0007433739023363882	3603
644	0.0007422823107030013	4411
354	0.000738188842077801	2512
948	0.000738188842077801	7228
1201	0.0007370972504444143	8702
152	0.0007360056588110275	105
302	0.0007349140671776408	1806
247	0.0007340953734526006	1108
614	0.0007321850880941738	4016
954	0.0007305477006440936	7305
433	0.0007280916194689735	2825
352	0.0007259084362021998	2510
419	0.0007256355382938532	2811
1096	0.0007256355382938532	8432
409	0.0007245439466604664	2801
522	0.0007245439466604664	3306
970	0.0007226336613020396	7321
657	0.0007215420696686528	4503
1149	0.0007204504780352661	8503
738	0.0007201775801269194	5503
321	0.0007193588864018793	2106
623	0.0007163570094100656	4114
789	0.0007141738261432921	6002
990	0.0007139009282349455	7419
1276	0.0007139009282349455	9205
254	0.000705441093076198	1206
510	0.0007029850119010778	3208
1148	0.0007008018286343042	8502
903	0.0006994373390925708	7019
810	0.0006991644411842241	6117
569	0.0006969812579174506	3820
556	0.0006947980746506771	3807
862	0.0006939793809256369	6806
849	0.0006926148913839035	6507
621	0.0006917961976588634	4105
294	0.0006909775039338233	1702
915	0.0006898859123004366	7111
457	0.000686884035308623	2902
1247	0.000686884035308623	9021
897	0.000686065341583583	7013
227	0.0006827905666834226	906
634	0.0006825176687750759	4401
601	0.0006814260771416891	4003
1188	0.0006811531792333425	8546
1302	0.0006808802813249958	9603
1197	0.0006759681189747553	8607
512	0.0006732391398912884	3210
1043	0.0006724204461662483	8205
446	0.0006713288545328616	2839
899	0.0006702372628994748	7015
1025	0.0006685998754493946	8007
1200	0.0006683269775410479	8701
1022	0.0006666895900909678	8001
551	0.0006653251005492343	3802
612	0.0006650522026408876	4014
602	0.0006642335089158476	4004
290	0.0006631419172824608	1603
809	0.0006631419172824608	6116
648	0.0006625961214657675	4415
989	0.0006623232235574208	7418
965	0.0006593213465656071	7316
1111	0.0006593213465656071	8447
1290	0.0006571381632988336	9403
507	0.0006568652653904869	3205
1082	0.0006568652653904869	8418
823	0.0006565923674821402	6213
197	0.0006557736737571001	704
356	0.0006527717967652865	2514
774	0.0006524988988569398	5809
1279	0.0006524988988569398	9208
511	0.0006519531030402464	3209
866	0.0006508615114068597	6810
643	0.0006503157155901663	4410
980	0.0006494970218651262	7406
1008	0.0006486783281400861	7611
1070	0.0006475867365066994	8406
1062	0.0006456764511482726	8309
638	0.0006429474720648056	4405
744	0.0006426745741564589	5509
435	0.0006421287783397655	2827
1037	0.0006372166159895251	8112
353	0.0006350334327227515	2511
418	0.0006339418410893648	2810
628	0.0006323044536392846	4205
857	0.0006303941682808578	6801
947	0.0006303941682808578	7227
568	0.0006295754745558178	3819
729	0.0006293025766474711	5402
529	0.0006290296787391243	3406
521	0.0006279380871057375	3305
408	0.0006265735975640041	2716
437	0.0006260278017473107	2829
844	0.0006246633122055773	6501
1308	0.0006246633122055773	9609
1226	0.0006243904142972306	8906
889	0.0006216614352137637	7004
887	0.0006200240477636835	7002
791	0.0006189324561302967	6004
1263	0.0006189324561302967	9104
1004	0.0006183866603136033	7607
666	0.0006175679665885633	4706
652	0.0006156576812301365	4419
158	0.0006137473958717096	205
702	0.0006137473958717096	5110
398	0.0006132016000550163	2706
727	0.0006126558042383228	5311
743	0.0006126558042383228	5508
1194	0.0006123829063299761	8604
673	0.0006118371105132827	4823
839	0.0006118371105132827	6402
312	0.0006096539272465092	2006
1184	0.0006091081314298158	8542
1172	0.000606379152346349	8530
450	0.0006052875607129622	2844
559	0.0006052875607129622	3810
630	0.0006047417648962688	4301
1291	0.000604468866987922	9404
1178	0.000603650173262882	8536
1236	0.0006033772753545353	9008
784	0.0006031043774461886	5908
846	0.0006022856837211485	6504
370	0.0005998296025460283	2529
992	0.0005995567046376816	7502
339	0.0005990109088209883	2309
788	0.0005987380109126416	6001
696	0.0005976464192792548	5104
1033	0.0005962819297375213	8108
1005	0.0005957361339208279	7608
724	0.0005949174401957878	5308
1083	0.0005946445422874412	8419
1174	0.0005940987464707478	8532
471	0.0005924613590206677	2916
1299	0.0005891865841205074	9508
338	0.000588640788303814	2308
865	0.0005883678903954672	6809
1211	0.0005878220945787738	8712
391	0.0005867305029453871	2620
542	0.0005856389113120003	3606
951	0.000585093115495307	7302
1151	0.000585093115495307	8505
252	0.0005848202175869603	1204
609	0.0005845473196786136	4011
754	0.0005845473196786136	5603
1000	0.0005837286259535735	7603
154	0.0005823641364118401	201
953	0.0005823641364118401	7304
957	0.0005820912385034934	7308
275	0.0005818183405951467	1509
573	0.0005818183405951467	3825
825	0.0005818183405951467	6215
416	0.0005809996468701066	2808
972	0.0005809996468701066	7323
773	0.0005799080552367198	5808
830	0.0005790893615116797	6303
669	0.0005782706677866397	4802
461	0.0005774519740615996	2906
513	0.0005763603824282128	3211
1050	0.0005747229949781327	8212
537	0.0005741771991614393	3601
1130	0.0005719940158946657	8469
826	0.0005714482200779723	6216
604	0.0005692650368111988	4006
397	0.0005659902619110386	2705
200	0.0005648986702776518	707
1075	0.0005635341807359183	8411
262	0.0005632612828275716	1214
624	0.0005629883849192249	4115
528	0.0005578033246606378	3405
1323	0.0005561659372105577	970
536	0.0005553472434855175	3507
1233	0.0005553472434855175	9005
877	0.0005509808769519705	6906
940	0.0005504350811352772	7220
469	0.0005501621832269305	2914
1084	0.0005485247957768503	8420
933	0.0005466145104184234	7212
501	0.0005463416125100767	3104
824	0.0005463416125100767	6214
720	0.00054606871460173	5303
734	0.00054606871460173	5407
413	0.0005457958166933833	2805
847	0.00054525002087669	6505
1010	0.0005444313271516499	7613
344	0.0005427939397015698	2502
384	0.0005427939397015698	2613
1013	0.0005425210417932231	7616
326	0.0005414294501598363	2205
741	0.0005411565522514896	5506
421	0.0005397920627097561	2813
757	0.0005397920627097561	5606
1288	0.0005397920627097561	9401
864	0.0005392462668930627	6808
161	0.0005378817773513293	208
335	0.0005367901857179425	2305
1141	0.0005356985940845558	8480
224	0.0005340612066344757	903
346	0.0005335154108177823	2504
1269	0.0005305135338259686	9110
586	0.0005302406359176219	3913
1133	0.0005299677380092752	8472
1209	0.0005291490442842352	8710
565	0.0005277845547425017	3816
667	0.0005272387589258083	4707
1183	0.000526692963109115	8541
1090	0.0005264200652007683	8426
1058	0.0005261471672924216	8305
1283	0.0005242368819339948	9303
1287	0.0005242368819339948	9307
190	0.0005234181882089546	601
1230	0.0005231452903006079	9002
305	0.0005228723923922612	1904
1106	0.0005223265965755678	8442
486	0.0005220536986672212	2932
1046	0.0005220536986672212	8208
473	0.0005212350049421811	2918
571	0.0005209621070338344	3823
180	0.0005206892091254877	410
567	0.000519597617492101	3818
685	0.0005190518216754076	4911
253	0.0005187789237670609	1205
698	0.0005171415363169808	5106
737	0.0005171415363169808	5502
1175	0.0005165957405002874	8533
150	0.000516049944683594	103
504	0.0005149583530502072	3202
1165	0.0005149583530502072	8521
555	0.0005141396593251671	3806
1242	0.0005138667614168204	9016
1122	0.0005135938635084737	8459
1315	0.0005135938635084737	9616
1218	0.0005130480676917803	8803
570	0.0005116835781500469	3821
860	0.0005108648844250068	6804
234	0.0005100461906999668	1003
1036	0.00050895459906658	8111
525	0.0005084088032498867	3402
974	0.0005078630074331933	7325
848	0.000506225619983113	6506
782	0.0005040424367163395	5906
1205	0.0005032237429912995	8706
620	0.0005024050492662594	4104
445	0.000501859253449566	2837
763	0.000501859253449566	5703
1138	0.0004999489680911392	8477
268	0.0004985844785494057	1502
735	0.0004977657848243656	5408
764	0.0004964012952826322	5704
726	0.0004958554994659388	5310
1289	0.0004958554994659388	9402
834	0.0004953097036492454	6307
1006	0.0004953097036492454	7609
973	0.0004942181120158587	7324
1028	0.0004942181120158587	8103
926	0.000493945214107512	7205
1162	0.0004914891329323918	8517
1169	0.0004914891329323918	8526
288	0.0004909433371156983	1601
488	0.0004909433371156983	2934
430	0.0004893059496656182	2822
198	0.00048548537894876453	705
771	0.00048521248104041784	5806
1079	0.00048521248104041784	8415
882	0.0004849395831320711	6911
654	0.0004846666852237244	4421
1255	0.0004843937873153777	9029
896	0.00048330219568199097	7011
427	0.0004822106040486042	2819
1139	0.00048193770614025753	8478
944	0.00048166480823191084	7224
1171	0.0004808461145068707	8529
1303	0.00048030031869017735	9604
1063	0.0004792087270567906	8310
1240	0.0004792087270567906	9014
1024	0.0004789358291484439	8003
453	0.00047811713542340384	2847
467	0.00047784423751505716	2912
883	0.00047757133960671047	6912
1048	0.00047757133960671047	8210
622	0.0004770255437900171	4106
869	0.0004770255437900171	6813
1056	0.0004734778709815101	8303
533	0.00047265917725647	3503
984	0.0004721133814397766	7410
908	0.0004715675856230832	7104
514	0.00047129468771473654	3212
1311	0.00047047599398969647	9612
1040	0.0004702030960813498	8202
251	0.0004696573002646564	1203
1059	0.0004693844023563097	8306
728	0.0004680199128145762	5401
271	0.00046692832118118947	1505
535	0.0004661096274561494	3506
1101	0.00046501803582276266	8437
1143	0.00046501803582276266	8482
163	0.00046474513791441597	210
1064	0.0004644722400060692	8311
975	0.00046365354628102916	7326
244	0.0004628348525559891	1105
885	0.00046147036301425566	6914
280	0.00046119746510590897	1514
174	0.0004609245671975623	404
1124	0.0004609245671975623	8461
1136	0.00046037877138086885	8475
856	0.0004592871797474821	6704
451	0.0004590142818391354	2845
597	0.0004571039964807086	3925
1118	0.00045655820066401516	8454
1220	0.0004562853027556685	8805
1306	0.0004560124048473218	9607
455	0.0004554666090306284	2852
787	0.0004551937111222817	5911
1161	0.0004535563236722016	8516
572	0.0004530105278555082	3824
1041	0.0004524647320388148	8203
1038	0.0004519189362221214	8113
1055	0.0004519189362221214	8302
1132	0.00045137314040542804	8471
325	0.00045110024249708135	2204
663	0.00045110024249708135	4703
1229	0.00045082734458873466	9001
704	0.0004500086508636946	5112
768	0.00044891705923030784	5803
1026	0.0004483712634136144	8101
1259	0.00044755256968857435	9033
1117	0.0004461880801468409	8453
1120	0.0004461880801468409	8457
481	0.00044564228433014753	2926
1099	0.00044564228433014753	8435
1168	0.00044564228433014753	8525
449	0.0004445506926967608	2843
1078	0.00044427779478841404	8414
1091	0.00044427779478841404	8427
394	0.00044373199897172066	2702
1164	0.0004429133052466806	8519
1181	0.0004423675094299872	8539
964	0.00044154881570494716	7315
369	0.000439911428254867	2528
664	0.00043854693871313354	4704
968	0.0004371824491714001	7319
492	0.0004336347763628931	2938
793	0.00043281608263785303	6006
383	0.00043254318472950635	2612
440	0.00043227028682115966	2832
1015	0.00043227028682115966	7804
1262	0.00043227028682115966	9103
1027	0.0004317244910044662	8102
1189	0.0004317244910044662	8547
585	0.00043117869518777285	3912
633	0.00043117869518777285	4304
589	0.00043090579727942616	3916
562	0.0004306328993710795	3813
772	0.0004306328993710795	5807
1092	0.0004303600014627328	8428
1163	0.0004300871035543861	8518
700	0.0004295413077376927	5108
699	0.00042763102237926585	5107
465	0.00042735812447091916	2910
577	0.00042735812447091916	3904
1052	0.0004270852265625725	8214
1238	0.00042408334957075885	9011
476	0.0004235375537540655	2921
608	0.00042162726839563866	4010
558	0.0004210814725789453	3809
497	0.0004202627788539052	3006
615	0.0004199898809455585	4017
730	0.0004197169830372118	5403
893	0.0004194440851288651	7008
1250	0.0004188982893121717	9024
778	0.00041862539140382504	5902
884	0.00041862539140382504	6913
438	0.00041835249349547835	2830
491	0.000417806697678785	2937
684	0.000417806697678785	4910
564	0.0004175337997704383	3815
1019	0.0004175337997704383	7904
582	0.0004172609018620916	3909
506	0.00041644220813705153	3204
588	0.00041616931022870485	3915
1087	0.00041480482068697135	8423
272	0.00041180294369515773	1506
603	0.00041098424997011766	4005
1060	0.000410711352061771	8307
1142	0.0004104384541534243	8481
1305	0.0004104384541534243	9606
475	0.0004101655562450776	2920
576	0.0004098926583367309	3903
1076	0.00040907396461169085	8412
963	0.00040743657716161067	7314
361	0.0004068907813449173	2519
479	0.0004068907813449173	2924
518	0.0004060720876198772	3302
460	0.00040525339389483716	2905
1098	0.0004049804959864905	8434
1068	0.0004044347001697971	8404
584	0.000403616006444757	3911
1246	0.0004030702106280636	9020
605	0.00040252441481137023	4007
1145	0.00040252441481137023	8486
1100	0.00040225151690302354	8436
1170	0.00040197861899467685	8527
1245	0.00040197861899467685	9019
775	0.0004006141294529434	5810
1192	0.0004006141294529434	8602
233	0.0004003412315445967	1002
1309	0.00039979543572790335	9610
671	0.0003995225378195566	4810
1147	0.0003992496399112099	8501
613	0.00039897674200286323	4015
627	0.00039870384409451654	4203
1089	0.0003978851503694765	8425
1213	0.0003970664566444364	8714
776	0.0003967935587360897	5811
1071	0.00039624776291939635	8407
395	0.00039597486501104966	2703
719	0.00039515617128600954	5302
428	0.00039488327337766285	2820
495	0.0003943374775609695	2941
1146	0.0003943374775609695	8487
632	0.00039270009011088935	4303
1176	0.00039270009011088935	8534
1252	0.00039242719220254266	9026
878	0.000392154294294196	6907
1249	0.0003907898047524625	9023
995	0.0003902440089357691	7506
1102	0.00038915241730238235	8438
552	0.0003880608256689956	3803
1212	0.0003877879277606489	8713
1156	0.0003872421319439555	8511
531	0.0003866963361272621	3501
1314	0.0003864234382189154	9615
1284	0.00038615054031056873	9304
500	0.00038587764240222204	3103
870	0.00038587764240222204	6814
781	0.00038560474449387535	5905
725	0.0003839673570437952	5309
1294	0.0003839673570437952	9503
670	0.0003834215612271018	4807
477	0.00038260286750206173	2922
901	0.00038232996959371504	7017
943	0.00038232996959371504	7223
1150	0.00038232996959371504	8504
988	0.000381511275868675	7415
466	0.0003812383779603283	2911
723	0.0003812383779603283	5307
425	0.0003809654800519816	2817
1202	0.0003806925821436349	8703
942	0.0003804196842352882	7222
1134	0.0003804196842352882	8473
1270	0.0003804196842352882	9111
1265	0.00038014678632694154	9106
971	0.00037960099051024816	7322
985	0.00037960099051024816	7411
1021	0.00037905519469355473	7907
1316	0.00037850939887686135	9617
389	0.000377963603060168	2618
949	0.000377963603060168	7229
845	0.0003774178072434746	6502
1115	0.0003774178072434746	8451
751	0.0003768720114267812	5516
1140	0.00037659911351843454	8479
1112	0.00037632621561008785	8448
553	0.00037605331770174116	3804
746	0.0003755075218850478	5511
284	0.0003735972365266209	1518
516	0.0003735972365266209	3214
647	0.00037250564489323416	4414
649	0.0003719598490765408	4416
753	0.0003716869511681941	5602
1123	0.0003716869511681941	8460
417	0.0003714140532598474	2809
396	0.000370868257443154	2704
1256	0.000370868257443154	9030
1275	0.0003678663804513404	9202
1210	0.0003670476867263003	8711
1107	0.0003667747888179536	8443
578	0.0003665018909096069	3905
888	0.0003665018909096069	7003
1182	0.00036622899300126023	8540
472	0.0003651374013678735	2917
745	0.0003648645034595268	5510
1072	0.00036377291182614004	8408
485	0.0003629542181010999	2930
1243	0.0003629542181010999	9017
593	0.00036186262646771317	3920
956	0.00036186262646771317	7307
1159	0.00036186262646771317	8514
483	0.0003615897285593665	2928
489	0.0003613168306510198	2935
526	0.0003610439327426731	3403
334	0.00036022523901763304	2304
629	0.00035995234110928635	4206
780	0.00035967944320093966	5904
1190	0.00035886074947589954	8548
665	0.0003577691578425128	4705
548	0.00035695046411747273	3706
1119	0.00035695046411747273	8455
367	0.00035640466830077935	2525
258	0.00035613177039243266	1210
532	0.000355858872484086	3502
922	0.0003555859745757393	7201
920	0.00035504017875904586	7117
478	0.00035476728085069917	2923
1158	0.0003544943829423525	8513
1114	0.0003520383017672323	8450
932	0.0003512196080421922	7211
1296	0.0003504009143171521	9505
462	0.0003501280164088054	2907
855	0.00034930932268376535	6703
904	0.000348763526867072	7020
420	0.00034712613941699185	2812
1155	0.00034712613941699185	8509
1128	0.00034603454778360504	8467
676	0.00034412426242517823	4902
1166	0.00034330556870013816	8522
678	0.0003430326707917915	4904
894	0.0003430326707917915	7009
1137	0.00034194107915840467	8476
961	0.000341668181250058	7312
442	0.0003413952833417113	2834
662	0.0003413952833417113	4702
756	0.00034003079379997785	5605
1185	0.0003394849979832845	8543
429	0.0003392121000749378	2821
1131	0.0003392121000749378	8470
1198	0.0003389392021665911	8608
1231	0.00033621022308312417	9003
993	0.0003356644272664308	7504
583	0.0003353915293580841	3910
1085	0.0003351186314497374	8421
309	0.00033320834609131054	2003
1261	0.00033320834609131054	9102
1271	0.0003323896523662705	9112
182	0.0003318438565495771	502
508	0.0003318438565495771	3206
606	0.0003318438565495771	4008
181	0.0003315709586412304	501
470	0.0003307522649161903	2915
1191	0.0003304793670078436	8601
677	0.00032993357119115023	4903
1253	0.00032993357119115023	9027
736	0.0003288419795577635	5501
1312	0.0003288419795577635	9613
853	0.00032775038792437673	6701
722	0.00032747749001603004	5306
900	0.00032747749001603004	7016
1160	0.00032747749001603004	8515
235	0.00032720459210768335	1004
986	0.00032720459210768335	7412
672	0.00032693169419933666	4811
859	0.0003266587962909899	6803
679	0.00032611300047429655	4905
1066	0.00032584010256594986	8402
873	0.00032338402139082967	6902
1029	0.000323111123482483	8104
1054	0.0003228382255741363	8301
487	0.00032229242975744286	2933
607	0.0003209279402157094	4009
786	0.00032010924649066935	5910
1045	0.000319563450673976	8207
871	0.0003192905527656293	6815
718	0.0003173802674072024	5301
683	0.00031656157368216236	4909
156	0.000316015777865469	203
785	0.0003154699820487756	5909
861	0.0003154699820487756	6805
1069	0.00031492418623208223	8405
997	0.00031465128832373554	7508
1153	0.0003141054925070421	8507
1206	0.0003138325945986954	8707
591	0.00031355969669034873	3918
1113	0.000312468105056962	8449
1285	0.0003121952071486153	9305
914	0.00031110361551522854	7110
1126	0.00031110361551522854	8463
517	0.0003102849217901884	3215
1180	0.00031001202388184173	8538
945	0.00030919333015680167	7225
1173	0.00030591855525664136	8531
1154	0.00030564565734829467	8508
375	0.000305372759439948	2604
731	0.0003050998615316013	5404
580	0.00030373537198986786	3907
1157	0.0003029166782648278	8512
1088	0.000301825086631441	8424
439	0.0003015521887230943	2831
892	0.0003012792908147476	7007
1125	0.0003010063929064009	8462
1317	0.0003010063929064009	9618
1248	0.00030046059708970754	9022
160	0.0002996419033646675	207
703	0.0002993690054563208	5111
1307	0.0002993690054563208	9608
447	0.0002977316180062406	2840
852	0.0002974587200978939	6603
1080	0.00029718582218954723	8416
626	0.0002952755368311204	4202
1207	0.00029445684310608035	8708
1251	0.0002939110472893869	9025
1032	0.00029281945565600017	8107
1031	0.0002920007619309601	8106
424	0.0002889988849391465	2816
890	0.0002884530891224531	7005
939	0.0002881801912141064	7219
690	0.00028790729330575973	5005
691	0.00028736149748906636	5006
1127	0.00028736149748906636	8465
1237	0.0002854512121306395	9010
946	0.0002846325184055994	7226
1108	0.000283268028863866	8444
1097	0.0002829951309555193	8433
452	0.0002824493351388259	2846
1234	0.0002816306414137858	9006
661	0.0002810848455970924	4701
527	0.00028053904978039905	3404
581	0.00028053904978039905	3908
1267	0.00028053904978039905	9108
1268	0.00027999325396370567	9109
248	0.0002791745602386656	1109
1292	0.0002789016623303189	9405
333	0.00027808296860527885	2303
162	0.000276172683246852	209
850	0.000276172683246852	6601
1061	0.00027480819370511854	8308
1187	0.00027453529579677186	8545
777	0.0002720792146216516	5901
1035	0.0002704418271715715	8110
1280	0.0002704418271715715	9209
1042	0.0002701689292632248	8204
267	0.00026989603135487805	1501
1214	0.000269077337629838	8715
494	0.00026716705227141117	2940
561	0.0002663483585463711	3812
902	0.0002660754606380244	7018
178	0.000265529664821331	408
967	0.00026443807318794424	7318
941	0.00026361937946290417	7221
1257	0.0002617090941044773	9031
534	0.00026034460456274386	3505
330	0.00026007170665439717	2209
969	0.00026007170665439717	7320
1258	0.0002592530129293571	9032
490	0.00025870721711266373	2936
579	0.00025870721711266373	3906
911	0.00025816142129597036	7107
1273	0.00025816142129597036	9114
991	0.00025788852338762367	7501
1067	0.00025706982966258355	8403
598	0.00025488664639581005	3926
783	0.00025488664639581005	5907
996	0.00025324925894572986	7507
1282	0.00025079317777060967	9302
1077	0.000250520279862263	8413
1272	0.00024806419868714274	9113
560	0.00024751840287044936	3811
1081	0.0002447894237869824	8417
1121	0.0002431520363369023	8458
1073	0.0002428791384285556	8409
463	0.00024260624052020892	2908
1053	0.0002423333426118622	8215
547	0.00024015015934508867	3705
938	0.00024015015934508867	7218
269	0.00023987726143674199	1503
1144	0.00023905856771170192	8483
994	0.00023796697607831514	7505
1295	0.00023714828235327508	9504
474	0.0002366024865365817	2919
515	0.000236329588628235	3213
1103	0.000236329588628235	8439
349	0.00023141742627799455	2507
1065	0.00023114452836964786	8401
851	0.00023032583464460777	6602
682	0.00022786975346948755	4908
1105	0.00022705105974444749	8441
1239	0.0002267781618361008	9013
1318	0.0002267781618361008	9701
509	0.00022432208066098058	3207
766	0.0002229575911192471	5801
545	0.00022213889739420702	3703
276	0.00022186599948586033	1510
874	0.00022159310157751364	6903
1051	0.00021831832667735336	8213
732	0.00021804542876900664	5405
1086	0.00021804542876900664	8422
1266	0.00021558934759388643	9107
484	0.00021395196014380627	2929
739	0.00021395196014380627	5504
1297	0.0002134061643271129	9506
592	0.00021286036851041952	3919
1020	0.00021286036851041952	7905
1104	0.00021176877687703274	8440
1278	0.0002101313894269526	9207
540	0.0002098584915186059	3604
549	0.0002068566145267923	3707
1049	0.0002033089417182853	8211
1195	0.0002030360438099386	8605
1044	0.00020194445217655186	8206
880	0.00020139865635985846	6909
692	0.00019948837100143161	5007
1319	0.00019948837100143161	9702
656	0.0001967593919179647	4502
1047	0.00019621359610127133	8209
482	0.00019457620865119118	2927
1193	0.00019293882120111102	8603
530	0.00019102853584268418	3407
1310	0.0001872079651258305	9611
898	0.00018611637349244374	7014
544	0.00018284159859228343	3702
658	0.00018202290486724336	4504
1274	0.00018120421114220327	9201
543	0.00018011261950881652	3701
854	0.00017929392578377643	6702
480	0.000177929436242043	2925
1264	0.000177929436242043	9105
1232	0.00017629204879196283	9004
655	0.000174381763433536	4501
742	0.00017219858016676246	5507
587	0.000170834090625029	3914
705	0.00017001539689998893	5113
1110	0.00016292005128297493	8446
468	0.00016100976592454809	2913
1109	0.0001580078889327345	8445
1034	0.00013535736253995908	8109
