153	0.0033743032075299276	106
925	0.003137089158975296	7204
402	0.0031222394833835937	2710
293	0.002877029455664199	1701
255	0.002830957385238661	1207
169	0.0028084924913948034	306
616	0.0027837430320752994	4100
640	0.002765085747357519	4407
259	0.0027506168326784245	1211
166	0.0026874105211855373	303
912	0.002610877577751378	7108
617	0.0025945048585092447	4101
813	0.002594124097596637	6203
619	0.0025857473575192666	4103
332	0.00256137865911237	2302
999	0.002531679307928965	7602
401	0.0024711383228243323	2709
618	0.0024646653873100005	4102
365	0.0024147857077583845	2523
260	0.002407551250418837	1212
706	0.0023306375460720704	5201
206	0.0023211185232568767	713
266	0.0022982728685004114	1404
240	0.002289134606597825	1101
222	0.0022464893843857567	901
323	0.0022438240579975024	2202
836	0.0022244052514545066	6309
168	0.0021844253556306923	305
641	0.002179856224679399	4408
231	0.0021638642663498737	910
165	0.0021634835054372657	302
796	0.002153964482622072	6103
832	0.0021261689360017057	6305
211	0.0021113192604100034	804
797	0.0020599165372079562	6104
707	0.0020275518596362973	5202
636	0.0020271710987236893	4403
340	0.0020104176185689483	2401
186	0.001998614030278108	507
167	0.0019909988120259525	304
802	0.0019864296810746594	6109
595	0.0019571110908038624	3923
795	0.0019563495689786468	6102
814	0.0019472113070760609	6204
341	0.0019300770660087118	2402
637	0.0019129428249413628	4404
250	0.0019098967376405009	1202
799	0.0019034238021261689	6106
798	0.0019011392366505224	6105
642	0.0018961893447866215	4409
295	0.0018828627128453501	1703
187	0.0018695360809040788	508
283	0.0018653477108653933	1517
263	0.001856590209875415	1301
336	0.0018386944469828506	2306
201	0.0018227024886533249	708
499	0.0018200371622650706	3102
202	0.0018166103140516007	709
291	0.0017979530293338207	1604
225	0.0017842456364799415	904
524	0.0017796765055286485	3401
807	0.0017792957446160407	6114
403	0.0017575923725973986	2711
223	0.0017518809589082824	902
794	0.0017404581315300497	6101
170	0.0017343659569283255	307
342	0.0017111395412592525	2403
962	0.0017054281275701362	7313
207	0.0016940053001919034	714
282	0.0016787748636875933	1516
164	0.0016768710591245546	301
907	0.0016738249718236925	7103
315	0.0016711596454354381	2009
758	0.0016658289926589295	5607
538	0.0016597368180572055	3602
800	0.0016555484480185202	6107
801	0.0016521215998050503	6108
343	0.001651360077979835	2501
541	0.0016357488805629169	3605
313	0.0016182338785829602	2007
895	0.0016136647476316672	7010
837	0.0016117609430686282	6310
172	0.0016041457248164733	402
241	0.001601480398428219	1102
803	0.001601480398428219	6110
815	0.0015908190928752017	6205
759	0.0015866307228365165	5608
208	0.001579396265496969	801
653	0.0015778732218465381	4420
281	0.001573304090895245	1515
650	0.0015679734381187365	4417
817	0.0015668311553809133	6207
217	0.0015622620244296202	810
242	0.0015618812635170125	1103
819	0.0015557890889152882	6209
822	0.0015557890889152882	6212
978	0.0015489353924883487	7403
635	0.0015474123488379177	4402
245	0.001545508544274879	1106
639	0.0015432239787992325	4406
708	0.0015432239787992325	5203
923	0.0015432239787992325	7202
502	0.0015382740869353316	3105
214	0.0015295165859453533	807
264	0.0015245666940814525	1302
805	0.0015116208230527887	6112
651	0.0015078132139267112	4418
710	0.0015043863657132413	5205
713	0.0015024825611502026	5208
998	0.0015024825611502026	7601
307	0.0015005787565871638	2001
405	0.001497151908373694	2713
881	0.0014929635383350087	6910
714	0.0014849675591702457	5209
203	0.001481540710956776	710
188	0.0014803984282189527	510
821	0.0014803984282189527	6211
1322	0.0014773523409180908	9705
842	0.0014731639708794055	6405
319	0.0014678333181028969	2104
210	0.0014609796216759573	803
204	0.0014605988607633495	711
362	0.0014602180998507417	2520
239	0.0014590758171129186	1008
958	0.0014484145115599013	7309
317	0.0014453684242590392	2102
808	0.0014453684242590392	6115
709	0.0014404185323951383	5204
196	0.0014400377714825308	703
296	0.001439657010569923	1704
668	0.001436230162356453	4800
1001	0.0014354686405312377	7604
916	0.0014339455968808066	7112
811	0.0014297572268421213	6201
287	0.0014286149441042981	1522
414	0.0014274726613664748	2806
422	0.0014251880958908282	2814
175	0.0014168113558134577	405
189	0.0014149075512504188	511
818	0.00141300374668738	6208
316	0.0014034847238721861	2101
935	0.0014027232020469708	7214
399	0.001398915592920893	2707
314	0.0013920618964939535	2008
712	0.0013859697218922295	5207
392	0.0013810198300283287	2621
816	0.0013810198300283287	6206
812	0.0013764506990770356	6202
205	0.00137568917725182	712
151	0.0013627433062231565	104
179	0.0013627433062231565	409
193	0.00136045874074751	604
936	0.0013562703707088244	7215
1199	0.001350939717932316	8609
820	0.0013497974351944927	6210
838	0.001342943738767553	6401
867	0.0013410399342045143	6811
1293	0.0013311401504767127	9406
243	0.0013261902586128118	1104
218	0.001325809497700204	811
804	0.0013231441713119497	6111
348	0.001321240366748911	2506
498	0.001318194279448049	3101
278	0.0013140059094093636	1512
292	0.0013136251484967558	1605
328	0.001311721343933717	2207
308	0.0013052484084193853	2002
357	0.0013033446038563466	2515
717	0.0013002985165554844	5212
599	0.0012995369947302689	4001
829	0.0012991562338176613	6302
374	0.0012949678637789758	2603
318	0.0012942063419537604	2103
459	0.0012923025373907217	2904
681	0.0012907794937402906	4907
937	0.0012907794937402906	7217
960	0.0012907794937402906	7311
646	0.0012862103627889975	4413
1186	0.0012862103627889975	8544
236	0.001285448840963782	1005
645	0.0012770721008864114	4412
611	0.0012694568826342562	4013
220	0.0012656492735081788	813
212	0.001265268512595571	805
183	0.0012645069907703554	504
721	0.0012622224252947089	5305
306	0.0012595570989064548	1905
610	0.0012542264461299461	4012
311	0.0012515611197416918	2005
752	0.0012443266624021444	5601
219	0.0012389960096256358	812
194	0.0012382344878004204	701
379	0.0012313807913734809	2608
363	0.001231000030460873	2521
436	0.0012290962258978341	2828
955	0.0012287154649852266	7306
149	0.00122643089950958	102
372	0.001224527094946541	2601
831	0.0012214810076456792	6304
230	0.0012207194858204636	909
1009	0.0012195772030826404	7612
574	0.0012142465503061318	3901
185	0.0012070120929665844	506
563	0.0012054890493161535	3814
265	0.001203204483840507	1401
286	0.0012028237229278992	1521
441	0.0012028237229278992	2833
191	0.0012001583965396449	602
749	0.0011982545919766061	5514
322	0.0011974930701513906	2201
297	0.0011963507874135672	1801
765	0.0011959700265009596	5705
966	0.0011894970909866276	7317
1222	0.0011875932864235889	8902
906	0.0011803588290840415	7102
407	0.0011795973072588261	2715
177	0.0011792165463462183	407
324	0.0011776935026957872	2203
303	0.0011754089372201407	1902
388	0.0011731243717444941	2617
866	0.0011727436108318863	6810
750	0.001171982089006671	5515
358	0.0011716013280940632	2516
755	0.0011700782844436322	5604
1224	0.0011696975235310244	8904
833	0.0011636053489293002	6306
918	0.0011632245880166927	7114
256	0.0011620823052788693	1208
934	0.0011620823052788693	7213
171	0.0011613207834536537	401
959	0.001157893935240184	7310
415	0.001154847847939322	2807
740	0.0011464711078619514	5505
1290	0.001143805781473697	9403
359	0.0011415212159980506	2517
331	0.0011396174114350118	2301
594	0.0011396174114350118	3922
863	0.001139236650522404	6807
209	0.0011388558896097962	802
1223	0.0011339059977458954	8903
1235	0.0011339059977458954	9007
277	0.0011327637150080722	1511
931	0.0011327637150080722	7210
327	0.0011320021931828567	2206
1227	0.0011316214322702489	8907
1057	0.0011304791495324255	8304
886	0.0011297176277072101	7001
827	0.0011293368667946023	6217
982	0.0011247677358433093	7408
371	0.0011243869749307015	2530
554	0.0011243869749307015	3805
329	0.0011228639312802706	2208
302	0.0011224831703676628	1806
957	0.0011186755612415853	7308
1095	0.0011186755612415853	8431
406	0.001117533278503762	2714
648	0.001117533278503762	4415
695	0.0011167717566785463	5103
364	0.0011148679521155076	2522
891	0.0011148679521155076	7006
1225	0.0011122026257272533	8905
981	0.0011061104511255293	7407
1204	0.0011053489293003137	8705
843	0.0011042066465624906	6406
522	0.001103445124737275	3306
390	0.0011026836029120594	2619
1011	0.0011023028419994516	7614
748	0.0010996375156111975	5513
1096	0.0010981144719607663	8432
590	0.0010969721892229432	3917
1012	0.0010943068628346889	7615
444	0.0010935453410094733	2836
1254	0.001092783819184258	9028
176	0.0010920222973590423	406
828	0.0010912607755338268	6301
216	0.0010889762100581802	809
1228	0.0010821225136312407	8908
875	0.0010809802308934175	6904
387	0.0010790764263303785	2616
350	0.0010733650126412623	2508
927	0.0010729842517286545	7206
289	0.0010726034908160468	1602
1215	0.001069176642602577	8716
835	0.0010687958816899693	6308
930	0.0010657497943891072	7209
1135	0.001062703707088245	8474
1007	0.0010619421852630297	7610
192	0.0010554692497486977	603
347	0.0010554692497486977	2505
693	0.0010550884888360901	5101
917	0.0010497578360595815	7113
760	0.001048996314234366	5609
199	0.0010467117487587194	706
393	0.0010455694660208962	2701
762	0.0010436656614578573	5702
1300	0.0010432849005452497	9601
789	0.0010425233787200341	6002
173	0.0010421426178074263	403
770	0.0010402388132443876	5805
1298	0.0010398580523317798	9507
1082	0.001039477291419172	8418
443	0.0010387157695939567	2835
634	0.0010383350086813489	4401
1016	0.001037954247768741	7806
806	0.0010375734868561333	6113
257	0.0010364312041183101	1209
557	0.0010364312041183101	3808
840	0.0010352889213804868	6403
868	0.001034908160467879	6812
1286	0.0010337658777300558	9306
380	0.0010291967467787628	2609
761	0.0010284352249535472	5701
510	0.0010276737031283316	3208
423	0.0010257698985652929	2815
320	0.0010246276158274697	2105
237	0.0010234853330896463	1006
928	0.0010231045721770385	7207
1201	0.001020820006701392	8702
631	0.0010124432666240215	4302
1003	0.0010120625057114137	7606
673	0.0010105394620609828	4823
360	0.0010090164184105516	2518
575	0.0010078741356727284	3902
970	0.0010078741356727284	7321
546	0.0010063510920222973	3704
382	0.0010059703311096897	2611
285	0.0010052088092844741	1520
1017	0.0010040665265466508	7901
1014	0.001003685765634043	7801
644	0.0010017819610710042	4411
1219	0.0010017819610710042	8804
1152	0.0010014012001583964	8506
858	0.0009983551128575345	6802
596	0.0009964513082944958	3924
929	0.000989597611867556	7208
512	0.0009876938073045173	3210
229	0.0009838861981784398	908
609	0.0009831246763532242	4011
660	0.0009831246763532242	4602
701	0.0009827439154406164	5109
155	0.0009793170672271468	202
1288	0.0009766517408388924	9401
310	0.000975890219013677	2004
849	0.0009751286971884614	6507
1018	0.0009751286971884614	7903
1277	0.0009751286971884614	9206
716	0.0009732248926254227	5211
1179	0.0009713210880623839	8537
270	0.0009690365225867374	1504
747	0.0009675134789363063	5512
1221	0.0009640866307228365	8901
294	0.0009610405434219744	1702
454	0.0009598982606841512	2849
378	0.0009595174997715435	2607
159	0.0009591367388589357	206
351	0.0009587559779463279	2509
876	0.0009568521733832892	6905
921	0.0009484754333059185	7118
345	0.00094314478052941	2503
744	0.0009423832587041944	5509
404	0.0009412409759663712	2712
511	0.0009400986932285479	3209
213	0.0009378141277529014	806
523	0.0009374333668402936	3307
1093	0.0009374333668402936	8429
339	0.0009347680404520394	2309
977	0.0009332449968016083	7402
628	0.0009328642358890005	4205
862	0.0009328642358890005	6806
897	0.0009321027140637851	7013
1291	0.0009321027140637851	9404
643	0.0009317219531511773	4410
1002	0.0009298181485881385	7605
1281	0.0009271528221998842	9301
1062	0.0009267720612872765	8309
426	0.000926010539462061	2818
246	0.0009241067348990222	1107
279	0.0009225836912485912	1513
215	0.0009214414085107679	808
1313	0.0009187760821225136	9614
974	0.0009176337993846903	7325
232	0.0009168722775594749	1001
1149	0.0009168722775594749	8503
1188	0.0009134454293460051	8546
1321	0.0009111608638703585	9704
602	0.0009107801029577508	4004
729	0.0009096378202199275	5402
1203	0.000907353254744281	8704
659	0.0009069724938316732	4601
288	0.0009050686892686344	1601
694	0.0009050686892686344	5102
411	0.0009012610801425569	2803
412	0.0009012610801425569	2804
1004	0.0009004995583173414	7607
948	0.0008993572755795181	7228
680	0.0008951689055408328	4906
1241	0.0008944073837156173	9015
715	0.0008940266228030095	5210
521	0.0008936458618904018	3305
520	0.000893265100977794	3304
879	0.000893265100977794	6908
790	0.000891742057327363	6003
434	0.0008890767309391088	2826
456	0.0008890767309391088	2901
1039	0.0008864114045508544	8201
221	0.0008837460781626001	814
652	0.0008833653172499923	4419
337	0.0008799384690365225	2307
446	0.000877653903560876	2839
381	0.0008749885771726218	2610
910	0.0008734655335221908	7106
419	0.0008704194462213288	2811
697	0.0008685156416582899	5105
1094	0.0008673733589204666	8430
464	0.0008647080325322123	2909
597	0.0008639465107069969	3925
247	0.0008631849888817814	1108
148	0.000858996618843096	101
872	0.0008582350970178805	6901
386	0.0008578543361052728	2615
528	0.0008574735751926651	3405
774	0.0008563312924548418	5809
432	0.0008540467269791952	2824
841	0.0008540467269791952	6404
400	0.0008536659660665875	2708
273	0.000851381400590941	1507
301	0.0008510006396783332	1805
864	0.0008510006396783332	6808
865	0.0008487160742026866	6809
685	0.0008483353132900789	4911
261	0.0008479545523774712	1213
298	0.0008479545523774712	1802
505	0.0008479545523774712	3203
1244	0.0008479545523774712	9018
728	0.0008464315087270401	5401
537	0.0008449084650766091	3601
1196	0.0008422431386883549	8606
674	0.0008376740077370617	4824
1208	0.0008361509640866308	8709
152	0.0008353894422614152	105
550	0.0008353894422614152	3801
496	0.0008350086813488075	2942
1056	0.0008342471595235919	8303
254	0.0008338663986109842	1206
1177	0.0008331048767857686	8535
1302	0.0008331048767857686	9603
954	0.0008292972676596912	7305
769	0.0008258704194462213	5804
529	0.0008254896585336136	3406
983	0.0008239666148831825	7409
1301	0.0008228243321453593	9602
238	0.000821682049407536	1007
1074	0.000821682049407536	8410
623	0.0008193974839318895	4114
519	0.000818635962106674	3303
1216	0.0008167321575436352	8801
952	0.0008163513966310275	7303
1167	0.0008163513966310275	8523
234	0.0008159706357184197	1003
767	0.0008155898748058119	5802
743	0.0008152091138932042	5508
161	0.0008148283529805964	208
903	0.0008136860702427732	7019
1211	0.0008117822656797343	8712
195	0.0008110207438545189	702
1030	0.0008102592220293034	8105
669	0.0008079746565536569	4802
990	0.0008053093301654025	7419
625	0.0008041670474275793	4201
809	0.0008041670474275793	6116
675	0.0008034055256023638	4901
779	0.000803024764689756	5903
551	0.0008007401992141095	3802
913	0.0008007401992141095	7109
1141	0.0008007401992141095	8480
525	0.000799978677388894	3402
624	0.000799978677388894	4115
513	0.000798455633738463	3211
788	0.0007957903073502086	6001
300	0.0007950287855249932	1804
711	0.0007946480246123854	5206
1116	0.0007931249809619543	8452
299	0.0007919826982241311	1803
733	0.0007919826982241311	5406
919	0.0007919826982241311	7115
539	0.0007870328063602303	3603
493	0.0007855097627097993	2939
882	0.0007836059581467604	6911
1129	0.0007836059581467604	8468
577	0.0007824636754089372	3904
457	0.0007820829144963295	2902
666	0.0007805598708458984	4706
734	0.000779798349020683	5407
971	0.0007778945444576441	7322
1178	0.0007775137835450364	8536
869	0.0007771330226324286	6813
1013	0.0007771330226324286	7616
1156	0.0007756099789819976	8511
738	0.0007740869353315666	5503
312	0.0007718023698559201	2006
689	0.0007718023698559201	5004
909	0.0007714216089433123	7105
947	0.0007695178043802735	7227
569	0.0007691370434676658	3820
1172	0.0007691370434676658	8530
771	0.000768756282555058	5806
614	0.0007683755216424502	4016
688	0.0007679947607298425	5003
763	0.0007676139998172348	5703
1320	0.0007634256297785495	9703
368	0.0007630448688659417	2526
964	0.0007630448688659417	7315
1289	0.0007626641079533339	9402
973	0.0007622833470407262	7324
823	0.0007599987815650797	6213
830	0.0007588564988272564	6303
377	0.0007569526942642176	2606
1005	0.0007569526942642176	7608
741	0.0007561911724390021	5506
1148	0.0007558104115263943	8502
933	0.0007546681287885711	7212
1068	0.0007539066069633556	8404
1174	0.0007539066069633556	8532
1299	0.0007539066069633556	9508
516	0.0007527643242255323	3214
1175	0.0007527643242255323	8533
197	0.0007512412805751013	704
1025	0.0007508605196624935	8007
565	0.0007504797587498858	3816
184	0.000750098997837278	505
773	0.0007497182369246702	5808
965	0.0007493374760120625	7316
686	0.000748575954186847	5001
1037	0.000748575954186847	8112
704	0.0007478144323616315	5112
612	0.0007466721496238082	4014
905	0.0007459106277985928	7101
433	0.0007436260623229462	2825
699	0.0007432453014103384	5107
989	0.0007428645404977306	7418
157	0.0007424837795851229	204
601	0.0007424837795851229	4003
792	0.0007424837795851229	6005
154	0.0007417222577599074	201
1046	0.0007413414968472996	8208
953	0.0007379146486338298	7304
987	0.0007379146486338298	7413
980	0.0007348685613329678	7406
1064	0.0007337262785951445	8311
1197	0.0007325839958573213	8607
1226	0.0007310609522068902	8906
280	0.0007306801912942825	1514
228	0.000729918669469067	907
810	0.0007295379085564593	6117
1101	0.000726872582168205	8437
951	0.0007264918212555972	7302
391	0.0007253495385177739	2620
431	0.0007253495385177739	2823
753	0.0007245880166925584	5602
227	0.0007238264948673429	906
355	0.0007234457339547352	2513
566	0.0007226842121295196	3817
844	0.0007215419293916963	6501
1200	0.0007215419293916963	8701
568	0.0007211611684790886	3819
956	0.0007211611684790886	7307
893	0.0007207804075664809	7008
926	0.0007207804075664809	7205
702	0.0007188766030034421	5110
754	0.0007184958420908343	5603
1083	0.0007181150811782265	8419
834	0.0007173535593530111	6307
304	0.0007169727984404033	1903
1217	0.0007162112766151878	8802
507	0.00071583051570258	3205
778	0.0007139267111395413	5902
638	0.0007135459502269335	4405
448	0.0007120229065765024	2841
787	0.0007120229065765024	5911
1308	0.0007120229065765024	9609
1147	0.0007108806238386792	8501
664	0.0007101191020134637	4704
253	0.0007093575801882482	1205
698	0.0007089768192756404	5106
839	0.000708215297450425	6402
826	0.0007074537756252094	6216
1162	0.0007074537756252094	8517
975	0.0007051692101495629	7326
409	0.0007036461664991319	2801
290	0.0007025038837613086	1603
757	0.0007021231228487009	5606
963	0.0007021231228487009	7314
1076	0.0007009808401108776	8412
1306	0.0007002193182856621	9607
385	0.0006983155137226233	2614
321	0.0006979347528100155	2106
1078	0.0006975539918974078	8414
469	0.0006971732309848	2914
860	0.0006967924700721922	6804
976	0.0006967924700721922	7401
772	0.0006964117091595845	5807
889	0.000694127143683938	7004
1043	0.000694127143683938	8205
604	0.0006937463827713302	4006
620	0.0006918425782082915	4104
633	0.0006918425782082915	4304
1117	0.0006918425782082915	8453
1106	0.0006903195345578604	8442
535	0.000689558012732645	3506
884	0.0006891772518200372	6913
1023	0.0006887964909074294	8002
1063	0.0006887964909074294	8310
600	0.0006880349690822139	4002
857	0.0006876542081696061	6801
1260	0.0006861311645191752	9101
671	0.0006846081208687441	4810
1283	0.0006842273599561363	9303
735	0.0006827043163057053	5408
1303	0.0006823235553930976	9604
370	0.0006808005117426665	2529
784	0.0006804197508300587	5908
542	0.0006796582290048433	3606
180	0.00067851594626702	410
1000	0.0006773736635291968	7603
500	0.000675469858966158	3103
305	0.0006750890980535502	1904
344	0.0006750890980535502	2502
354	0.0006747083371409424	2512
1092	0.0006747083371409424	8428
588	0.0006731852934905115	3915
416	0.0006728045325779037	2808
1309	0.0006724237716652959	9610
356	0.0006712814889274726	2514
608	0.0006712814889274726	4010
724	0.0006712814889274726	5308
725	0.0006709007280148649	5309
1118	0.0006709007280148649	8454
366	0.0006705199671022572	2524
1140	0.0006705199671022572	8479
1070	0.0006693776843644339	8406
676	0.0006686161625392183	4902
1143	0.0006678546407140029	8482
667	0.0006659508361509641	4707
576	0.0006651893143257485	3903
1008	0.0006632855097627098	7611
533	0.0006617624661122787	3503
1233	0.0006610009442870633	9005
1247	0.0006606201833744555	9021
684	0.0006602394224618478	4910
1040	0.0006594779006366322	8202
373	0.0006587163788114168	2602
663	0.0006587163788114168	4703
1098	0.0006587163788114168	8434
1021	0.0006579548569862013	7907
883	0.0006568125742483779	6912
745	0.0006560510524231624	5510
1055	0.0006556702915105546	8302
1169	0.0006556702915105546	8526
200	0.0006549087696853392	707
593	0.0006545280087727314	3920
1136	0.0006541472478601237	8475
435	0.0006518626823844772	2827
559	0.0006514819214718694	3810
338	0.0006507203996466539	2308
824	0.0006507203996466539	6214
1139	0.0006499588778214383	8478
825	0.0006476743123457918	6215
158	0.0006465320296079685	205
503	0.0006457705077827531	3201
410	0.0006446282250449298	2802
1151	0.0006446282250449298	8505
1161	0.0006446282250449298	8516
885	0.000644247464132322	6914
1066	0.0006419628986566755	8402
722	0.0006415821377440677	5306
1022	0.0006408206159188522	8001
1119	0.0006408206159188522	8455
1259	0.0006404398550062444	9033
607	0.0006400590940936368	4009
627	0.000639678333181029	4203
1060	0.0006385360504432057	8307
1171	0.0006381552895305979	8529
1133	0.0006377745286179902	8472
1138	0.0006377745286179902	8477
1255	0.0006370130067927746	9029
582	0.000636632245880167	3909
630	0.0006362514849675592	4301
846	0.0006358707240549514	6504
746	0.0006347284413171281	5511
615	0.0006343476804045204	4017
687	0.0006343476804045204	5002
1287	0.0006343476804045204	9307
497	0.0006335861585793049	3006
1198	0.0006335861585793049	8608
453	0.0006328246367540894	2847
458	0.0006320631149288739	2903
174	0.0006316823540162661	404
786	0.0006309208321910506	5910
274	0.0006293977885406196	1508
486	0.0006293977885406196	2932
1079	0.0006293977885406196	8415
1090	0.0006293977885406196	8426
252	0.000628636266715404	1204
353	0.000628636266715404	2511
471	0.000628636266715404	2916
1209	0.000628636266715404	8710
1202	0.0006267324621523653	8703
899	0.0006263517012397575	7015
848	0.0006259709403271498	6506
1033	0.0006259709403271498	8108
1184	0.0006259709403271498	8542
504	0.000625590179414542	3202
768	0.0006248286575893265	5803
1024	0.0006244478966767187	8003
1150	0.000624067135764111	8504
861	0.0006236863748515033	6805
1183	0.0006236863748515033	8541
573	0.0006229248530262877	3825
950	0.0006229248530262877	7301
727	0.00062254409211368	5311
326	0.0006221633312010722	2205
961	0.0006221633312010722	7312
1146	0.0006206402875506412	8487
904	0.0006183557220749946	7020
1311	0.000617974961162387	9612
1142	0.0006168326784245637	8481
408	0.0006160711565993481	2716
413	0.0006160711565993481	2805
472	0.0006153096347741326	2917
555	0.0006145481129489171	3806
571	0.0006145481129489171	3823
398	0.0006130250692984861	2706
427	0.0006126443083858783	2819
506	0.0006118827865606629	3204
249	0.0006111212647354473	1201
325	0.0006111212647354473	2204
1111	0.0006103597429102318	8447
1182	0.000609978981997624	8540
271	0.0006095982210850163	1505
481	0.0006092174601724085	2926
606	0.0006092174601724085	4008
394	0.000606932894696762	2702
1236	0.0006065521337841542	9008
352	0.0006050290901337233	2510
679	0.0006038868073959	4905
1010	0.0006035060464832922	7613
992	0.0006004599591824301	7502
1115	0.0006004599591824301	8451
1089	0.0006000791982698224	8425
932	0.0005989369155319992	7211
478	0.0005977946327941759	2923
495	0.0005977946327941759	2941
908	0.0005977946327941759	7104
672	0.0005974138718815681	4811
896	0.0005974138718815681	7011
1213	0.0005970331109689603	8714
1192	0.0005966523500563526	8602
603	0.0005962715891437449	4005
558	0.0005955100673185294	3809
1194	0.0005951293064059216	8604
900	0.0005947485454933138	7016
1122	0.0005943677845807061	8459
775	0.0005939870236680983	5810
632	0.0005928447409302751	4303
1085	0.000591321697279844	8421
1059	0.0005894178927168053	8306
450	0.0005886563708915898	2844
730	0.0005886563708915898	5403
696	0.0005878948490663742	5104
944	0.0005856102835907277	7224
1165	0.0005856102835907277	8521
163	0.0005852295226781199	210
949	0.0005852295226781199	7229
1050	0.0005844680008529044	8212
361	0.0005825641962898657	2519
586	0.0005825641962898657	3913
985	0.0005814219135520424	7411
856	0.0005810411526394346	6704
455	0.0005795181089890036	2852
567	0.0005791373480763959	3818
425	0.0005783758262511803	2817
1006	0.0005779950653385726	7609
1058	0.0005779950653385726	8305
150	0.0005776143044259649	103
284	0.0005768527826007494	1518
920	0.0005764720216881416	7117
915	0.0005757104998629261	7111
1026	0.0005757104998629261	8101
440	0.0005738066952998873	2832
552	0.0005734259343872796	3803
1107	0.0005734259343872796	8443
791	0.0005722836516494562	6004
979	0.0005719028907368485	7405
629	0.000571141368911633	4206
1163	0.0005707606079990253	8518
782	0.0005684760425233787	5906
514	0.000568095281610771	3212
1180	0.000568095281610771	8538
1097	0.0005673337597855555	8433
1249	0.0005673337597855555	9023
578	0.0005669529988729477	3905
873	0.0005669529988729477	6902
781	0.0005665722379603399	5905
1054	0.0005665722379603399	8301
473	0.0005661914770477322	2918
1170	0.0005658107161351244	8527
1114	0.0005654299552225166	8450
1207	0.000565049194309909	8708
536	0.0005639069115720857	3507
621	0.0005635261506594779	4105
647	0.0005627646288342624	4414
1100	0.0005627646288342624	8436
1252	0.0005623838679216546	9026
726	0.0005612415851838314	5310
940	0.0005608608242712236	7220
1081	0.0005608608242712236	8417
972	0.0005604800633586159	7323
1015	0.0005604800633586159	7804
1091	0.0005604800633586159	8427
847	0.0005600993024460081	6505
1160	0.0005600993024460081	8515
1145	0.0005593377806207926	8486
1245	0.0005589570197081849	9019
736	0.0005585762587955771	5501
1212	0.0005581954978829693	8713
1279	0.0005578147369703616	9208
275	0.0005574339760577538	1509
1265	0.0005574339760577538	9106
1304	0.0005574339760577538	9605
483	0.0005562916933199305	2928
492	0.0005562916933199305	2938
871	0.0005555301714947151	6815
776	0.0005551494105821073	5811
437	0.0005543878887568918	2829
1045	0.0005536263669316762	8207
984	0.0005528648451064607	7410
1263	0.0005521033232812453	9104
1153	0.0005517225623686375	8507
417	0.0005505802796308142	2809
268	0.0005501995187182064	1502
591	0.0005498187578055987	3918
1038	0.0005498187578055987	8113
395	0.000549437996892991	2703
703	0.0005482957141551677	5111
1189	0.0005482957141551677	8547
986	0.0005479149532425599	7412
397	0.0005471534314173444	2705
258	0.0005467726705047366	1210
1061	0.000546391909592129	8308
461	0.0005460111486795212	2906
892	0.0005460111486795212	7007
1132	0.0005456303877669134	8471
531	0.0005448688659416979	3501
756	0.0005448688659416979	5605
1102	0.0005437265832038746	8438
1048	0.0005418227786408358	8210
376	0.0005414420177282281	2605
888	0.0005414420177282281	7003
1130	0.0005406804959030125	8469
1075	0.0005399189740777971	8411
1164	0.0005399189740777971	8519
751	0.0005391574522525816	5516
1067	0.000538395930427366	8403
1181	0.000538395930427366	8539
462	0.0005372536476895427	2907
878	0.0005357306040391118	6907
1032	0.0005357306040391118	8107
1315	0.0005357306040391118	9616
1084	0.000535349843126504	8420
190	0.0005349690822138962	601
156	0.0005342075603886807	203
1159	0.0005342075603886807	8514
945	0.0005326845167382497	7225
1041	0.000532303755825642	8203
396	0.0005319229949130342	2704
585	0.0005319229949130342	3912
1155	0.0005315422340004264	8509
346	0.0005311614730878187	2504
479	0.000530780712175211	2924
466	0.0005303999512626032	2911
793	0.0005303999512626032	6006
939	0.0005303999512626032	7219
1190	0.0005300191903499954	8548
1285	0.0005288769076121721	9305
969	0.0005284961466995644	7320
1176	0.0005284961466995644	8534
731	0.0005269731030491334	5404
389	0.0005258308203113101	2618
460	0.0005254500593987023	2905
1229	0.0005254500593987023	9001
1256	0.0005254500593987023	9030
1088	0.0005243077766608791	8424
198	0.0005239270157482714	705
517	0.0005235462548356636	3215
532	0.0005235462548356636	3502
1137	0.0005235462548356636	8476
384	0.0005231654939230558	2613
1242	0.0005231654939230558	9016
1099	0.0005220232111852325	8435
887	0.0005216424502726249	7002
553	0.0005212616893600171	3804
683	0.0005205001675348016	4909
777	0.0005205001675348016	5901
1246	0.0005205001675348016	9020
262	0.0005201194066221938	1214
570	0.0005201194066221938	3821
589	0.0005201194066221938	3916
1305	0.000519738645709586	9606
1127	0.0005185963629717627	8465
226	0.000516692558408724	905
1131	0.000516692558408724	8470
491	0.0005159310365835084	2937
924	0.0005159310365835084	7203
1028	0.0005159310365835084	8103
1292	0.0005159310365835084	9405
475	0.000515169514758293	2920
508	0.000515169514758293	3206
852	0.000515169514758293	6603
267	0.0005147887538456852	1501
526	0.0005147887538456852	3403
556	0.0005140272320204697	3807
1125	0.0005140272320204697	8462
1187	0.0005140272320204697	8545
942	0.0005136464711078619	7222
943	0.0005132657101952542	7223
1157	0.0005132657101952542	8512
477	0.0005128849492826464	2922
1173	0.0005128849492826464	8531
1240	0.0005125041883700386	9014
488	0.000512123427457431	2934
1080	0.0005106003838069999	8416
564	0.0005098388619817844	3815
1185	0.0005098388619817844	8543
1166	0.0005090773401565689	8522
1019	0.0005079350574187456	7904
580	0.0005067927746809223	3907
1087	0.0005067927746809223	8423
449	0.0005052697310304914	2843
1307	0.0005052697310304914	9608
501	0.0005048889701178836	3104
1124	0.0005037466873800603	8461
470	0.0005033659264674525	2915
1294	0.0005026044046422371	9503
160	0.0005022236437296293	207
1191	0.0005018428828170215	8601
162	0.000501081360991806	209
764	0.0005007006000791982	5704
1276	0.0005003198391665905	9205
1134	0.0004991775564287673	8473
572	0.000498035273690944	3824
178	0.0004976545127783362	408
946	0.0004976545127783362	7226
657	0.0004972737518657284	4503
1205	0.0004957507082152975	8706
720	0.0004946084254774742	5303
719	0.0004942276645648664	5302
1071	0.0004942276645648664	8407
1168	0.0004942276645648664	8525
988	0.000493466142739651	7415
1250	0.0004923238600018277	9024
1238	0.0004896585336135734	9011
1258	0.0004896585336135734	9032
233	0.0004892777727009656	1002
677	0.0004885162508757501	4903
870	0.0004881354899631423	6814
941	0.0004881354899631423	7221
785	0.0004862316854001036	5909
901	0.00048547016357488806	7017
224	0.00048470864174967254	903
1280	0.000483947119924457	9209
1206	0.00048356635901184927	8707
518	0.00048318559809924154	3302
333	0.00048280483718663375	2303
1126	0.00048280483718663375	8463
561	0.000480901032623595	3812
421	0.0004805202717109872	2813
1210	0.0004805202717109872	8711
780	0.0004801395107983795	5904
1271	0.0004789972280605562	9112
467	0.0004782357062353407	2912
367	0.0004767126625849097	2525
272	0.00047557037984708643	1506
1317	0.00047557037984708643	9618
235	0.0004748088580218709	1004
534	0.0004748088580218709	3505
1284	0.0004748088580218709	9304
605	0.00047366657528404764	4007
1323	0.00047366657528404764	970
622	0.0004732858143714399	4106
527	0.0004725242925462244	3404
993	0.0004725242925462244	7504
1069	0.0004713820098084011	8405
581	0.0004710012488957934	3908
1052	0.0004690974443327546	8214
662	0.0004679551615949313	4702
465	0.00046681287885710806	2910
494	0.00046643211794450027	2940
1154	0.00046643211794450027	8508
1316	0.00046643211794450027	9617
418	0.00046605135703189254	2810
485	0.00046452831338146154	2930
626	0.00046452831338146154	4202
1218	0.0004618629869932072	8803
1251	0.0004618629869932072	9025
1103	0.0004614822260805995	8439
1230	0.00046072070425538396	9002
451	0.00045919766060495296	2845
1275	0.00045919766060495296	9202
894	0.00045843613877973743	7009
489	0.0004576746169545219	2935
369	0.00045729385604191417	2528
445	0.00045729385604191417	2837
845	0.00045653233421669864	6502
783	0.0004561515733040909	5907
335	0.0004557708123914831	2305
428	0.0004553900514788754	2820
855	0.0004542477687410521	6703
995	0.0004527247250906211	7506
562	0.00045120168144019006	3813
476	0.0004508209205275823	2921
1270	0.0004500593987023668	9111
997	0.0004492978768771513	7508
1072	0.00044625178957628927	8408
1243	0.00044625178957628927	9017
700	0.00044549026775107375	5108
1073	0.00044549026775107375	8409
438	0.00044396722410064275	2830
429	0.00044358646318803496	2821
665	0.0004428249413628195	4705
649	0.0004424441804502117	4416
877	0.00044206341953760396	6906
911	0.00044168265862499617	7107
1220	0.00044168265862499617	8805
890	0.0004409211367997807	7005
442	0.00044015961497456517	2834
1123	0.00043939809314934964	8460
1257	0.0004390173322367419	9031
1261	0.0004390173322367419	9102
309	0.0004367327667610954	2003
1042	0.00043597124493587985	8204
598	0.0004352097231106644	3926
850	0.0004348289621980566	6601
584	0.0004333059185476256	3911
1296	0.0004333059185476256	9505
968	0.0004329251576350178	7319
691	0.00043102135307197906	5006
583	0.00043064059215937127	3910
1029	0.00043064059215937127	8104
1121	0.00043064059215937127	8458
1314	0.000429498309421548	9615
1253	0.0004256907002954705	9027
718	0.00042416765664503943	5301
330	0.0004218830911693929	2209
1269	0.0004218830911693929	9110
1234	0.0004203600475189619	9006
420	0.00041921776478113864	2812
996	0.00041921776478113864	7507
548	0.00041883700386853085	3706
737	0.00041731396021809985	5502
1214	0.00041731396021809985	8715
1312	0.00041731396021809985	9613
1036	0.0004169331993054921	8111
1268	0.0004161716774802766	9109
424	0.00041350635109202227	2816
967	0.0004127448292668068	7318
1112	0.0004127448292668068	8448
334	0.00041160254652898354	2304
1027	0.0004100795028785525	8102
1158	0.0004100795028785525	8513
1237	0.0004100795028785525	9010
1262	0.0004100795028785525	9103
1144	0.0004089372201407292	8483
181	0.0004066526546650827	501
682	0.00040627189375247496	4908
1077	0.00040436808918943617	8413
1105	0.00040436808918943617	8441
515	0.00040360656736422064	3213
1128	0.00040360656736422064	8467
430	0.00040284504553900517	2822
922	0.00040284504553900517	7201
723	0.0004017027628011819	5307
654	0.0003994181973255353	4421
463	0.00039827591458771206	2908
592	0.00039827591458771206	3919
244	0.0003978951536751043	1105
490	0.00039446830546163453	2936
509	0.00039446830546163453	3207
1282	0.00039446830546163453	9302
1193	0.000393706783636419	8603
1248	0.000393706783636419	9022
375	0.00039256450089859574	2604
1272	0.0003914222181607725	9113
874	0.00039104145724816475	6903
1297	0.00039066069633555695	9506
251	0.0003898991745103415	1203
1113	0.0003898991745103415	8449
349	0.00038913765268512596	2507
766	0.00038913765268512596	5801
447	0.00038761460903469496	2840
487	0.00038761460903469496	2933
474	0.00038723384812208717	2919
1120	0.0003860915653842639	8457
579	0.00038494928264644064	3906
1053	0.00038494928264644064	8215
182	0.0003845685217338329	502
902	0.0003845685217338329	7018
938	0.0003845685217338329	7218
1049	0.0003845685217338329	8211
1231	0.0003838069999086174	9003
439	0.00038152243443297085	2831
690	0.0003811416735203631	5005
1086	0.00037809558621950106	8422
1104	0.00037809558621950106	8440
670	0.00037619178165646227	4807
1273	0.00037619178165646227	9114
613	0.000375049498918639	4015
1266	0.000375049498918639	9107
1108	0.000373526455268208	8444
276	0.00036819580249169943	1510
739	0.0003674342806664839	5504
484	0.00036705351975387617	2929
661	0.00036629199792866064	4701
1318	0.0003659112370160529	9701
1020	0.0003582960187638978	7905
678	0.00035753449693868227	4904
560	0.0003556306923756435	3811
991	0.00035258460507478143	7501
851	0.0003522038441621737	6602
547	0.00035144232233695816	3705
452	0.0003506808005117427	2846
732	0.0003503000395991349	5405
383	0.00034991927868652717	2612
914	0.0003483962350360961	7110
880	0.0003480154741234884	6909
1267	0.00034573090864784185	9108
994	0.00034192329952176427	7505
1278	0.0003384964513082945	9207
1031	0.00033202351579396264	8106
480	0.0003308812330561394	2925
1044	0.0003274543848426696	8206
898	0.00032707362393006185	7014
482	0.0003259313411922386	2927
530	0.00032288525389137653	3407
1295	0.0003213622102409455	9504
269	0.0003183161229400835	1503
248	0.00031603155746443695	1109
1047	0.00031603155746443695	8209
1051	0.00031565079655182916	8213
1065	0.0003129854701635749	8401
543	0.0003126047092509671	3701
859	0.0003103201437753206	6803
692	0.0003091778610374973	5007
1274	0.0003091778610374973	9201
545	0.00030841633921228185	3703
587	0.00030232416461055774	3914
1319	0.0002992780773096957	9702
540	0.0002977550336592647	3604
1110	0.00029547046818361816	8446
853	0.0002943281854457949	6701
1195	0.00028747448901885527	8605
658	0.000284809162630601	4504
549	0.0002840476408053855	3707
705	0.0002810015535045234	5113
1239	0.00027833622711626916	9013
742	0.0002749093789027994	5507
1035	0.00027262481342715285	8110
656	0.000269197965213683	4502
544	0.000267674921563252	3702
1310	0.00026729416065064427	9611
1264	0.00025549057235980385	9105
1109	0.0002532060068841573	8445
468	0.000250540680495903	2913
854	0.0002467330713698255	6702
1232	0.00024178317950592464	9004
655	0.0002387370922050626	4501
1034	0.00018504980352736908	8109
