153	0.00361497975708502	106
402	0.0032720647773279354	2710
925	0.003190688259109312	7204
255	0.0029668016194331986	1207
169	0.002955060728744939	306
293	0.002953441295546559	1701
640	0.0029412955465587046	4407
616	0.002936842105263158	4100
259	0.0028781376518218623	1211
166	0.002754251012145749	303
619	0.0027384615384615386	4103
617	0.002720647773279352	4101
912	0.0027190283400809717	7108
401	0.0026724696356275304	2709
332	0.0026538461538461538	2302
813	0.002594331983805668	6203
618	0.002580161943319838	4102
706	0.002545748987854251	5201
999	0.002542914979757085	7602
260	0.0025093117408906884	1212
222	0.002459919028340081	901
365	0.002445344129554656	2523
266	0.002404048582995951	1404
206	0.0023931174089068825	713
240	0.0023251012145748986	1101
836	0.002294331983805668	6309
168	0.0022902834008097167	305
165	0.00228663967611336	302
641	0.0022578947368421054	4408
323	0.00225748987854251	2202
231	0.0022157894736842105	910
636	0.0022125506072874493	4403
211	0.0022040485829959515	804
832	0.0021817813765182188	6305
796	0.002113765182186235	6103
797	0.0021133603238866396	6104
707	0.0020963562753036438	5202
340	0.0020898785425101213	2401
802	0.00205748987854251	6109
250	0.0020267206477732795	1202
167	0.0020214574898785426	304
637	0.001996761133603239	4404
186	0.001994736842105263	507
798	0.0019874493927125505	6105
341	0.001974493927125506	2402
642	0.0019591093117408906	4409
263	0.0019502024291497976	1301
201	0.0019465587044534413	708
295	0.0019461538461538462	1703
403	0.0019336032388663968	2711
795	0.0019194331983805669	6102
223	0.0019097165991902834	902
499	0.001905263157894737	3102
595	0.001905263157894737	3923
336	0.0018967611336032388	2306
814	0.001894736842105263	6204
799	0.001880161943319838	6106
187	0.001879757085020243	508
202	0.0018676113360323887	709
283	0.0018481781376518218	1517
524	0.0018174089068825911	3401
225	0.0018093117408906883	904
807	0.0018024291497975708	6114
170	0.0018016194331983806	307
794	0.0017906882591093118	6101
291	0.0017797570850202429	1604
207	0.001765991902834008	714
962	0.0017542510121457489	7313
907	0.0017530364372469636	7103
282	0.0017445344129554657	1516
343	0.0017433198380566802	2501
800	0.0017016194331983805	6107
164	0.0016963562753036438	301
315	0.0016906882591093118	2009
342	0.0016866396761133604	2403
635	0.001671255060728745	4402
172	0.0016704453441295547	402
538	0.0016692307692307692	3602
801	0.0016582995951417005	6108
541	0.0016578947368421052	3605
758	0.00165748987854251	5607
245	0.0016558704453441295	1106
803	0.001645748987854251	6110
241	0.0016327935222672065	1102
650	0.001617408906882591	4417
837	0.0016161943319838057	6310
895	0.0016161943319838057	7010
822	0.001608906882591093	6212
710	0.001608502024291498	5205
242	0.0016064777327935223	1103
313	0.0016020242914979758	2007
978	0.0015902834008097166	7403
208	0.0015890688259109311	801
1322	0.0015890688259109311	9705
759	0.0015846153846153846	5608
708	0.0015838056680161944	5203
815	0.0015809716599190283	6205
923	0.0015805668016194332	7202
639	0.0015748987854251012	4406
405	0.0015728744939271255	2713
281	0.0015720647773279353	1515
817	0.0015716599190283402	6207
239	0.001563157894736842	1008
210	0.001548582995951417	803
204	0.0015469635627530364	711
651	0.0015453441295546558	4418
502	0.0015404858299595142	3105
188	0.001534008097165992	510
653	0.0015323886639676113	4420
821	0.0015311740890688258	6211
362	0.0015295546558704454	2520
998	0.0015291497975708501	7601
264	0.00152834008097166	1302
217	0.0015218623481781377	810
214	0.0015178137651821863	807
819	0.0015178137651821863	6209
811	0.0014987854251012145	6201
422	0.0014951417004048582	2814
714	0.0014882591093117409	5209
709	0.0014842105263157895	5204
307	0.0014834008097165993	2001
399	0.001482995951417004	2707
713	0.0014761133603238866	5208
175	0.001471255060728745	405
203	0.0014708502024291497	710
805	0.0014680161943319838	6112
958	0.0014647773279352226	7309
296	0.0014582995951417004	1704
842	0.0014554655870445345	6405
1199	0.0014534412955465588	8609
189	0.0014530364372469635	511
414	0.001445344129554656	2806
319	0.0014412955465587045	2104
151	0.0014408906882591092	104
196	0.0014388663967611335	703
916	0.0014323886639676113	7112
881	0.0014291497975708503	6910
392	0.0014222672064777328	2621
205	0.0014218623481781377	712
287	0.001419838056680162	1522
317	0.0014129554655870446	2102
712	0.0014129554655870446	5207
808	0.0014129554655870446	6115
816	0.0014121457489878542	6206
1001	0.0014068825910931173	7604
721	0.0014064777327935222	5305
308	0.0014048582995951416	2002
818	0.0014024291497975708	6208
316	0.0014012145748987855	2101
179	0.0013987854251012145	409
935	0.0013967611336032388	7214
668	0.0013923076923076923	4800
314	0.00138582995951417	2008
193	0.0013838056680161943	604
348	0.0013781376518218623	2506
243	0.0013647773279352228	1104
812	0.0013619433198380567	6202
820	0.0013615384615384616	6210
278	0.001360323886639676	1512
838	0.001357085020242915	6401
374	0.001351012145748988	2603
599	0.0013445344129554655	4001
646	0.001340485829959514	4413
804	0.001340080971659919	6111
498	0.0013319838056680162	3101
867	0.0013299595141700404	6811
149	0.001322672064777328	102
960	0.0013222672064777327	7311
459	0.001319838056680162	2904
328	0.0013190283400809717	2207
717	0.0013178137651821862	5212
1293	0.0013125506072874495	9406
218	0.001311740890688259	811
212	0.0013089068825910932	805
292	0.0013016194331983805	1605
236	0.0012975708502024291	1005
681	0.0012935222672064777	4907
297	0.0012919028340080971	1801
318	0.0012890688259109312	2103
379	0.0012890688259109312	2608
357	0.0012878542510121457	2515
372	0.0012838056680161943	2601
645	0.0012838056680161943	4412
831	0.0012728744939271256	6304
220	0.0012708502024291498	813
829	0.0012672064777327935	6302
194	0.0012639676113360323	701
311	0.0012631578947368421	2005
937	0.001257085020242915	7217
906	0.0012546558704453442	7102
936	0.0012473684210526316	7215
230	0.001246153846153846	909
610	0.0012441295546558703	4012
955	0.0012441295546558703	7306
286	0.0012376518218623481	1521
306	0.001231983805668016	1905
563	0.001231578947368421	3814
183	0.0012307692307692308	504
441	0.0012291497975708502	2833
1186	0.001228744939271255	8544
219	0.00122834008097166	812
833	0.0012275303643724696	6306
436	0.001225910931174089	2828
363	0.0012214574898785425	2521
966	0.0012190283400809717	7317
1222	0.001217408906882591	8902
331	0.001217004048582996	2301
611	0.001217004048582996	4013
752	0.001217004048582996	5601
303	0.0012097165991902833	1902
191	0.001197165991902834	602
388	0.0011955465587044534	2617
574	0.0011931174089068826	3901
1009	0.0011894736842105263	7612
765	0.00118582995951417	5705
371	0.0011817813765182185	2530
358	0.0011761133603238867	2516
1225	0.0011757085020242914	8905
329	0.0011748987854251012	2208
934	0.001174089068825911	7213
324	0.0011736842105263157	2203
750	0.0011736842105263157	5515
755	0.0011724696356275304	5604
407	0.0011704453441295547	2715
866	0.0011700404858299596	6810
749	0.0011692307692307692	5514
256	0.0011676113360323886	1208
209	0.0011672064777327935	802
415	0.001159919028340081	2807
390	0.0011554655870445343	2619
406	0.0011554655870445343	2714
1227	0.001151821862348178	8907
265	0.0011506072874493927	1401
322	0.0011506072874493927	2201
1011	0.001148582995951417	7614
1224	0.001148178137651822	8904
277	0.0011461538461538462	1511
192	0.00114331983805668	603
216	0.0011421052631578948	809
1057	0.001140080971659919	8304
748	0.0011388663967611336	5513
185	0.0011384615384615385	506
863	0.001137246963562753	6807
959	0.0011356275303643724	7310
1204	0.0011348178137651822	8705
740	0.0011311740890688259	5505
387	0.0011279352226720649	2616
1223	0.0011251012145748987	8903
695	0.0011238866396761134	5103
1012	0.001122672064777328	7615
364	0.001119838056680162	2522
359	0.0011178137651821863	2517
886	0.0011149797570850202	7001
554	0.001113765182186235	3805
302	0.0011133603238866396	1806
594	0.0011125506072874494	3922
927	0.0011101214574898786	7206
957	0.0011097165991902835	7308
177	0.0011093117408906882	407
1007	0.0011076923076923078	7610
590	0.0011072874493927125	3917
327	0.0011036437246963564	2206
199	0.0011	706
171	0.0010979757085020244	401
380	0.001097165991902834	2609
522	0.001097165991902834	3306
982	0.0010967611336032388	7408
1135	0.001093927125506073	8474
760	0.0010935222672064776	5609
693	0.0010919028340080972	5101
347	0.0010910931174089068	2505
382	0.0010906882591093117	2611
1235	0.0010894736842105262	9007
918	0.001088663967611336	7114
891	0.001088259109311741	7006
931	0.001082591093117409	7210
1277	0.001082591093117409	9206
350	0.0010821862348178138	2508
828	0.0010813765182186234	6301
1290	0.0010809716599190283	9403
762	0.001080161943319838	5702
444	0.0010753036437246963	2836
875	0.0010753036437246963	6904
843	0.0010732793522267206	6406
1228	0.0010728744939271255	8908
917	0.0010720647773279353	7113
930	0.0010680161943319839	7209
237	0.0010647773279352226	1006
1095	0.0010639676113360324	8431
575	0.0010582995951417004	3902
827	0.001057085020242915	6217
557	0.0010566801619433198	3808
176	0.0010518218623481782	406
761	0.001051417004048583	5701
1300	0.0010506072874493927	9601
423	0.0010493927125506072	2815
806	0.001048582995951417	6113
1082	0.0010477732793522268	8418
928	0.0010461538461538462	7207
173	0.0010441295546558705	403
1254	0.0010425101214574899	9028
1286	0.0010388663967611335	9306
1215	0.0010384615384615384	8716
981	0.0010364372469635627	7407
1017	0.0010352226720647772	7901
840	0.0010336032388663968	6403
770	0.0010331983805668015	5805
285	0.0010327935222672064	1520
1016	0.0010311740890688258	7806
1219	0.0010307692307692307	8804
289	0.001025506072874494	1602
660	0.001025506072874494	4602
789	0.0010246963562753036	6002
1003	0.0010218623481781377	7606
393	0.0010210526315789473	2701
648	0.0010206477732793522	4415
360	0.0010186234817813765	2518
868	0.00101417004048583	6812
546	0.001011336032388664	3704
229	0.0010109311740890688	908
510	0.0010093117408906884	3208
1152	0.001008906882591093	8506
835	0.0010080971659919028	6308
1298	0.0010076923076923077	9507
634	0.0010060728744939271	4401
929	0.0010040485829959514	7208
270	0.001002834008097166	1504
378	0.001	2607
443	0.001	2835
257	0.000999595141700405	1209
673	0.0009967611336032388	4823
631	0.0009951417004048582	4302
701	0.000994331983805668	5109
1096	0.000994331983805668	8432
345	0.0009935222672064778	2503
977	0.0009935222672064778	7402
1291	0.0009870445344129554	9404
1179	0.0009842105263157895	8537
1018	0.000982995951417004	7903
1201	0.0009821862348178138	8702
858	0.0009809716599190282	6802
1014	0.0009805668016194331	7801
215	0.0009785425101214574	808
279	0.0009785425101214574	1513
512	0.0009781376518218623	3210
320	0.0009757085020242915	2105
426	0.0009753036437246963	2818
644	0.0009732793522267206	4411
1149	0.0009732793522267206	8503
454	0.0009728744939271255	2849
1221	0.0009704453441295546	8901
246	0.0009688259109311741	1107
155	0.0009659919028340081	202
521	0.0009623481781376518	3305
716	0.000959919028340081	5211
921	0.0009591093117408907	7118
1002	0.0009558704453441296	7605
596	0.0009534412955465587	3924
970	0.000951417004048583	7321
310	0.000948582995951417	2004
1281	0.0009465587044534413	9301
404	0.0009445344129554656	2712
1093	0.0009437246963562753	8429
1288	0.0009364372469635628	9401
523	0.0009340080971659919	3307
1241	0.0009336032388663968	9015
213	0.0009331983805668016	806
694	0.0009331983805668016	5102
747	0.0009331983805668016	5512
643	0.0009275303643724697	4410
849	0.0009271255060728745	6507
464	0.0009267206477732794	2909
659	0.0009263157894736842	4601
294	0.0009259109311740891	1702
974	0.0009210526315789473	7325
434	0.0009165991902834008	2826
386	0.0009145748987854251	2615
1062	0.0009133603238866397	8309
715	0.0009125506072874494	5210
1313	0.0009125506072874494	9614
609	0.000911336032388664	4011
1188	0.0009101214574898785	8546
221	0.0009080971659919028	814
680	0.0009080971659919028	4906
910	0.0009072874493927125	7106
520	0.0009060728744939271	3304
1321	0.000905668016194332	9704
159	0.0009048582995951417	206
301	0.0009044534412955466	1805
1203	0.0009040485829959514	8704
652	0.0009024291497975709	4419
744	0.0009004048582995952	5509
339	0.0009	2309
456	0.0008991902834008097	2901
879	0.0008991902834008097	6908
628	0.0008987854251012146	4205
1094	0.0008983805668016195	8430
411	0.0008979757085020243	2803
238	0.0008931174089068826	1007
1244	0.0008919028340080971	9018
697	0.0008910931174089068	5105
897	0.0008906882591093117	7013
1039	0.0008906882591093117	8201
876	0.0008894736842105263	6905
412	0.000888663967611336	2804
337	0.0008874493927125506	2307
1004	0.000882995951417004	7607
872	0.0008805668016194332	6901
273	0.0008793522267206478	1507
948	0.0008793522267206478	7228
790	0.0008781376518218623	6003
841	0.0008781376518218623	6404
298	0.0008761133603238866	1802
1196	0.0008728744939271255	8606
195	0.0008708502024291498	702
351	0.0008700404858299595	2509
769	0.0008696356275303644	5804
597	0.0008680161943319838	3925
913	0.0008676113360323887	7109
496	0.000862753036437247	2942
148	0.0008619433198380566	101
261	0.0008619433198380566	1213
381	0.0008619433198380566	2610
511	0.0008619433198380566	3209
247	0.0008578947368421052	1108
602	0.0008574898785425101	4004
400	0.0008530364372469635	2708
903	0.0008510121457489878	7019
288	0.0008465587044534413	1601
674	0.0008465587044534413	4824
254	0.000845748987854251	1206
1302	0.000845748987854251	9603
539	0.0008445344129554656	3603
446	0.0008433198380566802	2839
729	0.0008412955465587045	5402
537	0.0008380566801619434	3601
952	0.0008380566801619434	7303
152	0.0008368421052631579	105
688	0.0008364372469635628	5003
161	0.0008356275303643725	208
728	0.0008356275303643725	5401
232	0.0008352226720647774	1001
1177	0.0008352226720647774	8535
1074	0.0008336032388663967	8410
419	0.0008327935222672064	2811
519	0.0008319838056680161	3303
779	0.0008319838056680161	5903
377	0.0008303643724696356	2606
862	0.000828744939271255	6806
1208	0.0008263157894736842	8709
432	0.0008226720647773279	2824
1030	0.0008222672064777328	8105
505	0.0008194331983805668	3203
551	0.0008178137651821862	3802
983	0.0008174089068825911	7409
1301	0.0008161943319838057	9602
809	0.0008157894736842105	6116
909	0.0008157894736842105	7105
493	0.0008137651821862348	2939
774	0.0008133603238866397	5809
299	0.0008121457489878543	1803
528	0.0008121457489878543	3405
767	0.0008117408906882591	5802
865	0.000811336032388664	6809
300	0.0008080971659919029	1804
1216	0.0008080971659919029	8801
711	0.0008076923076923077	5206
743	0.000805668016194332	5508
919	0.0008044534412955465	7115
669	0.0008036437246963562	4802
625	0.0008016194331983805	4201
623	0.0008008097165991902	4114
685	0.0007995951417004048	4911
990	0.0007995951417004048	7419
1116	0.0007935222672064777	8452
550	0.0007927125506072874	3801
1129	0.0007927125506072874	8468
157	0.0007919028340080972	204
689	0.000791497975708502	5004
184	0.0007910931174089069	505
529	0.0007906882591093117	3406
954	0.0007906882591093117	7305
864	0.0007878542510121458	6808
1320	0.0007878542510121458	9703
733	0.0007846153846153846	5406
1211	0.0007825910931174089	8712
234	0.0007801619433198381	1003
882	0.0007777327935222672	6911
312	0.000776923076923077	2006
569	0.0007761133603238867	3820
1167	0.0007753036437246964	8523
368	0.000774493927125506	2526
738	0.0007736842105263157	5503
1056	0.0007724696356275303	8303
947	0.0007708502024291498	7227
624	0.0007704453441295546	4115
675	0.0007672064777327935	4901
1013	0.0007659919028340081	7616
734	0.0007651821862348178	5407
965	0.0007651821862348178	7316
987	0.0007647773279352227	7413
433	0.0007643724696356275	2825
1174	0.0007639676113360324	8532
989	0.0007615384615384615	7418
1141	0.0007607287449392713	8480
933	0.0007603238866396761	7212
1037	0.0007587044534412956	8112
431	0.0007566801619433199	2823
788	0.0007566801619433199	6001
976	0.0007566801619433199	7401
905	0.0007562753036437247	7101
1178	0.0007558704453441296	8536
699	0.0007554655870445344	5107
973	0.0007546558704453441	7324
1148	0.0007546558704453441	8502
1025	0.0007538461538461539	8007
525	0.0007534412955465587	3402
1175	0.0007534412955465587	8533
577	0.0007489878542510122	3904
601	0.0007477732793522268	4003
614	0.0007477732793522268	4016
792	0.0007473684210526316	6005
1156	0.0007469635627530365	8511
321	0.000745748987854251	2106
830	0.0007433198380566801	6303
638	0.0007425101214574898	4405
457	0.0007408906882591093	2902
1172	0.000740080971659919	8530
448	0.0007396761133603239	2841
354	0.0007392712550607287	2512
666	0.0007380566801619433	4706
355	0.0007376518218623482	2513
1308	0.0007376518218623482	9609
1005	0.0007368421052631579	7608
1299	0.0007368421052631579	9508
280	0.0007364372469635627	1514
869	0.0007356275303643725	6813
197	0.0007348178137651822	704
763	0.0007348178137651822	5703
1289	0.0007348178137651822	9402
823	0.0007340080971659919	6213
228	0.0007336032388663968	907
513	0.0007311740890688259	3211
568	0.0007295546558704453	3819
741	0.0007295546558704453	5506
686	0.0007275303643724696	5001
1260	0.0007275303643724696	9101
516	0.0007271255060728745	3214
839	0.0007267206477732794	6402
566	0.0007242914979757085	3817
253	0.0007238866396761134	1205
535	0.000722672064777328	3506
1064	0.000722672064777328	8311
1101	0.000722672064777328	8437
1046	0.0007210526315789474	8208
391	0.000719838056680162	2620
773	0.000719838056680162	5808
826	0.0007194331983805668	6216
926	0.0007194331983805668	7205
951	0.0007190283400809717	7302
227	0.0007182186234817814	906
154	0.000717408906882591	201
1200	0.0007141700404858299	8701
844	0.0007137651821862348	6501
1217	0.0007129554655870445	8802
385	0.0007113360323886639	2614
698	0.0007113360323886639	5106
702	0.0007113360323886639	5110
1043	0.0007109311740890688	8205
304	0.0007101214574898785	1903
953	0.0007101214574898785	7304
771	0.000708502024291498	5806
980	0.000708502024291498	7406
356	0.0007072874493927125	2514
757	0.0007052631578947368	5606
612	0.0007048582995951417	4014
810	0.0007036437246963563	6117
1068	0.0007036437246963563	8404
507	0.0007032388663967611	3205
1078	0.000702834008097166	8414
305	0.0007020242914979757	1904
409	0.0007012145748987854	2801
704	0.0007012145748987854	5112
964	0.0006979757085020243	7315
834	0.0006963562753036437	6307
1197	0.0006959514170040486	8607
975	0.0006951417004048583	7326
565	0.0006939271255060729	3816
687	0.0006935222672064778	5002
963	0.0006931174089068826	7314
857	0.0006910931174089069	6801
1023	0.0006898785425101215	8002
290	0.0006894736842105264	1603
1283	0.0006890688259109312	9303
889	0.0006870445344129554	7004
1147	0.0006850202429149797	8501
1226	0.0006842105263157894	8906
778	0.0006838056680161943	5902
469	0.0006813765182186235	2914
1162	0.0006813765182186235	8517
956	0.0006797570850202429	7307
1287	0.0006797570850202429	9307
1000	0.0006789473684210526	7603
366	0.0006777327935222672	2524
1306	0.000677327935222672	9607
893	0.0006761133603238866	7008
1143	0.0006748987854251012	8482
1247	0.0006748987854251012	9021
1098	0.0006732793522267206	8434
338	0.0006724696356275304	2308
600	0.0006712550607287449	4002
724	0.0006708502024291498	5308
620	0.0006700404858299595	4104
883	0.0006692307692307692	6912
772	0.0006688259109311741	5807
971	0.0006688259109311741	7322
684	0.0006668016194331984	4910
373	0.0006659919028340081	2602
608	0.000665587044534413	4010
676	0.0006647773279352227	4902
768	0.0006643724696356276	5803
753	0.0006635627530364373	5602
664	0.0006623481781376519	4704
884	0.0006619433198380567	6913
604	0.0006615384615384616	4006
1083	0.0006611336032388664	8419
846	0.0006607287449392713	6504
200	0.0006595141700404859	707
860	0.0006595141700404859	6804
398	0.0006591093117408907	2706
1063	0.0006591093117408907	8310
370	0.0006587044534412956	2529
1117	0.0006582995951417005	8453
180	0.0006570850202429149	410
1040	0.0006562753036437247	8202
1139	0.0006562753036437247	8478
1092	0.0006546558704453441	8428
1233	0.0006546558704453441	9005
1136	0.0006534412955465587	8475
416	0.0006530364372469635	2808
754	0.0006522267206477732	5603
735	0.0006518218623481781	5408
787	0.0006518218623481781	5911
1309	0.0006518218623481781	9610
1076	0.0006510121457489878	8412
885	0.0006506072874493927	6914
1008	0.0006506072874493927	7611
274	0.0006497975708502024	1508
784	0.0006497975708502024	5908
1259	0.0006497975708502024	9033
344	0.0006489878542510121	2502
825	0.000648582995951417	6215
1090	0.0006481781376518218	8426
252	0.0006461538461538461	1204
576	0.0006461538461538461	3903
1151	0.0006461538461538461	8505
410	0.0006453441295546559	2802
503	0.0006441295546558704	3201
1022	0.0006441295546558704	8001
1171	0.0006441295546558704	8529
630	0.000642914979757085	4301
500	0.0006421052631578947	3103
1150	0.0006421052631578947	8504
1303	0.0006421052631578947	9604
671	0.0006417004048582996	4810
667	0.0006412955465587045	4707
1184	0.0006412955465587045	8542
453	0.0006404858299595142	2847
633	0.0006404858299595142	4304
1033	0.0006404858299595142	8108
353	0.000640080971659919	2511
573	0.000640080971659919	3825
663	0.0006384615384615385	4703
1311	0.0006360323886639676	9612
615	0.0006352226720647774	4017
542	0.0006348178137651822	3606
992	0.0006344129554655871	7502
1106	0.0006340080971659919	8442
533	0.0006336032388663968	3503
1118	0.0006336032388663968	8454
408	0.0006319838056680162	2716
627	0.0006303643724696357	4203
1169	0.0006303643724696357	8526
1236	0.0006295546558704454	9008
504	0.0006291497975708503	3202
1024	0.0006291497975708503	8003
325	0.000628744939271255	2204
725	0.00062834008097166	5309
824	0.0006271255060728744	6214
497	0.000625910931174089	3006
606	0.0006242914979757085	4008
1089	0.0006210526315789473	8425
745	0.0006198380566801619	5510
1138	0.0006198380566801619	8477
848	0.0006194331983805668	6506
174	0.0006190283400809716	404
588	0.0006182186234817814	3915
1192	0.0006182186234817814	8602
1133	0.0006178137651821862	8472
471	0.0006174089068825911	2916
458	0.0006170040485829959	2903
559	0.0006170040485829959	3810
1140	0.0006165991902834008	8479
1183	0.0006165991902834008	8541
607	0.0006161943319838057	4009
727	0.0006157894736842105	5311
1021	0.00061417004048583	7907
352	0.0006133603238866397	2510
1198	0.0006129554655870445	8608
435	0.0006121457489878543	2827
950	0.000611336032388664	7301
961	0.0006101214574898786	7312
1050	0.0006089068825910931	8212
450	0.000608502024291498	2844
1209	0.0006072874493927126	8710
555	0.0006064777327935223	3806
1182	0.0006064777327935223	8540
1055	0.0006040485829959515	8302
1079	0.0006032388663967612	8415
163	0.0006024291497975709	210
486	0.0006024291497975709	2932
593	0.0006024291497975709	3920
413	0.0006012145748987855	2805
985	0.0006012145748987855	7411
1070	0.0006012145748987855	8406
158	0.0006008097165991903	205
899	0.0005995951417004048	7015
1066	0.0005995951417004048	8402
271	0.0005991902834008098	1505
746	0.0005987854251012145	5511
1194	0.0005987854251012145	8604
571	0.000597165991902834	3823
1085	0.0005967611336032388	8421
425	0.0005959514170040485	2817
1111	0.0005955465587044534	8447
1142	0.0005947368421052631	8481
472	0.0005939271255060728	2917
696	0.0005939271255060728	5104
944	0.0005939271255060728	7224
1115	0.0005939271255060728	8451
506	0.0005935222672064777	3204
1058	0.0005935222672064777	8305
394	0.000591497975708502	2702
1122	0.0005906882591093117	8459
326	0.0005902834008097166	2205
1119	0.0005898785425101214	8455
558	0.0005890688259109312	3809
150	0.0005874493927125506	103
582	0.0005870445344129555	3909
793	0.0005850202429149798	6006
1161	0.0005825910931174089	8516
722	0.0005821862348178138	5306
249	0.0005817813765182186	1201
896	0.0005813765182186235	7011
782	0.0005805668016194332	5906
1146	0.0005793522267206478	8487
275	0.0005789473684210527	1509
536	0.0005789473684210527	3507
920	0.0005789473684210527	7117
376	0.0005781376518218624	2605
481	0.0005781376518218624	2926
786	0.0005781376518218624	5910
979	0.0005777327935222672	7405
900	0.0005773279352226721	7016
679	0.0005765182186234818	4905
1010	0.0005765182186234818	7613
791	0.0005757085020242915	6004
940	0.0005757085020242915	7220
586	0.0005753036437246964	3913
501	0.0005748987854251012	3104
1255	0.0005748987854251012	9029
567	0.0005736842105263158	3818
1213	0.0005732793522267207	8714
904	0.0005728744939271255	7020
908	0.0005720647773279353	7104
856	0.000571255060728745	6704
892	0.0005708502024291497	7007
1059	0.000568825910931174	8306
730	0.0005676113360323886	5403
531	0.0005672064777327935	3501
672	0.0005672064777327935	4811
1165	0.0005668016194331983	8521
726	0.0005659919028340081	5310
1060	0.0005659919028340081	8307
1145	0.0005655870445344129	8486
284	0.0005647773279352226	1518
924	0.0005643724696356275	7203
1304	0.0005643724696356275	9605
361	0.0005639676113360324	2519
427	0.0005635627530364372	2819
632	0.0005635627530364372	4303
1026	0.0005631578947368421	8101
603	0.0005627530364372469	4005
1245	0.0005623481781376518	9019
268	0.0005607287449392712	1502
483	0.0005607287449392712	2928
437	0.0005603238866396761	2829
781	0.0005603238866396761	5905
190	0.000559919028340081	601
915	0.0005595141700404858	7111
847	0.0005587044534412955	6505
1202	0.0005587044534412955	8703
621	0.0005578947368421053	4105
1252	0.0005558704453441296	9026
440	0.0005538461538461539	2832
1054	0.0005538461538461539	8301
1114	0.0005538461538461539	8450
1242	0.0005530364372469636	9016
1075	0.0005526315789473684	8411
495	0.0005522267206477733	2941
775	0.0005522267206477733	5810
1006	0.000551417004048583	7609
1155	0.0005510121457489879	8509
1249	0.0005510121457489879	9023
1015	0.0005506072874493927	7804
1048	0.0005506072874493927	8210
1265	0.0005506072874493927	9106
552	0.0005502024291497976	3803
629	0.0005497975708502024	4206
578	0.0005493927125506073	3905
932	0.0005489878542510122	7211
258	0.0005477732793522267	1210
1164	0.0005469635627530365	8519
1180	0.0005453441295546559	8538
226	0.0005449392712550608	905
1091	0.0005445344129554656	8427
417	0.0005441295546558705	2809
1163	0.0005441295546558705	8518
972	0.0005437246963562753	7323
346	0.0005425101214574899	2504
1160	0.0005425101214574899	8515
647	0.0005421052631578948	4414
1315	0.0005417004048582995	9616
514	0.0005412955465587045	3212
861	0.0005412955465587045	6805
1084	0.0005408906882591094	8420
873	0.000540080971659919	6902
984	0.000540080971659919	7410
949	0.0005396761133603238	7229
1207	0.0005388663967611336	8708
1132	0.0005384615384615384	8471
1038	0.0005380566801619433	8113
455	0.0005376518218623481	2852
751	0.0005376518218623481	5516
395	0.000537246963562753	2703
589	0.000537246963562753	3916
553	0.0005368421052631579	3804
1189	0.0005368421052631579	8547
397	0.0005364372469635627	2705
591	0.0005364372469635627	3918
460	0.0005356275303643724	2905
473	0.0005356275303643724	2918
719	0.0005356275303643724	5302
1100	0.0005356275303643724	8436
1097	0.0005319838056680162	8433
1279	0.000531578947368421	9208
888	0.0005307692307692308	7003
1045	0.0005299595141700405	8207
1205	0.0005299595141700405	8706
736	0.0005295546558704453	5501
1130	0.0005287449392712551	8469
1081	0.0005271255060728745	8417
1041	0.0005267206477732794	8203
1137	0.0005242914979757085	8476
776	0.0005226720647773279	5811
1107	0.0005222672064777328	8443
1263	0.0005218623481781377	9104
462	0.0005214574898785425	2907
389	0.0005210526315789474	2618
1190	0.0005202429149797571	8548
478	0.000519838056680162	2923
777	0.000519838056680162	5901
1125	0.000519838056680162	8462
887	0.0005182186234817814	7002
262	0.0005178137651821863	1214
1099	0.0005174089068825911	8435
1028	0.0005165991902834008	8103
1212	0.0005153846153846154	8713
1276	0.0005149797570850203	9205
156	0.0005145748987854251	203
396	0.00051417004048583	2704
878	0.00051417004048583	6907
1170	0.0005133603238866397	8527
1229	0.0005133603238866397	9001
1061	0.0005129554655870446	8308
267	0.0005125506072874493	1501
1176	0.0005125506072874493	8534
1032	0.0005117408906882592	8107
703	0.000511336032388664	5111
224	0.0005109311740890688	903
945	0.0005105263157894736	7225
764	0.0005101214574898785	5704
384	0.0005097165991902834	2613
475	0.0005097165991902834	2920
333	0.0005093117408906882	2303
1305	0.0005093117408906882	9606
492	0.0005089068825910931	2938
461	0.0005072874493927125	2906
526	0.0005072874493927125	3403
756	0.0005064777327935222	5605
1102	0.0005064777327935222	8438
491	0.0005060728744939271	2937
198	0.000505668016194332	705
1153	0.0005048582995951417	8507
939	0.0005044534412955465	7219
508	0.0005036437246963563	3206
1292	0.0005032388663967611	9405
1256	0.0005024291497975708	9030
1019	0.0005020242914979757	7904
1157	0.0005020242914979757	8512
235	0.0005016194331983806	1004
785	0.0005016194331983806	5909
1071	0.0005012145748987854	8407
1240	0.0005012145748987854	9014
1285	0.0005008097165991903	9305
477	0.0004991902834008097	2922
518	0.0004991902834008097	3302
367	0.0004987854251012146	2525
418	0.0004987854251012146	2810
532	0.0004987854251012146	3502
517	0.0004983805668016194	3215
570	0.0004979757085020243	3821
466	0.0004975708502024291	2911
1206	0.000497165991902834	8707
969	0.0004963562753036437	7320
479	0.0004959514170040486	2924
1181	0.0004959514170040486	8539
1185	0.0004959514170040486	8543
1080	0.0004947368421052632	8416
986	0.000494331983805668	7412
556	0.0004939271255060729	3807
1124	0.0004939271255060729	8461
449	0.0004931174089068826	2843
657	0.0004919028340080972	4503
488	0.000491497975708502	2934
1134	0.000491497975708502	8473
870	0.0004902834008097166	6814
1067	0.0004902834008097166	8403
1131	0.0004902834008097166	8470
160	0.0004894736842105263	207
1088	0.0004894736842105263	8424
942	0.0004886639676113361	7222
1173	0.0004886639676113361	8531
272	0.00048825910931174087	1506
852	0.00048825910931174087	6603
943	0.00048785425101214577	7223
470	0.0004874493927125506	2915
534	0.0004866396761133603	3505
946	0.0004866396761133603	7226
585	0.00048623481781376516	3912
677	0.0004854251012145749	4903
1168	0.0004854251012145749	8525
780	0.00048502024291497976	5904
1069	0.0004846153846153846	8405
683	0.00048421052631578945	4909
1238	0.00048421052631578945	9011
1307	0.00048421052631578945	9608
1246	0.00048380566801619436	9020
871	0.0004834008097165992	6815
1159	0.00048299595141700405	8514
1127	0.0004813765182186235	8465
1250	0.0004813765182186235	9024
1284	0.0004805668016194332	9304
1052	0.00048016194331983804	8214
1187	0.00047894736842105264	8545
988	0.0004785425101214575	7415
1271	0.0004785425101214575	9112
178	0.00047813765182186233	408
564	0.0004753036437246964	3815
720	0.00047449392712550607	5303
901	0.00047449392712550607	7017
572	0.00047368421052631577	3824
993	0.00047327935222672067	7504
1087	0.00047246963562753037	8423
369	0.0004720647773279352	2528
489	0.00047125506072874496	2935
605	0.0004708502024291498	4007
1126	0.00047044534412955466	8463
421	0.00046923076923076926	2813
233	0.0004688259109311741	1002
662	0.00046842105263157895	4702
731	0.00046761133603238865	5404
467	0.0004672064777327935	2912
1230	0.00046639676113360325	9002
1294	0.00046639676113360325	9503
580	0.0004651821862348178	3907
622	0.0004651821862348178	4106
845	0.0004647773279352227	6502
162	0.00046437246963562754	209
1166	0.000462753036437247	8522
445	0.00046153846153846153	2837
997	0.00045870445344129557	7508
1072	0.00045789473684210527	8408
428	0.00045668016194331986	2820
995	0.00045587044534412956	7506
1191	0.00045587044534412956	8601
877	0.0004554655870445344	6906
1280	0.00045384615384615385	9209
527	0.00045303643724696355	3404
494	0.0004526315789473684	2940
1210	0.00045182186234817815	8711
1027	0.000451417004048583	8102
335	0.0004506072874493927	2305
1262	0.0004502024291497976	9103
1269	0.0004493927125506073	9110
476	0.000448582995951417	2921
1323	0.000448582995951417	970
451	0.00044777327935222673	2845
1123	0.0004473684210526316	8460
1103	0.00044696356275303643	8439
581	0.0004453441295546559	3908
1314	0.0004453441295546559	9615
1029	0.00044412955465587047	8104
1220	0.000442914979757085	8805
894	0.00044129554655870446	7009
700	0.000440080971659919	5108
1296	0.000440080971659919	9505
485	0.00043927125506072875	2930
562	0.00043927125506072875	3813
465	0.0004388663967611336	2910
968	0.0004388663967611336	7319
1270	0.0004380566801619433	9111
1243	0.00043724696356275305	9017
1258	0.00043724696356275305	9032
922	0.0004368421052631579	7201
1251	0.0004368421052631579	9025
442	0.00043643724696356274	2834
1316	0.0004360323886639676	9617
737	0.0004348178137651822	5502
429	0.0004340080971659919	2821
438	0.0004327935222672065	2830
561	0.0004327935222672065	3812
626	0.00043238866396761133	4202
941	0.0004315789473684211	7221
1218	0.0004315789473684211	8803
783	0.0004311740890688259	5907
1036	0.0004311740890688259	8111
1073	0.0004311740890688259	8409
1234	0.0004311740890688259	9006
1317	0.0004307692307692308	9618
855	0.00042995951417004047	6703
649	0.00042955465587044537	4416
665	0.00042793522267206476	4705
1077	0.00042591093117408906	8413
911	0.0004251012145748988	7107
890	0.00042469635627530365	7005
1158	0.00042469635627530365	8513
718	0.00042267206477732795	5301
850	0.0004222672064777328	6601
1275	0.0004210526315789474	9202
691	0.00041781376518218623	5006
1154	0.0004157894736842105	8508
967	0.00041538461538461537	7318
584	0.00041417004048582997	3911
1261	0.0004117408906882591	9102
1112	0.00041012145748987855	8448
309	0.000408502024291498	2003
251	0.0004064777327935223	1203
598	0.0004064777327935223	3926
1128	0.0004064777327935223	8467
1253	0.000405668016194332	9027
515	0.00040526315789473684	3213
1312	0.00040526315789473684	9613
1282	0.0004048582995951417	9302
1042	0.000402834008097166	8204
1248	0.0004	9022
1214	0.00039878542510121456	8715
1120	0.0003979757085020243	8457
420	0.00039757085020242916	2812
1297	0.00039757085020242916	9506
723	0.00039676113360323886	5307
181	0.0003959514170040486	501
330	0.00039473684210526315	2209
996	0.00039473684210526315	7507
548	0.0003931174089068826	3706
1113	0.0003902834008097166	8449
583	0.0003874493927125506	3910
613	0.0003874493927125506	4015
375	0.0003870445344129555	2604
334	0.0003866396761133603	2304
463	0.00038623481781376517	2908
487	0.00038623481781376517	2933
424	0.00038421052631578946	2816
1144	0.00038421052631578946	8483
654	0.0003834008097165992	4421
1257	0.0003825910931174089	9031
1272	0.0003817813765182186	9113
1266	0.0003813765182186235	9107
430	0.00038097165991902835	2822
1268	0.00038016194331983805	9109
490	0.0003793522267206478	2936
1237	0.00037692307692307694	9010
902	0.0003765182186234818	7018
592	0.00037530364372469633	3919
1121	0.0003736842105263158	8458
766	0.0003728744939271255	5801
670	0.0003720647773279352	4807
874	0.0003720647773279352	6903
682	0.00037165991902834007	4908
690	0.00036963562753036436	5005
1020	0.00036963562753036436	7905
1231	0.00036963562753036436	9003
1105	0.0003688259109311741	8441
1108	0.00036761133603238866	8444
509	0.0003672064777327935	3207
1049	0.0003672064777327935	8211
661	0.0003668016194331984	4701
244	0.00036477732793522265	1105
474	0.00036477732793522265	2919
914	0.0003631578947368421	7110
938	0.0003631578947368421	7218
182	0.00036072874493927123	502
579	0.000359919028340081	3906
276	0.0003587044534412955	1510
851	0.0003582995951417004	6602
452	0.00035708502024291497	2846
1273	0.00035303643724696356	9114
739	0.0003522267206477733	5504
349	0.00035182186234817815	2507
1053	0.0003493927125506073	8215
447	0.00034777327935222674	2840
484	0.0003473684210526316	2929
439	0.00034696356275303644	2831
560	0.0003437246963562753	3811
269	0.0003421052631578947	1503
383	0.0003421052631578947	2612
547	0.00034129554655870447	3705
880	0.00033927125506072876	6909
678	0.00033724696356275305	4904
1104	0.0003368421052631579	8440
991	0.0003348178137651822	7501
994	0.00033441295546558704	7505
1267	0.00033441295546558704	9108
1031	0.0003307692307692308	8106
1086	0.0003295546558704453	8422
1318	0.0003295546558704453	9701
859	0.00032307692307692305	6803
482	0.00032267206477732795	2927
1193	0.00032186234817813765	8603
732	0.0003194331983805668	5405
248	0.0003182186234817814	1109
480	0.0003182186234817814	2925
1047	0.00031781376518218624	8209
1278	0.0003174089068825911	9207
543	0.00031214574898785427	3701
1295	0.0003068825910931174	9504
898	0.00030647773279352225	7014
540	0.0003048582995951417	3604
853	0.0003008097165991903	6701
1195	0.0003	8605
1035	0.0002983805668016194	8110
1110	0.00029757085020242917	8446
1051	0.0002963562753036437	8213
1044	0.00029595141700404856	8206
545	0.00029473684210526316	3703
530	0.0002923076923076923	3407
1239	0.0002923076923076923	9013
587	0.00029190283400809715	3914
549	0.00028947368421052634	3707
705	0.0002850202429149798	5113
1319	0.0002846153846153846	9702
692	0.0002838056680161943	5007
1065	0.0002797570850202429	8401
1274	0.0002672064777327935	9201
658	0.0002659919028340081	4504
656	0.0002554655870445344	4502
742	0.00025303643724696357	5507
1264	0.00025303643724696357	9105
544	0.00025182186234817816	3702
1310	0.000251417004048583	9611
854	0.00024129554655870445	6702
655	0.00023562753036437248	4501
1109	0.00023441295546558705	8445
468	0.00022834008097165993	2913
1232	0.00021700404858299594	9004
1034	0.00018744939271255062	8109
