67	0.019618364236728473	Italy
50	0.018681737363474726	Germany
46	0.018237236474472947	France
123	0.01767208534417069	Spain
141	0.017624460248920497	USA
30	0.01759271018542037	China
61	0.017056134112268223	India
13	0.01696723393446787	Belgium
94	0.015424180848361696	Netherlands
8	0.015401955803911608	Austria
107	0.015338455676911354	Poland
139	0.014820929641859285	UnitedKingdom
36	0.014627254254508509	CzechRepublic
134	0.013957327914655829	Turkey
108	0.013068326136652273	Portugal
52	0.012776225552451104	Greece
21	0.011906273812547625	Bulgaria
127	0.011722123444246888	Switzerland
69	0.011674498348996698	Japan
131	0.011655448310896621	Thailand
62	0.011506223012446025	Indonesia
115	0.011398272796545593	Serbia
119	0.011379222758445516	Slovenia
38	0.011280797561595123	Denmark
126	0.010775971551943105	Sweden
19	0.010756921513843028	Brazil
34	0.010617221234442469	Croatia
110	0.010601346202692406	Romania
26	0.010550546101092202	Canada
43	0.010506096012192025	Estonia
77	0.010420370840741681	Lebanon
66	0.01016002032004064	Israel
80	0.010026670053340106	Lithuania
121	0.009998094996189992	SouthAfrica
118	0.009979044958089916	Slovakia
137	0.009909194818389637	Ukraine
40	0.00980759461518923	Egypt
72	0.009639319278638557	Kenya
76	0.00957264414528829	Latvia
122	0.009350393700787402	SouthKorea
144	0.00919481838963678	Vietnam
102	0.009188468376936754	Pakistan
59	0.009131318262636525	Hungary
54	0.008975742951485902	Guatemala
45	0.00886779273558547	Finland
88	0.008823342646685293	Mexico
95	0.008816992633985268	NewZealand
133	0.008575692151384302	Tunisia
35	0.008299466598933198	Cyprus
18	0.008051816103632207	BosniaHerzegovina
12	0.008026416052832107	Belarus
7	0.007845440690881382	Australia
91	0.007791465582931166	Morocco
105	0.0076644653289306575	Peru
140	0.007604140208280417	Uruguay
81	0.00758509017018034	Macedonia
93	0.007578740157480315	Nepal
103	0.007524765049530099	Panama
31	0.007445389890779782	Colombia
70	0.007391414782829566	Jordan
41	0.007362839725679452	ElSalvador
1	0.007146939293878588	Albania
106	0.007026289052578105	Philippines
130	0.00698501397002794	Tanzania
84	0.006946913893827788	Malaysia
116	0.006711963423926848	SierraLeone
111	0.006575438150876301	Russia
117	0.006575438150876301	Singapore
114	0.006565913131826264	Senegal
82	0.006483362966725933	Madagascar
74	0.006391287782575565	Kyrgyzstan
29	0.00623253746507493	Chile
58	0.006070612141224283	Honduras
147	0.005937261874523749	Zimbabwe
132	0.005813436626873254	Togo
100	0.005702311404622809	Norway
138	0.005572136144272289	UnitedArabEmirates
33	0.005381635763271527	CostaRica
142	0.005019685039370079	Uzbekistan
63	0.005000635001270002	Iran
11	0.004953009906019812	Bangladesh
136	0.004867284734569469	Uganda
17	0.004841884683769368	Bolivia
75	0.004822834645669291	Laos
65	0.0047656845313690625	Ireland
96	0.004559309118618237	Nicaragua
51	0.004508509017018034	Ghana
49	0.004486283972567945	Georgia
68	0.00441008382016764	IvoryCoast
48	0.00439738379476759	Gambia
0	0.004238633477266955	Afghanistan
71	0.004210058420116841	Kazakhstan
104	0.00419735839471679	Paraguay
44	0.004070358140716281	Ethiopia
39	0.0040513081026162055	Ecuador
89	0.004038608077216154	Mongolia
6	0.003987807975615951	Armenia
42	0.003987807975615951	Eritrea
16	0.0038512827025654053	Bhutan
86	0.0038258826517653037	Malta
10	0.003800482600965202	Bahrain
60	0.003736982473964948	Iceland
146	0.003714757429514859	Zambia
24	0.0036861823723647446	Cambodia
22	0.0036068072136144274	BurkinaFaso
97	0.0034861569723139444	Niger
92	0.0034671069342138683	Mozambique
83	0.0034226568453136906	Malawi
129	0.003416306832613665	Tajikistan
25	0.0033813817627635257	Cameroon
9	0.003359156718313437	Azerbaijan
101	0.003289306578613157	Oman
112	0.0032861315722631447	Rwanda
57	0.003248031496062992	Guyana
14	0.0031686563373126745	Belize
15	0.0031242062484124968	Benin
143	0.0030956311912623824	Venezuela
85	0.003003556007112014	Mali
125	0.002838455676911354	Suriname
145	0.002781305562611125	Yemen
113	0.0026955803911607825	SaudiArabia
55	0.0026733553467106932	Guinea
37	0.0026416052832105665	DemocraticRepublicCongo
23	0.0025114300228600457	Burundi
124	0.0024606299212598425	Sudan
32	0.0024257048514097026	Congo
27	0.0023749047498095	CentralAfricanRepublic
135	0.002320929641859284	Turkmenistan
98	0.0021082042164084326	Nigeria
73	0.002073279146558293	Kuwait
109	0.0020478790957581916	Qatar
87	0.0019748539497078995	Mauritania
56	0.0019272288544577088	Guinea-Bissau
2	0.0019081788163576327	Algeria
47	0.0017811785623571246	Gabon
79	0.0016478282956565913	Libya
78	0.0016287782575565152	Liberia
20	0.0016129032258064516	Brunei
28	0.0013271526543053086	Chad
64	0.0012573025146050292	Iraq
4	0.0011207772415544831	Angola
