67	0.0197848910190574	Italy
50	0.018355585986534292	Germany
141	0.01806458975236791	USA
46	0.017750770284149266	France
30	0.01774791737989273	China
61	0.01762809540111834	India
123	0.017254364943512495	Spain
13	0.01649834531553121	Belgium
94	0.01573661987903686	Netherlands
8	0.01528300810224809	Austria
107	0.015040511240442771	Poland
139	0.014432842633801209	UnitedKingdom
36	0.01411617026132603	CzechRepublic
134	0.013847997261211914	Turkey
108	0.013545589410019399	Portugal
52	0.012792422686294647	Greece
21	0.012067785005135228	Bulgaria
131	0.0119707862604131	Thailand
115	0.011714024877325117	Serbia
127	0.011659819696450987	Switzerland
69	0.01162558484537259	Japan
38	0.0114629693027502	Denmark
62	0.011394499600593404	Indonesia
119	0.011380235079310737	Slovenia
77	0.010818212940773708	Lebanon
34	0.010792536802464909	Croatia
19	0.010704096770512381	Brazil
43	0.01056715736619879	Estonia
26	0.010527216706607325	Canada
126	0.010461599908707063	Sweden
66	0.010293278557571608	Israel
110	0.010261896610749744	Romania
118	0.009982311993609494	Slovakia
121	0.009939518429761497	SouthAfrica
80	0.009916695195709231	Lithuania
40	0.00975978546159991	Egypt
72	0.009628551865799384	Kenya
76	0.009505876982768459	Latvia
137	0.00948020084445966	Ukraine
144	0.00927193883373274	Vietnam
59	0.009251968503937008	Hungary
122	0.009086500057058085	SouthKorea
88	0.008935296131461828	Mexico
95	0.008912472897409563	NewZealand
54	0.008898208376126896	Guatemala
102	0.008892502567613831	Pakistan
133	0.008878238046331165	Tunisia
45	0.008852561908022367	Finland
35	0.00838468560995093	Cyprus
7	0.008179276503480543	Australia
93	0.00792251512039256	Nepal
81	0.00787686865228803	Macedonia
140	0.007788428620335502	Uruguay
18	0.007779869907565902	BosniaHerzegovina
103	0.007777017003309369	Panama
12	0.007739929247974438	Belarus
31	0.00755163756704325	Colombia
105	0.007531667237247518	Peru
70	0.007431815588268858	Jordan
91	0.007411845258473126	Morocco
1	0.007232112290311538	Albania
41	0.007166495492411275	ElSalvador
106	0.0070238502795846175	Philippines
84	0.00692685153486249	Malaysia
114	0.00671858952413557	Senegal
74	0.006687207577313705	Kyrgyzstan
130	0.006613032066643844	Tanzania
116	0.006601620449617711	SierraLeone
117	0.006581650119821978	Singapore
29	0.006376241013351592	Chile
82	0.006259271938833732	Madagascar
111	0.006113773821750542	Russia
132	0.00593118794933242	Togo
100	0.005862718247175625	Norway
147	0.005808513066301495	Zimbabwe
33	0.0058056601620449615	CostaRica
58	0.005751454981170832	Honduras
138	0.005663014949218304	UnitedArabEmirates
136	0.005135227661759671	Uganda
63	0.004958347597854616	Iran
11	0.004929818555289285	Bangladesh
142	0.004884172087184754	Uzbekistan
17	0.00485279014036289	Bolivia
51	0.004633116512609837	Ghana
49	0.004578911331735707	Georgia
65	0.004576058427479174	Ireland
71	0.004553235193426908	Kazakhstan
48	0.00453611776788771	Gambia
96	0.004521853246605044	Nicaragua
68	0.004493324204039712	IvoryCoast
104	0.004456236448704781	Paraguay
75	0.004441971927422116	Laos
0	0.004230857012438662	Afghanistan
6	0.004222298299669063	Armenia
44	0.003959831108068013	Ethiopia
89	0.0039227433527330826	Mongolia
16	0.003882802693141618	Bhutan
10	0.003865685267602419	Bahrain
39	0.0038428620335501542	Ecuador
86	0.0038314504165240216	Malta
24	0.0038114800867282894	Cambodia
22	0.0037230400547757616	BurkinaFaso
42	0.0036973639164669635	Eritrea
92	0.003671687778158165	Mozambique
146	0.0036517174483624328	Zambia
97	0.0034719844802008444	Niger
129	0.0034577199589181785	Tajikistan
60	0.0034463083418920463	Iceland
83	0.0033863973525048497	Malawi
112	0.0033749857354787175	Rwanda
101	0.0033578683099395185	Oman
25	0.0033378979801437863	Cameroon
9	0.003309368937578455	Azerbaijan
57	0.0032808398950131233	Guyana
143	0.003258016660960858	Venezuela
15	0.003141047586442999	Benin
85	0.003101106926851535	Mali
14	0.003009813990642474	Belize
145	0.002909962341663814	Yemen
125	0.0028728745863288827	Suriname
37	0.0027359351820152914	DemocraticRepublicCongo
113	0.002630377724523565	SaudiArabia
23	0.002573319639392902	Burundi
55	0.002556202213853703	Guinea
124	0.0024934383202099737	Sudan
32	0.002479173798927308	Congo
27	0.0023165582563049185	CentralAfricanRepublic
135	0.002219559511582791	Turkmenistan
109	0.00213682528814333	Qatar
73	0.0020341207349081365	Kuwait
98	0.0019970329795732057	Nigeria
56	0.001948533607212142	Guinea-Bissau
87	0.0018486819582334817	Mauritania
78	0.0017688006390505534	Liberia
47	0.0017516832135113546	Gabon
79	0.001740271596485222	Libya
20	0.0017231541709460231	Brunei
2	0.0016404199475065617	Algeria
28	0.0013865114686751113	Chad
64	0.0013408650005705808	Iraq
4	0.0012267488303092549	Angola
