67	0.019702752794396677	Italy
50	0.018208152286364576	Germany
141	0.01786476836993894	USA
30	0.01771728938019203	China
46	0.017633644580037067	France
123	0.017281455947805644	Spain
61	0.017085551021126917	India
13	0.016524250388508084	Belgium
94	0.015938736787423344	Netherlands
8	0.015265176028280748	Austria
36	0.015071472280553465	CzechRepublic
107	0.015034052238378877	Poland
139	0.014728088364127827	UnitedKingdom
134	0.013521842298735202	Turkey
108	0.013290718508833331	Portugal
52	0.012777843813146322	Greece
127	0.011859952190393175	Switzerland
69	0.011846745116684496	Japan
131	0.011818129790315693	Thailand
21	0.011745490884917963	Bulgaria
38	0.011604615432025393	Denmark
62	0.011399905789540877	Indonesia
119	0.011311858631483023	Slovenia
115	0.01111815488375574	Serbia
43	0.010893634630708207	Estonia
34	0.01079458157789312	Croatia
77	0.01076376507257287	Lebanon
26	0.010556854251136909	Canada
110	0.010541445998476784	Romania
126	0.010532641282670998	Sweden
19	0.010486416524690624	Brazil
66	0.01025089037688586	Israel
118	0.010099009029236059	Slovakia
80	0.009883293491994313	Lithuania
40	0.009852476986674063	Egypt
121	0.009839269912965385	SouthAfrica
72	0.009797447512887903	Kenya
137	0.009546513112423013	Ukraine
122	0.009544311933471567	SouthKorea
59	0.009484880101782514	Hungary
76	0.0094320518069478	Latvia
144	0.00936601643840441	Vietnam
133	0.00898081012190129	Tunisia
102	0.008850940563765954	Pakistan
95	0.008793709911028347	NewZealand
88	0.008789307553125455	Mexico
45	0.008736479258290741	Finland
54	0.008580195552738047	Guatemala
35	0.008373284731302085	Cyprus
18	0.008219202204700838	BosniaHerzegovina
7	0.008025498456973555	Australia
140	0.007856007677712183	Uruguay
93	0.007783368772314452	Nepal
12	0.007763558161751434	Belarus
103	0.007706327509013827	Panama
81	0.00763809096151899	Macedonia
91	0.007530233192898117	Morocco
41	0.00741797306637435	ElSalvador
31	0.007371748308393976	Colombia
1	0.007358541234685298	Albania
70	0.007226470497598514	Jordan
106	0.007147228055346444	Philippines
105	0.007123015086880533	Peru
84	0.007103204476317516	Malaysia
116	0.006907299549638786	SierraLeone
74	0.006658566328125344	Kyrgyzstan
114	0.006634353359659433	Senegal
130	0.006493477906766864	Tanzania
111	0.006403229569757562	Russia
117	0.006390022496048884	Singapore
82	0.006341596559117063	Madagascar
29	0.0062689576537193325	Chile
132	0.00595859142156539	Togo
100	0.005852934831895963	Norway
58	0.005844130116090178	Honduras
147	0.005811112431818482	Zimbabwe
33	0.00580010653706125	CostaRica
138	0.005520556810227558	UnitedArabEmirates
63	0.005036297440909351	Iran
136	0.00499447504083187	Uganda
11	0.004780960682541569	Bangladesh
96	0.004776558324638676	Nicaragua
142	0.004717126492949624	Uzbekistan
17	0.004697315882386606	Bolivia
51	0.004664298198114911	Ghana
48	0.004602665187474412	Gambia
49	0.004598262829571519	Georgia
65	0.004510215671513663	Ireland
75	0.004486002703047752	Laos
104	0.004446381481921717	Paraguay
68	0.004362736681766754	IvoryCoast
71	0.004250476555242988	Kazakhstan
0	0.004166831755088025	Afghanistan
89	0.004149222323476454	Mongolia
44	0.004080985775981615	Ethiopia
6	0.004050169270661366	Armenia
39	0.004025956302195456	Ecuador
42	0.003970926828409296	Eritrea
92	0.003865270238739869	Mozambique
10	0.0038630690597884227	Bahrain
16	0.0038630690597884227	Bhutan
24	0.0038608678808369763	Cambodia
86	0.003854264343982637	Malta
22	0.003730998322701639	BurkinaFaso
146	0.0036517558804495687	Zambia
60	0.0035328922170714634	Iceland
97	0.0034778627432853035	Niger
83	0.0034712592064309643	Malawi
101	0.0034008214799846797	Oman
9	0.003286360174509467	Azerbaijan
85	0.003207117732257397	Mali
15	0.0032049165533059505	Benin
25	0.003196111837500165	Cameroon
129	0.0031895083006458257	Tajikistan
112	0.0031829047637914865	Rwanda
57	0.003149887079519791	Guyana
143	0.0030860528899278455	Venezuela
14	0.0030288222371902393	Belize
125	0.0028637338158317596	Suriname
37	0.0028417220263172956	DemocraticRepublicCongo
145	0.002821911415754278	Yemen
113	0.00269864539447328	SaudiArabia
23	0.002632610025929888	Burundi
55	0.0026061958785125313	Guinea
27	0.0023684685517563206	CentralAfricanRepublic
32	0.0023002320042614824	Congo
124	0.0022848237516013576	Sudan
135	0.0021549541934660203	Turkmenistan
98	0.002148350656611681	Nigeria
73	0.002141747119757342	Kuwait
109	0.0020272858142821293	Qatar
56	0.0019392386562242737	Guinea-Bissau
2	0.0019084221509040242	Algeria
87	0.0018710021087294355	Mauritania
47	0.0018313808876034004	Gabon
78	0.001774150234865794	Liberia
20	0.001701511329468063	Brunei
79	0.001639878318827564	Libya
64	0.0014175592447314782	Iraq
28	0.0013229085498192832	Chad
4	0.001265677897081677	Angola
