67	0.019445114042035423	Italy
50	0.018852807144414983	Germany
30	0.018053881561578108	China
46	0.017819713718332818	France
123	0.017473053479803023	Spain
141	0.01742484245325252	USA
61	0.017383518716209235	India
13	0.016352721053296142	Belgium
94	0.015755822629337557	Netherlands
8	0.015540020891444838	Austria
107	0.015328810679890262	Poland
36	0.014793897861496609	CzechRepublic
139	0.014584983413111104	UnitedKingdom
134	0.014001859568166948	Turkey
108	0.013859522251684516	Portugal
52	0.012840203404616779	Greece
127	0.011944855768678903	Switzerland
131	0.011919602373819118	Thailand
21	0.011726758267617113	Bulgaria
62	0.011673955714728469	Indonesia
69	0.01148799889803368	Japan
38	0.01144437939782132	Denmark
119	0.011315816660353318	Slovenia
115	0.011235464949435817	Serbia
34	0.010895692000413237	Croatia
19	0.010829114868510164	Brazil
43	0.010732692815409162	Estonia
126	0.01063627076230816	Sweden
77	0.010611017367448374	Lebanon
66	0.010443426656106156	Israel
26	0.01023221644455158	Canada
110	0.010099062180745435	Romania
118	0.009986569785460931	Slovakia
40	0.009779951100244499	Egypt
121	0.009722557021017712	SouthAfrica
80	0.009635318020592996	Lithuania
72	0.009543487493830136	Kenya
137	0.009398854414178634	Ukraine
76	0.009357530677135347	Latvia
122	0.009323094229599274	SouthKorea
59	0.009288657782063203	Hungary
144	0.009265700150372487	Vietnam
102	0.009185348439454986	Pakistan
45	0.009061377228325127	Finland
95	0.008937406017195266	NewZealand
133	0.008829505148248906	Tunisia
54	0.008799660227050978	Guatemala
88	0.008774406832191191	Mexico
35	0.008301479619362466	Cyprus
18	0.008051241433933676	BosniaHerzegovina
7	0.007890538012098672	Australia
12	0.007869876143577028	Belarus
81	0.007771158327306955	Macedonia
140	0.007702285432234811	Uruguay
93	0.0076471871161770955	Nepal
91	0.007566835405259593	Morocco
103	0.007557652352583308	Panama
70	0.007507145562863735	Jordan
105	0.007371695535888518	Peru
1	0.007348737904197803	Albania
41	0.007334963325183374	ElSalvador
31	0.007259203140604015	Colombia
84	0.007169668377010227	Malaysia
106	0.006859740349185578	Philippines
116	0.006818416612142292	SierraLeone
117	0.006524558926501142	Singapore
74	0.006471756373612498	Kyrgyzstan
130	0.006462573320936213	Tanzania
114	0.006451094505090855	Senegal
111	0.006418953820723854	Russia
82	0.006340897872975424	Madagascar
29	0.006067702055855918	Chile
132	0.0060263783188126314	Togo
58	0.005980463055431201	Honduras
147	0.0059506181342332725	Zimbabwe
100	0.005766957080707554	Norway
33	0.005642985869577694	CostaRica
138	0.005551155342814835	UnitedArabEmirates
63	0.0052389315518211145	Iran
11	0.00498410184005418	Bangladesh
65	0.004958848445194394	Ireland
136	0.004956552682025322	Uganda
51	0.004722384838780031	Ghana
96	0.0046787653385676736	Nicaragua
17	0.004637441601524387	Bolivia
142	0.004619075496171815	Uzbekistan
49	0.004527244969408956	Georgia
48	0.0044285271531388825	Gambia
104	0.004412456810955382	Paraguay
68	0.004398682231940953	IvoryCoast
0	0.004325217810530665	Afghanistan
75	0.004290781362994593	Laos
42	0.004279302547149236	Eritrea
71	0.004139260993835876	Kazakhstan
39	0.004134669467497733	Ecuador
6	0.004116303362145161	Armenia
10	0.004081866914609089	Bahrain
44	0.0039280507822813	Ethiopia
16	0.003900501624252442	Bhutan
89	0.0038867270452380134	Mongolia
24	0.0038362202555184406	Cambodia
86	0.0037742346499535107	Malta
92	0.0036709253073452944	Mozambique
146	0.0036089397017803645	Zambia
22	0.003588277833258721	BurkinaFaso
60	0.003535475280370077	Iceland
97	0.0034895600169886475	Niger
9	0.0034367574641000036	Azerbaijan
25	0.003367884569027859	Cameroon
112	0.003333448121491787	Rwanda
57	0.003319673542477358	Guyana
129	0.003319673542477358	Tajikistan
101	0.003271462515926857	Oman
83	0.0032485048842361424	Malawi
15	0.0032462091210670708	Benin
143	0.003243913357897999	Venezuela
85	0.0030625480675413523	Mali
14	0.0030005624619764224	Belize
113	0.0028788870140156343	SaudiArabia
145	0.00287199972450842	Yemen
125	0.0027916480135909178	Suriname
37	0.0027319581711950595	DemocraticRepublicCongo
55	0.0026975217236589874	Guinea
23	0.0023761148799889805	Burundi
32	0.0023095377480859074	Congo
124	0.0022911716427333356	Sudan
27	0.0022842843532261212	CentralAfricanRepublic
135	0.002259030958366335	Turkmenistan
73	0.002217707221323048	Kuwait
109	0.0020937360101931884	Qatar
98	0.0019743563254014714	Nigeria
87	0.001880230035469541	Mauritania
2	0.0018343147720881114	Algeria
56	0.0017975825613829677	Guinea-Bissau
78	0.0017975825613829677	Liberia
47	0.0017287096663108233	Gabon
79	0.0016988647451128941	Libya
20	0.001545048612785105	Brunei
28	0.0013843451909501016	Chad
64	0.0013820494277810302	Iraq
4	0.0011846137952408829	Angola
