67	0.01977672686138011	Italy
50	0.018482078147749097	Germany
141	0.017912174644240428	USA
30	0.017621846444339784	China
46	0.017507865743638048	France
61	0.01726054912890787	India
123	0.01726054912890787	Spain
13	0.016262680352953068	Belgium
94	0.01596374983601833	Netherlands
107	0.015365888802148859	Poland
8	0.015142228559262437	Austria
139	0.014942224688219772	UnitedKingdom
36	0.01492071889563454	CzechRepublic
134	0.013752954358256396	Turkey
108	0.013155093324386923	Portugal
52	0.012712073997131127	Greece
21	0.012288409883202041	Bulgaria
127	0.012015286317369584	Switzerland
131	0.011851842293721814	Thailand
38	0.011684097111556997	Denmark
69	0.011677645373781428	Japan
119	0.011477641502738762	Slovenia
115	0.011460436868670576	Serbia
62	0.011309896320573947	Indonesia
77	0.01076795034742608	Lebanon
43	0.010759348030391986	Estonia
34	0.010750745713357893	Croatia
19	0.010537838366764089	Brazil
26	0.010533537208247042	Canada
118	0.010438911720872017	Slovakia
126	0.010406653031994168	Sweden
66	0.010335683916462899	Israel
110	0.010079764984698628	Romania
121	0.010051807454337825	SouthAfrica
80	0.009808791998124695	Lithuania
72	0.009763629833695706	Kenya
40	0.00962814334040874	Egypt
76	0.00956362596265304	Latvia
137	0.009509861481189959	Ukraine
59	0.00938082672567856	Hungary
122	0.009234587336098977	SouthKorea
88	0.009090498525777918	Mexico
45	0.009041035202831883	Finland
54	0.008974367245817662	Guatemala
102	0.008946409715456858	Pakistan
144	0.00892060276435458	Vietnam
133	0.008847483069564788	Tunisia
95	0.008800170325877274	NewZealand
35	0.008535649077078912	Cyprus
12	0.007903378775073066	Belarus
7	0.00787972240322931	Australia
140	0.007832409659541798	Uruguay
81	0.007718428958840063	Macedonia
91	0.007621652892206516	Morocco
105	0.007582942465553097	Peru
93	0.007552834355933771	Nepal
103	0.007520575667055922	Panama
18	0.007503371032987735	BosniaHerzegovina
31	0.0074625100270757925	Colombia
41	0.007307668320462117	ElSalvador
1	0.007238849784189372	Albania
70	0.007187235881984813	Jordan
84	0.006952822742805774	Malaysia
106	0.006866799572464844	Philippines
116	0.0067334636584363994	SierraLeone
117	0.006658193384388085	Singapore
74	0.006559266738496014	Kyrgyzstan
111	0.006479695305930652	Russia
114	0.00647109298889656	Senegal
130	0.006468942409638036	Tanzania
82	0.006376467501521535	Madagascar
29	0.006266787959336847	Chile
147	0.006195818843805579	Zimbabwe
132	0.0060108690275725764	Togo
58	0.005911942381680506	Honduras
138	0.0056345176573310025	UnitedArabEmirates
100	0.005632367078072479	Norway
33	0.005526988694404838	CostaRica
11	0.005118378635285414	Bangladesh
63	0.005114077476768368	Iran
17	0.004965687507930261	Bolivia
136	0.004952784032379121	Uganda
96	0.0048172975390921545	Nicaragua
65	0.0047355755272682695	Ireland
142	0.004699015679873374	Uzbekistan
49	0.004619444247308012	Georgia
48	0.004617293668049489	Gambia
51	0.0044968612295721855	Ghana
104	0.004492560071055139	Paraguay
71	0.004363525315543741	Kazakhstan
68	0.004357073577768172	IvoryCoast
6	0.004301158517046566	Armenia
75	0.004264598669651671	Laos
89	0.004208683608930066	Mongolia
39	0.004189328395603356	Ecuador
0	0.0041441662311743665	Afghanistan
42	0.003967818731975457	Eritrea
10	0.003896849616444189	Bahrain
44	0.003894699037185666	Ethiopia
86	0.003886096720151573	Malta
24	0.0038667415068248633	Cambodia
16	0.0037850194950009787	Bhutan
22	0.003681791690591861	BurkinaFaso
146	0.0036495330017140117	Zambia
92	0.003645231843196965	Mozambique
97	0.003494691295100335	Niger
15	0.0034559808684469164	Benin
60	0.0034495291306713464	Iceland
101	0.0033893129114326943	Oman
112	0.003378560015140078	Rwanda
9	0.003361355381071892	Azerbaijan
129	0.003228019467043448	Tajikistan
25	0.003221567729267878	Cameroon
83	0.0032151159914923086	Malawi
143	0.0031914596196485523	Venezuela
85	0.003066726022654202	Mali
14	0.0030043592241570266	Belize
57	0.0029247877915916654	Guyana
125	0.002819409407924024	Suriname
37	0.0027914518775632217	DemocraticRepublicCongo
145	0.0027269344998075234	Yemen
55	0.0027204827620319534	Guinea
113	0.002679621756120011	SaudiArabia
23	0.0024624132510091593	Burundi
32	0.0024366062999068797	Congo
27	0.0023828418184437977	CentralAfricanRepublic
135	0.0022602588007079706	Turkmenistan
124	0.002187139105918179	Sudan
98	0.002086061880767585	Nigeria
109	0.00199788813116813	Qatar
87	0.001935521332670955	Mauritania
73	0.0019312201741539083	Kuwait
56	0.0018624016378811633	Guinea-Bissau
2	0.0018322935282618373	Algeria
78	0.0018172394734521744	Liberia
47	0.0017527220956964759	Gabon
79	0.0017118610897845334	Libya
20	0.001563471120946427	Brunei
64	0.0013462626158355752	Iraq
4	0.001161312799602573	Angola
28	0.001154861061827003	Chad
