401	0.00693153783055962	2709
402	0.006055848584703199	2710
153	0.005756807242237603	106
169	0.005047629652981343	306
925	0.004897847581973662	7204
706	0.004708594144958722	5201
618	0.004687943562743004	4102
616	0.0046231164185721405	4100
255	0.004619979621273551	1207
332	0.004569529464721225	2302
912	0.004506009319424774	7108
640	0.004377139230407695	4407
293	0.004300026296817353	1701
403	0.004167496610951919	2711
259	0.004032091527562776	1211
166	0.003952103196448727	303
222	0.0038666254700621453	901
260	0.003702205011661044	1212
263	0.00362273948009676	1301
836	0.0035563439372766014	6309
619	0.003450477028449183	4103
636	0.003417279257039104	4403
641	0.0033898322806764397	4408
206	0.003373102695083959	713
168	0.003297819559917795	305
165	0.003260700791884478	302
211	0.0031801896612206637	804
999	0.0031658126736021255	7602
617	0.0031349675001659887	4101
223	0.003045045977606404	902
240	0.003011848206196325	1101
250	0.003005836011374027	1202
340	0.002959568251219822	2401
266	0.002916437288364207	1404
499	0.002902060300745669	3102
167	0.002861804735413762	304
231	0.0028544855417170513	910
599	0.0027914881959703658	4001
186	0.002782862003399243	507
170	0.0027635184200579367	307
341	0.002761165822083994	2402
201	0.002741299439192923	708
907	0.002724569853600442	7103
707	0.002711238465081434	5202
208	0.002687451085567125	801
365	0.002677779293896472	2523
151	0.0026605269087542262	104
797	0.0026223625416213793	6104
422	0.0026173959458986114	2814
813	0.002600927760081013	6203
796	0.00254341980960686	6103
802	0.002508392239772603	6109
164	0.00249662924990289	301
795	0.0024838206609336467	6102
708	0.0024114129232911904	5203
798	0.0024098445246418954	6105
642	0.002409583124867013	4409
297	0.0023868413444522343	1801
1322	0.0023416191833975594	9705
807	0.0023356069885752616	6114
978	0.0023199230020823107	7403
405	0.0022974426214424143	2713
637	0.0022956128230182367	4404
245	0.0022705184446295155	1106
459	0.002254573058361682	2904
295	0.002242810068491969	1703
323	0.0022268646822241355	2202
210	0.0022224208860511328	803
281	0.002217715690103248	1515
645	0.00221484029257954	4412
342	0.002213271893930245	2403
832	0.002207782498657712	6305
721	0.0021915757126149964	5305
291	0.0021698795312997477	1604
207	0.002115246978349302	714
639	0.002111587381500947	4406
794	0.0020995629918563515	6101
187	0.002084140405138283	508
635	0.0020802194085150455	4402
837	0.0020394410436333733	6310
282	0.002035258647235253	1516
799	0.0020308148510622503	6106
283	0.0020112098679460617	1517
241	0.0020080730706474714	1102
336	0.0020059818724484113	2306
906	0.001991604884829873	7102
239	0.001990036486180578	1008
372	0.0019861154895573405	2601
399	0.001977227897211335	2707
202	0.0019704315030643895	709
713	0.0019571001145453812	5208
998	0.001953440517697026	7601
188	0.0019531791179221436	510
374	0.0019450757249007858	2603
308	0.0018993307642963457	2002
242	0.001893318569474048	1103
287	0.0018854765762275725	1522
225	0.001877111783431332	904
380	0.0018705767890592692	2609
714	0.0018569840007653785	5209
962	0.0018496648070686682	7313
172	0.0018305826235022447	402
196	0.0018264002271041245	703
803	0.001825093228229712	6110
710	0.0018216950311562392	5205
524	0.0018062724444381708	3401
392	0.0017950322541182228	2621
382	0.0017921568565945152	2611
1225	0.0017911112574949851	8905
541	0.0017898042586205725	3605
923	0.001779871067175037	7202
681	0.001758959085184436	4907
362	0.0017566064872104933	2520
574	0.0017532082901370206	3901
286	0.0017516398914877254	1521
717	0.00174066110094266	5212
315	0.0017333419072459494	2009
313	0.0017299437101724769	2007
498	0.0017296823103975943	3101
358	0.001718442120077646	2516
801	0.0017150439230041736	6108
388	0.0017100773272814057	2617
653	0.0017072019297576981	4420
538	0.0016912565434898648	3602
264	0.0016855057484424494	1302
236	0.001667469163975556	1005
214	0.0016672077642006734	807
217	0.0016659007653262608	810
345	0.0016619797687030232	2503
814	0.0016611955693783757	6204
895	0.001646557181984955	7010
1199	0.0016290433970678265	8609
821	0.0016178032067478783	6211
563	0.0016026420198046927	3814
650	0.0015898334308354493	4417
204	0.0015814686380392089	711
192	0.0015783318407406187	603
709	0.001574933643667146	5204
815	0.0015715354465936735	6205
759	0.001567353050195553	5608
386	0.001565261851996493	2615
833	0.001564216252896963	6306
811	0.00155559006032584	6201
595	0.0015506234646030723	3923
1204	0.0015503620648281897	8705
348	0.001537814875633829	2506
464	0.0015370306763091816	2909
331	0.0015362464769845341	2301
298	0.0015304956819371187	1802
423	0.0015289272832878236	2815
646	0.0015252676864394685	4413
1222	0.0014978207100768044	8902
278	0.001495468112102862	1512
1221	0.0014946839127782142	8901
277	0.0014938997134535668	1511
292	0.0014923313148042718	1605
406	0.0014912857157047415	2714
610	0.001486841919531739	4012
329	0.0014852735208824438	2208
149	0.0014805683249345585	102
748	0.0014789999262852635	5513
343	0.0014750789296620259	2501
237	0.0014729877314629658	1006
761	0.0014648843384416077	5701
191	0.0014570423451951322	602
1277	0.0014549511469960721	9206
193	0.001452337149247247	604
927	0.0014510301503728345	7206
831	0.0014444951560007716	6304
936	0.001433516365455706	7215
817	0.0014332549656808236	6207
189	0.001432470766356176	511
693	0.0014322093665812936	5101
928	0.0014311637674817635	7207
456	0.001430902367706881	2901
393	0.0014235831740101706	2701
820	0.0014235831740101706	6210
917	0.0014225375749106406	7113
935	0.0014178323789627552	7214
758	0.0014094675861665148	5607
377	0.001405023789993512	2606
316	0.0014021483924698045	2101
371	0.0014013641931451568	2530
311	0.0013992729949460967	2005
712	0.0013888170039507962	5207
230	0.0013885556041759136	909
575	0.001384111808002911	3902
414	0.0013791452122801431	2806
209	0.001372348818133198	802
819	0.001372348818133198	6209
502	0.0013681664217350775	3105
800	0.0013564034318653644	6107
818	0.0013496070377184192	6208
379	0.0013488228383937717	2608
426	0.0013462088406449464	2818
1235	0.0013420264442468262	9007
212	0.0013401966458226487	805
324	0.0013354914498747634	2203
611	0.0013328774521259381	4013
203	0.0013258196582041104	710
328	0.0013258196582041104	2207
219	0.00132059166270646	812
279	0.001319023264057165	1513
752	0.0013148408676590447	5601
1223	0.001310397071486042	8903
918	0.0013101356717111596	7114
400	0.001309874271936277	2708
194	0.0013080444735120995	701
822	0.0013062146750879217	6212
842	0.0013054304757632743	6405
314	0.0013015094791400366	2008
185	0.0012994182809409765	506
651	0.001298111282066564	4418
319	0.0012954972843177387	2104
303	0.001292099087244266	1902
179	0.001282950095123378	409
436	0.0012826886953484955	2828
261	0.001280858896924318	1213
322	0.0012774606998508453	2201
390	0.001270141506154135	2619
441	0.0012696187066043698	2833
1001	0.0012667433090806622	7604
444	0.0012654363102062496	2836
916	0.0012641293113318372	7112
701	0.0012557645185355965	5109
243	0.001251843521912359	1104
387	0.0012515821221374763	2616
829	0.0012510593225877114	6302
238	0.0012500137234881814	1007
1228	0.0012466155264147087	8908
1093	0.0012458313270900612	8429
958	0.001245308527540296	7309
960	0.001245308527540296	7311
220	0.0012298859408222279	813
265	0.0012293631412724627	1401
307	0.0012241351457748125	2001
765	0.0012191685500520448	5705
805	0.0012186457505022797	6112
806	0.001217338751627867	6113
1227	0.0012108037572558042	8907
660	0.001207144160407449	4602
1260	0.0012042687628837413	9101
688	0.0012013933653600337	5003
317	0.0012008705658102688	2102
863	0.0011956425703126185	6807
977	0.0011956425703126185	7402
816	0.001189368975715438	6206
216	0.0011844023799926703	809
363	0.0011778673856206075	2521
1057	0.0011752533878717825	8304
175	0.0011721165905731923	405
407	0.0011692411930494845	2715
921	0.0011658429959760118	7118
256	0.0011653201964262469	1208
155	0.0011585238022793014	202
804	0.0011556484047555938	6111
891	0.0011548642054309464	7006
1293	0.0011543414058811812	9406
415	0.0011535572065565337	2807
694	0.0011517274081323562	5102
205	0.0011496362099332961	712
566	0.001149113410383531	3817
1011	0.0011478064115091184	7614
199	0.0011475450117342358	706
1018	0.0011467608124095883	7903
1009	0.0011451924137602933	7612
867	0.0011433626153361156	6811
296	0.0011386574193882305	1704
1224	0.0011381346198384653	8904
909	0.0011289856277175775	7105
270	0.0011250646310943396	1504
357	0.0011245418315445747	2515
695	0.001122189233570632	5103
381	0.0011187910364971593	2610
350	0.0011161770387483343	2508
812	0.0011161770387483343	6202
1094	0.0011161770387483343	8430
183	0.0011148700398739217	504
934	0.0011117332425753315	7213
881	0.0011106876434758015	6910
412	0.0011080736457269762	2804
1217	0.0011046754486535035	8802
749	0.0011025842504544434	5514
493	0.001102322850679561	2939
1017	0.001102322850679561	7901
1152	0.001101800051129796	8506
318	0.001095265056757733	2103
454	0.0010795810702647823	2849
299	0.0010764442729661922	1803
1002	0.0010675566806201866	7605
1320	0.0010568392898500035	9703
755	0.0010557936907504735	5604
762	0.0010521340939021184	5702
952	0.0010518726941272359	7303
913	0.0010516112943523533	7109
411	0.0010503042954779407	2803
229	0.001048997296603528	908
327	0.0010487358968286457	2206
1095	0.0010466446986295856	8431
838	0.001046383298854703	6401
1030	0.0010395869047077576	8105
828	0.0010348817087598725	6301
1135	0.00103462030898499	8474
687	0.0010304379125868697	5002
554	0.0010296537132622222	3805
301	0.001029130913712457	1805
378	0.0010155381254185664	2607
929	0.0010155381254185664	7208
373	0.0010126627278948586	2602
966	0.0010090031310465036	7317
285	0.0010063891332976783	1520
1321	0.0010008997380251455	9704
300	0.0010006383382502632	1804
919	0.0009995927391507331	7115
872	0.0009956717425274953	6901
955	0.00098678415018149	7306
1012	0.0009862613506317248	7615
808	0.0009839087526577822	6115
905	0.0009820789542336046	7101
886	0.0009778965578354844	7001
770	0.0009768509587359544	5805
668	0.0009729299621127166	4800
1241	0.0009687475657145964	9015
1208	0.0009575073753946483	8709
215	0.0009551547774207057	808
157	0.0009522793798969981	204
659	0.000951756580347233	4601
750	0.0009488811828235254	5515
347	0.0009486197830486428	2505
1300	0.0009465285848495827	9601
550	0.000941561989126815	3801
981	0.0009407777898021674	7407
355	0.0009386865916031073	2513
937	0.0009363339936291646	7217
1203	0.0009339813956552221	8704
976	0.0009334585961054571	7401
1304	0.0009316287976812794	9605
443	0.000931367397906397	2835
697	0.000923786804434804	5105
434	0.0009206500071362139	2826
835	0.0009196044080366838	6308
496	0.0009164676107380936	2942
364	0.0009143764125390335	2522
359	0.0009133308134395034	2517
631	0.0009107168156906783	4302
1216	0.0009075800183920882	8801
625	0.0009036590217688504	4201
1186	0.0009018292233446729	8544
195	0.0008992152255958478	702
982	0.0008971240273967876	7408
979	0.0008950328291977275	7405
173	0.0008945100296479624	403
184	0.0008929416309986673	505
159	0.0008903276332498422	206
228	0.0008903276332498422	907
306	0.0008874522357261346	1905
827	0.0008780418438303641	6217
376	0.000875950645631304	2605
273	0.0008746436467568915	1507
289	0.0008704612503587711	1602
790	0.0008691542514843586	6003
226	0.0008654946546360035	905
1116	0.0008631420566620608	8452
689	0.000858175460939293	5004
1301	0.000858175460939293	9602
304	0.0008579140611644105	1903
779	0.0008550386636407029	5903
1298	0.0008511176670174652	9507
868	0.0008477194699439925	6812
1129	0.0008474580701691099	8468
733	0.0008464124710695799	5406
246	0.0008461510712946974	1107
1003	0.0008445826726454023	7606
360	0.0008430142739961073	2518
924	0.0008411844755719296	7203
1196	0.0008401388764723996	8606
674	0.0008383090780482219	4824
1215	0.0008375248787235745	8716
385	0.0008367406793989269	2614
1074	0.0008364792796240444	8410
221	0.0008359564800742794	814
1167	0.0008354336805245144	8523
1014	0.0008343880814249843	7801
716	0.0008322968832259242	5211
218	0.0008317740836761592	811
520	0.0008317740836761592	3304
310	0.0008315126839012766	2004
213	0.0008283758866026865	806
257	0.0008278530870529214	1209
1244	0.0008249776895292137	9018
760	0.0008241934902045663	5609
983	0.0008239320904296837	7409
600	0.0008221022920055062	4002
680	0.0008213180926808586	4906
432	0.0008197496940315635	2824
148	0.0008160900971832083	101
176	0.0008158286974083257	406
930	0.0008145216985339132	7209
1313	0.0008139988989841482	9614
675	0.0008111235014604405	4901
841	0.0008085095037116154	6404
594	0.0008051113066381427	3922
876	0.0008043271073134952	6905
740	0.0008022359091144351	5505
458	0.0008014517097897875	2903
769	0.0007975307131665499	5804
232	0.0007972693133916673	1001
840	0.0007943939158679596	6403
351	0.000789950119694957	2509
177	0.0007894273201451919	407
858	0.0007889045205954269	6802
875	0.0007881203212707793	6904
431	0.0007868133223963668	2823
404	0.0007855063235219542	2712
1219	0.0007849835239721892	8804
368	0.0007841993246475416	2526
1007	0.0007831537255480115	7610
354	0.0007821081264484815	2512
523	0.0007821081264484815	3307
519	0.0007810625273489514	3303
747	0.0007797555284745389	5512
767	0.0007768801309508312	5802
843	0.0007768801309508312	6406
711	0.0007760959316261837	5206
1254	0.0007750503325266537	9028
738	0.0007745275329768886	5503
448	0.0007740047334271236	2841
596	0.0007740047334271236	3924
274	0.0007685153381545908	1508
557	0.0007674697390550608	3808
614	0.000763025942882058	4016
503	0.0007622417435574104	3201
1177	0.0007617189440076454	8535
792	0.0007604119451332329	6005
337	0.0007585821467090552	2307
686	0.0007572751478346427	5001
171	0.0007564909485099951	401
410	0.0007557067491853476	2802
1286	0.0007541383505360526	9306
1016	0.00075387695076117	7806
959	0.000753354151211405	7310
879	0.0007462963572895771	6908
556	0.000744205159090517	3807
1023	0.0007418525611165744	8002
1179	0.0007408069620170444	8537
931	0.0007387157638179842	7210
948	0.0007384543640431017	7228
352	0.0007379315644933367	2510
715	0.0007324421692208039	5210
366	0.0007319193696710388	2524
505	0.0007319193696710388	3203
249	0.0007295667716970963	1201
152	0.0007285211725975661	105
539	0.0007282597728226837	3603
634	0.0007256457750738585	4401
987	0.000725384375298976	7413
1247	0.0007251229755240935	9021
227	0.0007248615757492109	906
590	0.0007235545768747984	3917
954	0.0007232931770999159	7305
510	0.0007230317773250334	3208
903	0.0007219861782255033	7019
302	0.0007191107807017957	1806
644	0.0007188493809269132	4411
910	0.0007185879811520306	7106
1149	0.0007154511838534405	8503
1070	0.0007141441849790279	8406
320	0.0007138827852041454	2105
321	0.0007136213854292628	2106
522	0.0007097003888060252	3306
621	0.0007091775892562602	4105
1276	0.0007086547897064952	9205
1281	0.0007086547897064952	9301
409	0.0007083933899316126	2801
990	0.0007083933899316126	7419
1043	0.0007044723933083748	8205
657	0.0007034267942088448	4503
970	0.0007034267942088448	7321
512	0.0006995057975856072	3210
433	0.0006953234011874868	2825
1022	0.0006940164023130743	8001
1148	0.0006921866038888967	8502
1302	0.0006919252041140142	9603
950	0.0006911410047893666	7301
1008	0.0006908796050144842	7611
1201	0.000686174409066599	8702
247	0.0006848674101921863	1108
457	0.0006832990115428913	2902
419	0.0006830376117680087	2811
418	0.0006812078133438312	2810
511	0.0006809464135689486	3209
1096	0.0006809464135689486	8432
789	0.0006804236140191836	6002
546	0.0006762412176210634	3704
965	0.0006749342187466509	7316
899	0.0006736272198722382	7015
446	0.0006715360216731781	2839
254	0.0006702290227987655	1206
810	0.000668922023924353	6117
862	0.0006686606241494705	6806
1037	0.0006681378245997054	8112
623	0.0006644782277513503	4114
1025	0.0006644782277513503	8007
1197	0.0006626484293271726	8607
1200	0.0006613414304527601	8701
915	0.000659773031803465	7111
338	0.0006595116320285825	2308
1263	0.0006589888324788174	9104
1290	0.0006579432333792874	9403
849	0.0006574204338295224	6507
857	0.0006568976342797573	6801
601	0.0006550678358555798	4003
569	0.0006545450363058148	3820
638	0.0006537608369811672	4405
897	0.0006524538381067547	7013
507	0.0006521924383318721	3205
1111	0.000649055641033282	8447
356	0.0006474872423839869	2514
294	0.0006446118448602792	1702
643	0.0006440890453105142	4410
197	0.0006433048459858667	704
1172	0.0006419978471114541	8530
809	0.0006417364473365716	6116
602	0.0006396452491375114	4004
1236	0.0006372926511635688	9008
290	0.0006362470520640388	1603
551	0.0006354628527393912	3802
435	0.0006344172536398611	2827
158	0.0006328488549905661	205
353	0.0006328488549905661	2511
1279	0.0006328488549905661	9208
648	0.0006297120576919759	4415
398	0.0006291892581422109	2706
628	0.0006281436590426808	4205
1050	0.0006273594597180332	8212
559	0.0006265752603933858	3810
1039	0.0006263138606185032	8201
1226	0.0006252682615189731	8906
471	0.0006244840621943257	2916
612	0.0006244840621943257	4014
1178	0.0006234384630947956	8536
568	0.0006223928639952656	3819
744	0.000621608664670618	5509
972	0.0006189946669217928	7323
1062	0.0006189946669217928	8309
844	0.0006184718673720278	6501
823	0.0006166420689478502	6213
652	0.0006153350700734377	4419
989	0.0006145508707487901	7418
1308	0.0006145508707487901	9609
791	0.0006132438718743776	6004
339	0.0006114140734501999	2309
727	0.0006114140734501999	5311
521	0.0006111526736753175	3305
889	0.0006108912739004349	7004
866	0.0006093228752511398	6810
980	0.0006085386759264923	7406
529	0.0006069702772771972	3406
154	0.0006061860779525497	201
887	0.0006061860779525497	7002
774	0.0006046176793032546	5809
702	0.0006040948797534896	5110
729	0.0006040948797534896	5402
1184	0.0006040948797534896	8542
1188	0.0006040948797534896	8546
450	0.0006030492806539595	2844
275	0.0006014808820046644	1509
953	0.0005999124833553694	7304
1082	0.0005991282840307218	8418
1194	0.0005962528865070141	8604
1004	0.0005949458876326016	7607
312	0.000594684487857719	2006
437	0.0005905020914595988	2829
784	0.0005905020914595988	5908
947	0.0005902406916847164	7227
604	0.0005884108932605387	4006
1299	0.0005868424946112436	9508
461	0.0005847512964121835	2906
673	0.0005837056973126535	4823
1291	0.0005826600982131234	9404
839	0.0005810916995638284	6402
788	0.0005800461004642983	6001
757	0.0005795233009145333	5606
877	0.0005774321027154732	6906
666	0.0005748181049666481	4706
743	0.0005748181049666481	5508
630	0.0005735111060922354	4301
262	0.0005729883065424704	1214
933	0.0005724655069927054	7212
940	0.0005719427074429404	7220
408	0.0005714199078931753	2716
1005	0.0005708971083434103	7608
1174	0.0005703743087936453	8532
421	0.0005690673099192327	2813
846	0.0005688059101443502	6504
1083	0.0005682831105945852	8419
1084	0.0005669761117201726	8420
150	0.0005661919123955251	103
252	0.0005661919123955251	1204
1033	0.000565146313295995	8108
1130	0.0005633165148718174	8469
391	0.0005596569180234622	2620
696	0.0005588727186988146	5104
224	0.0005586113189239322	903
346	0.0005575657198244021	2504
624	0.0005570429202746371	4115
542	0.0005567815204997545	3606
1151	0.0005557359214002245	8505
992	0.000555474521625342	7502
669	0.000554951722075577	4802
773	0.0005541675227509294	5808
1010	0.0005536447232011644	7613
370	0.0005525991241016343	2529
825	0.0005515535250021043	6215
397	0.0005512921252272217	2705
724	0.0005510307254523392	5308
951	0.0005499851263528092	7302
413	0.0005486781274783966	2805
957	0.0005481553279286316	7308
573	0.0005460641297295715	3825
826	0.0005460641297295715	6216
416	0.000545802729954689	2808
1218	0.0005437115317556289	8803
720	0.0005434501319807463	5303
253	0.0005392677355826261	1205
528	0.0005387449360328611	3405
1211	0.0005384835362579785	8712
754	0.000537699336933331	5603
782	0.0005374379371584485	5906
1046	0.0005369151376086835	8208
1075	0.0005369151376086835	8411
469	0.000536653737833801	2914
864	0.0005343011398598583	6808
1323	0.0005324713414356808	970
865	0.0005319485418859158	6809
570	0.0005301187434617381	3821
737	0.0005301187434617381	5502
384	0.0005298573436868556	2613
734	0.0005295959439119731	5407
1269	0.0005285503448124431	9110
1000	0.0005272433459380304	7603
667	0.0005259363470636179	4707
1133	0.0005256749472887354	8472
513	0.0005254135475138529	3211
1230	0.0005254135475138529	9002
1058	0.0005246293481892053	8305
586	0.0005243679484143229	3913
830	0.0005241065486394403	6303
536	0.0005238451488645578	3507
1138	0.0005222767502152628	8477
326	0.0005220153504403802	2205
537	0.0005214925508906152	3601
1233	0.0005207083515659677	9005
486	0.0005201855520162027	2932
741	0.0005201855520162027	5506
847	0.0005201855520162027	6505
1165	0.0005196627524664376	8521
824	0.0005191399529166725	6214
565	0.0005180943538171424	3816
200	0.0005167873549427299	707
234	0.0005165259551678474	1003
501	0.0005165259551678474	3104
344	0.0005152189562934349	2502
1183	0.0005152189562934349	8541
1205	0.0005152189562934349	8706
1175	0.0005131277580943748	8533
335	0.0005120821589948447	2305
620	0.0005099909607957846	4104
609	0.0005076383628218419	4011
1288	0.0005073769630469594	9401
190	0.0005071155632720769	601
622	0.0005065927637223119	4106
445	0.0005060699641725469	2837
268	0.0005058085643976643	1502
161	0.0005039787659734868	208
305	0.0005039787659734868	1904
567	0.0005034559664237217	3818
926	0.0005018875677744267	7205
1139	0.0005018875677744267	8478
1006	0.0005011033684497791	7609
848	0.000500580568900014	6506
1063	0.000499534969800484	8310
974	0.000499012170250719	7325
1013	0.0004987507704758365	7616
1141	0.0004956139731772463	8480
1028	0.0004943069743028337	8103
1090	0.0004937841747530687	8426
244	0.0004935227749781862	1105
1106	0.0004935227749781862	8442
654	0.0004911701770042436	4421
1287	0.0004906473774544786	9307
180	0.000490385977679596	410
1209	0.0004901245779047135	8710
908	0.000489340378580066	7104
555	0.0004885561792554185	3806
944	0.0004885561792554185	7224
1122	0.0004885561792554185	8459
1283	0.00048751058015588836	9303
1303	0.00048724918038100585	9604
1024	0.0004856807817317108	8003
1255	0.0004856807817317108	9029
504	0.00048515798218194575	3202
430	0.00048489658240706324	2822
764	0.0004843737828572982	5704
1124	0.0004843737828572982	8461
451	0.0004838509833075332	2845
685	0.00048332818375776816	4911
1315	0.0004822825846582381	9616
271	0.0004820211848833556	1505
726	0.0004820211848833556	5310
1242	0.0004788843875847654	9016
488	0.00047783878848523534	2934
198	0.0004767931893857053	705
883	0.0004765317896108228	6912
473	0.00047574759028617524	2918
973	0.00047574759028617524	7324
1229	0.0004749633909615277	9001
1052	0.0004744405914117627	8214
1079	0.0004731335925373501	8415
896	0.0004726107929875851	7011
1169	0.0004726107929875851	8526
698	0.00047182659366293755	5106
465	0.0004694739956889949	2910
427	0.00046868979636434735	2819
572	0.00046868979636434735	3824
163	0.00046712139771505227	210
280	0.0004658143988406397	1514
735	0.0004658143988406397	5408
571	0.0004652915992908747	3823
1289	0.00046450739996622715	9402
1311	0.00046424600019134463	9612
455	0.00046241620176716705	2852
834	0.00046084780311787197	6307
1120	0.00046032500356810695	8457
288	0.0004590180046936944	1601
860	0.0004590180046936944	6804
453	0.00045875660491881187	2847
514	0.00045875660491881187	3212
535	0.00045875660491881187	3506
1059	0.0004561426071699867	8306
467	0.00045561980762022166	2912
1240	0.00045535840784533915	9014
856	0.0004548356082955741	6704
882	0.0004545742085206916	6911
525	0.0004537900091960441	3402
1064	0.0004524830103216315	8311
771	0.000452221610546749	5806
772	0.000452221610546749	5807
174	0.000451698810996984	404
449	0.00045091461167233644	2843
787	0.0004498690125728064	5911
394	0.00044882341347327634	2702
1099	0.00044882341347327634	8435
1091	0.0004483006139235113	8427
1161	0.0004480392141486288	8516
1132	0.0004477778143737463	8471
1040	0.0004472550148239812	8202
1092	0.00044620941572445116	8428
1306	0.00044594801594956864	9607
1162	0.0004454252163998036	8517
1038	0.00044437961730027357	8113
1056	0.00044437961730027357	8303
763	0.0004433340182007435	5703
438	0.0004428112186509785	2830
975	0.000442549818876096	7326
704	0.00044202701932633096	5112
885	0.00044202701932633096	6914
968	0.00044176561955144844	7319
1259	0.00044176561955144844	9033
869	0.00044150421977656593	6813
533	0.0004407200204519184	3503
1143	0.00043993582112727086	8482
1164	0.0004383674224779758	8519
1015	0.0004360148245040331	7804
984	0.0004354920249542681	7410
251	0.00043470782562962055	1203
1171	0.000433400826755208	8529
1036	0.00043287802720544296	8111
1189	0.00043235522765567794	8547
728	0.0004320938278807954	5401
1048	0.00043052542923150035	8210
492	0.00042895703058220527	2938
1101	0.00042895703058220527	8437
440	0.00042843423103244025	2832
585	0.00042843423103244025	3912
730	0.0004273886319329102	5403
1055	0.0004273886319329102	8302
476	0.0004271272321580277	2921
884	0.00042686583238314517	6913
1220	0.0004255588335087326	8805
1238	0.00042503603395896753	9011
603	0.00042425183463432	4005
1118	0.00042425183463432	8454
768	0.0004239904348594375	5803
1026	0.00042372903508455497	8101
361	0.00042346763530967245	2519
558	0.00042346763530967245	3809
700	0.00042294483575990743	5108
589	0.0004224220362101424	3916
1117	0.0004224220362101424	8453
1181	0.0004218992366603774	8539
506	0.00042137643711061235	3204
491	0.0004205922377859648	2937
383	0.0004198080384613173	2612
699	0.00041928523891155225	5107
597	0.0004185010395869047	3925
1168	0.00041745544048737466	8525
325	0.00041693264093760964	2204
633	0.0004158870418380796	4304
1136	0.0004158870418380796	8475
613	0.00041510284251343205	4015
964	0.0004127502445394894	7315
1027	0.00041222744498972436	8102
664	0.00041196604521484185	4704
584	0.0004106590463404293	3911
369	0.00040987484701578174	2528
615	0.00040961344724089923	4017
588	0.0004088292479162517	3915
1041	0.0004085678481413692	8203
605	0.00040595385039254406	4007
1192	0.00040569245061766154	8602
1112	0.00040360125241860144	8448
518	0.00040281705309395385	3302
1102	0.0004020328537693063	8438
531	0.0004015100542195413	3501
1275	0.0003999416555702462	9202
893	0.00039889605647071616	7008
1115	0.0003981118571460686	8451
793	0.0003975890575963036	6006
1213	0.0003973276578214211	8714
582	0.0003970662580465386	3909
627	0.00039680485827165606	4203
1262	0.0003949750598474785	9103
1163	0.00039445226029771345	8518
1078	0.00039419086052283094	8414
775	0.0003939294607479484	5810
334	0.0003936680609730659	2304
1145	0.00039262246187353586	8486
663	0.0003920996623237708	4703
1019	0.0003920996623237708	7904
481	0.00039131546299912324	2926
1305	0.0003907926634493582	9606
1156	0.0003905312636744757	8511
1089	0.00038974706434982817	8425
647	0.00038896286502518063	4414
1245	0.00038896286502518063	9019
564	0.0003887014652502981	3815
963	0.0003884400654754156	7314
781	0.0003881786657005331	5905
725	0.0003879172659256506	5309
671	0.00038765586615076807	4810
870	0.00038765586615076807	6814
577	0.00038739446637588555	3904
723	0.0003863488672763555	5307
1087	0.0003858260677265905	8423
1134	0.00038504186840194294	8473
1294	0.0003842576690772954	9503
562	0.0003837348695275304	3813
1316	0.0003837348695275304	9617
1071	0.00038321206997776535	8407
526	0.0003811208717787052	3403
988	0.00037981387290429263	7415
943	0.0003795524731294101	7223
1068	0.0003795524731294101	8404
1123	0.0003795524731294101	8460
1270	0.0003795524731294101	9111
389	0.0003792910733545276	2618
425	0.00037850687402988007	2817
649	0.00037798407448011505	4416
395	0.0003771998751554675	2703
284	0.000376938475380585	1518
746	0.000376938475380585	5511
1146	0.000376938475380585	8487
1060	0.0003766770756057025	8307
1252	0.00037589287628105495	9026
719	0.0003753700767312899	5302
942	0.0003751086769564074	7222
497	0.0003748472771815249	3006
500	0.0003748472771815249	3103
632	0.0003745858774066424	4303
778	0.0003745858774066424	5902
1170	0.00037432447763175987	8527
1142	0.0003732788785322298	8481
1250	0.0003727560789824648	9024
272	0.00037223327943269977	1506
479	0.00037223327943269977	2924
845	0.00037197187965781726	6502
745	0.0003711876803331697	5510
495	0.0003709262805582872	2941
1210	0.0003701420812336396	8711
475	0.0003698806814587571	2920
1212	0.0003698806814587571	8713
1147	0.0003696192816838746	8501
1176	0.0003693578819089921	8534
901	0.00036883508235922705	7017
460	0.00036857368258434454	2905
859	0.000368312282809462	6803
477	0.0003680508830345795	2922
532	0.0003675280834848145	3502
670	0.00036700528393504946	4807
1309	0.00036648248438528444	9610
608	0.0003659596848355194	4010
258	0.0003656982850606369	1210
233	0.00036491408573598936	1002
576	0.00036491408573598936	3903
1185	0.00036491408573598936	8543
684	0.0003636070868615768	4910
1076	0.0003617772884373992	8412
1182	0.0003609930891127517	8540
949	0.00036020888978810414	7229
995	0.00036020888978810414	7506
1021	0.0003599474900132216	7907
1246	0.0003596860902383391	9020
181	0.0003591632906885741	501
489	0.0003583790913639265	2935
920	0.00035733349226439644	7117
1314	0.00035733349226439644	9615
985	0.00035707209248951393	7411
1100	0.0003568106927146314	8436
396	0.0003560264933899839	2704
593	0.00035576509361510137	3920
776	0.00035524229406533634	5811
516	0.0003547194945155713	3214
1158	0.0003544580947406888	8513
1256	0.0003544580947406888	9030
552	0.0003541966949658063	3803
1166	0.0003541966949658063	8522
466	0.0003521054967667462	2911
462	0.00035132129744209865	2907
428	0.0003505370981174511	2820
1072	0.00034923009924303855	8408
1128	0.00034923009924303855	8467
1150	0.00034870729969327353	8504
679	0.0003481845001435085	4905
971	0.0003481845001435085	7322
417	0.00034792310036862594	2809
472	0.0003471389010439784	2917
1098	0.0003468775012690959	8434
678	0.0003466161014942134	4904
888	0.0003447863030700358	7003
483	0.00034452490329515327	2928
578	0.00034426350352027076	3905
478	0.0003434793041956232	2923
629	0.0003429565046458582	4206
751	0.00034243370509609317	5516
894	0.0003411267062216806	7009
904	0.0003408653064467981	7020
878	0.00034034250689703307	6907
485	0.000338774108247738	2930
548	0.0003385127084728555	3706
922	0.0003385127084728555	7201
1249	0.0003385127084728555	9023
780	0.00033746710937332543	5904
309	0.00033694430982356035	2003
1284	0.00033668291004867784	9304
1202	0.0003358987107240303	8703
1312	0.0003358987107240303	9613
182	0.0003353759111742653	502
1114	0.00033485311162450025	8450
1113	0.00033433031207473523	8449
1231	0.00033433031207473523	9003
1140	0.00033276191342544015	8479
1243	0.0003314549145510276	9017
420	0.00033093211500126256	2812
553	0.00033040931545149754	3804
736	0.000330147915676615	5501
1137	0.000330147915676615	8476
1190	0.00032962511612685	8548
1191	0.0003277953177026724	8601
1265	0.0003272725181529074	9106
665	0.0003270111183780249	4705
853	0.00032648831882825985	6701
753	0.00032622691905337734	5602
1119	0.00032622691905337734	8455
993	0.00032544271972872975	7504
1159	0.00032544271972872975	8514
932	0.0003249199201789647	7211
1107	0.0003243971206291997	8443
956	0.00032387432107943467	7307
367	0.00032361292130455216	2525
722	0.0003223059224301396	5306
855	0.00032152172310549206	6703
677	0.00032126032333060954	4903
1160	0.000320476124005962	8515
662	0.000319953324456197	4702
1153	0.0003186463255817844	8507
487	0.00031760072648225437	2933
676	0.00031760072648225437	4902
1261	0.00031733932670737185	9102
1155	0.0003157709280580768	8509
429	0.00031498672873342924	2821
442	0.00031446392918366416	2834
583	0.0003134183300841341	3910
1066	0.0003134183300841341	8402
986	0.0003128955305343691	7412
508	0.00031211133120972155	3206
1198	0.00031211133120972155	8608
1271	0.00031211133120972155	9112
1296	0.00031211133120972155	9505
1054	0.00031184993143483904	8301
1131	0.0003105429325604265	8470
961	0.00031002013301066145	7312
591	0.0003074061352618363	3918
1045	0.0003074061352618363	8207
606	0.00030636053616230627	4008
1248	0.00030609913638742376	9022
470	0.00030583773661254125	2915
607	0.00030583773661254125	4009
852	0.00030583773661254125	6603
1029	0.00030583773661254125	8104
731	0.0003045307377381287	5404
1126	0.0003045307377381287	8463
1180	0.0003045307377381287	8538
756	0.00030426933796324617	5605
1031	0.00030426933796324617	8106
1154	0.0003034851386385986	8508
718	0.00030322373886371607	5301
703	0.000302178139764186	5111
156	0.0003019167399893035	203
1253	0.000301655340214421	9027
683	0.00030113254066465597	4909
1173	0.0002977343435911833	8531
1307	0.0002972115440414183	9608
1251	0.0002953817456172407	9025
785	0.00029485894606747566	5909
861	0.0002935519471930631	6805
235	0.000292506348093533	1004
439	0.00029198354854376797	2831
997	0.00029146074899400295	7508
900	0.0002904151498944729	7016
945	0.00028936955079494285	7225
517	0.00028910815102006033	3215
914	0.00028910815102006033	7110
1268	0.0002888467512451778	9109
375	0.0002880625519205303	2604
160	0.00028780115214564777	207
1085	0.00028727835259588274	8421
248	0.0002864941532712352	1109
786	0.0002862327534963527	5910
1069	0.0002862327534963527	8405
447	0.00028518715439682264	2840
871	0.00028492575462194013	6815
424	0.0002846643548470576	2816
1157	0.00028361875574752757	8512
1032	0.00028283455642288003	8107
580	0.000282311756873115	3907
946	0.000282311756873115	7226
178	0.0002810047579987024	408
1035	0.0002807433582238199	8110
1206	0.0002807433582238199	8707
1187	0.00028048195844893736	8545
672	0.00028022055867405485	4811
1127	0.0002794363593494073	8465
777	0.0002786521600247598	5901
1285	0.0002773451611503472	9305
892	0.0002768223616005822	7007
873	0.00027577676250105214	6902
1267	0.00027577676250105214	9108
691	0.0002744697636266396	5006
1061	0.00027420836385175706	8308
1237	0.000272639965202462	9010
890	0.00027159436610293193	7005
1097	0.00027159436610293193	8433
1108	0.00027054876700340183	8444
1080	0.0002695031679038718	8416
1292	0.00026924176812898927	9405
1088	0.00026898036835410675	8424
333	0.00026845756880434173	2303
490	0.0002681961690294592	2936
690	0.0002681961690294592	5005
1258	0.0002676733694796942	9032
1234	0.00026453657218110404	9006
939	0.00026427517240622153	7219
626	0.000264013772631339	4202
902	0.000263490973081574	7018
581	0.00026218397420716143	3908
1207	0.00026218397420716143	8708
1317	0.0002613997748825139	9618
452	0.00026087697533274886	2846
527	0.00026087697533274886	3404
1273	0.00026061557555786635	9114
162	0.00026035417578298384	209
969	0.00025956997645833625	7320
579	0.0002590471769085712	3906
267	0.00025774017803415866	1501
1125	0.0002569559787095111	8462
547	0.0002566945789346286	3705
850	0.0002561717793848636	6601
598	0.00025512618028533353	3926
991	0.0002546033807355685	7501
560	0.000254341980960686	3811
463	0.0002540805811858035	2908
1257	0.0002540805811858035	9031
561	0.00025381918141092097	3812
941	0.00025303498208627343	7221
330	0.0002498981847876833	2209
661	0.0002498981847876833	4701
911	0.00024859118591327066	7107
996	0.0002467613874890931	7507
494	0.00024597718816444554	2940
1280	0.000245715788389563	9209
534	0.0002431017906407379	3505
1042	0.0002431017906407379	8204
1214	0.0002428403908658554	8715
1081	0.00024205619154120785	8417
1067	0.00024022639311703023	8403
1282	0.00023918079401750018	9302
682	0.0002352597973942625	4908
783	0.0002352597973942625	5907
1121	0.00023421419829473242	8458
1272	0.00023421419829473242	9113
1295	0.00023029320167149473	9504
1053	0.0002297704021217297	8215
692	0.0002282020034724346	5007
1073	0.0002279406036975521	8409
269	0.00022689500459802204	1503
967	0.00022689500459802204	7318
1077	0.00022689500459802204	8413
732	0.00022663360482313953	5405
540	0.00022480380639896194	3604
1239	0.0002242810068491969	9013
515	0.00022323540774966683	3213
1103	0.00022088280977572422	8439
474	0.00022009861045107668	2919
1144	0.00021774601247713404	8483
851	0.00021643901360272148	6602
1065	0.00021539341450319143	8401
545	0.00021382501585389635	3703
994	0.00021330221630413133	7505
549	0.00021251801697948376	3707
1297	0.00021042681878042366	9506
592	0.00020938121968089361	3919
1051	0.00020938121968089361	8213
1318	0.0002091198199060111	9701
509	0.00020807422080648105	3207
1020	0.00020807422080648105	7905
766	0.00020755142125671603	5801
898	0.0002054602230576559	7014
349	0.00020389182440836082	2507
1266	0.00020389182440836082	9107
938	0.0002036304246334783	7218
1105	0.00020258482553394826	8441
874	0.00020075502710977064	6903
1049	0.000197879629586063	8211
1086	0.00019683403048653296	8422
276	0.00019657263071165044	1510
1278	0.00019657263071165044	9207
739	0.00019369723318794278	5504
1104	0.00019317443363817775	8440
482	0.00019003763633958757	2927
1319	0.00018977623656470506	9702
1193	0.0001884692376902925	8603
1195	0.00018768503836564496	8605
484	0.0001863780394912324	2929
1232	0.0001829798424177597	9004
480	0.00018141144376846463	2925
880	0.0001808886442186996	6909
1310	0.0001806272444438171	9611
656	0.00018036584466893458	4502
587	0.00018010444489405207	3914
1264	0.00017853604624475697	9105
655	0.00017566064872104933	4501
1047	0.0001735694505219892	8209
658	0.00017226245164757664	4504
1044	0.00016990985367363402	8206
543	0.0001696484538987515	3701
530	0.000169387054123869	3407
544	0.00016651165660016133	3702
854	0.00016651165660016133	6702
1109	0.00016546605750063128	8445
742	0.00016494325795086626	5507
1274	0.00016415905862621872	9201
705	0.00016259065997692362	5113
468	0.0001581468638039209	2913
1110	0.00015030487055744547	8446
1034	0.00014246287731097007	8109
