153	0.002547032623469978	106
925	0.002361522135533435	7204
813	0.0023118475262044556	6203
402	0.0022731628746916217	2710
293	0.002267887694939872	1701
640	0.002197112366603892	4407
999	0.0021962331699786003	7602
259	0.0021891995969762668	1211
617	0.0021241390467046832	4101
619	0.002111390695637954	4103
616	0.002094685959757412	4100
166	0.002086333591817141	303
255	0.002083696001941266	1207
365	0.002063034881246912	2523
169	0.0020212730415455574	306
323	0.002011162280354703	2202
595	0.001971598432216578	3923
266	0.0019614876710257237	1404
332	0.0019566520895866195	2302
260	0.0018858767612506397	1212
832	0.0018806015814988896	6305
231	0.0018625780506804103	910
641	0.001839279340110181	4408
796	0.0018322457671078474	6103
524	0.0018265309890434516	3401
240	0.0018080678599123265	1101
912	0.0017975175004088264	7108
206	0.0017961987054708889	713
814	0.001785208747654743	6204
797	0.0017755375847765347	6104
618	0.001768943610086847	4102
637	0.0017496012843304302	4404
165	0.0017434469079533885	302
799	0.001739490523139576	6106
802	0.0017324569501372426	6109
168	0.001704322658127909	305
836	0.0017030038631899716	6309
211	0.0016946514952497006	804
707	0.001693332700311763	5202
795	0.0016731111779300547	6102
642	0.0016691547931162421	4409
962	0.0016643192116771379	7313
336	0.001663879613364492	2306
222	0.001660802425175971	901
798	0.0016462956808586586	6105
167	0.001645416484233367	304
341	0.0016449768859207211	2402
295	0.0016168425939113876	1703
800	0.0016115674141596375	6107
636	0.0016058526360952416	4403
187	0.0016045338411573042	508
283	0.0016040942428446584	1517
706	0.0015838727204629498	5201
668	0.0015654095913318247	4800
315	0.0015627720014559495	2009
958	0.001561453206518012	7309
342	0.0015513424453271578	2403
895	0.0015513424453271578	7010
307	0.0015500236503892203	2001
343	0.0015491444537639287	2501
758	0.001539912889198366	5607
202	0.0015372752993224911	709
225	0.0015302417263201578	904
340	0.0015284833330695743	2401
313	0.001526724939818991	2007
186	0.0015249665465684077	507
291	0.001521449760067241	1604
801	0.0015201309651293035	6108
803	0.0015073826140625743	6110
807	0.0015047450241866991	6114
794	0.0015029866309361158	6101
401	0.0014893590832440948	2709
881	0.0014867214933682199	6910
502	0.001483644305179699	3105
822	0.001475731535552074	6212
817	0.0014744127406141365	6207
1001	0.0014744127406141365	7604
296	0.001470016757487678	1704
499	0.001467818765924449	3102
808	0.0014673791676118031	6115
650	0.0014572684064209488	4417
709	0.0014559496114830114	5204
319	0.0014555100131703655	2104
541	0.001453751619919782	3605
317	0.0014528724232944904	2102
242	0.0014493556367933236	1103
282	0.0014480368418553862	1516
815	0.0014471576452300945	6205
414	0.0014423220637909903	2806
264	0.0014401240722277612	1302
837	0.0014361676874139486	6310
651	0.0014330904992254279	4418
819	0.0014330904992254279	6209
170	0.0014304529093495527	307
241	0.0014234193363472194	1102
759	0.0014212213447839903	5608
1293	0.0014207817464713442	9406
306	0.0014185837549081151	1905
805	0.0014185837549081151	6112
538	0.0014119897802184276	3602
164	0.0014097917886551985	301
250	0.0014093521903425525	1202
957	0.0014062750021540317	7308
172	0.001402758215652865	402
175	0.0014005602240896359	405
838	0.00139484544602524	6401
205	0.0013939662493999483	712
635	0.0013860534797723232	4402
218	0.0013812178983332191	811
207	0.0013790199067699898	714
318	0.0013781407101446982	2103
812	0.0013768219152067607	6202
866	0.001375942718581469	6810
821	0.0013750635219561772	6211
653	0.0013741843253308856	4420
842	0.0013737447270182398	6405
714	0.001373305128705594	5209
923	0.001373305128705594	7202
955	0.001373305128705594	7306
263	0.0013728655303929481	1301
1186	0.0013711071371423648	8544
203	0.0013614359742641564	710
204	0.001359677581013573	711
314	0.0013583587860756356	2008
816	0.001357039991137698	6206
217	0.0013566003928250521	810
937	0.0013478084265721355	7217
811	0.0013403352552571561	6201
201	0.0013376976653812812	708
239	0.0013346204771927603	1008
362	0.0013337412805674686	2520
179	0.001332862083942177	409
399	0.0013319828873168853	2707
916	0.001327147305877781	7112
818	0.0013157177497489893	6208
392	0.0013135197581857602	2621
907	0.0013135197581857602	7103
959	0.0013095633733719476	7310
712	0.0013069257834960727	5207
223	0.0013038485953075518	902
316	0.0013016506037443227	2101
639	0.00128714385942701	4406
867	0.0012823082779879057	6811
935	0.00128186867967526	7214
1009	0.0012717579184844056	7612
713	0.0012704391235464681	5208
936	0.0012699995252338223	7215
189	0.001268241131983239	511
188	0.001265163943794718	510
214	0.0012647243454820723	807
594	0.0012647243454820723	3922
281	0.001262965952231489	1515
193	0.0012620867556061973	604
245	0.0012616471572935515	1106
177	0.0012612075589809057	407
829	0.001259888764042968	6302
1199	0.0012585699691050306	8609
1290	0.0012585699691050306	9403
171	0.0012568115758544473	401
646	0.001251975994415343	4413
710	0.0012502176011647598	5205
302	0.001249338404539468	1806
820	0.001248898806226822	6210
287	0.0012480196096015304	1522
328	0.0012418652332244887	2207
708	0.0012405464382865513	5203
522	0.0012379088484106764	3306
648	0.0012330732669715721	4415
804	0.0012313148737209886	6111
196	0.0012308752754083428	703
740	0.0012308752754083428	5505
886	0.0012295564804704054	7001
311	0.0012273584889071763	2005
610	0.0012264792922818846	4012
219	0.001225160497343947	812
590	0.001225160497343947	3917
998	0.0012238417024060095	7601
278	0.0012207645142174887	1512
931	0.0012190061209669052	7210
1082	0.0012176873260289678	8418
403	0.0012154893344657387	2711
498	0.0012146101378404468	3101
960	0.0012106537530266344	7311
1096	0.0012106537530266344	8432
1007	0.001208895359776051	7610
348	0.0012080161631507593	2506
752	0.001204059778336947	5601
405	0.0012027409833990092	2713
407	0.0012005429918357801	2715
755	0.0011987845985851969	5604
357	0.0011961470087093217	2515
510	0.001195707410396676	3208
750	0.0011943886154587384	5515
363	0.0011939490171460926	2521
441	0.0011873550424564051	2833
717	0.0011869154441437593	5212
1254	0.0011864758458311135	9028
220	0.0011851570508931758	813
765	0.0011842778542678842	5705
183	0.0011833986576425925	504
934	0.0011812006660793634	7213
749	0.0011750462897023217	5514
1224	0.0011746066913896757	8904
243	0.0011732878964517382	1104
982	0.001171529503201155	7408
359	0.0011702107082632175	2517
1215	0.001168452315012634	8716
1322	0.0011680127166999882	9705
843	0.001165814725136759	6406
978	0.001160539545385009	7403
863	0.0011600999470723632	6807
176	0.001157462357196488	406
292	0.0011565831605711964	1605
609	0.0011561435622585506	4011
840	0.0011548247673206131	6403
364	0.001149549587568863	2522
930	0.001149549587568863	7209
974	0.001149549587568863	7325
966	0.0011482307926309256	7317
173	0.0011460328010676963	403
1223	0.0011447140061297588	8903
875	0.0011429556128791755	6904
835	0.0011425160145665297	6308
760	0.001142076416253884	5609
789	0.0011407576213159464	6002
1016	0.0011385596297527171	7806
149	0.0011381200314400713	102
185	0.0011381200314400713	506
436	0.0011354824415641964	2828
891	0.0011350428432515506	7006
194	0.0011328448516883213	701
208	0.0011302072618124463	801
289	0.0011302072618124463	1602
827	0.0011302072618124463	6217
831	0.0011297676634998005	6304
347	0.001128009270249217	2505
324	0.0011244924837480505	2203
212	0.0011240528854354046	805
673	0.0011240528854354046	4823
918	0.0011205360989342379	7114
322	0.001117458910745717	2201
1135	0.001117019312433071	8474
546	0.0011077877478675086	3704
695	0.0011033917647410502	5103
981	0.0011033917647410502	7407
1003	0.0011020729698031128	7606
327	0.0011011937731778211	2206
557	0.0011007541748651753	3808
563	0.0010981165849893002	3814
1201	0.0010976769866766543	8702
512	0.0010972373883640085	3210
320	0.0010954789951134252	2105
554	0.0010941602001754876	3805
1095	0.001093281003550196	8431
1057	0.001090643413674321	8304
1222	0.0010880058237984459	8902
191	0.0010875662254858	602
1188	0.0010871266271731542	8546
1286	0.0010858078322352168	9306
210	0.001085368233922571	803
1012	0.0010849286356099251	7615
628	0.0010831702423593416	4205
308	0.0010827306440466958	2002
970	0.0010827306440466958	7321
236	0.0010818514474214042	1005
1288	0.0010805326524834667	9401
199	0.001080093054170821	706
523	0.0010787742592328834	3307
256	0.0010748178744190708	1208
833	0.0010730594811684876	6306
230	0.001071301087917904	909
1062	0.0010695426946673208	8309
379	0.0010673447031040917	2608
288	0.001063388318290279	1601
770	0.001063388318290279	5805
611	0.0010629487199776333	4013
303	0.0010616299250396958	1902
443	0.0010616299250396958	2835
644	0.0010616299250396958	4411
1219	0.00106119032672705	8804
350	0.0010585527368511748	2508
446	0.0010585527368511748	2839
1014	0.0010572339419132374	7801
422	0.0010545963520373622	2814
1011	0.0010545963520373622	7614
1291	0.0010537171554120706	9404
1179	0.0010519587621614873	8537
929	0.0010510795655361957	7208
459	0.0010493211722856124	2904
511	0.0010493211722856124	3209
415	0.001047562779035029	2807
828	0.0010436063942212165	6301
762	0.0010414084026579872	5702
876	0.0010414084026579872	6905
574	0.001039210411094758	3901
371	0.0010387708127821123	2530
575	0.0010378916161568206	3902
521	0.0010317372397797787	3305
729	0.0010317372397797787	5402
444	0.001028660051591258	2836
1149	0.0010282204532786122	8503
265	0.0010211868802762788	1401
1004	0.0010211868802762788	7607
209	0.001020747281963633	802
1227	0.0010181096920877579	8907
597	0.0010150325038992371	3925
216	0.001014592905586591	809
374	0.0010128345123360078	2603
294	0.0010119553157107162	1702
358	0.0010119553157107162	2516
685	0.0010119553157107162	4911
339	0.0010115157173980704	2309
744	0.0010093177258348413	5509
728	0.0010084385292095494	5401
602	0.0010079989308969036	4004
868	0.001007119734271612	6812
285	0.0010066801359589661	1520
634	0.0010062405376463203	4401
897	0.0010058009393336745	7013
948	0.0010000861612692786	7228
1281	0.0009978881697060495	9301
596	0.0009921733916416536	3924
1235	0.0009886566051404868	9007
747	0.0009877774085151952	5512
879	0.00098513981863932	6908
528	0.0009847002203266743	3405
388	0.0009842606220140284	2617
862	0.0009833814253887368	6806
906	0.0009811834338255077	7102
351	0.0009803042372002158	2509
1203	0.0009785458439496326	8704
643	0.0009781062456369867	4410
310	0.000977666647324341	2004
360	0.000977666647324341	2518
1298	0.0009759082540737575	9507
329	0.0009750290574484659	2208
631	0.0009732706641978825	4302
774	0.0009715122709472992	5809
645	0.0009710726726346534	4412
858	0.0009706330743220076	6802
1039	0.0009697538776967158	8201
257	0.00096931427938407	1209
715	0.0009679954844461325	5210
716	0.0009662370911955492	5211
404	0.0009644786979449658	2712
1321	0.0009635995013196741	9704
721	0.0009627203046943825	5305
1152	0.0009618411080690907	8506
1228	0.0009596431165058616	8908
864	0.0009592035181932158	6808
1300	0.0009587639198805699	9601
865	0.0009583243215679241	6809
681	0.0009578847232552783	4907
516	0.0009539283384414658	3214
917	0.000953049141816174	7113
525	0.0009517303468782366	3402
246	0.0009508511502529449	1107
903	0.0009508511502529449	7019
213	0.000950411551940299	806
1204	0.0009499719536276532	8705
790	0.0009482135603770699	6003
849	0.0009477739620644241	6507
1017	0.0009446967738759031	7901
286	0.0009429383806253198	1521
1056	0.0009429383806253198	8303
372	0.000942498782312674	2601
1141	0.0009420591840000282	8480
1313	0.0009359048076229864	9614
947	0.0009354652093103406	7227
378	0.0009345860126850489	2607
411	0.0009337068160597573	2803
1156	0.0009328276194344655	8511
520	0.0009310692261838823	3304
771	0.0009310692261838823	5806
806	0.0009310692261838823	6113
161	0.000928871234620653	208
419	0.0009253544481194864	2811
1013	0.0009253544481194864	7616
1068	0.0009253544481194864	8404
614	0.000923596054868903	4016
577	0.0009227168582436113	3904
423	0.0009218376616183196	2815
247	0.0009213980633056738	1108
1216	0.0009192000717424447	8801
748	0.0009187604734297987	5513
921	0.0009170020801792155	7118
151	0.0009148040886159863	104
513	0.0009143644903033404	3211
537	0.0009134852936780488	3601
390	0.0009121664987401112	2619
1225	0.0009121664987401112	8905
927	0.0009108477038021738	7206
387	0.0009090893105515904	2616
1172	0.0009068913189883612	8530
882	0.0009055725240504237	6911
1076	0.0009033745324871945	8412
1147	0.0009011765409239653	8501
680	0.000899418147673382	4906
1005	0.000899418147673382	7608
152	0.0008989785493607361	105
963	0.0008976597544227986	7314
1101	0.000896780557797507	8437
693	0.0008959013611722152	5101
753	0.0008959013611722152	5602
331	0.0008954617628595694	2301
270	0.0008937033696089861	1504
971	0.0008937033696089861	7322
234	0.0008919449763584027	1003
743	0.0008915053780457569	5508
432	0.0008910657797331111	2824
237	0.0008893073864825277	1006
551	0.0008893073864825277	3802
973	0.0008875489932319443	7324
254	0.0008866697966066527	1206
956	0.000885790599981361	7307
734	0.0008853510016687152	5407
869	0.0008853510016687152	6813
406	0.0008840322067307777	2714
337	0.0008827134117928402	2307
215	0.0008822738134801944	808
669	0.0008818342151675485	4802
933	0.0008796362236043194	7212
1211	0.0008796362236043194	8712
434	0.0008787570269790276	2826
779	0.0008787570269790276	5903
989	0.0008783174286663818	7418
697	0.000877877830353736	5105
652	0.0008774382320410901	4419
1074	0.0008765590354157985	8410
1289	0.0008765590354157985	9402
539	0.0008761194371031526	3603
1078	0.0008752402404778609	8414
221	0.0008730422489146317	814
964	0.0008730422489146317	7315
454	0.0008695254624134651	2849
496	0.0008673274708502358	2942
1002	0.00086688787253759	7605
277	0.0008664482742249442	1511
148	0.0008651294792870067	101
529	0.0008651294792870067	3406
676	0.0008646898809743608	4902
1174	0.000864250282661715	8532
674	0.0008638106843490692	4824
1299	0.0008633710860364234	9508
675	0.0008624918894111317	4901
229	0.00086161269278584	908
928	0.0008602938978479025	7207
975	0.0008585355045973191	7326
763	0.0008580959062846733	5703
699	0.0008576563079720275	5107
1303	0.0008558979147214441	9604
1208	0.0008554583164087983	8709
1177	0.0008550187180961525	8535
788	0.0008541395214708608	6001
599	0.0008532603248455691	4001
1200	0.0008532603248455691	8701
505	0.0008528207265329232	3203
787	0.0008528207265329232	5911
1221	0.0008523811282202774	8901
1063	0.00085106233328234	8310
1277	0.00085106233328234	9206
280	0.0008501831366570482	1514
711	0.0008479851450938191	5206
872	0.0008479851450938191	6901
990	0.0008471059484685274	7419
1018	0.0008462267518432357	7903
1302	0.0008457871535305899	9603
606	0.0008453475552179441	4008
624	0.0008453475552179441	4115
893	0.0008453475552179441	7008
623	0.0008449079569052983	4114
1244	0.0008440287602800065	9018
232	0.0008427099653420691	1001
608	0.0008418307687167773	4010
926	0.0008409515720914857	7205
1197	0.0008409515720914857	8607
1092	0.0008405119737788398	8428
1178	0.0008405119737788398	8536
666	0.0008396327771535482	4706
1142	0.0008396327771535482	8481
1306	0.0008383139822156106	9607
1241	0.0008378743839029648	9015
954	0.000837434785590319	7305
773	0.0008356763923397356	5808
841	0.0008352367940270898	6404
159	0.0008339179990891523	206
604	0.0008299616142753397	4006
297	0.0008286428193374023	1801
535	0.0008273240243994647	3506
607	0.0008268844260868189	4009
620	0.0008260052294615272	4104
830	0.0008246864345235897	6303
312	0.000823807237898298	2006
469	0.000823807237898298	2914
569	0.000823807237898298	3820
694	0.0008233676395856522	5102
701	0.0008224884429603606	5109
1064	0.0008224884429603606	8311
704	0.000821169648022423	5112
1083	0.000821169648022423	8419
983	0.0008207300497097772	7409
1196	0.0008198508530844855	8606
910	0.0008194112547718397	7106
738	0.0008189716564591938	5503
778	0.0008189716564591938	5902
952	0.0008189716564591938	7303
660	0.0008172132632086105	4602
772	0.0008163340665833189	5807
786	0.0008163340665833189	5910
456	0.000815894468270673	2901
741	0.000815894468270673	5506
533	0.0008141360750200897	3503
612	0.0008132568783947979	4014
857	0.0008132568783947979	6801
769	0.0008123776817695063	5804
565	0.0008119380834568605	3816
725	0.0008119380834568605	5309
1198	0.0008119380834568605	8608
550	0.0008110588868315688	3801
664	0.0008110588868315688	4704
1146	0.0008110588868315688	8487
1119	0.0008093004935809854	8455
154	0.0008084212969556938	201
1093	0.000807981698643048	8429
860	0.000807542100330402	6804
1301	0.000807542100330402	9602
457	0.0008066629037051104	2902
767	0.0008062233053924646	5802
1094	0.0008057837070798188	8430
1055	0.0008031461172039437	8302
1175	0.0008022669205786521	8533
792	0.0008009481256407145	6005
809	0.0008009481256407145	6116
1040	0.0008009481256407145	8202
659	0.0008005085273280687	4601
745	0.0007991897323901312	5510
1226	0.0007991897323901312	8906
1046	0.0007987501340774853	8208
426	0.0007961125442016103	2818
672	0.0007956729458889645	4811
273	0.0007952333475763186	1507
493	0.0007952333475763186	2939
603	0.0007947937492636728	4005
698	0.0007947937492636728	5106
754	0.0007947937492636728	5603
615	0.000794354150951027	4017
702	0.0007939145526383812	5110
951	0.0007939145526383812	7302
382	0.0007930353560130894	2611
1043	0.0007930353560130894	8205
735	0.0007921561593877978	5408
977	0.0007921561593877978	7402
1140	0.000791716561075152	8479
393	0.0007903977661372144	2701
953	0.0007903977661372144	7304
1025	0.0007895185695119228	8007
601	0.0007881997745739853	4003
195	0.0007873205779486936	702
965	0.0007873205779486936	7316
412	0.0007868809796360477	2804
197	0.0007851225863854645	704
155	0.0007842433897601727	202
576	0.0007838037914475269	3903
391	0.0007833641931348811	2620
679	0.0007824849965095894	4905
961	0.0007820453981969436	7312
192	0.0007794078083210686	603
823	0.0007789682100084227	6213
1098	0.0007785286116957768	8434
1116	0.0007785286116957768	8452
497	0.0007772098167578394	3006
588	0.0007763306201325477	3915
900	0.0007763306201325477	7016
1021	0.000775451423507256	7907
1081	0.000775451423507256	8417
261	0.0007745722268819643	1213
892	0.0007741326285693185	7007
1309	0.0007732534319440268	9610
1097	0.000772813833631381	8433
301	0.0007723742353187351	1805
1148	0.0007723742353187351	8502
757	0.0007714950386934435	5606
761	0.0007710554403807977	5701
1136	0.0007701762437555059	8475
593	0.0007679782521922768	3920
834	0.0007679782521922768	6307
305	0.0007657802606290476	1904
1066	0.00076446146569111	8402
1202	0.00076446146569111	8703
1259	0.00076446146569111	9033
684	0.0007640218673784642	4910
519	0.0007635822690658184	3303
671	0.0007631426707531726	4810
356	0.0007613842775025892	2514
321	0.0007605050808772976	2106
1207	0.0007600654825646517	8708
873	0.0007591862859393601	6902
913	0.0007591862859393601	7109
1283	0.0007591862859393601	9303
253	0.0007587466876267142	1205
380	0.0007569882943761309	2609
722	0.0007556694994381933	5306
290	0.0007547903028129017	1603
600	0.0007547903028129017	4002
625	0.0007547903028129017	4201
1169	0.0007547903028129017	8526
987	0.0007530319095623183	7413
1089	0.0007521527129370267	8425
1117	0.0007517131146243808	8453
1118	0.0007499547213737974	8454
1060	0.0007481963281232142	8307
1171	0.0007481963281232142	8529
568	0.0007477567298105683	3819
400	0.0007464379348726308	2708
1162	0.000745998336559985	8517
1192	0.000745998336559985	8602
980	0.0007451191399346933	7406
1106	0.0007446795416220474	8442
848	0.0007442399433094016	6506
919	0.0007438003449967557	7115
1150	0.0007433607466841099	8504
1129	0.0007424815500588183	8468
455	0.0007398439601829433	2852
1115	0.0007398439601829433	8451
398	0.0007385251652450057	2706
1233	0.0007380855669323599	9005
1008	0.000737645968619714	7611
495	0.0007372063703070682	2941
582	0.0007372063703070682	3909
885	0.0007367667719944224	6914
542	0.0007363271736817766	3606
1090	0.0007363271736817766	8426
500	0.0007358875753691307	3103
638	0.0007358875753691307	4405
368	0.0007354479770564848	2526
471	0.0007354479770564848	2916
904	0.000735008378743839	7020
1000	0.000735008378743839	7603
507	0.0007341291821185474	3205
267	0.000732370788867964	1501
453	0.0007319311905553182	2847
932	0.0007319311905553182	7211
1143	0.0007319311905553182	8482
781	0.0007314915922426724	5905
1085	0.0007314915922426724	8421
1308	0.0007314915922426724	9609
667	0.0007306123956173807	4707
464	0.000729733198992089	2909
689	0.0007288540023667973	5004
826	0.0007275352074288598	6216
174	0.0007270956091162139	404
299	0.0007262164124909223	1803
381	0.0007253372158656307	2610
344	0.0007248976175529848	2502
1054	0.0007218204293644639	8301
1037	0.0007209412327391722	8112
1138	0.0007209412327391722	8477
425	0.0007200620361138806	2817
736	0.000718743241175943	5501
730	0.0007183036428632972	5403
184	0.0007178640445506514	505
844	0.0007178640445506514	6501
839	0.0007174244462380056	6402
1100	0.0007174244462380056	8436
969	0.0007165452496127139	7320
504	0.0007143472580494847	3202
279	0.0007139076597368389	1513
889	0.0007139076597368389	7004
824	0.0007134680614241931	6214
1067	0.0007125888647989013	8403
861	0.0007121492664862555	6805
506	0.0007117096681736097	3204
1167	0.0007117096681736097	8523
435	0.0007112700698609639	2827
558	0.000710830471548318	3809
883	0.000710830471548318	6912
431	0.0007090720782977347	2823
1161	0.000708192881672443	8516
768	0.0007077532833597972	5803
782	0.0007073136850471513	5906
985	0.0007059948901092138	7411
325	0.0007051156934839222	2204
746	0.0007042364968586304	5511
472	0.000702917701920693	2917
1180	0.0007024781036080471	8538
756	0.0007015989069827554	5605
284	0.0007002801120448179	1518
1213	0.0007002801120448179	8714
633	0.0006998405137321721	4304
1287	0.0006998405137321721	9307
555	0.0006994009154195263	3806
483	0.0006989613171068804	2928
1139	0.0006980821204815887	8478
300	0.0006972029238562971	1804
627	0.0006958841289183595	4203
478	0.0006945653339804221	2923
1153	0.0006945653339804221	8507
905	0.0006941257356677762	7101
1122	0.0006941257356677762	8459
944	0.0006936861373551304	7224
1032	0.0006932465390424845	8107
1080	0.0006932465390424845	8416
1102	0.0006928069407298387	8438
884	0.0006923673424171928	6913
1050	0.0006923673424171928	8212
238	0.0006914881457919012	1007
777	0.0006914881457919012	5901
949	0.0006914881457919012	7229
1006	0.0006906089491666096	7609
227	0.0006897297525413178	906
180	0.0006844545727895678	410
559	0.0006844545727895678	3810
571	0.0006844545727895678	3823
1320	0.0006844545727895678	9703
156	0.0006831357778516303	203
345	0.0006822565812263387	2503
591	0.0006813773846010469	3918
940	0.0006804981879757553	7220
1070	0.0006800585896631095	8406
157	0.0006783001964125261	204
354	0.0006783001964125261	2512
724	0.0006783001964125261	5308
1045	0.0006778605980998802	8207
1311	0.0006778605980998802	9612
731	0.0006774209997872344	5404
1187	0.0006774209997872344	8545
1127	0.0006765418031619428	8465
1182	0.0006765418031619428	8540
566	0.0006752230082240052	3817
810	0.0006752230082240052	6117
1160	0.0006752230082240052	8515
433	0.0006747834099113594	2825
200	0.0006743438115987136	707
1157	0.0006734646149734219	8512
1285	0.0006708270250975469	9305
458	0.000670387426784901	2903
1252	0.0006699478284722552	9026
751	0.0006690686318469635	5516
486	0.0006673102385963801	2932
448	0.0006668706402837343	2841
1212	0.0006668706402837343	8713
578	0.0006659914436584427	3905
939	0.0006659914436584427	7219
630	0.0006655518453457968	4301
1255	0.0006655518453457968	9029
920	0.000665112247033151	7117
1114	0.000665112247033151	8450
252	0.0006642330504078593	1204
163	0.0006637934520952135	210
896	0.0006637934520952135	7011
1265	0.0006629142554699218	9106
1145	0.000662474657157276	8486
1151	0.000662474657157276	8505
514	0.0006607162639066926	3212
733	0.0006607162639066926	5406
784	0.0006607162639066926	5908
986	0.0006607162639066926	7412
1061	0.0006593974689687551	8308
972	0.0006589578706561092	7323
1189	0.0006589578706561092	8547
1217	0.0006571994774055259	8802
647	0.0006567598790928801	4414
304	0.0006563202807802343	1903
158	0.0006554410841549426	205
416	0.0006554410841549426	2808
460	0.0006554410841549426	2905
355	0.0006550014858422967	2513
950	0.0006545618875296509	7301
1245	0.0006545618875296509	9019
1026	0.0006532430925917133	8101
580	0.0006528034942790675	3907
1183	0.0006523638959664217	8541
586	0.0006514846993411301	3913
1058	0.0006514846993411301	8305
1155	0.0006514846993411301	8509
1292	0.0006510451010284842	9405
517	0.0006506055027158384	3215
536	0.0006506055027158384	3507
663	0.0006506055027158384	4703
688	0.0006501659044031925	5003
1088	0.0006501659044031925	8424
1107	0.0006492867077779009	8443
338	0.0006475283145273175	2308
1133	0.0006475283145273175	8472
440	0.0006470887162146716	2832
370	0.0006466491179020258	2529
1079	0.0006466491179020258	8415
162	0.00064620951958938	209
629	0.00064620951958938	4206
1024	0.00064620951958938	8003
1038	0.00064620951958938	8113
696	0.0006457699212767342	5104
271	0.0006453303229640884	1505
686	0.0006448907246514425	5001
942	0.0006444511263387966	7222
945	0.0006440115280261508	7225
385	0.0006426927330882133	2614
481	0.00064093433983763	2926
703	0.00064093433983763	5111
1073	0.0006400551432123383	8409
776	0.0006396155448996925	5811
1099	0.0006396155448996925	8435
1125	0.0006391759465870467	8462
475	0.0006378571516491091	2920
1249	0.0006378571516491091	9023
775	0.0006374175533364633	5810
1159	0.0006369779550238175	8514
409	0.0006365383567111716	2801
909	0.0006365383567111716	7105
1236	0.0006365383567111716	9008
466	0.0006352195617732341	2911
508	0.0006352195617732341	3206
1247	0.0006352195617732341	9021
532	0.0006330215702100049	3502
1015	0.000632581971897359	7804
1033	0.0006321423735847132	8108
564	0.0006312631769594216	3815
683	0.0006303839803341298	4909
1305	0.0006303839803341298	9606
274	0.0006295047837088382	1508
1206	0.0006295047837088382	8707
150	0.0006290651853961924	103
572	0.0006286255870835466	3824
413	0.0006277463904582549	2805
785	0.0006268671938329632	5909
1041	0.0006264275955203173	8203
825	0.0006255483988950257	6215
377	0.0006237900056444423	2606
389	0.0006237900056444423	2618
878	0.0006233504073317965	6907
258	0.0006215920140812131	1210
1023	0.0006211524157685673	8002
1091	0.0006211524157685673	8427
386	0.0006207128174559215	2615
394	0.0006207128174559215	2702
871	0.0006207128174559215	6815
888	0.0006207128174559215	7003
988	0.0006207128174559215	7415
531	0.0006198336208306298	3501
852	0.000619394022517984	6603
1181	0.000619394022517984	8539
1307	0.0006176356292674006	9608
462	0.0006163168343294632	2907
470	0.0006163168343294632	2915
943	0.0006158772360168172	7223
1256	0.0006154376377041714	9030
473	0.0006132396461409423	2918
552	0.0006128000478282964	3803
526	0.0006110416545777131	3403
573	0.0006110416545777131	3825
908	0.0006110416545777131	7104
479	0.0006106020562650673	2924
1280	0.0006106020562650673	9209
946	0.0006097228596397755	7226
1030	0.0006084040647018381	8105
1137	0.0006079644663891922	8476
178	0.0006075248680765464	408
228	0.0006070852697639005	907
1284	0.0006070852697639005	9304
160	0.0006066456714512547	207
1126	0.0006062060731386089	8463
1209	0.000605766474825963	8710
632	0.0006048872782006714	4303
1124	0.0006040080815753797	8461
353	0.0006035684832627338	2511
1173	0.0006035684832627338	8531
976	0.0006026892866374422	7401
1170	0.0006026892866374422	8527
326	0.0006013704916995046	2205
561	0.000600491295074213	3812
1022	0.0005987329018236296	8001
1190	0.0005987329018236296	8548
534	0.0005982933035109838	3505
1194	0.000597853705198338	8604
1185	0.0005969745085730463	8543
361	0.0005965349102604005	2519
410	0.0005965349102604005	2802
333	0.0005952161153224629	2303
467	0.0005943369186971713	2912
1059	0.0005943369186971713	8306
793	0.0005938973203845255	6006
417	0.0005934577220718796	2809
1048	0.0005930181237592337	8210
494	0.0005908201321960046	2940
427	0.000589501337258067	2819
492	0.0005890617389454212	2938
1010	0.000586863747382192	7613
1163	0.0005864241490695462	8518
984	0.0005855449524442546	7410
396	0.0005846657558189629	2704
581	0.000584226157506317	3908
846	0.0005833469608810253	6504
1251	0.0005833469608810253	9025
450	0.0005824677642557337	2844
1176	0.0005824677642557337	8534
408	0.0005820281659430879	2716
996	0.000581588567630442	7507
1103	0.0005807093710051503	8439
298	0.0005802697726925045	1802
1258	0.0005802697726925045	9032
621	0.0005798301743798587	4105
1131	0.0005793905760672129	8470
367	0.0005785113794419211	2525
421	0.0005776321828166295	2813
477	0.0005771925845039837	2922
491	0.0005767529861913378	2937
589	0.0005754341912534003	3916
887	0.0005754341912534003	7002
198	0.0005749945929407544	705
461	0.0005745549946281086	2906
527	0.0005745549946281086	3404
553	0.0005745549946281086	3804
1229	0.0005732361996901712	9001
791	0.0005727966013775252	6004
890	0.0005723570030648794	7005
275	0.0005719174047522336	1509
899	0.0005714778064395878	7015
1246	0.0005688402165637127	9020
1276	0.0005688402165637127	9205
847	0.0005684006182510669	6505
570	0.0005679610199384211	3821
1069	0.0005679610199384211	8405
1315	0.0005679610199384211	9616
727	0.0005675214216257753	5311
941	0.0005670818233131294	7221
272	0.0005648838317499003	1506
366	0.0005648838317499003	2524
1164	0.0005644442334372543	8519
1205	0.0005644442334372543	8706
1028	0.0005618066435613794	8103
1210	0.0005618066435613794	8711
691	0.0005613670452487335	5006
1111	0.0005604878486234418	8447
1250	0.0005604878486234418	9024
1087	0.000560048250310796	8423
1072	0.0005591690536855044	8408
780	0.0005587294553728584	5904
682	0.0005565314638096293	4908
395	0.0005556522671843376	2703
585	0.0005556522671843376	3912
719	0.0005556522671843376	5302
967	0.0005556522671843376	7318
268	0.0005552126688716918	1502
518	0.000554773070559046	3302
1071	0.000554773070559046	8407
992	0.0005538938739337543	7502
485	0.0005534542756211085	2930
1075	0.0005516958823705251	8411
235	0.0005508166857452335	1004
783	0.0005481790958693584	5907
397	0.0005472998992440667	2705
764	0.000546420702618775	5704
901	0.0005459811043061292	7017
1253	0.0005455415059934834	9027
465	0.0005451019076808376	2910
1317	0.0005446623093681918	9618
677	0.0005433435144302542	4903
1084	0.0005424643178049626	8420
489	0.0005415851211796708	2935
626	0.0005415851211796708	4202
1184	0.0005415851211796708	8542
1279	0.000541145522867025	9208
515	0.0005407059245543792	3213
1132	0.0005402663262417334	8471
1271	0.0005398267279290875	9112
233	0.00053850793299115	1002
480	0.0005371891380532125	2925
870	0.0005367495397405667	6814
1165	0.0005358703431152749	8521
1240	0.0005349911464899833	9014
1257	0.0005349911464899833	9031
1242	0.0005345515481773375	9016
1105	0.0005336723515520458	8441
1144	0.0005336723515520458	8483
997	0.0005310347616761708	7508
1263	0.000530595163363525	9104
1020	0.0005297159667382332	7905
567	0.0005292763684255874	3818
1077	0.0005283971718002958	8413
509	0.00052795757348765	3207
911	0.00052795757348765	7107
352	0.0005275179751750041	2510
476	0.0005266387785497124	2921
1042	0.0005266387785497124	8204
592	0.0005261991802370666	3919
1052	0.0005261991802370666	8214
424	0.0005253199836117749	2816
501	0.0005244407869864832	3104
1193	0.0005244407869864832	8603
598	0.0005182864106094415	3926
874	0.0005182864106094415	6903
1297	0.0005174072139841498	9506
548	0.0005160884190462124	3706
437	0.0005147696241082748	2829
503	0.000514330025795629	3201
373	0.0005130112308576914	2602
1275	0.0005130112308576914	9202
309	0.0005121320342323998	2003
856	0.0005121320342323998	6704
1234	0.0005121320342323998	9006
474	0.0005103736409818165	2919
562	0.0005103736409818165	3813
687	0.0005090548460438789	5002
855	0.0005090548460438789	6703
1029	0.0005090548460438789	8104
1121	0.0005090548460438789	8458
346	0.0005086152477312331	2504
1130	0.0005077360511059415	8469
1128	0.0005068568544806497	8467
1112	0.0005050984612300664	8448
490	0.0005046588629174206	2936
915	0.0005046588629174206	7111
1166	0.0005046588629174206	8522
1049	0.0005042192646047747	8211
330	0.0005037796662921289	2209
262	0.0005033400679794831	1214
438	0.0005033400679794831	2830
726	0.0005024608713541914	5310
449	0.0005015816747288997	2843
579	0.0005011420764162539	3906
420	0.000500702478103608	2812
894	0.0005002628797909622	7009
584	0.0004993836831656706	3911
1019	0.0004985044865403788	7904
880	0.000498064888227733	6909
1248	0.0004971856916024414	9022
1191	0.0004967460932897955	8601
1266	0.0004967460932897955	9107
979	0.0004963064949771497	7405
1027	0.0004958668966645038	8102
1154	0.0004958668966645038	8508
938	0.000495427298351858	7218
1260	0.000495427298351858	9101
190	0.0004936689051012747	601
583	0.0004936689051012747	3910
428	0.0004927897084759829	2820
662	0.0004927897084759829	4702
1238	0.0004923501101633371	9011
488	0.0004914709135380455	2934
845	0.0004914709135380455	6502
766	0.0004897125202874621	5801
384	0.0004892729219748163	2613
993	0.0004870749304115871	7504
1243	0.0004870749304115871	9017
1294	0.0004870749304115871	9503
1272	0.00048619573378629543	9113
1113	0.0004857561354736496	8449
700	0.0004853165371610038	5108
739	0.0004853165371610038	5504
1237	0.0004848769388483579	9010
1134	0.0004844373405357121	8473
1282	0.0004831185455977746	9302
349	0.00048267894728512876	2507
968	0.00048179975065983706	7319
995	0.00048092055403454537	7506
429	0.00048048095572189955	2821
1123	0.0004796017590966079	8460
226	0.0004787225624713162	905
484	0.0004782829641586704	2929
1168	0.0004778433658460245	8525
1270	0.0004778433658460245	9111
463	0.0004769641692207329	2908
1296	0.00047564537428279537	9505
1214	0.0004752057759701495	8715
249	0.00047476617765750367	1201
649	0.00047388698103221203	4416
244	0.00047344738271956616	1105
1086	0.0004725681860942745	8422
1220	0.0004716889894689828	8805
556	0.00047080979284369113	3807
482	0.0004703701945310453	2927
877	0.0004694909979057536	6906
1104	0.00046817220296781615	8440
1218	0.00046729300634252446	8803
718	0.0004655346130919411	5301
902	0.00046377621984135774	7018
445	0.0004633366215287119	2837
898	0.0004624574249034203	7014
924	0.0004606990316528369	7203
605	0.00045981983502754525	4007
850	0.00045850104008960773	6601
994	0.0004571822451516702	7505
1323	0.0004563030485263785	970
487	0.0004554238519010869	2933
1268	0.0004545446552757952	9109
1316	0.0004545446552757952	9617
451	0.000452346663712566	2845
737	0.00045146746708727434	5502
1231	0.00045146746708727434	9003
439	0.000449709073836691	2831
276	0.0004488298772113993	1510
622	0.0004483902788987535	4106
1230	0.0004479506805861076	9002
1269	0.0004466318856481701	9110
1044	0.00044399429577229513	8206
1312	0.00044311509914700343	9613
1318	0.00044223590252171174	9701
851	0.0004409171075837742	6602
678	0.00043871911602054507	4904
1120	0.00043827951770789925	8457
1273	0.0004356419278320242	9114
922	0.000433443936268795	7201
543	0.0004330043379561492	3701
224	0.0004321251413308575	903
670	0.0004316855430182117	4807
560	0.00043124594470556586	3811
530	0.00043080634639292	3407
1261	0.00042860835482969083	9102
1108	0.0004264103632664616	8444
720	0.0004259707649538158	5303
705	0.0004246519700158783	5113
442	0.0004237727733905866	2834
369	0.00042289357676529495	2528
1304	0.00042289357676529495	9605
452	0.00042201438014000326	2846
1274	0.00042157478182735744	9201
334	0.0004211351835147116	2304
732	0.00041673920038825325	5405
1053	0.00041234321726179484	8215
690	0.0004110244223238574	5005
547	0.0004101452256985657	3705
1036	0.000409266029073274	8111
587	0.00040882643076062817	3914
181	0.0004079472341353365	501
657	0.0004022324560709406	4503
447	0.0004017928577582948	2840
269	0.0004009136611330031	1503
692	0.00040047406282035726	5007
418	0.00040003446450771144	2810
613	0.0003995948661950656	4015
665	0.0003995948661950656	4705
1110	0.0003982760712571281	8446
375	0.0003969572763191906	2604
335	0.0003965176780065447	2305
723	0.0003951988830686072	5307
1314	0.0003951988830686072	9615
1065	0.0003912424982547947	8401
1262	0.00039080289994214884	9103
1047	0.000390363301629503	8209
991	0.0003886049083789197	7501
376	0.00038816531006627387	2605
1278	0.000387725711753628	9207
742	0.0003864069168156905	5507
545	0.00038332972862716963	3703
661	0.00038332972862716963	4701
914	0.0003820109336892321	7110
182	0.0003806921387512946	502
251	0.0003806921387512946	1203
430	0.0003802525404386488	2822
654	0.0003802525404386488	4421
1158	0.00037981294212600296	8513
859	0.00037717535225012793	6803
544	0.00037629615562483624	3702
549	0.00037014177924779454	3707
468	0.0003657457961213362	2913
1195	0.00036530619780869036	8605
1295	0.0003591518214316486	9504
1319	0.0003591518214316486	9702
248	0.00035827262480635696	1109
1267	0.0003578330264937111	9108
658	0.0003565142315557736	4504
1109	0.0003534370433672527	8445
1051	0.0003525578467419611	8213
540	0.00033541351254877345	3604
1031	0.0003292591361717317	8106
656	0.0003217859648567525	4502
1310	0.0003209067682314608	9611
383	0.00031255440029118994	2612
1232	0.00030552082728885655	9004
1264	0.0002936516728474189	9105
1239	0.0002848597065945022	9013
853	0.00028266171503127304	6701
854	0.0002782657319048147	6702
655	0.00027474894540364795	4501
1035	0.00026639657746337704	8110
1034	0.0002655173808380854	8109
