153	0.003219938769158457	106
925	0.0029579292034274027	7204
402	0.0029511804721888755	2710
616	0.0027606280607481086	4100
293	0.0027427637721755367	1701
255	0.002724105515221962	1207
259	0.002699492495410863	1211
640	0.002683613127790799	4407
169	0.0026081861315954955	306
166	0.002511718973303607	303
813	0.0024966335740645466	6203
617	0.002491075795397524	4101
619	0.0024847240483494987	4103
999	0.0024493924553948563	7602
332	0.0024414527715848245	2302
912	0.0024176337201547286	7108
266	0.0023513373603409617	1404
365	0.0023378398978639073	2523
260	0.002304096241671272	1212
618	0.002300920368147259	4102
401	0.002235814960904997	2709
706	0.002235814960904997	5201
206	0.002228669245475968	713
222	0.0022024682889028625	901
240	0.0021869859054733003	1101
641	0.0021123528776590002	4408
165	0.0021000463677534505	302
323	0.0021000463677534505	2202
231	0.0020980614468009426	910
796	0.002069081600894326	6103
168	0.0020468504862262366	305
211	0.0020202525454626297	804
636	0.002017473656129118	4403
832	0.002010724924890591	6305
836	0.002005961114604572	6309
707	0.001972217458411936	5202
797	0.0019718204742214347	6104
595	0.0019650717429829075	3923
802	0.001932916023552278	6109
341	0.0019309311025997701	2402
795	0.0019245793555517446	6102
814	0.0019237853871707413	6204
167	0.0019233884029802397	304
637	0.0019206095136467284	4404
642	0.0019039361776456614	4409
340	0.0018959964938356296	2401
798	0.0018586799799284793	6105
799	0.0018586799799284793	6106
186	0.001838433786212898	507
295	0.0018360518810698883	1703
336	0.0018189815608783196	2306
202	0.001812629813830294	709
524	0.0018118358454492908	3401
283	0.0017943685410672205	1517
263	0.001791986635924211	1301
250	0.001786031873066687	1202
187	0.001776107268304147	508
201	0.0017653886951606039	708
499	0.0017443485330640193	3102
794	0.0017336299599204762	6101
962	0.0017185445606814154	7313
291	0.0017165596397289075	1604
800	0.0017082229717283739	6107
807	0.001704253129823358	6114
282	0.0016975043985848308	1516
223	0.0016967104302038276	902
801	0.0016840069361077764	6108
170	0.0016812280467742653	307
758	0.0016812280467742653	5607
315	0.0016792431258217573	2009
225	0.0016748762997262398	904
342	0.0016582029637251727	2403
803	0.0016339869281045752	6110
403	0.0016320020071520672	2711
343	0.001630017086199559	2501
164	0.0016268412126755464	301
817	0.0016216804181990257	6207
907	0.0016038161296264538	7103
822	0.0016018312086739457	6212
895	0.0016018312086739457	7010
207	0.0015875397778158883	714
541	0.0015704694576243196	3605
307	0.0015688815208623132	2001
650	0.0015684845366718116	4417
313	0.0015653086631477989	2007
538	0.0015585599319092717	3602
172	0.0015577659635282685	402
837	0.0015569719951472652	6310
819	0.0015518112006707445	6209
815	0.0015482383429562302	6205
759	0.0015426805642892076	5608
923	0.001539504690765195	7202
241	0.0015391077065746933	1102
502	0.0015383137381936901	3105
653	0.001537519769812687	4420
242	0.0015323589753361662	1103
635	0.0015236253231451311	4402
811	0.0015236253231451311	6201
842	0.0015041730978105528	6405
217	0.0015025851610485463	810
639	0.0015025851610485463	4406
821	0.0014994092875245336	6211
709	0.0014958364298100193	5204
264	0.0014950424614290161	1302
319	0.0014867057934284825	2104
668	0.0014815449989519617	4800
239	0.0014807510305709585	1008
881	0.0014795600779994537	6910
958	0.0014795600779994537	7309
208	0.0014787661096184504	801
805	0.0014716203941894219	6112
708	0.0014696354732369138	5203
651	0.0014660626155223995	4418
188	0.0014648716629508947	510
245	0.0014616957894268818	1106
281	0.0014601078526648755	1515
1001	0.0014581229317123675	7604
317	0.0014553440423788564	2102
214	0.001450580232092837	807
204	0.0014481983269498276	711
710	0.0014474043585688244	5205
978	0.0014410526115207988	7403
998	0.0014378767379967861	7601
714	0.0014374797538062845	5209
1322	0.0014362888012347797	9705
296	0.0014347008644727732	1704
405	0.0014287461016152493	2713
399	0.0014255702280912366	2707
816	0.0014255702280912366	6206
712	0.0014235853071387285	5207
713	0.001423188322948227	5208
362	0.0014188214968527094	2520
818	0.0014124697498046838	6208
205	0.0014100878446616741	712
175	0.001408499907899668	405
808	0.001408499907899668	6115
414	0.0014081029237091663	2806
218	0.0014065149869471598	811
189	0.0014021481608516423	511
203	0.001401354192470639	710
316	0.0014005602240896359	2101
179	0.0013997662557086326	409
812	0.001388650698374588	6202
916	0.0013870627616125815	7112
935	0.001380711014564556	7214
210	0.0013751532358975335	803
1199	0.001368007520468505	8609
804	0.0013676105362780033	6111
287	0.0013668165678970001	1522
196	0.0013656256153254953	703
838	0.0013465703741814185	6401
314	0.0013426005322764026	2008
820	0.0013394246587523897	6210
392	0.0013322789433233612	2621
1293	0.0013310879907518563	9406
243	0.0013267211646563388	1104
867	0.0013199724334178116	6811
318	0.0013191784650368084	2103
357	0.0013179875124653035	2515
292	0.001315605607322294	1605
308	0.0013152086231317925	2002
348	0.0013104448128457731	2506
829	0.0013100478286552717	6302
936	0.0013044900499882492	7215
937	0.0013044900499882492	7217
193	0.0013040930657977478	604
955	0.0013025051290357413	7306
328	0.0013009171922737349	2207
1186	0.0013009171922737349	8544
149	0.0012945654452257093	102
306	0.0012925805242732014	1905
278	0.0012913895717016966	1512
422	0.001290992587511195	2814
646	0.001287816713987182	4413
311	0.001285037824653671	2005
498	0.0012818619511296581	3101
866	0.0012814649669391565	6810
151	0.0012699524254146102	104
721	0.0012667765518905975	5305
960	0.001265188615128591	7311
717	0.0012572489313185593	5212
681	0.0012560579787470544	4907
236	0.001251691152651537	1005
212	0.001245736389794013	805
374	0.001245736389794013	2603
322	0.00124256051627	2201
183	0.0012381936901744825	504
441	0.0012282690854119426	2833
220	0.0012242992435069265	813
1009	0.0012242992435069265	7612
363	0.001223902259316425	2521
230	0.0012235052751259233	909
752	0.0012223143225544187	5601
610	0.0012155655913158915	4012
219	0.001213977654553885	812
966	0.001213977654553885	7317
831	0.0012135806703633834	6304
194	0.001211992733601377	701
740	0.001203259081410342	5505
645	0.0012028620972198403	4412
833	0.0012012741604578339	6306
750	0.0012008771762673323	5515
755	0.0011980982869338212	5604
459	0.001197304318552818	2904
906	0.0011961133659813131	7102
379	0.0011945254292193067	2608
611	0.0011937314608383037	4013
1222	0.0011909525715047924	8902
599	0.0011861887612187733	4001
957	0.0011861887612187733	7308
765	0.0011849978086472684	5705
1290	0.001173485267122722	9403
563	0.001171500346170214	3814
1224	0.0011711033619797124	8904
177	0.0011703093935987094	407
209	0.0011699124094082078	802
436	0.0011699124094082078	2828
286	0.0011683244726462014	1521
574	0.0011683244726462014	3901
407	0.0011675305042651981	2715
934	0.001166736535884195	7213
297	0.0011659425675031917	1801
594	0.0011643546307411854	3922
359	0.0011599878046456677	2517
959	0.0011599878046456677	7310
372	0.0011591938362646645	2601
324	0.0011583998678836615	2203
358	0.0011572089153121566	2516
364	0.001156811931121655	2522
303	0.0011556209785501502	1902
749	0.0011544300259786454	5514
886	0.0011540330417881437	7001
522	0.0011536360575976421	3306
415	0.0011524451050261375	2807
171	0.001150857168264131	401
1254	0.001150857168264131	9028
185	0.0011500631998831278	506
1095	0.0011480782789306198	8431
1011	0.0011452993895971087	7614
191	0.001144902405406607	602
331	0.0011445054212161055	2301
371	0.0011421235160730958	2530
590	0.0011421235160730958	3917
256	0.0011393446267395847	1208
265	0.001136962721596575	1401
982	0.0011349778006440672	7408
875	0.0011345808164535656	6904
930	0.0011302139903580479	7209
1012	0.00112822906940554	7615
695	0.0011242592275005241	5103
327	0.001123465259119521	2206
1082	0.0011230682749290193	8418
918	0.0011218773223575145	7114
648	0.0011214803381670128	4415
931	0.0011214803381670128	7210
1223	0.001120289385595508	8903
1007	0.0011179074804524985	7610
302	0.0011155255753094889	1806
863	0.0011155255753094889	6807
388	0.001114334622737984	2617
760	0.0011087768440709617	5609
827	0.0011063949389279522	6217
1057	0.0011028220812134377	8304
1227	0.0010992492234989234	8907
216	0.0010964703341654121	809
289	0.0010952793815939073	1602
891	0.001089721602926885	7006
554	0.001088927634545882	3805
843	0.001087736681974377	6406
1215	0.0010873396977838755	8716
329	0.001085751761021869	2208
981	0.0010849577926408658	7407
1135	0.00108098795073585	8474
748	0.001077812077211837	5513
443	0.001077018108830834	2835
840	0.0010762241404498308	6403
1096	0.001075033187878326	8432
444	0.0010742392194973227	2836
173	0.00107106334597331	403
176	0.001069078425020802	406
199	0.001069078425020802	706
387	0.001065108583115786	2616
762	0.001063123662163278	5702
277	0.0010627266779727764	1511
1225	0.0010623296937822748	8905
693	0.0010619327095917732	5101
510	0.001060344772829767	3208
789	0.0010599477886392653	6002
828	0.0010579628676867573	6301
347	0.0010575658834962556	2505
770	0.001057168899305754	5805
557	0.0010539930257817414	3808
927	0.001049229215495722	7206
1286	0.0010488322313052204	9306
1300	0.0010488322313052204	9601
1204	0.001046450326162211	8705
390	0.001045259373590706	2619
1298	0.0010444654052097029	9507
1201	0.001040495563304687	8702
917	0.0010393046107331821	7113
1003	0.001037319689780674	7606
575	0.0010349377846376646	3902
1016	0.0010349377846376646	7806
1235	0.001034540800447163	9007
929	0.001032555879494655	7208
423	0.00103136492692315	2815
350	0.0010301739743516455	2508
928	0.0010301739743516455	7207
634	0.001028586037589639	4401
673	0.001028586037589639	4823
546	0.0010254101640656264	3704
285	0.0010234252431131183	1520
609	0.001022631274732115	4011
970	0.001022631274732115	7321
360	0.0010210433379701086	2518
835	0.001020646353779607	6308
631	0.0010182644486365976	4302
406	0.0010127066699695752	2714
868	0.001011912701588572	6812
806	0.0010115157173980704	6113
229	0.0010107217490170671	908
1288	0.0010083398438740575	9401
382	0.001007942859683556	2611
320	0.0010047669861595432	2105
1179	0.00100397301777854	8537
858	0.001001988096826032	6802
1014	0.001001988096826032	7801
1291	0.0009996061916830224	9404
192	0.000998018254921016	603
237	0.0009972242865400128	1006
512	0.0009960333339685081	3210
1228	0.0009956363497780065	8908
974	0.0009944453972065017	7325
644	0.0009936514288254985	4411
378	0.0009904755553014858	2607
1017	0.0009904755553014858	7901
761	0.000988093650158476	5701
1277	0.000986108729205968	9206
628	0.0009853147608249648	4205
744	0.0009849177766344632	5509
1219	0.000980153966348444	8804
155	0.0009789630137769395	202
213	0.0009769780928244314	806
257	0.0009741992034909202	1209
294	0.0009738022193004186	1702
339	0.0009710233299669074	2309
716	0.0009706263457764058	5211
393	0.0009702293615859042	2701
660	0.0009642745987283802	4602
288	0.0009595107884423611	1601
310	0.0009591138042518595	2004
523	0.0009591138042518595	3307
246	0.000957525867489853	1107
1152	0.0009571288832993515	8506
747	0.0009559379307278467	5512
596	0.0009547469781563419	3924
1062	0.0009547469781563419	8309
1281	0.000950777136251326	9301
454	0.0009487922152988179	2849
511	0.0009456163417748051	3209
521	0.0009440284050127988	3305
921	0.000940852531488786	7118
701	0.0009396615789172812	5109
1149	0.0009396615789172812	8503
270	0.0009392645947267796	1504
729	0.0009380736421552748	5402
849	0.0009360887212027668	6507
380	0.0009345007844407604	2609
597	0.0009325158634882524	3925
694	0.0009325158634882524	5102
643	0.0009321188792977508	4410
602	0.0009305309425357445	4004
215	0.0009301339583452429	808
879	0.0009269580848212301	6908
1004	0.0009261641164402269	7607
897	0.0009245761796782205	7013
862	0.0009237822112972173	6806
715	0.0009217972903447093	5210
876	0.0009217972903447093	6905
1188	0.0009214003061542077	8546
1221	0.0009198123693922013	8901
1321	0.0009198123693922013	9704
1002	0.0009182244326301949	7605
159	0.0009166364958681885	206
351	0.000916239511677687	2509
404	0.0009158425274871854	2712
680	0.0009158425274871854	4906
1018	0.0009146515749156805	7903
221	0.0009126666539631726	814
977	0.0009106817330106646	7402
1313	0.0009090937962486582	9614
697	0.0009086968120581566	5105
426	0.0009031390333911342	2818
434	0.0009015510966291279	2826
790	0.0009011541124386263	6003
659	0.0008999631598671214	4601
1093	0.0008936114128190958	8429
948	0.0008916264918665879	7228
537	0.0008912295076760863	3601
520	0.0008908325234855847	3304
279	0.0008888476025330767	1513
412	0.000883686808056556	2804
254	0.0008828928396755528	1206
446	0.0008828928396755528	2839
728	0.0008809079187230448	5401
865	0.0008805109345325432	6809
1302	0.0008793199819610383	9603
232	0.0008785260135800352	1001
337	0.0008781290293895336	2307
152	0.0008773350610085304	105
674	0.0008769380768180288	4824
1203	0.0008761441084370256	8704
841	0.0008757471242465241	6404
1039	0.0008741591874845176	8201
1241	0.0008733652191035144	9015
301	0.000871777282341508	1805
419	0.0008709833139605048	2811
652	0.0008709833139605048	4419
872	0.0008705863297700032	6901
456	0.0008697923613890001	2901
432	0.0008693953771984985	2824
247	0.0008686014088174953	1108
195	0.0008674104562459904	702
148	0.0008646315669124792	101
743	0.0008622496617694697	5508
774	0.0008622496617694697	5809
505	0.0008590737882454569	3203
910	0.0008582798198644538	7106
711	0.0008578828356739522	5206
1094	0.0008570888672929489	8430
345	0.000855103946340441	2503
864	0.000855103946340441	6808
411	0.0008515310886259266	2803
685	0.000851134104435425	4911
625	0.0008495461676734186	4201
261	0.0008479582309114122	1213
161	0.0008459733099589042	208
675	0.0008455763257684026	4901
273	0.0008427974364348914	1507
496	0.0008420034680538882	2942
1216	0.0008420034680538882	8801
952	0.0008416064838633866	7303
550	0.0008408125154823835	3801
954	0.0008404155312918819	7305
623	0.0008388275945298754	4114
669	0.0008368426735773675	4802
400	0.0008356517210058626	2708
1141	0.0008336668000533547	8480
464	0.0008332698158628531	2909
769	0.0008332698158628531	5804
528	0.0008324758474818498	3405
1177	0.0008324758474818498	8535
234	0.0008296969581483387	1003
983	0.0008285060055768339	7409
1244	0.0008285060055768339	9018
809	0.0008253301320528211	6116
551	0.0008245361636718179	3802
990	0.0008241391794813163	7419
238	0.0008213602901478051	1007
1074	0.0008213602901478051	8410
1301	0.0008209633059573035	9602
513	0.0008189783850047956	3211
1056	0.0008189783850047956	8303
386	0.000814611558909278	2615
601	0.000814611558909278	4003
381	0.0008138175905282748	2610
577	0.0008130236221472716	3904
614	0.0008090537802422557	4016
1196	0.0008086567960517541	8606
529	0.0008078628276707508	3406
903	0.0008070688592897476	7019
913	0.0008070688592897476	7109
525	0.0008062748909087444	3402
1174	0.0008058779067182429	8532
788	0.0008027020331942301	6001
869	0.0008027020331942301	6813
734	0.0008019080648132269	5407
1208	0.0008019080648132269	8709
519	0.0008011140964322237	3303
1289	0.0008011140964322237	9402
699	0.0007991291754797157	5107
771	0.0007991291754797157	5806
964	0.0007979382229082109	7315
569	0.0007975412387177093	3820
767	0.0007963502861462045	5802
493	0.000793968381003195	2939
666	0.0007935713968126933	4706
792	0.0007931744126221917	6005
1156	0.0007923804442411885	8511
1178	0.0007923804442411885	8536
1211	0.0007911894916696838	8712
973	0.0007903955232886806	7324
516	0.0007896015549076773	3214
947	0.0007896015549076773	7227
919	0.0007892045707171757	7115
1013	0.0007884106023361726	7616
1172	0.0007884106023361726	8530
882	0.0007876166339551694	6911
612	0.0007872196497646678	4014
624	0.0007872196497646678	4115
312	0.0007868226655741662	2006
298	0.0007852347288121598	1802
779	0.0007852347288121598	5903
300	0.0007816618710976454	1804
689	0.000780073934335639	5004
157	0.0007788829817641342	204
391	0.0007784859975736326	2620
989	0.0007753101240496198	7418
184	0.0007741191714781151	505
1116	0.0007713402821446038	8452
433	0.0007709432979541023	2825
539	0.0007705463137636007	3603
763	0.0007669734560490863	5703
971	0.0007657825034775815	7322
1005	0.00076538551928708	7608
299	0.0007649885350965783	1803
933	0.0007641945667155751	7212
1147	0.0007634005983345719	8501
457	0.0007626066299535687	2902
905	0.000761415677382064	7101
1078	0.000761415677382064	8414
1101	0.000761415677382064	8437
1167	0.0007610186931915623	8523
704	0.000759430756429556	5112
227	0.0007586367880485528	906
773	0.0007582398038580512	5808
893	0.0007578428196675495	7008
154	0.0007574458354770479	201
377	0.0007574458354770479	2606
965	0.0007566518670960448	7316
975	0.0007566518670960448	7326
280	0.0007562548829055432	1514
772	0.00075546091452454	5807
787	0.0007538729777625335	5911
1068	0.0007530790093815304	8404
1299	0.0007526820251910288	9508
368	0.0007518880568100256	2526
321	0.0007503001200480192	2106
963	0.0007503001200480192	7314
839	0.0007499031358575176	6402
1037	0.000749506151667016	8112
565	0.0007487121832860128	3816
1320	0.0007475212307145081	9703
844	0.0007471242465240064	6501
1046	0.0007463302781430032	8208
1025	0.0007459332939525016	8007
568	0.0007451393255714985	3819
741	0.0007451393255714985	5506
1030	0.0007443453571904953	8105
733	0.0007439483729999937	5406
926	0.0007431544046189904	7205
951	0.0007431544046189904	7302
1064	0.0007431544046189904	8311
738	0.0007415664678569841	5503
253	0.0007407724994759809	1205
1076	0.0007399785310949776	8412
1129	0.0007399785310949776	8468
956	0.0007387875785234729	7307
987	0.0007383905943329713	7413
909	0.0007375966259519681	7105
857	0.0007364056733804633	6801
823	0.0007352147208089585	6213
1117	0.0007332297998564506	8453
1200	0.000732832815665949	8701
197	0.0007320388472849457	704
953	0.0007320388472849457	7304
1303	0.0007304509105229394	9604
664	0.0007300539263324378	4704
1023	0.0007300539263324378	8002
1306	0.0007296569421419362	9607
1197	0.0007284659895704313	8607
535	0.0007280690053799297	3506
702	0.0007276720211894282	5110
830	0.0007276720211894282	6303
604	0.000726878052808425	4006
431	0.0007260840844274218	2823
980	0.0007256871002369201	7406
1148	0.0007256871002369201	8502
753	0.0007248931318559169	5602
1043	0.0007244961476654154	8205
1063	0.0007244961476654154	8310
620	0.000722908210903409	4104
448	0.0007213202741414026	2841
1175	0.0007213202741414026	8533
735	0.0007197323373793962	5408
698	0.0007193353531888946	5106
834	0.0007189383689983931	6307
290	0.0007185413848078914	1603
676	0.0007177474164268882	4902
500	0.000716953448045885	3103
469	0.0007161594796648818	2914
1309	0.0007137775745218722	9610
507	0.0007133805903313706	3205
228	0.0007129836061408691	907
826	0.0007121896377598659	6216
1226	0.0007121896377598659	8906
409	0.0007106017009978594	2801
688	0.0007102047168073579	5003
860	0.0007098077326168563	6804
608	0.0007094107484263547	4010
889	0.0007090137642358531	7004
200	0.0007086167800453515	707
576	0.0007086167800453515	3903
638	0.0007082197958548499	4405
1139	0.0007070288432833451	8478
566	0.0007066318590928435	3817
754	0.0007066318590928435	5603
1287	0.0007066318590928435	9307
542	0.000704249953949834	3606
686	0.000704249953949834	5001
778	0.000704249953949834	5902
533	0.0007030590013783291	3503
615	0.0007022650329973259	4017
810	0.0007014710646163228	6117
356	0.0007010740804258212	2514
1162	0.0007010740804258212	8517
724	0.0007006770962353195	5308
1000	0.0007006770962353195	7603
1098	0.0007006770962353195	8434
1150	0.0007002801120448179	8504
1308	0.0006975012227113068	9609
1083	0.000694325349187294	8419
354	0.0006935313808062907	2512
885	0.0006935313808062907	6914
600	0.0006907524914727796	4002
305	0.0006891645547107732	1904
1106	0.0006871796337582652	8442
757	0.0006867826495677637	5606
304	0.000686385665377262	1903
633	0.000686385665377262	4304
745	0.000686385665377262	5510
180	0.0006859886811867604	410
398	0.0006859886811867604	2706
663	0.0006859886811867604	4703
1259	0.0006851947128057572	9033
593	0.0006847977286152556	3920
1283	0.0006847977286152556	9303
355	0.000684400744424754	2513
883	0.000684400744424754	6912
725	0.0006840037602342525	5309
385	0.0006812248709007413	2614
1136	0.0006808278867102397	8475
884	0.0006804309025197381	6913
961	0.0006800339183292365	7312
684	0.0006792399499482332	4910
671	0.0006788429657577316	4810
1008	0.00067844598156723	7611
1090	0.00067844598156723	8426
1040	0.0006780489973767285	8202
1119	0.0006772550289957253	8455
1140	0.0006772550289957253	8479
504	0.0006768580448052237	3202
588	0.0006752701080432173	3915
1055	0.0006752701080432173	8302
370	0.0006748731238527157	2529
746	0.0006748731238527157	5511
344	0.0006744761396622141	2502
1092	0.0006744761396622141	8428
976	0.0006736821712812109	7401
606	0.0006728882029002077	4008
630	0.0006728882029002077	4301
1151	0.0006720942345192045	8505
1217	0.0006716972503287029	8802
1233	0.0006713002661382013	9005
1171	0.0006677274084236869	8529
366	0.0006669334400426837	2524
1021	0.0006669334400426837	7907
338	0.0006661394716616806	2308
1142	0.0006661394716616806	8481
727	0.0006653455032806774	5311
824	0.0006645515348996741	6214
848	0.0006633605823281694	6506
158	0.000659787724613655	205
1143	0.0006574058194706454	8482
1070	0.0006562148668991406	8406
627	0.0006554208985181374	4203
497	0.0006550239143276359	3006
768	0.0006542299459466326	5803
174	0.000653832961756131	404
252	0.0006526420091846262	1204
825	0.0006522450249941246	6215
1192	0.0006522450249941246	8602
472	0.0006506570882321182	2917
786	0.0006486721672796103	5910
900	0.0006486721672796103	7016
1247	0.0006486721672796103	9021
607	0.0006474812147081055	4009
1024	0.0006454962937555975	8003
1311	0.0006454962937555975	9612
603	0.0006450993095650959	4005
1146	0.0006450993095650959	8487
672	0.0006443053411840927	4811
722	0.000643908356993591	5306
1133	0.000643908356993591	8472
1169	0.0006435113728030894	8526
353	0.0006431143886125879	2511
471	0.0006427174044220863	2916
1198	0.0006427174044220863	8608
1183	0.0006423204202315847	8541
416	0.0006419234360410831	2808
687	0.0006411294676600799	5002
410	0.0006407324834695783	2802
1114	0.0006407324834695783	8450
667	0.0006399385150885751	4707
1118	0.0006379535941360671	8454
555	0.000637159625755064	3806
325	0.0006359686731835591	2204
271	0.0006355716889930575	1505
784	0.0006355716889930575	5908
486	0.0006323958154690447	2932
503	0.0006323958154690447	3201
582	0.0006323958154690447	3909
1089	0.0006323958154690447	8425
992	0.0006319988312785431	7502
1066	0.0006319988312785431	8402
1260	0.0006316018470880416	9101
573	0.00063120486289754	3825
950	0.00063120486289754	7301
453	0.0006304108945165368	2847
1022	0.0006300139103260352	8001
1122	0.0006300139103260352	8459
1182	0.0006300139103260352	8540
435	0.0006296169261355335	2827
1060	0.0006296169261355335	8307
1202	0.0006296169261355335	8703
730	0.0006288229577545304	5403
1138	0.0006288229577545304	8477
1033	0.0006284259735640288	8108
679	0.0006280289893735272	4905
1115	0.0006276320051830256	8451
394	0.000627235020992524	2702
425	0.000627235020992524	2817
458	0.0006264410526115208	2903
274	0.0006256470842305176	1508
846	0.0006256470842305176	6504
1054	0.0006256470842305176	8301
932	0.000625250100040016	7211
571	0.0006244561316590128	3823
892	0.0006244561316590128	7007
1161	0.0006240591474685112	8516
904	0.0006228681948970065	7020
1236	0.0006228681948970065	9008
1209	0.0006220742265160032	8710
782	0.0006216772423255016	5906
1255	0.0006216772423255016	9029
696	0.0006196923213729937	5104
559	0.0006192953371824921	3810
1079	0.0006161194636584793	8415
1081	0.0006161194636584793	8417
413	0.000615325495277476	2805
586	0.000615325495277476	3913
481	0.0006149285110869744	2926
1207	0.0006133405743249681	8708
373	0.0006129435901344665	2602
408	0.0006121496217534633	2716
781	0.0006121496217534633	5905
1015	0.0006121496217534633	7804
1058	0.0006121496217534633	8305
940	0.0006117526375629616	7220
506	0.0006073858114674441	3204
1059	0.0006061948588959393	8306
972	0.0006057978747054377	7323
1050	0.0006054008905149362	8212
326	0.000604606922133933	2205
1010	0.000604606922133933	7613
949	0.0006034159695624281	7229
1184	0.0006034159695624281	8542
736	0.0006018280328004218	5501
873	0.0006018280328004218	6902
1085	0.0006014310486099202	8421
1213	0.0006014310486099202	8714
567	0.0006006370802289169	3818
417	0.0006002400960384153	2809
552	0.0005998431118479138	3803
756	0.0005998431118479138	5605
427	0.0005994461276574122	2819
920	0.0005990491434669106	7117
1165	0.000598652159276409	8521
629	0.0005978581908954058	4206
284	0.0005974612067049041	1518
647	0.0005970642225144025	4414
150	0.000596667238323901	103
861	0.000596667238323901	6805
896	0.000596667238323901	7011
578	0.0005962702541333994	3905
1160	0.0005962702541333994	8515
1006	0.0005958732699428978	7609
536	0.0005954762857523962	3507
1194	0.000594682317371393	8604
908	0.0005942853331808914	7104
751	0.0005938883489903899	5516
1163	0.0005934913647998882	8518
791	0.000592697396418885	6004
455	0.0005923004122283834	2852
985	0.0005919034280378818	7411
1111	0.0005919034280378818	8447
495	0.0005915064438473802	2941
899	0.0005911094596568787	7015
888	0.0005907124754663771	7003
1252	0.0005899185070853738	9026
775	0.0005879335861328659	5810
1180	0.0005875366019423643	8538
1026	0.000586742633561361	8101
1061	0.0005859486651803578	8308
703	0.0005847577126088531	5111
352	0.0005831697758468466	2510
1097	0.0005823758074658435	8433
1279	0.0005819788232753419	9208
1189	0.0005803908865133355	8547
776	0.0005799939023228339	5811
1080	0.0005799939023228339	8416
1153	0.0005795969181323322	8507
483	0.0005791999339418307	2928
1245	0.0005791999339418307	9019
558	0.0005780089813703259	3809
1100	0.0005780089813703259	8436
1102	0.0005780089813703259	8438
632	0.0005772150129893227	4303
514	0.0005768180287988211	3212
163	0.0005752300920368147	210
591	0.0005752300920368147	3918
268	0.0005748331078463131	1502
1032	0.0005736421552748084	8107
267	0.0005716572343223003	1501
531	0.0005716572343223003	3501
478	0.0005712602501317987	2923
1045	0.0005712602501317987	8207
1155	0.0005704662817507956	8509
1265	0.0005704662817507956	9106
1315	0.0005704662817507956	9616
450	0.0005688783449887891	2844
726	0.0005680843766077859	5310
1157	0.0005668934240362812	8512
249	0.0005664964398457796	1201
1099	0.000566099455655278	8435
1145	0.0005657024714647764	8486
460	0.0005645115188932716	2905
437	0.00056411453470277	2829
1107	0.0005637175505122684	8443
1130	0.0005625265979407636	8469
777	0.0005617326295597605	5901
944	0.0005613356453692588	7224
719	0.000560144692797754	5302
969	0.0005597477086072524	7320
1249	0.0005593507244167508	9023
361	0.0005589537402262493	2519
621	0.000558159771845246	4105
1041	0.0005573658034642428	8203
473	0.0005569688192737412	2918
683	0.0005569688192737412	4909
1048	0.0005569688192737412	8210
1067	0.0005561748508927381	8403
1256	0.0005549838983212333	9030
1187	0.0005537929457497284	8545
258	0.0005533959615592269	1210
856	0.0005529989773687253	6704
564	0.0005526019931782237	3815
1132	0.0005526019931782237	8471
1190	0.0005526019931782237	8548
1292	0.0005526019931782237	9405
878	0.0005510140564162172	6907
793	0.0005502200880352141	6006
1127	0.0005498231038447125	8465
1137	0.0005498231038447125	8476
156	0.0005494261196542109	203
501	0.0005494261196542109	3104
1164	0.0005494261196542109	8519
852	0.0005490291354637093	6603
1212	0.0005490291354637093	8713
939	0.0005486321512732077	7219
275	0.0005482351670827061	1509
1305	0.0005478381828922045	9606
979	0.000547441198701703	7405
847	0.0005458532619396965	6505
346	0.0005450592935586933	2504
160	0.0005434713567966869	207
508	0.0005422804042251821	3206
462	0.000541486435844179	2907
553	0.0005410894516536774	3804
580	0.0005406924674631758	3907
942	0.0005406924674631758	7222
984	0.0005387075465106678	7410
1170	0.0005383105623201662	8527
1091	0.0005379135781296646	8427
945	0.000537516593939163	7225
1285	0.0005371196097486614	9305
491	0.0005367226255581597	2937
389	0.0005363256413676581	2618
477	0.0005363256413676581	2922
526	0.0005343407204151502	3403
1125	0.0005339437362246486	8462
1084	0.0005331497678436453	8420
1088	0.0005331497678436453	8424
1159	0.0005331497678436453	8514
915	0.0005327527836531438	7111
871	0.0005323557994626422	6815
384	0.0005319588152721406	2613
397	0.0005319588152721406	2705
1176	0.0005319588152721406	8534
470	0.000531561831081639	2915
492	0.000531561831081639	2938
162	0.0005303708785101342	209
190	0.0005299738943196327	601
561	0.0005291799259386294	3812
585	0.0005287829417481278	3912
479	0.0005279889733671246	2924
396	0.0005267980207956199	2704
1173	0.0005264010366051183	8531
517	0.000525607068224115	3215
1229	0.000525607068224115	9001
1242	0.000525607068224115	9016
440	0.0005248130998431118	2832
986	0.0005240191314621087	7412
1206	0.0005236221472716071	8707
1304	0.0005236221472716071	9605
376	0.0005232251630811055	2605
1087	0.0005224311947001022	8423
395	0.0005220342105096006	2703
1263	0.0005212402421285975	9104
475	0.0005204462737475943	2920
785	0.0005196523053665911	5909
1181	0.0005196523053665911	8539
1185	0.0005196523053665911	8543
570	0.0005192553211760895	3821
272	0.0005188583369855878	1506
1103	0.0005188583369855878	8439
1124	0.0005188583369855878	8461
1071	0.0005184613527950863	8407
532	0.0005180643686045847	3502
1019	0.0005176673844140831	7904
589	0.0005172704002235815	3916
466	0.0005160794476520767	2911
1075	0.000515682463461575	8411
178	0.0005152854792710735	408
461	0.0005144915108900703	2906
731	0.0005140945266995687	5404
1307	0.0005136975425090671	9608
677	0.0005133005583185655	4903
1250	0.0005121096057470608	9024
262	0.0005113156373660575	1214
1126	0.0005113156373660575	8463
1028	0.0005109186531755559	8103
1131	0.0005101246847945527	8470
1168	0.0005101246847945527	8525
1038	0.0005097277006040512	8113
1317	0.0005097277006040512	9618
1134	0.0005093307164135496	8473
870	0.000508933732223048	6814
1284	0.0005085367480325464	9304
534	0.0005077427796515431	3505
226	0.0005073457954610415	905
1191	0.0005073457954610415	8601
1280	0.0005073457954610415	9209
764	0.0005065518270800384	5704
333	0.0005061548428895368	2303
943	0.0005053608745085336	7223
1271	0.000504963890318032	9112
1246	0.0005041699219370287	9020
941	0.0005025819851750224	7221
988	0.0005025819851750224	7415
224	0.0005005970642225144	903
449	0.0005002000800320128	2843
924	0.0005002000800320128	7203
198	0.0004986121432700064	705
527	0.0004982151590795049	3404
572	0.0004982151590795049	3824
518	0.0004962302381269968	3302
1069	0.0004954362697459936	8405
581	0.0004946423013649905	3908
946	0.0004946423013649905	7226
1052	0.0004946423013649905	8214
1276	0.0004942453171744889	9205
780	0.0004938483329839872	5904
467	0.0004926573804124824	2912
494	0.0004906724594599745	2940
901	0.0004894815068884697	7017
1240	0.0004890845226979681	9014
887	0.0004870996017454601	7002
997	0.0004870996017454601	7508
1294	0.0004831297598404441	9503
1251	0.00048114483888793614	9025
1296	0.00048114483888793614	9505
367	0.00048074785469743453	2525
451	0.00048074785469743453	2845
626	0.0004787629337449265	4202
783	0.00047836594955442496	5907
488	0.00047796896536392335	2934
1230	0.00047796896536392335	9002
556	0.00047757198117342174	3807
235	0.00047638102860191696	1004
1270	0.00047638102860191696	9111
1275	0.00047598404441141534	9202
1042	0.0004755870602209138	8204
1166	0.00047320515507790417	8522
485	0.00047280817088740255	2930
421	0.00047161721831589777	2813
682	0.0004708232499348946	4908
1210	0.0004700292815538914	8711
1258	0.0004700292815538914	9032
605	0.0004696322973633898	4007
1205	0.0004696322973633898	8706
657	0.0004692353131728882	4503
993	0.0004692353131728882	7504
662	0.0004688383289823866	4702
720	0.0004672503922203802	5303
465	0.0004660594396488754	2910
429	0.00046367753450586585	2821
700	0.00046367753450586585	5108
995	0.00046328055031536424	7506
1323	0.00046248658193436107	970
369	0.00046089864517235467	2528
1238	0.00046089864517235467	9011
233	0.00046010467679135145	1002
1218	0.0004597076926008499	8803
1072	0.00045851674002934505	8408
911	0.0004581197558388435	7107
622	0.00045692880326733866	4106
890	0.0004565318190768371	7005
894	0.0004553408665053323	7009
438	0.0004549438823148307	2830
845	0.0004545468981243291	6502
1027	0.0004537529297433259	8102
691	0.0004533559455528243	5006
335	0.00045216499298131953	2305
877	0.0004517680087908179	6906
1073	0.0004517680087908179	8409
1316	0.0004517680087908179	9617
330	0.0004513710246003163	2209
737	0.0004513710246003163	5502
718	0.00044938610364780835	5301
1123	0.00044938610364780835	8460
1253	0.00044938610364780835	9027
445	0.0004485921352668051	2837
598	0.0004485921352668051	3926
476	0.0004481951510763035	2921
967	0.0004481951510763035	7318
515	0.00044740118269530034	3213
649	0.00044700419850479873	4416
1112	0.0004450192775522908	8448
418	0.00044422530917128755	2810
428	0.00044382832498078594	2820
855	0.0004434313407902844	6703
968	0.0004434313407902844	7319
1154	0.0004434313407902844	8508
562	0.0004422403882187796	3813
996	0.0004402554672662716	7507
1269	0.0004402554672662716	9110
509	0.0004370795937422588	3207
1257	0.00043469768859924924	9031
1243	0.0004343007044087476	9017
1029	0.000433903720218246	8104
1261	0.000433903720218246	9102
442	0.00043350673602774446	2834
1234	0.00043350673602774446	9006
1214	0.00043310975183724284	8715
766	0.00043152181507523645	5801
489	0.0004307278466942332	2935
938	0.0004307278466942332	7218
1077	0.00043033086250373167	8413
309	0.00042953689412272844	2003
244	0.00042636102059871565	1105
665	0.00042636102059871565	4705
1237	0.0004259640364082141	9010
548	0.0004247730838367093	3706
420	0.0004208032419316933	2812
1272	0.0004208032419316933	9113
1121	0.00042040625774119174	8458
1297	0.0004200092735506901	9506
1268	0.0004196122893601885	9109
1128	0.00041881832097918534	8467
1220	0.00041842133678868373	8805
1248	0.00041842133678868373	9022
874	0.00041603943164567417	6903
334	0.00041484847907416933	2304
463	0.00041365752650266455	2908
902	0.00041365752650266455	7018
850	0.0004128635581216614	6601
1036	0.0004128635581216614	8111
1231	0.0004128635581216614	9003
490	0.000411275621359655	2936
922	0.00041048165297865176	7201
251	0.0004084967320261438	1203
1262	0.0004080997478356422	9103
276	0.0004077027636451406	1510
1113	0.0004077027636451406	8449
474	0.0004069087952641374	2919
1049	0.0004061148268831342	8211
1144	0.0004061148268831342	8483
1312	0.000405320858502131	9613
349	0.0004049238743116294	2507
1282	0.0004049238743116294	9302
584	0.00040254196916861984	3911
181	0.00040135101659711505	501
592	0.00040095403240661344	3919
670	0.00040095403240661344	4807
424	0.00040055704821611183	2816
1105	0.00040055704821611183	8441
880	0.00039976307983510866	6909
1314	0.00039896911145410543	9615
487	0.00039738117469209904	2933
583	0.00039619022212059426	3910
613	0.00039619022212059426	4015
1158	0.0003957932379300927	8513
1266	0.0003918233960250767	9107
439	0.0003914264118345751	2831
375	0.0003906324434535719	2604
723	0.0003894414908820671	5307
1318	0.0003886475225010639	9701
579	0.0003878535541200607	3906
739	0.0003874565699295591	5504
430	0.00038547164897705116	2822
452	0.00038507466478654955	2846
1273	0.00038507466478654955	9114
851	0.00038308974383404154	6602
654	0.00038229577545303837	4421
1086	0.0003811048228815336	8422
547	0.0003795168861195272	3705
1120	0.0003791199019290256	8457
480	0.0003775319651670192	2925
1020	0.0003755470442145112	7905
1193	0.0003755470442145112	8603
690	0.0003743560916430064	5005
1053	0.0003743560916430064	8215
678	0.00037395910745250484	4904
732	0.000372768154881	5405
991	0.00037237117069049844	7501
1104	0.00037078323392849205	8440
994	0.0003699892655474888	7505
1108	0.00036919529716648565	8444
484	0.00036800434459498087	2929
661	0.0003648284710709681	4701
182	0.0003632405343089617	502
560	0.0003592706924039457	3811
1044	0.0003556978346894313	8206
482	0.00035331592954642176	2927
898	0.00035291894535592014	7014
447	0.00035133100859391375	2840
1267	0.00034934608764140574	9108
269	0.00034339132478388183	1503
914	0.0003414064038313738	7110
859	0.0003362456093548531	6803
587	0.00033426068840234507	3914
383	0.0003318787832593355	2612
530	0.0003314817990688339	3407
1065	0.0003298938623068275	8401
1047	0.0003287029097353227	8209
248	0.0003279089413543195	1109
543	0.00032751195716381793	3701
549	0.00032592402040181154	3707
1031	0.00032592402040181154	8106
1278	0.00032592402040181154	9207
1295	0.0003247330678303067	9504
1274	0.00032076322592529074	9201
1051	0.0003187783049727828	8213
658	0.0003167933840202748	4504
1319	0.0003144114788772652	9702
1110	0.000313617510496262	8446
692	0.0003132205263057604	5007
705	0.0003128235421152588	5113
540	0.0003124265579247572	3604
545	0.0003072657634482364	3703
1195	0.0003005170322097093	8605
1035	0.00030012004801920766	8110
1109	0.0002933713167806805	8445
742	0.00029178338001867413	5507
1264	0.0002798738543036262	9105
1239	0.000279079885922623	9013
1310	0.000277094964970115	9611
853	0.0002691552811600831	6701
544	0.0002679643285885783	3702
656	0.0002639944866835623	4502
468	0.0002624065499215559	2913
854	0.0002508940083970096	6702
1232	0.0002501000400160064	9004
655	0.00024533622972998723	4501
1034	0.0002203262257283866	8109
