401	0.005050523556692279	2709
153	0.00495616976110474	106
402	0.004901206385034327	2710
925	0.004283173756331475	7204
169	0.004199812635958018	306
255	0.004132329824227124	1207
616	0.0040633202520498285	4100
912	0.004015990678211418	7108
706	0.003908201390695556	5201
293	0.0039023997009992343	1701
640	0.0038666735065534664	4407
618	0.003854764775071544	4102
332	0.003779953513197928	2302
259	0.0036981191532708705	1211
166	0.0034938386055425067	303
222	0.00341383635815113	901
619	0.003283451016028542	4103
260	0.003250472990386295	1212
403	0.003158562011512995	2711
836	0.0031396301819776313	6309
617	0.0031228358170672277	4101
206	0.0030987130020141023	713
641	0.002960083153480953	4408
999	0.002957029632588152	7602
165	0.0029338228738028673	302
636	0.002928937240374386	4403
263	0.0029173338609817436	1301
168	0.002848934992983009	305
211	0.002830613867626205	804
266	0.002830613867626205	1404
250	0.0028043535879481193	1202
240	0.0027915288001983565	1101
340	0.0027383975366636255	2401
231	0.002728931621895943	910
365	0.002688930498200255	2523
813	0.0026825181043253735	6203
223	0.0026547310642008877	902
707	0.0026086228987195976	5202
186	0.002605264025737517	507
167	0.002569537831291749	304
499	0.0025133530468642172	3102
201	0.002461748543775886	708
907	0.0024385417849906014	7103
341	0.0024073958718840347	2402
796	0.002396403196669952	6103
170	0.0023838837610094697	307
208	0.0023777767192238682	801
797	0.002353348552081463	6104
798	0.0022855603882612884	6105
795	0.002282201515279208	6102
832	0.0022779265860292867	6305
802	0.0022709034879758454	6109
642	0.0022583840523153625	4409
323	0.0022110544784769526	2202
978	0.002208000957584152	7403
164	0.0022009778595307103	301
807	0.002185404902977427	6114
637	0.0021802139174596663	4404
599	0.0021533429336030203	4001
295	0.0021405181458532575	1703
151	0.002128304062282055	104
708	0.0021157846266215722	5203
202	0.0021041812472289297	709
1322	0.0020989902617111686	9705
422	0.002090745755300607	2814
207	0.002077004911283004	714
297	0.002072729982033083	1801
342	0.0020568516733905197	2403
187	0.002043721533551477	508
283	0.002043416181462197	1517
210	0.002040362660569396	803
281	0.0020330342104266748	1515
291	0.002030591393712434	1604
245	0.0020284539290874736	1106
336	0.002016239845516271	2306
799	0.0019890635095703452	6106
282	0.001970131680034981	1516
405	0.0019689102716778607	2713
794	0.0019618871736244194	6101
225	0.001957001540195938	904
239	0.001955780131838818	1008
241	0.0019279930917143321	1102
635	0.0019191378811252101	4402
721	0.001904480980839767	5305
837	0.001903564924571927	6310
998	0.0018837170387687226	7601
639	0.0018834116866794427	4406
645	0.00187150295519752	4412
524	0.0018681440822154393	3401
962	0.0018611209841619977	7313
188	0.0018547085902871165	510
713	0.0018373035211981528	5208
541	0.0018315018315018315	3605
242	0.0018311964794125515	1103
710	0.0018226466209127095	5205
814	0.0018101271852522269	6204
374	0.0018095164810736667	2603
459	0.0018064629601808662	2904
538	0.0017814240888599008	3602
287	0.0017768438075206998	1522
308	0.0017765384554314198	2002
906	0.0017579119779853357	7102
196	0.0017569959217174956	703
172	0.0017530263445568548	402
803	0.0017426443735213326	6110
372	0.0017316516983072502	2601
315	0.00173134634621797	2009
923	0.0017298195857715698	7202
595	0.001721575079361008	3923
214	0.001712109164593326	807
313	0.0017087502916112453	2007
217	0.0017084449395219652	810
399	0.001702948601914924	2707
714	0.0017017271935578038	5209
653	0.0017011164893792436	4420
895	0.001698673672665003	7010
650	0.0016925666308794018	4417
392	0.0016852381807366803	2621
717	0.0016537869155408334	5212
815	0.0016479852258445122	6205
681	0.0016473745216659522	4907
801	0.001641878184058911	6108
362	0.0016354657901840295	2520
811	0.0016064573417024235	6201
498	0.0016015717082739423	3101
264	0.001600350299916822	1302
343	0.0015960753706669012	2501
709	0.0015924111455955404	5204
1199	0.0015887469205241797	8609
204	0.0015884415684348995	711
759	0.0015878308642563394	5608
382	0.001581113118292178	2611
380	0.0015786703015779374	2609
1225	0.0015563795990604927	8905
821	0.0015472190363820908	6211
758	0.0015450815717571304	5607
574	0.00154416551548929	3901
286	0.0015417226987750495	1521
388	0.0015258443901324862	2617
236	0.0015191266441683248	1005
817	0.0014940877728473593	6207
712	0.0014895074915081583	5207
358	0.0014864539706153578	2516
189	0.0014809576330083165	511
348	0.0014800415767404764	2506
935	0.001478209464204796	7214
800	0.0014769880558476757	6107
331	0.0014760719995798356	2301
819	0.0014748505912227153	6209
502	0.001473934534954875	3105
277	0.0014708810140620745	1511
149	0.001459582986758712	102
646	0.0014464528469196691	4413
192	0.0014424832697590283	603
345	0.0014394297488662276	2503
193	0.0014385136925983875	604
822	0.0014369869321519872	6212
292	0.0014330173549913464	1605
820	0.0014281317215628652	6210
563	0.0014278263694735853	3814
316	0.0014241621444022244	2101
278	0.0014238567923129445	1512
203	0.001417749750527343	710
237	0.0014146962296345425	1006
328	0.0014098105962060614	2207
936	0.0014027874981526198	7215
916	0.0014012607377062196	7112
1222	0.0013997339772598193	8902
191	0.0013979018647241389	602
610	0.0013966804563670186	4012
371	0.0013960697521884584	2530
1204	0.0013957644000991783	8705
651	0.0013927108792063778	4418
209	0.001384466372795816	802
329	0.0013826342602601355	2208
842	0.0013820235560815753	6405
314	0.001370420176688933	2008
298	0.0013688934162425326	1802
748	0.001366450599528292	5513
958	0.0013621756702783712	7309
379	0.0013597328535641306	2608
319	0.00135637398058205	2104
212	0.001352099051332129	805
311	0.0013511829950642888	2005
1277	0.0013502669387964487	9206
833	0.0013499615867071685	6306
414	0.0013484348262607683	2806
927	0.0013478241220822081	7206
831	0.0013453813053679676	6304
230	0.0013447706011894074	909
818	0.0013435491928322871	6208
243	0.001337136798957406	1104
307	0.0013362207426895656	2001
611	0.0013362207426895656	4013
761	0.0013276708841897238	5701
386	0.0013264494758326035	2615
805	0.0013200370819577221	6112
393	0.0013169835610649216	2701
752	0.001314540744350681	5601
406	0.0013127086318150006	2714
928	0.0013127086318150006	7207
1001	0.0013078229983865197	7604
219	0.0013032427170473187	812
423	0.0013032427170473187	2815
816	0.0013026320128687585	6206
693	0.0013023266607794784	5101
220	0.0012995784919759578	813
179	0.0012986624357081175	409
205	0.0012983570836188375	712
1235	0.0012974410273509974	9007
194	0.001295608914815317	701
804	0.0012904179292975559	6111
387	0.0012788145499049134	2616
296	0.0012782038457263532	1704
324	0.0012778984936370732	2203
322	0.0012699593393157914	2201
436	0.0012687379309586713	2828
185	0.0012656844100658706	506
303	0.0012641576496194703	1902
829	0.00126324159335163	6302
1221	0.00126293624126235	8901
175	0.0012623255370837899	405
265	0.0012614094808159496	1401
317	0.0012607987766373894	2102
960	0.0012601880724588293	7311
464	0.0012598827203695493	2909
917	0.0012559131432089085	7113
390	0.0012549970869410682	2619
812	0.0012467525805305065	6202
441	0.001244920467994826	2833
881	0.001229958215620103	6910
765	0.0012284314551737026	5705
575	0.0012229351175666613	3902
867	0.001221103005030981	6811
256	0.0012125531465311391	1208
918	0.0012088889214597785	7114
806	0.0012079728651919381	6113
183	0.0012049193442991376	504
363	0.0012021711754956169	2521
279	0.0012009497671384968	1513
426	0.0012003390629599367	2818
1228	0.001197896246245696	8908
1223	0.0011966748378885758	8903
838	0.0011945373732636154	6401
456	0.001192705260727935	2901
407	0.0011820179376031328	2715
863	0.001178964416710332	6807
216	0.0011780483604424917	809
357	0.0011749948395496912	2515
1293	0.001174078783281851	9406
238	0.00116980385403193	1007
1009	0.0011658342768712893	7612
199	0.0011643075164248888	706
695	0.0011618646997106484	5103
1224	0.0011582004746392876	8904
660	0.0011563683621036071	4602
444	0.0011551469537464869	2836
155	0.0011536201933000866	202
977	0.0011533148412108064	7402
415	0.001145986391068085	2807
1227	0.0011432382222645644	8907
701	0.0011429328701752844	5109
377	0.0011374365325682431	2606
327	0.001136825828389683	2206
350	0.0011349937158540025	2508
755	0.0011310241386933617	5604
934	0.0011282759698898412	7213
749	0.0011264438573541607	5514
1093	0.0011255278010863206	8429
808	0.0011191154072114392	6115
966	0.0011154511821400784	7317
762	0.001113924421693678	5702
1152	0.0011093441403544771	8506
891	0.0011090387882651972	7006
921	0.0011065959715509566	7118
1011	0.0011053745631938363	7614
318	0.0010977407609618346	2103
261	0.0010968247046939945	1213
1057	0.0010928551275333537	8304
229	0.0010922444233547935	908
400	0.001089801606640553	2708
828	0.0010891909024619928	6301
668	0.0010870534378370324	4800
694	0.001079724987694311	5102
1018	0.0010794196356050307	7903
270	0.0010775875230693503	1504
955	0.0010739232979979896	7306
1095	0.0010720911854623092	8431
378	0.0010644573832303075	2607
1135	0.0010565182289090258	8474
454	0.0010546861163733454	2849
412	0.0010537700601055053	2804
1017	0.0010531593559269452	7901
909	0.0010504111871234246	7105
1002	0.001047357666230624	7605
750	0.0010439987932485432	5515
937	0.0010418613286235826	7217
688	0.001038807807730782	5003
381	0.001038502455641502	2610
886	0.001038502455641502	7001
554	0.0010348382305701413	3805
770	0.0010308686534095004	5805
347	0.001024456259534619	2505
1030	0.001024456259534619	8105
218	0.0010229294990882186	811
285	0.0010183492177490176	1520
1012	0.0010125475280526965	7615
1186	0.0010094940071598958	8544
306	0.0010091886550706156	1905
411	0.0010091886550706156	2803
827	0.001006440486267095	6217
301	0.0010046083737314147	1805
1320	0.0010015548528386142	9703
981	0.0010000280923922137	7407
1260	0.0009978906277672533	9101
631	0.000996363867320853	4302
1094	0.0009948371068744526	8430
982	0.0009814016149461298	7408
929	0.0009807909107675697	7208
364	0.0009798748544997294	2522
566	0.0009798748544997294	3817
493	0.0009768213336069289	2939
443	0.0009762106294283687	2835
299	0.0009704089397320475	1803
173	0.0009697982355534873	403
687	0.0009667447146606866	5002
868	0.0009667447146606866	6812
1300	0.0009667447146606866	9601
300	0.0009646072500357262	1804
257	0.0009618590812322056	1209
872	0.000954530631089484	6901
359	0.000954225279000204	2517
740	0.0009472021809467625	5505
659	0.0009462861246789223	4601
360	0.0009438433079646817	2518
177	0.0009349880973755599	407
952	0.0009340720411077196	7303
1241	0.0009337666890184396	9015
1298	0.0009258275346971579	9507
835	0.0009255221826078778	6308
905	0.0009206365491793968	7101
1003	0.0009203311970901167	7606
434	0.0009200258450008367	2826
1321	0.0009200258450008367	9704
1217	0.0009197204929115566	8802
195	0.0009191097887329964	702
913	0.0009184990845544363	7109
159	0.0009178883803758763	206
1219	0.0009178883803758763	8804
930	0.0009172776761973161	7209
289	0.000916666972018756	1602
520	0.000916666972018756	3304
919	0.0009160562678401958	7115
273	0.0009145295073937955	1507
1215	0.0009145295073937955	8716
1203	0.0009126973948581151	8704
716	0.000912086690679555	5211
594	0.0009102545781438746	3922
157	0.0009081171135189142	204
697	0.0009044528884475533	5105
760	0.0009035368321797132	5609
215	0.0009032314800904331	808
550	0.0009004833112869125	3801
404	0.0008983458466619521	2712
875	0.0008937655653227511	6904
213	0.000893154861144191	806
246	0.0008913227486085105	1107
355	0.0008910173965192305	2513
931	0.0008901013402513902	7210
1016	0.0008894906360728301	7806
557	0.0008873531714478697	3808
747	0.0008861317630907494	5512
843	0.000883994298465789	6406
496	0.0008821621859301086	2942
976	0.0008818568338408285	7401
176	0.0008800247213051481	406
221	0.000879719369215868	814
840	0.0008763604962337873	6403
522	0.000874528383698107	3306
1014	0.0008714748628053063	7801
790	0.0008711695107160262	6003
1286	0.0008699481023589059	9306
1208	0.000869642750269626	8709
373	0.0008684213419125057	2602
310	0.0008668945814661053	2004
232	0.0008662838772875452	1001
1196	0.0008638410605733047	8606
228	0.0008626196522161844	907
1313	0.0008617035959483442	9614
523	0.0008595661313233838	3307
689	0.0008586500750555436	5004
519	0.0008555965541627428	3303
858	0.0008546804978949027	6802
1254	0.0008525430332699422	9028
302	0.0008522376811806622	1806
590	0.0008504055686449817	3917
625	0.0008504055686449817	4201
1301	0.0008491841602878615	9602
680	0.0008464359914843409	4906
959	0.0008430771185022602	7310
1167	0.0008427717664129801	8523
1244	0.0008406343017880197	9018
1216	0.0008391075413416194	8801
448	0.0008357486683595387	2841
841	0.0008345272600024184	6404
1007	0.0008336112037345782	7610
983	0.0008323897953774579	7409
171	0.0008314737391096177	401
184	0.0008262827535918566	505
910	0.0008244506410561763	7106
432	0.0008241452889668962	2824
769	0.0008241452889668962	5804
779	0.000823229232699056	5903
304	0.0008229238806097759	1903
148	0.0008226185285204958	101
1129	0.0008226185285204958	8468
715	0.0008192596555384151	5210
596	0.0008177328950920148	3924
1179	0.0008162061346456145	8537
1281	0.0008159007825563344	9301
505	0.0008131526137528138	3203
733	0.0008131526137528138	5406
634	0.0008116258533064134	4401
876	0.000809488388681453	6905
337	0.000809183036592173	2307
351	0.0008082669803243328	2509
1290	0.0008082669803243328	9403
1201	0.0008079616282350527	8702
376	0.0008067402198779325	2605
546	0.0008055188115208122	3704
789	0.0008027706427172916	6002
1096	0.0007981903613780906	8432
1116	0.0007978850092888105	8452
767	0.0007975796571995304	5802
1039	0.0007975796571995304	8201
419	0.0007963582488424103	2811
686	0.0007917779675032093	5001
979	0.0007893351507889687	7405
368	0.0007862816298961681	2526
1302	0.0007844495173604877	9603
644	0.0007829227569140873	4411
320	0.0007817013485569671	2105
1177	0.0007801745881105668	8535
511	0.0007789531797534465	3209
1074	0.0007783424755748863	8410
366	0.0007774264193070462	2524
948	0.0007746782505035256	7228
385	0.0007740675463249654	2614
674	0.0007731514900571252	4824
711	0.0007725407858785652	5206
849	0.0007725407858785652	6507
274	0.0007707086733428848	1508
879	0.0007697926170750445	6908
254	0.0007691819128964844	1206
247	0.0007688765608072043	1108
970	0.0007682658566286442	7321
1304	0.0007667390961822439	9605
431	0.0007664337440929639	2823
1149	0.0007649069836465635	8503
539	0.0007636855752894432	3603
294	0.0007630748711108832	1702
990	0.0007630748711108832	7419
152	0.000762158814843043	105
675	0.0007618534627537629	4901
866	0.0007618534627537629	6810
510	0.0007615481106644828	3208
1037	0.0007557464209681615	8112
1023	0.0007554410688788815	8002
600	0.0007545250126110413	4002
521	0.0007523875479860809	3305
648	0.0007523875479860809	4415
354	0.0007520821958968008	2512
954	0.0007468912103790397	7305
1082	0.0007453644499326393	8418
1062	0.0007404788165041583	8309
628	0.000739562760236318	4205
433	0.000739257408147038	2825
601	0.000734066422629277	4003
446	0.000729791493379356	2839
226	0.0007294861412900759	905
643	0.0007285700850222358	4410
809	0.0007279593808436756	6116
1025	0.0007279593808436756	8007
512	0.0007273486766651155	3210
965	0.0007273486766651155	7316
744	0.0007261272683079952	5509
1148	0.0007255165641294351	8502
409	0.000725211212040155	2801
249	0.0007246005078615948	1201
503	0.0007230737474151946	3201
410	0.000720630930700954	2802
458	0.0007194095223438338	2903
792	0.0007181881139867135	6005
602	0.0007175774098081534	4004
1247	0.0007172720577188733	9021
227	0.0007163560014510331	906
924	0.000715745297272473	7203
321	0.0007154399451831929	2106
897	0.0007151345930939128	7013
738	0.0007108596638439919	5503
987	0.0007096382554868717	7413
352	0.0007087221992190315	2510
862	0.0007078061429511913	6806
673	0.0007075007908619112	4823
957	0.0007075007908619112	7308
457	0.0007059740304155109	2902
623	0.0007053633262369507	4114
652	0.0007041419178798306	4419
1291	0.0007032258616119903	9404
980	0.0006995616365406296	7406
290	0.0006989509323620694	1603
612	0.0006977295240049491	4014
614	0.0006952867072907087	4016
1188	0.0006940652989335884	8546
823	0.0006934545947550282	6213
551	0.0006928438905764681	3802
950	0.0006913171301300677	7301
1004	0.0006910117780407877	7607
774	0.0006891796655051073	5809
1022	0.0006858207925230266	8001
810	0.0006839886799873462	6117
569	0.0006803244549159855	3820
339	0.0006797137507374253	2309
899	0.000678186990291025	7015
638	0.0006778816382017449	4405
729	0.0006763548777553445	5402
1211	0.0006760495256660645	8712
197	0.0006748281173089443	704
609	0.0006733013568625439	4011
1043	0.0006723853005947037	8205
1197	0.0006711638922375834	8607
903	0.0006693317797019031	7019
529	0.0006674996671662227	3406
844	0.0006659729067198224	6501
1008	0.0006656675546305423	7611
1200	0.0006647514983627021	8701
537	0.0006626140337377416	3601
507	0.0006607819212020613	3205
889	0.0006598658649342211	7004
435	0.000659560512844941	2827
1178	0.0006586444565771008	8536
450	0.0006580337523985406	2844
839	0.0006574230482199805	6402
743	0.0006562016398628603	5508
1276	0.0006507053022558191	9205
953	0.000650094598077259	7304
353	0.0006485678376308586	2511
568	0.0006467357250951783	3819
356	0.0006436822042023776	2514
559	0.0006436822042023776	3810
788	0.0006430715000238174	6001
915	0.0006430715000238174	7111
947	0.0006430715000238174	7227
657	0.0006427661479345374	4503
158	0.0006424607958452573	205
702	0.0006421554437559772	5110
312	0.0006415447395774172	2006
846	0.0006403233312202969	6504
857	0.0006403233312202969	6801
1308	0.0006372698103274962	9609
1111	0.0006357430498810959	8447
1172	0.0006342162894346956	8530
338	0.0006336055852561354	2308
992	0.0006326895289882952	7502
865	0.0006311627685418949	6809
669	0.0006308574164526149	4802
773	0.0006305520643633348	5808
556	0.0006302467122740547	3807
234	0.0006290253039169344	1003
1033	0.0006278038955598142	8108
1174	0.0006271931913812541	8532
734	0.0006238343183991733	5407
528	0.0006232236142206132	3405
1299	0.0006232236142206132	9508
666	0.0006229182621313331	4706
624	0.0006223075579527731	4115
757	0.0006207807975063727	5606
1288	0.0006204754454170926	9401
1070	0.0006195593891492524	8406
398	0.0006192540370599724	2706
621	0.0006177272766135721	4105
486	0.000617421924524292	2932
154	0.000617116572435012	201
437	0.0006155898119886116	2829
1226	0.0006152844598993315	8906
253	0.0006137576994529312	1205
791	0.0006137576994529312	6004
1194	0.000613146995274371	8604
826	0.000612536291095811	6216
391	0.0006113148827386907	2620
974	0.0006097881222922903	7325
408	0.0006094827702030103	2716
275	0.0006073453055780499	1509
1083	0.0006067346013994897	8419
370	0.0006042917846852491	2529
727	0.0006042917846852491	5311
200	0.0006039864325959691	707
951	0.0006027650242388489	7302
864	0.0006018489679710087	6808
252	0.0006012382637924485	1204
724	0.0006012382637924485	5308
825	0.0006000168554353282	6215
754	0.000599100799167488	5603
344	0.0005984900949889279	2502
989	0.0005981847428996479	7418
741	0.0005978793908103678	5506
728	0.0005975740387210878	5401
1005	0.0005963526303639675	7608
161	0.0005957419261854073	208
513	0.0005954365740961273	3211
630	0.0005954365740961273	4301
542	0.0005951312220068472	3606
418	0.0005948258699175671	2810
784	0.000594520517828287	5908
1236	0.0005920777011140466	9008
685	0.0005911616448462064	4911
696	0.0005908562927569263	5104
1184	0.0005905509406676462	8542
882	0.0005902455885783662	6911
604	0.0005884134760426858	4006
869	0.0005884134760426858	6813
830	0.0005878027718641257	6303
1141	0.0005874974197748456	8480
824	0.0005859706593284452	6214
288	0.000584749250971325	1601
1000	0.0005844438988820449	7603
933	0.0005829171384356446	7212
413	0.0005826117863463646	2805
416	0.0005826117863463646	2808
1151	0.0005816957300785243	8505
469	0.000580168969632124	2914
1175	0.000580168969632124	8533
1050	0.0005795582654535638	8212
471	0.0005789475612750038	2916
1133	0.0005783368570964437	8472
1183	0.0005780315050071636	8541
1013	0.0005768100966500433	7616
1010	0.0005761993924714832	7613
224	0.0005734512236679626	903
1046	0.0005734512236679626	8208
573	0.0005731458715786825	3825
1279	0.0005728405194894025	9208
1263	0.0005725351674001224	9104
565	0.0005722298153108423	3816
326	0.000571008406953722	2205
1139	0.000571008406953722	8478
305	0.0005700923506858818	1904
620	0.0005691762944180417	4104
834	0.0005676495339716414	6307
597	0.0005670388297930812	3925
1233	0.0005645960130788406	9005
887	0.0005642906609895607	7002
735	0.0005627639005431603	5408
268	0.0005603210838289197	1502
1075	0.0005597103796503596	8411
883	0.0005587943233825195	6912
972	0.0005587943233825195	7323
1289	0.0005575729150253992	9402
384	0.000556656858757559	2613
720	0.0005563515066682789	5303
150	0.0005551300983111586	103
180	0.0005526872815969181	410
1138	0.000552076577418358	8477
1058	0.0005514658732397979	8305
926	0.0005493284086148375	7205
1090	0.0005493284086148375	8426
771	0.0005487177044362773	5806
847	0.0005487177044362773	6505
1130	0.0005478016481684371	8469
346	0.000547496296079157	2504
397	0.000547190943989877	2705
1209	0.0005465802398113168	8710
1311	0.0005465802398113168	9612
262	0.0005462748877220367	1214
586	0.0005453588314541965	3913
280	0.0005450534793649166	1514
461	0.0005441374230970763	2906
1283	0.000542610662650676	9303
848	0.0005413892542935557	6506
698	0.0005410839022042756	5106
1084	0.0005410839022042756	8420
1287	0.0005404731980257155	9307
449	0.0005392517896685953	2843
1162	0.0005374196771329149	8517
536	0.0005365036208650747	3507
1323	0.0005358929166865145	970
1165	0.0005352822125079545	8521
885	0.0005349768604186744	6914
726	0.0005340608041508342	5310
667	0.000533450099972274	4707
1059	0.0005325340437044338	8306
1315	0.0005325340437044338	9616
856	0.0005310072832580335	6704
271	0.0005303965790794734	1505
421	0.0005294805228116332	2813
787	0.0005294805228116332	5911
525	0.0005291751707223531	3402
1063	0.0005291751707223531	8310
763	0.0005282591144545129	5703
1101	0.0005282591144545129	8437
1169	0.0005270377060973926	8526
504	0.0005255109456509924	3202
1306	0.000523678833115312	9607
704	0.0005215413684903514	5112
535	0.0005212360164010714	3506
884	0.0005206253122225113	6913
975	0.0005206253122225113	7326
1056	0.0005206253122225113	8303
567	0.0005200146080439512	3818
944	0.0005200146080439512	7224
571	0.0005197092559546711	3823
772	0.0005197092559546711	5807
896	0.0005197092559546711	7011
1024	0.000519403903865391	8003
1117	0.000519098551776111	8453
190	0.0005178771434189907	601
964	0.0005178771434189907	7315
1269	0.0005178771434189907	9110
501	0.0005163503829725903	3104
1218	0.0005157396787940303	8803
1106	0.0005151289746154701	8442
1122	0.0005132968620797897	8459
533	0.0005123808058119495	3503
453	0.0005120754537226694	2847
940	0.0005120754537226694	7220
973	0.000509937989097709	7324
860	0.0005093272849191489	6804
1040	0.0005087165807405887	8202
1255	0.0005074951723834685	9029
394	0.0005071898202941884	2702
1143	0.0005059684119370682	8482
699	0.0005056630598477881	5107
1006	0.0005056630598477881	7609
1230	0.0005041362994013878	9002
427	0.0005038309473121077	2819
908	0.0005032202431335476	7104
1259	0.0005029148910442675	9033
1118	0.0005026095389549874	8454
1079	0.0005019988347764273	8415
768	0.0005010827785085872	5803
1205	0.000500472074330027	8706
577	0.0005001667222407469	3904
1064	0.0004992506659729067	8311
451	0.0004986399617943466	2845
1161	0.0004983346097050665	8516
445	0.0004977239055265064	2837
500	0.0004977239055265064	3103
663	0.0004977239055265064	4703
1242	0.0004971132013479462	9016
1164	0.0004961971450801061	8519
588	0.0004952810888122659	3915
1015	0.0004946703846337058	7804
782	0.0004943650325444257	5906
1078	0.0004931436241873054	8414
1092	0.0004931436241873054	8428
325	0.0004919222158301851	2204
737	0.0004919222158301851	5502
1229	0.0004919222158301851	9001
555	0.0004916168637409051	3806
778	0.0004913115116516251	5902
1136	0.0004913115116516251	8475
877	0.0004907008074730649	6906
1028	0.0004897847512052247	8103
570	0.00048825799075882434	3821
664	0.00048764728658026425	4704
622	0.00048642587822314397	4106
1303	0.0004861205261338639	9604
473	0.0004858151740445838	2918
1026	0.0004858151740445838	8101
1132	0.0004855098219553038	8471
1163	0.00048215094897322307	8518
335	0.0004815402447946629	2305
163	0.00048123489270538285	210
369	0.0004800134843482626	2528
455	0.0004800134843482626	2852
1098	0.0004800134843482626	8434
361	0.00047970813225898254	2519
174	0.00047940278016970247	404
488	0.00047940278016970247	2934
1036	0.00047848672390186225	8111
492	0.0004775706676340221	2938
1309	0.0004775706676340221	9610
633	0.000477265315544742	4304
1192	0.0004766546113661819	8602
1068	0.0004757385550983417	8404
481	0.00047543320300906164	2926
1048	0.00047512785091978157	8210
514	0.0004748224988305015	3212
730	0.0004732957383841012	5403
615	0.0004720743300269809	4017
1156	0.00047176897793770083	8511
1171	0.00047176897793770083	8529
1055	0.00047085292166986067	8302
627	0.0004702422174913005	4203
984	0.0004702422174913005	7410
440	0.0004693261612234603	2832
684	0.0004687154570449002	4910
764	0.00046841010495562015	5704
793	0.0004668833445092198	6006
963	0.0004668833445092198	7314
497	0.0004662726403306597	3006
516	0.0004653565840628195	3214
1124	0.0004650512319735394	8461
632	0.00046474587988425933	4303
1147	0.0004635244715271391	8501
1168	0.0004635244715271391	8525
558	0.0004623030631700188	3809
1099	0.0004623030631700188	8435
198	0.00046199771108073874	705
719	0.00046138700690217865	5302
1076	0.00046138700690217865	8412
417	0.00046047095063433843	2809
1052	0.0004598602464557783	8214
576	0.00045863883809865806	3903
1091	0.00045863883809865806	8427
1220	0.00045863883809865806	8805
1041	0.00045772278183081784	8203
1115	0.00045772278183081784	8451
1038	0.0004568067255629776	8113
1240	0.0004565013734736976	9014
893	0.00045589066929513746	7008
775	0.0004528371484023368	5810
1245	0.00045222644422377665	9019
746	0.0004519210921344966	5511
647	0.00045161574004521656	4414
700	0.00045161574004521656	5108
467	0.0004513103879559365	2912
425	0.00045069968377737634	2817
506	0.00045039433168809627	3204
608	0.0004500889795988162	4010
572	0.00044947827542025605	3824
430	0.00044917292333097604	2822
971	0.0004482568670631358	7322
491	0.0004476461628845757	2937
725	0.0004467301066167355	5309
654	0.00044611940243817537	4421
1213	0.000444592641991775	8714
251	0.000444287289902495	1203
389	0.0004430658815453747	2618
465	0.00044276052945609463	2910
531	0.0004415391210989744	3501
1316	0.0004415391210989744	9617
1150	0.0004412337690096943	8504
585	0.00044001236065257404	3912
1089	0.000439707008563294	8425
1238	0.0004390963043847339	9011
1134	0.00043848560020617373	8473
1202	0.00043818024811689366	8703
920	0.0004378748960276136	7117
1145	0.0004378748960276136	8486
438	0.0004372641918490535	2830
603	0.0004369588397597734	4005
1262	0.00043543207931337306	9103
589	0.000434821375134813	3916
495	0.0004335999667776927	2941
745	0.0004332946146884126	5510
1170	0.0004317678542420123	8527
472	0.0004308517979741721	2917
671	0.0004308517979741721	4810
753	0.0004308517979741721	5602
942	0.0004308517979741721	7222
968	0.0004308517979741721	7319
845	0.00043024109379561195	6502
1182	0.00043024109379561195	8540
605	0.00042963038961705186	4007
1019	0.00042840898125993157	7904
518	0.0004274929249920914	3302
233	0.00042718757290281133	1002
1176	0.00042688222081353126	8534
1189	0.0004265768687242512	8547
870	0.0004262715166349711	6814
781	0.00042596616454569104	5905
1252	0.00042596616454569104	9026
1212	0.00042443940409929074	8713
552	0.0004238286999207306	3803
1071	0.0004238286999207306	8407
1294	0.0004229126436528904	9503
395	0.00042260729156361036	2703
479	0.00042260729156361036	2924
1021	0.00042169123529577014	7907
1060	0.00042138588320649007	8307
593	0.00041985912276008977	3920
272	0.0004192484185815296	1506
1181	0.0004192484185815296	8539
1140	0.00041894306649224955	8479
995	0.00041802701022440933	7506
477	0.0004177216581351293	2922
578	0.0004177216581351293	3905
396	0.000416500249778009	2704
985	0.0004158895455994489	7411
1027	0.0004158895455994489	8102
1102	0.0004155841935101688	8438
676	0.0004152788414208888	4902
776	0.0004152788414208888	5811
1250	0.0004149734893316087	9024
904	0.00041466813724232865	7020
888	0.0004143627851530486	7003
949	0.00041344672888520836	7229
1256	0.00041344672888520836	9030
1123	0.0004125306726173682	8460
613	0.00041191996843880805	4015
956	0.00041191996843880805	7307
1246	0.000411614616349528	9020
532	0.00041069856008168776	3502
1160	0.00041039320799240775	8515
1305	0.00041039320799240775	9606
1249	0.0004100878559031277	9023
1275	0.0004100878559031277	9202
284	0.00040917179963528746	1518
553	0.00040917179963528746	3804
476	0.000407034335010327	2921
258	0.00040672898292104694	1210
564	0.00040672898292104694	3815
679	0.00040672898292104694	4905
526	0.0004061182787424868	3403
1100	0.0004061182787424868	8436
582	0.00040520222247464663	3909
1131	0.00040520222247464663	8470
961	0.00040489687038536656	7312
1142	0.0004042861662068064	8481
751	0.00040367546202824627	5516
383	0.0004030647578496862	2612
475	0.0004030647578496862	2920
1119	0.00040245405367112603	8455
878	0.00040214870158184596	6907
606	0.0004015379974032858	4008
1270	0.0004015379974032858	9111
478	0.00040123264531400575	2923
466	0.0004003165890461656	2911
723	0.0004003165890461656	5307
901	0.0004003165890461656	7017
460	0.00039970588486760544	2905
629	0.0003990951806890453	4206
1146	0.0003990951806890453	8487
1155	0.0003987898285997652	8509
483	0.0003984844765104852	2928
489	0.00039817912442120513	2935
428	0.00039787377233192506	2820
722	0.0003966523639748048	5306
1107	0.0003963470118855247	8443
988	0.00039543095561768454	7415
993	0.0003945148993498443	7504
1120	0.00039420954726056425	8457
1114	0.0003939041951712842	8450
780	0.000392988138903444	5904
932	0.00039146137845704366	7211
1190	0.00039115602636776364	8548
1210	0.00039085067427848357	8711
736	0.00038993461801064335	5501
1087	0.00038993461801064335	8423
367	0.0003893239138320832	2525
607	0.0003893239138320832	4009
1185	0.0003893239138320832	8543
1314	0.0003893239138320832	9615
508	0.00038901856174280313	3206
1066	0.00038901856174280313	8402
442	0.0003887132096535231	2834
943	0.0003887132096535231	7223
1198	0.0003887132096535231	8608
922	0.00038810250547496297	7201
1158	0.0003862703929392826	8513
562	0.0003853543366714424	3813
235	0.00038474363249288223	1004
548	0.00038474363249288223	3706
584	0.00038382757622504207	3911
244	0.0003826061678679218	1105
1265	0.0003826061678679218	9106
462	0.0003823008157786417	2907
1284	0.00038138475951080155	9304
1191	0.0003810794074215215	8601
677	0.0003807740553322414	4903
1054	0.0003795526469751211	8301
1166	0.00037741518235016066	8522
1137	0.0003768044781716005	8476
1159	0.0003768044781716005	8514
649	0.00037619377399304043	4416
334	0.0003755830698144803	2304
1085	0.00037405630936808	8421
665	0.00037314025310023976	4705
670	0.00037161349265383946	4807
900	0.00037161349265383946	7016
861	0.00037069743638599924	6805
485	0.000369781380118159	2930
429	0.00036794926758247865	2821
786	0.0003673385634039185	5910
1072	0.00036642250713607834	8408
894	0.0003642850425111179	7009
1180	0.0003642850425111179	8538
1312	0.0003642850425111179	9613
662	0.00036275828206471753	4702
986	0.00036275828206471753	7412
182	0.00036184222579687737	502
855	0.00036184222579687737	6703
945	0.0003615368737075973	7225
756	0.0003587887049040767	5605
873	0.0003587887049040767	6902
181	0.0003578726486362365	501
892	0.0003578726486362365	7007
672	0.0003572619444576764	4811
470	0.0003569565923683963	2915
156	0.00035665124027911625	203
1029	0.00035665124027911625	8104
517	0.0003563458881898362	3215
1112	0.0003563458881898362	8448
591	0.00035573518401127603	3918
1069	0.00035542983192199596	8405
683	0.00035390307147559565	4909
1271	0.00035268166311847537	9112
1243	0.00035237631102919535	9017
1032	0.0003520709589399153	8107
1157	0.0003520709589399153	8512
1261	0.0003520709589399153	9102
1207	0.00035146025476135513	8708
1296	0.00035115490267207506	9505
785	0.00035023884640423484	5909
1045	0.00035023884640423484	8207
1061	0.00034962814222567475	8308
1173	0.0003493227901363947	8531
1292	0.0003490174380471146	9405
852	0.00034871208595783454	6603
871	0.00034871208595783454	6815
1113	0.0003474906776007143	8449
1154	0.00034687997342215416	8508
487	0.000346269269243594	2933
160	0.00034596391715431394	207
859	0.00034596391715431394	6803
777	0.0003450478608864738	5901
703	0.00034443715670791364	5111
1128	0.0003438264525293535	8467
420	0.0003429103962615133	2812
1231	0.00034138363581511297	9003
1126	0.0003407729316365528	8463
1206	0.0003407729316365528	8707
1307	0.0003407729316365528	9608
969	0.0003383301149223123	7320
375	0.000336803354475912	2604
939	0.000336803354475912	7219
1253	0.0003364980023866319	9027
583	0.0003352765940295117	3910
731	0.00033466588985095155	5404
1153	0.0003331391294045512	8507
309	0.00033283377731527117	2003
1248	0.0003325284252259911	9022
946	0.000332223073136711	7226
1088	0.00033191772104743095	8424
580	0.0003313070168688708	3907
626	0.00033039096060103064	4202
678	0.00033008560851175057	4904
1097	0.0003297802564224705	8433
267	0.0003285588480653502	1501
1080	0.00032642138344038976	8416
1187	0.00032642138344038976	8545
162	0.0003255053271725496	209
718	0.0003255053271725496	5301
1268	0.0003255053271725496	9109
1317	0.0003245892709047094	9618
598	0.0003242839188154293	3926
1285	0.00032397856672614924	9305
178	0.00032367321463686917	408
902	0.00032336786254758915	7018
527	0.000322757158369029	3404
1081	0.00032123039792262864	8417
914	0.0003203143416547885	7110
997	0.0003187875812083881	7508
1127	0.0003187875812083881	8465
890	0.00031787152494054796	7005
561	0.0003175661728512679	3812
661	0.0003145126519584672	4701
1234	0.0003139019477799071	9006
534	0.0003129858915120669	3505
333	0.00031237518733350677	2303
424	0.0003105430747978264	2816
1067	0.0003105430747978264	8403
690	0.0003102377227085463	5005
941	0.0003102377227085463	7221
1031	0.00030993237061926625	8106
1237	0.00030840561017286594	9010
494	0.0003077949059943058	2940
850	0.0003068788497264656	6601
581	0.0003062681455479055	3908
439	0.0003053520892800653	2831
1125	0.0003053520892800653	8462
1280	0.0003053520892800653	9209
1042	0.000304130680922945	8204
691	0.00030290927256582475	5006
1273	0.0003022985683872646	9114
853	0.00030199321629798454	6701
911	0.00030168786420870446	7107
1258	0.0003007718079408643	9032
330	0.0002983289912266238	2209
1108	0.00029588617451238326	8444
1267	0.00029466476615526297	9108
447	0.00029344335779814273	2840
452	0.0002910005410839022	2846
463	0.0002910005410839022	2908
1077	0.00029038983690534207	8413
1251	0.000290084484816062	9025
1214	0.0002894737806375019	8715
490	0.00028916842854822183	2936
1282	0.00028886307645894176	9302
991	0.0002882523722803816	7501
996	0.0002867256118339813	7507
1073	0.00028519885138758095	8409
248	0.0002842827951197408	1109
1035	0.00028061857004838	8110
783	0.00027909180960197967	5907
1053	0.00027664899288773915	8215
994	0.00027481688035205877	7505
560	0.00027298476781637834	3811
732	0.00027267941572709826	5405
1272	0.00027237406363781825	9113
579	0.0002717633594592581	3906
515	0.00027145800736997803	3213
1257	0.00027023659901285774	9031
474	0.00026718307812005713	2919
682	0.00026687772603077706	4908
1020	0.000266572373941497	7905
592	0.0002635188530486963	3919
967	0.0002629081488701362	7318
938	0.000261992092602296	7218
1103	0.0002610760363344558	8439
349	0.00025741181126309504	2507
276	0.00025710645917381497	1510
547	0.0002568011070845349	3705
1051	0.0002564957549952548	8213
1318	0.0002564957549952548	9701
1297	0.0002558850508166947	9506
766	0.00025557969872741466	5801
1121	0.00025191547365605385	8458
1295	0.0002513047694774937	9504
1105	0.00025099941738821363	8441
1278	0.0002485566006739731	9207
269	0.0002473351923168529	1503
1266	0.0002470298402275728	9107
874	0.00024641913604901266	6903
692	0.00024580843187045257	5007
540	0.00024336561515621202	3604
851	0.0002427549109776519	6602
1144	0.00024244955888837183	8483
1239	0.00024183885470981169	9013
509	0.0002409227984419715	3207
898	0.00023939603799557116	7014
739	0.0002372585733706107	5504
1193	0.00023573181292421038	8603
1065	0.0002348157566563702	8401
1049	0.0002320675878528496	8211
1086	0.00023023547531716922	8422
545	0.0002268766023350885	3703
549	0.0002268766023350885	3707
1104	0.00022626589815652836	8440
482	0.0002222963209958875	2927
484	0.00022015885637092705	2929
880	0.00021710533547812641	6909
1195	0.00021710533547812641	8605
655	0.00021069294160324504	4501
530	0.00020977688533540485	3407
658	0.00020855547697828459	4504
1319	0.00020702871653188425	9702
854	0.00020672336444260418	6702
1264	0.00020366984354980354	9105
656	0.00020336449146052347	4502
1310	0.00020336449146052347	9611
587	0.00020244843519268328	3914
543	0.00020000561847844276	3701
1044	0.00019542533713924178	8206
544	0.0001951199850499617	3702
480	0.00019481463296068164	2925
1232	0.00019481463296068164	9004
1047	0.00019420392878212152	8209
1274	0.00019389857669284145	9201
705	0.00019084505580004078	5113
1110	0.00018107378894307872	8446
742	0.00018046308476451858	5507
1109	0.00017191322626467675	8445
468	0.00017160787417539667	2913
1034	0.00016153125522915454	8109
