67	0.019602487230735065	Italy
50	0.018678658671996445	Germany
30	0.01790361980901621	China
61	0.01782145236508994	India
141	0.017694870086608926	USA
46	0.017526093715300912	France
123	0.017350655118809684	Spain
13	0.016446813235620698	Belgium
94	0.015758383300022206	Netherlands
107	0.01519653564290473	Poland
8	0.01516544525871641	Austria
139	0.014812347324006218	UnitedKingdom
36	0.01450810570730624	CzechRepublic
134	0.0138885187652676	Turkey
108	0.013399955585165445	Portugal
52	0.012651565622918054	Greece
21	0.012107483899622474	Bulgaria
127	0.012038640906062626	Switzerland
131	0.011934266044858984	Thailand
69	0.01187652675993782	Japan
62	0.011385742838107928	Indonesia
38	0.011299133910726183	Denmark
119	0.01125471907617144	Slovenia
115	0.01113479902287364	Serbia
43	0.011045969353764158	Estonia
77	0.01079502553852987	Lebanon
66	0.010752831445702864	Israel
34	0.010626249167221852	Croatia
26	0.010584055074394848	Canada
19	0.010504108372196314	Brazil
126	0.010397512769264934	Sweden
118	0.010284254941150345	Slovakia
110	0.01027981345769487	Romania
40	0.009957805907172997	Egypt
121	0.009855651787697092	SouthAfrica
76	0.009782367310681767	Latvia
72	0.009604707972462802	Kenya
137	0.009460359760159893	Ukraine
80	0.009413724183877415	Lithuania
59	0.009404841216966466	Hungary
144	0.009307128580946036	Vietnam
122	0.009207195203197868	SouthKorea
133	0.008998445480790583	Tunisia
54	0.008989562513879636	Guatemala
45	0.008949589162780368	Finland
102	0.008914057295136576	Pakistan
88	0.008889629136131469	Mexico
95	0.008691983122362868	NewZealand
35	0.008330002220741728	Cyprus
81	0.0079569176104819	Macedonia
7	0.00788141239173884	Australia
12	0.007799244947812569	Belarus
103	0.0077192982456140355	Panama
18	0.007699311570064401	BosniaHerzegovina
140	0.007652675993781923	Uruguay
93	0.007517210748389962	Nepal
91	0.007508327781479014	Morocco
105	0.007363979569176105	Peru
31	0.0072618254497002	Colombia
70	0.007246280257606041	Jordan
41	0.007241838774150566	ElSalvador
1	0.007188540972684876	Albania
84	0.007128580946035976	Malaysia
114	0.006744392627137464	Senegal
117	0.006704419276038197	Singapore
106	0.006671108150122141	Philippines
130	0.006671108150122141	Tanzania
74	0.00664890073284477	Kyrgyzstan
116	0.006440151010437486	SierraLeone
29	0.006357983566511215	Chile
82	0.006322451698867422	Madagascar
111	0.006306906506773262	Russia
132	0.005987119697979125	Togo
58	0.0059649122807017545	Honduras
147	0.00592271818787475	Zimbabwe
100	0.005778369975571841	Norway
33	0.00558960692871419	CostaRica
138	0.005560737286253609	UnitedArabEmirates
136	0.005165445258716411	Uganda
63	0.005005551854319342	Iran
96	0.004850099933377748	Nicaragua
11	0.004832333999555852	Bangladesh
142	0.004821230290917166	Uzbekistan
65	0.0047945813901843215	Ireland
17	0.004656895403064624	Bolivia
49	0.004652453919609149	Georgia
104	0.004594714634687986	Paraguay
51	0.004563624250499667	Ghana
75	0.004563624250499667	Laos
48	0.0044792360648456585	Gambia
71	0.004412613813013546	Kazakhstan
68	0.0043770819453697535	IvoryCoast
0	0.004301576726626693	Afghanistan
6	0.00419053964023984	Armenia
89	0.004150566289140573	Mongolia
44	0.004026204752387298	Ethiopia
39	0.0040239840106595605	Ecuador
42	0.00400177659338219	Eritrea
16	0.003810792804796802	Bhutan
92	0.0037574950033311127	Mozambique
10	0.0037530535198756383	Bahrain
24	0.0036753275594048414	Cambodia
97	0.0036597823673106817	Niger
86	0.003635354208305574	Malta
146	0.003595380857206307	Zambia
22	0.0035842771485676216	BurkinaFaso
60	0.003462136353542083	Iceland
83	0.0034465911614479238	Malawi
25	0.0033488785254274928	Cameroon
15	0.003320008882966911	Benin
9	0.0033000222074172775	Azerbaijan
101	0.0032889184987785923	Oman
129	0.003255607372862536	Tajikistan
112	0.003217854763491006	Rwanda
57	0.0031401288030202088	Guyana
85	0.0031356873195647348	Mali
143	0.003051299133910726	Venezuela
14	0.002969131689984455	Belize
125	0.0028758605374194983	Suriname
37	0.002835887186320231	DemocraticRepublicCongo
113	0.00281367976904286	SaudiArabia
145	0.0027537197423939596	Yemen
55	0.002600488563180102	Guinea
23	0.002531645569620253	Burundi
27	0.0024095047745947146	CentralAfricanRepublic
32	0.0023650899400399733	Congo
124	0.0023073506551188096	Sudan
135	0.0022762602709304907	Turkmenistan
73	0.0021563402176326893	Kuwait
109	0.002154119475904952	Qatar
98	0.0020897179658005776	Nigeria
56	0.0018298911836553409	Guinea-Bissau
78	0.0018143459915611814	Liberia
87	0.001796580057739285	Mauritania
47	0.0017832556073728626	Gabon
2	0.0016899844548079058	Algeria
79	0.0016122584943371087	Libya
20	0.001525649566955363	Brunei
28	0.0014057295136575617	Chad
64	0.0013413280035531867	Iraq
4	0.0011725516322451698	Angola
