67	0.019685692910467276	Italy
50	0.01870334113302453	Germany
46	0.017768742566985248	France
30	0.01764822255725269	China
141	0.01764822255725269	USA
123	0.01746857952387774	Spain
61	0.01741173046268314	India
13	0.01634524207467238	Belgium
94	0.015713080514188387	Netherlands
8	0.015465218607379918	Austria
107	0.015099110653286672	Poland
36	0.014880810258299395	CzechRepublic
139	0.014728454774297857	UnitedKingdom
134	0.013439118066404252	Turkey
108	0.0134322961790609	Portugal
52	0.012913832740966115	Greece
21	0.012299862880064398	Bulgaria
131	0.01207474059773377	Thailand
127	0.012006521724300246	Switzerland
119	0.011579016784116826	Slovenia
69	0.011510797910683303	Japan
38	0.011456222811936484	Denmark
62	0.011424387337667506	Indonesia
115	0.01119016920554574	Serbia
19	0.011167429581067898	Brazil
77	0.010928663524050563	Lebanon
34	0.010830883138795846	Croatia
126	0.010644418218077547	Sweden
43	0.010546637832822829	Estonia
26	0.010448857447568112	Canada
66	0.010412474048403564	Israel
110	0.010301049888462142	Romania
118	0.010139598554669468	Slovakia
72	0.010016804582489125	Kenya
40	0.009982695145772363	Egypt
80	0.009884914760517645	Lithuania
121	0.009725737389172755	SouthAfrica
137	0.00971209361448605	Ukraine
122	0.009416478496274113	SouthKorea
76	0.009330067923258314	Latvia
144	0.009159520739674505	Vietnam
102	0.009120863378062175	Pakistan
95	0.009114041490718823	NewZealand
59	0.009020809030359673	Hungary
133	0.008927576570000524	Tunisia
54	0.008732015799491087	Guatemala
88	0.008629687489340801	Mexico
45	0.00857966031548955	Finland
35	0.008293141047068749	Cyprus
18	0.008047553102708061	BosniaHerzegovina
12	0.008033909328021357	Belarus
7	0.007913389318288798	Australia
93	0.007763307796735045	Nepal
140	0.007758759871839476	Uruguay
91	0.0077201025102271465	Morocco
103	0.00769508892330152	Panama
81	0.007651883636793622	Macedonia
1	0.007442679091597481	Albania
70	0.007388103992850662	Jordan
41	0.007358542481029468	ElSalvador
105	0.007340350781447195	Peru
31	0.007299419457387081	Colombia
106	0.006846900930278037	Philippines
84	0.006835531118039116	Malaysia
116	0.006578573361439509	SierraLeone
114	0.0065080805255582005	Senegal
117	0.00645805335170695	Singapore
74	0.006426217877437972	Kyrgyzstan
82	0.006378464666034505	Madagascar
111	0.006330711454631038	Russia
130	0.006307971830153197	Tanzania
29	0.006214739369794047	Chile
147	0.005998712937254554	Zimbabwe
132	0.005964603500537792	Togo
58	0.005939589913612166	Honduras
33	0.005687180081908127	CostaRica
100	0.005650796682743581	Norway
138	0.00543022232530852	UnitedArabEmirates
65	0.004964060023512772	Ireland
136	0.004948142286378283	Uganda
142	0.004936772474139362	Uzbekistan
63	0.00491403284966152	Iran
17	0.004904936999870384	Bolivia
96	0.004900389074974816	Nicaragua
11	0.00477077321545112	Bangladesh
49	0.004686636604883107	Georgia
48	0.004627513581240719	Gambia
104	0.00460022603186731	Paraguay
51	0.004584308294732821	Ghana
75	0.004500171684164808	Laos
71	0.004254583739804121	Kazakhstan
68	0.00417726901657946	IvoryCoast
89	0.004156803354549403	Mongolia
6	0.004086310518668095	Armenia
0	0.00408403655622031	Afghanistan
42	0.004015817682786787	Eritrea
39	0.003938502959562126	Ecuador
44	0.0037884214380083728	Ethiopia
16	0.003763407851082747	Bhutan
86	0.003745216151500474	Malta
10	0.0037315723768137693	Bahrain
24	0.003720202564574849	Cambodia
92	0.0036838191654103023	Mozambique
146	0.003642887841350188	Zambia
22	0.003626970104215699	BurkinaFaso
60	0.003542833493647686	Iceland
97	0.003429135371258479	Niger
129	0.0034154915965717743	Tajikistan
9	0.003363190460272739	Azerbaijan
83	0.003356368572929387	Malawi
15	0.0033381768733471134	Benin
143	0.003333628948451545	Venezuela
101	0.0033063413990781355	Oman
112	0.0032745059248091577	Rwanda
57	0.0032517663003313164	Guyana
85	0.0031107806285686997	Mali
25	0.0030766711918519376	Cameroon
14	0.002983438731492788	Belize
145	0.0028583707968646605	Yemen
125	0.0028265353225956826	Suriname
113	0.002719659087549828	SaudiArabia
37	0.0026900975757286343	DemocraticRepublicCongo
55	0.00254456397907045	Guinea
23	0.0023967564199644806	Burundi
27	0.002387660570173344	CentralAfricanRepublic
124	0.002380838682829992	Sudan
32	0.002296702072261979	Congo
135	0.002198921687007261	Turkmenistan
109	0.0021125111139914635	Qatar
73	0.002085223564618054	Kuwait
98	0.0019146763810342436	Nigeria
87	0.0018987586438997547	Mauritania
56	0.0018646492071829927	Guinea-Bissau
2	0.001855553357391856	Algeria
47	0.0017918824088539002	Gabon
79	0.0017805125966149796	Libya
78	0.0017009239109425347	Liberia
20	0.0016713623991213408	Brunei
64	0.0013643774686704824	Iraq
28	0.00135755558132713	Chad
4	0.001157446885922126	Angola
