67	0.01944666715162096	Italy
50	0.018503431051623383	Germany
123	0.01783176935573822	Spain
30	0.01780267209815475	China
46	0.017693557382216726	France
61	0.017526248151111756	India
141	0.017504425207924154	USA
13	0.01586043015445794	Belgium
94	0.01574404112412405	Netherlands
107	0.015251812516670304	Poland
8	0.015052981256516574	Austria
139	0.014698964622584321	UnitedKingdom
134	0.014201886472199995	Turkey
36	0.014165514900220654	CzechRepublic
108	0.013198031085570185	Portugal
52	0.012722775878373463	Greece
21	0.012315414272204844	Bulgaria
69	0.011963822409737881	Japan
127	0.01176984069251473	Switzerland
131	0.01172861957760481	Thailand
119	0.011706796634417206	Slovenia
62	0.01149341674547174	Indonesia
38	0.011180621226449408	Denmark
115	0.011134550568608908	Serbia
77	0.010972090880434519	Lebanon
43	0.010639897189689872	Estonia
34	0.010620499017967557	Croatia
19	0.01056715404573119	Brazil
26	0.010467738415654324	Canada
110	0.010460464101258456	Romania
66	0.010305278727479935	Israel
126	0.010099173152930336	Sweden
121	0.010077350209742732	SouthAfrica
118	0.009980359351131157	Slovakia
80	0.009837297834679081	Lithuania
76	0.009783952862442715	Latvia
40	0.009672413375039402	Egypt
137	0.009485705972212119	Ukraine
72	0.009454183943163356	Kenya
59	0.009298998569384835	Hungary
122	0.009185034310516234	SouthKorea
144	0.009185034310516234	Vietnam
88	0.00915836182439805	Mexico
102	0.009134114109745156	Pakistan
54	0.009085618680439368	Guatemala
45	0.008923158992264979	Finland
133	0.00891588467786911	Tunisia
95	0.00883829199097985	NewZealand
35	0.008348488154991392	Cyprus
81	0.008181178923886423	Macedonia
18	0.008064789893552533	BosniaHerzegovina
7	0.008016294464246745	Australia
93	0.00787565771925996	Nepal
12	0.007846560461676488	Belarus
91	0.0076962246308285446	Morocco
140	0.007671976916175651	Uruguay
103	0.0075725612860987855	Panama
31	0.007436774084042579	Colombia
70	0.007429499769646711	Jordan
105	0.0073373584539657135	Peru
41	0.007276739167333479	ElSalvador
1	0.007257340995611164	Albania
84	0.007184597851652482	Malaysia
106	0.006888775732887175	Philippines
114	0.0068184573603937825	Senegal
117	0.006772386702553285	Singapore
116	0.006765112388157416	SierraLeone
130	0.006607502242913605	Tanzania
82	0.006544458184816081	Madagascar
74	0.006437768240343348	Kyrgyzstan
111	0.006401396668364007	Russia
132	0.006207414951140855	Togo
29	0.006171043379161514	Chile
147	0.006049804805897044	Zimbabwe
33	0.0057855047161805	CostaRica
58	0.005763681772992895	Honduras
100	0.0054969569118110614	Norway
138	0.005477558740088747	UnitedArabEmirates
63	0.005079896219781286	Iran
136	0.005048374190732523	Uganda
104	0.004830144758856477	Paraguay
96	0.004827719987391188	Nicaragua
142	0.004810746587134163	Uzbekistan
11	0.0047792245580854	Bangladesh
49	0.00466283552775151	Georgia
17	0.004655561213355641	Bolivia
65	0.0046337382701680365	Ireland
48	0.004563419897674644	Gambia
51	0.004362163866055624	Ghana
68	0.004333066608472151	IvoryCoast
75	0.0042772968647704955	Laos
71	0.0041900050920200774	Kazakhstan
0	0.004182730777624209	Afghanistan
89	0.004134235348318421	Mongolia
44	0.004073616061686186	Ethiopia
86	0.00401542154651924	Malta
42	0.004012996775053951	Eritrea
39	0.004003297689192793	Ecuador
6	0.003988749060401057	Armenia
10	0.003840838001018404	Bahrain
92	0.0038384132295531145	Mozambique
16	0.0036905021701704615	Bhutan
24	0.0036905021701704615	Cambodia
97	0.0036808030843093037	Niger
22	0.003639581969399384	BurkinaFaso
146	0.003620183797677069	Zambia
60	0.003530467253461361	Iceland
101	0.0034213525375233382	Oman
25	0.003368007565286972	Cameroon
9	0.0033607332508911033	Azerbaijan
143	0.003343759850634078	Venezuela
83	0.0032273708203001865	Malawi
112	0.0032273708203001865	Rwanda
57	0.0031764506195291094	Guyana
129	0.0031594772192720835	Tajikistan
15	0.0029945927596324046	Benin
85	0.0029751945879100896	Mali
14	0.0029703450449795107	Belize
145	0.002849106471715041	Yemen
125	0.002803035813874542	Suriname
113	0.002735142212846439	SaudiArabia
37	0.0027181688125894133	DemocraticRepublicCongo
23	0.002635726582769574	Burundi
55	0.0025217623239009723	Guinea
27	0.0025047889236439465	CentralAfricanRepublic
32	0.0024999393807133676	Congo
124	0.002262311777115007	Sudan
135	0.002206542033413351	Turkmenistan
109	0.002078029145753013	Qatar
73	0.002034383259377804	Kuwait
98	0.0019907373730025943	Nigeria
87	0.001932542857835649	Mauritania
56	0.0018888969714604398	Guinea-Bissau
47	0.0017943308843141534	Gabon
2	0.0017822070269877064	Algeria
78	0.001719162968890182	Liberia
20	0.001651269367862079	Brunei
79	0.001614897795882738	Libya
64	0.001362721563492641	Iraq
28	0.001321500448582721	Chad
4	0.0011832884750612254	Angola
