67	0.019977840121725012	Italy
50	0.018922313886342662	Germany
61	0.017865244483949518	India
141	0.017781913465366703	USA
30	0.017666175939557233	China
46	0.017561240582823316	France
123	0.01727575468582663	Spain
13	0.016505714347440966	Belgium
94	0.01584986836785398	Netherlands
107	0.015405436268745621	Poland
8	0.01528815557592536	Austria
36	0.014780453629374492	CzechRepublic
139	0.01446101805814036	UnitedKingdom
134	0.013916280103330464	Turkey
108	0.013248088787657134	Portugal
52	0.012454900944109577	Greece
127	0.012160156045048132	Switzerland
21	0.01214318120792941	Bulgaria
131	0.011689490106756293	Thailand
38	0.011606159088173477	Denmark
69	0.011479619393288457	Japan
115	0.011408633710791984	Serbia
119	0.011362338700468197	Slovenia
62	0.011339191195306303	Indonesia
43	0.010842291417830986	Estonia
19	0.010789823739464027	Brazil
77	0.010664827211589801	Lebanon
34	0.010638593372406323	Croatia
126	0.010603100531158085	Sweden
66	0.010593841529093328	Israel
110	0.010465758667197516	Romania
26	0.010383970815625492	Canada
118	0.009944168217549513	Slovakia
40	0.009907132209290483	Egypt
121	0.009851578196901937	SouthAfrica
137	0.009726581669027711	Ukraine
80	0.009684916159736304	Lithuania
76	0.009663311821585203	Latvia
122	0.009492020283387189	SouthKorea
72	0.009490477116376397	Kenya
144	0.009234311392584774	Vietnam
88	0.00917412787916385	Mexico
59	0.009090796860581033	Hungary
95	0.00895191182960967	NewZealand
54	0.008914875821350641	Guatemala
45	0.008782163458422452	Finland
133	0.008740497949131043	Tunisia
102	0.008725066279023114	Pakistan
35	0.008238968670623346	Cyprus
18	0.008121687977803086	BosniaHerzegovina
7	0.007931878435475558	Australia
12	0.007919533099389215	Belarus
81	0.007863979087000669	Macedonia
93	0.0078099682416229175	Nepal
140	0.007695773882824243	Uruguay
91	0.007563061519896053	Morocco
103	0.007553802517831294	Panama
70	0.007418003820881518	Jordan
105	0.007414917486859933	Peru
1	0.007410287985827554	Albania
41	0.007257514451759056	ElSalvador
31	0.007252884950726677	Colombia
106	0.006965855886719196	Philippines
84	0.006808452851618319	Malaysia
116	0.006647963482495856	SierraLeone
117	0.00661247064124762	Singapore
114	0.006597038971139691	Senegal
74	0.006563089296902247	Kyrgyzstan
29	0.006311553074143003	Chile
130	0.006272973898873179	Tanzania
111	0.006262171729797629	Russia
147	0.006245196892678907	Zimbabwe
82	0.006215876719473842	Madagascar
132	0.005905700150304467	Togo
58	0.0058470598038943365	Honduras
100	0.005706631605912182	Norway
138	0.005624843754340157	UnitedArabEmirates
33	0.005575462409994784	CostaRica
63	0.0052730016758793736	Iran
136	0.0050014042819798215	Uganda
96	0.004854803415954495	Nicaragua
11	0.004793076735522778	Bangladesh
142	0.00470357304889679	Uzbekistan
65	0.004661907539605381	Ireland
17	0.004649562203519038	Bolivia
49	0.004638760034443488	Georgia
104	0.0045708606859686	Paraguay
48	0.004564688017925428	Gambia
75	0.004453579993148339	Laos
51	0.004435061989018823	Ghana
68	0.004306979127123012	IvoryCoast
0	0.0042776589539179465	Afghanistan
71	0.00424216611266971	Kazakhstan
6	0.00406161557240694	Armenia
89	0.00404618390229901	Mongolia
44	0.004010691061050773	Ethiopia
39	0.003984457221867294	Ecuador
42	0.003938162211543507	Eritrea
86	0.003806993015626109	Malta
16	0.0037653275063347005	Bhutan
10	0.003759154838291529	Bahrain
24	0.0036850828217734693	Cambodia
146	0.003672737485687126	Zambia
22	0.0035940359681366878	BurkinaFaso
97	0.0035461977908021075	Niger
92	0.0035338524547157643	Mozambique
60	0.0034412624340681894	Iceland
83	0.003433546599014225	Malawi
9	0.0033749062526040943	Azerbaijan
25	0.0033455860793990292	Cameroon
129	0.0032884888999996915	Tajikistan
15	0.003242193889675904	Benin
143	0.003229848553589561	Venezuela
112	0.003228305386578768	Rwanda
57	0.0032205895515248035	Guyana
101	0.003205157881416874	Oman
85	0.0030261505081648965	Mali
14	0.003015348339089346	Belize
125	0.002935103654528115	Suriname
145	0.0028363409658373685	Yemen
113	0.002776157452416445	SaudiArabia
37	0.0027344919431250368	DemocraticRepublicCongo
55	0.0025986932461752607	Guinea
23	0.0025477687348190946	Burundi
27	0.002436660710042005	CentralAfricanRepublic
32	0.0023487001904268093	Congo
135	0.0022067288254338613	Turkmenistan
124	0.002194383489347518	Sudan
109	0.00212648414087263	Qatar
73	0.0021203114728294585	Kuwait
98	0.002057041625386949	Nigeria
56	0.0019305019305019305	Guinea-Bissau
87	0.00191969976142638	Mauritania
78	0.0017545808912715387	Liberia
2	0.001751494557249953	Algeria
47	0.0017468650562175742	Gabon
20	0.0017268038850772663	Brunei
79	0.0016959405448614081	Libya
28	0.0013163214602063523	Chad
64	0.0013008897900984233	Iraq
4	0.0011527457570623038	Angola
