67	0.01950890019071837	Italy
50	0.018656848202302748	Germany
141	0.018135904499540865	USA
30	0.017831284876739423	China
46	0.017502383979656706	France
123	0.017486932259659534	Spain
61	0.01743174754538391	India
13	0.016213269054178144	Belgium
94	0.015637140637140636	Netherlands
107	0.015074256551529278	Poland
8	0.015072049162958253	Austria
36	0.014570971957335593	CzechRepublic
139	0.014453980363071273	UnitedKingdom
134	0.013740993854630219	Turkey
108	0.013345871300416754	Portugal
52	0.012970615243342516	Greece
21	0.012284117397753761	Bulgaria
127	0.011935350003531821	Switzerland
131	0.011741099809281627	Thailand
69	0.011602034329307056	Japan
119	0.011462968849332485	Slovenia
38	0.011403369357914812	Denmark
62	0.011403369357914812	Indonesia
34	0.01112082362082362	Croatia
115	0.011087712792258246	Serbia
77	0.010953062089425725	Lebanon
43	0.010869181323726778	Estonia
66	0.01067272374090556	Israel
126	0.010540280426644063	Sweden
19	0.010509376986649714	Brazil
26	0.010414459278095641	Canada
110	0.010381348449530267	Romania
121	0.01013191354100445	SouthAfrica
118	0.010054654941018577	Slovakia
40	0.00998401850674578	Egypt
76	0.009738998375362011	Latvia
80	0.009736790986790986	Lithuania
72	0.00964849544394999	Kenya
137	0.00963083633538179	Ukraine
122	0.009388023592569046	SouthKorea
144	0.00931738715829625	Vietnam
59	0.009156247792611429	Hungary
133	0.008975241929787384	Tunisia
54	0.00896420498693226	Guatemala
102	0.008944338489793036	Pakistan
95	0.008913435049798687	NewZealand
88	0.008842798615525888	Mexico
45	0.008725807021261568	Finland
35	0.008204863318499683	Cyprus
7	0.008074627392809211	Australia
18	0.008026064844246662	BosniaHerzegovina
12	0.007796496432860069	Belarus
81	0.007730274775729322	Macedonia
70	0.0075867945186127005	Jordan
105	0.0075404393586211765	Peru
140	0.007520572861481952	Uruguay
91	0.007498498975771703	Morocco
103	0.007469802924348379	Panama
93	0.007390336935791482	Nepal
31	0.007355018718655082	Colombia
41	0.007328530055802783	ElSalvador
1	0.007211538461538462	Albania
84	0.006993006993006993	Malaysia
106	0.006895881895881896	Philippines
116	0.006867185844458572	SierraLeone
117	0.006732535141626051	Singapore
130	0.006595677050222504	Tanzania
74	0.006516211061665607	Kyrgyzstan
114	0.006458818958818959	Senegal
111	0.00640584163311436	Russia
82	0.006315338701702338	Madagascar
29	0.006284435261707989	Chile
132	0.005982023027477573	Togo
58	0.00591800875891785	Honduras
147	0.00589152009606555	Zimbabwe
100	0.0057414176732358555	Norway
33	0.005688440347531257	CostaRica
138	0.00538161333615879	UnitedArabEmirates
63	0.005129971039061948	Iran
136	0.00506816415907325	Uganda
11	0.005028431164794801	Bangladesh
96	0.00487612135339408	Nicaragua
142	0.00487170657625203	Uzbekistan
17	0.004785618421982058	Bolivia
65	0.004706152433425161	Ireland
49	0.0045781238963057145	Georgia
68	0.0045759165077346895	IvoryCoast
48	0.004569294342021615	Gambia
51	0.00455825739916649	Ghana
75	0.004469961856325493	Laos
104	0.0043110298792116974	Paraguay
0	0.004299992936356573	Afghanistan
71	0.004269089496362223	Kazakhstan
6	0.0040174471992653815	Armenia
86	0.004001995479268206	Malta
44	0.0039688846507028325	Ethiopia
39	0.003953432930705658	Ecuador
89	0.003920322102140284	Mongolia
42	0.0038938334392879847	Eritrea
16	0.0038563078335805607	Bhutan
92	0.0037812566221657132	Mozambique
24	0.00371724235360599	Cambodia
10	0.0036973758564667657	Bahrain
22	0.003684131525040616	BurkinaFaso
97	0.0035671399307762946	Niger
146	0.0035671399307762946	Zambia
83	0.0034965034965034965	Malawi
60	0.0034589778907960726	Iceland
25	0.003412622730804549	Cameroon
101	0.003344193685102776	Oman
129	0.003297838525111252	Tajikistan
15	0.0032647276965458785	Benin
112	0.0032294094794094795	Rwanda
9	0.00320292081655718	Azerbaijan
143	0.0031874690965600057	Venezuela
85	0.003108003108003108	Mali
57	0.0030528183937274848	Guyana
14	0.0029269972451790634	Belize
145	0.0028872642509006146	Yemen
113	0.0028585681994772903	SaudiArabia
125	0.0028541534223352405	Suriname
37	0.002768065268065268	DemocraticRepublicCongo
23	0.0025407042452497	Burundi
27	0.0024899343081161264	CentralAfricanRepublic
55	0.0024568234795507523	Guinea
124	0.002253743731016458	Sudan
135	0.0022404993995903087	Turkmenistan
32	0.00220076640531186	Congo
109	0.0021544112453203363	Qatar
98	0.0021058486967577878	Nigeria
73	0.002097019142473688	Kuwait
78	0.0018343399025217207	Liberia
87	0.0018321325139506958	Mauritania
47	0.0018144734053824963	Gabon
56	0.0017659108568199478	Guinea-Bissau
2	0.001759288691106873	Algeria
79	0.0017350074168255986	Libya
20	0.0016665783711238256	Brunei
28	0.0012714558169103624	Chad
64	0.0012714558169103624	Iraq
4	0.0011765381083562903	Angola
