67	0.019324713922158353	Italy
50	0.018788596038511504	Germany
141	0.01787875282518553	USA
46	0.01769633927141357	France
30	0.017656297271805094	China
123	0.017569539605986725	Spain
61	0.017398248829883788	India
13	0.016414995283942267	Belgium
94	0.0157142602907939	Netherlands
107	0.014975707853570856	Poland
8	0.014871153743482052	Austria
139	0.014637575412432597	UnitedKingdom
36	0.014577512413019878	CzechRepublic
134	0.013612055311348792	Turkey
108	0.013371803313697923	Portugal
52	0.01280231709704401	Greece
21	0.01221280988058586	Bulgaria
131	0.01183463543983912	Thailand
127	0.01180349166236586	Switzerland
69	0.011449787332490968	Japan
38	0.011398622555213468	Denmark
119	0.011389724333078251	Slovenia
62	0.011334110444733142	Indonesia
115	0.011269598334252817	Serbia
77	0.010886974782438469	Lebanon
126	0.01088252567137086	Sweden
19	0.010880301115837055	Brazil
34	0.010773522450214448	Croatia
26	0.01076462422807923	Canada
43	0.010695663006531296	Estonia
110	0.01043761456460999	Romania
118	0.010181790678222492	Slovakia
121	0.010141748678614013	SouthAfrica
66	0.0099815806801801	Israel
80	0.009781370682137708	Lithuania
40	0.009763574237867273	Egypt
76	0.009576711573027709	Latvia
137	0.00944991190760086	Ukraine
72	0.009420992685661406	Kenya
144	0.009305315797903578	Vietnam
59	0.009278621131497926	Hungary
122	0.009191863465679557	SouthKorea
54	0.009098432133259775	Guatemala
102	0.008982755245501949	Pakistan
95	0.0089582851346301	NewZealand
45	0.00870691035931021	Finland
133	0.008646847359897493	Tunisia
88	0.008631275471160863	Mexico
35	0.008437739139719885	Cyprus
7	0.008104055809649232	Australia
18	0.008081810254311188	BosniaHerzegovina
12	0.00792386681141108	Belarus
140	0.007797067145984232	Uruguay
81	0.007763698812977167	Macedonia
93	0.007628000925415102	Nepal
103	0.0076124290366784714	Panama
41	0.007592408036874232	ElSalvador
70	0.0075100994821234715	Jordan
105	0.007494527593386841	Peru
91	0.0074099944831022765	Morocco
31	0.007398871705433255	Colombia
1	0.0073499314836895585	Albania
106	0.007109679486038689	Philippines
84	0.00693616415440195	Malaysia
116	0.006713708601021516	SierraLeone
114	0.0065290704917157555	Senegal
74	0.0065157231585129295	Kyrgyzstan
111	0.006506824936377712	Russia
117	0.0064690074923030375	Singapore
130	0.006375576159883255	Tanzania
82	0.006273246605328255	Madagascar
29	0.006248776494456407	Chile
58	0.006024096385542169	Honduras
147	0.0060018508302041255	Zimbabwe
132	0.005935114164189995	Togo
33	0.005737128721681408	CostaRica
100	0.005588083500916517	Norway
138	0.005427915502482604	UnitedArabEmirates
63	0.005201010838034561	Iran
136	0.005143172394155648	Uganda
11	0.004925165951842822	Bangladesh
142	0.004818387286220213	Uzbekistan
96	0.004787243508746953	Nicaragua
17	0.004713833176131409	Bolivia
51	0.004662668398853909	Ghana
49	0.004595931732839779	Georgia
48	0.004529195066825648	Gambia
75	0.004511398622555214	Laos
65	0.004482479400615757	Ireland
104	0.004297841291309996	Paraguay
71	0.004251125625100105	Kazakhstan
68	0.004237778291897279	IvoryCoast
0	0.004222206403160648	Afghanistan
89	0.004117652293071844	Mongolia
39	0.004102080404335214	Ecuador
6	0.004075385737929562	Armenia
42	0.004026445516185866	Eritrea
10	0.0040086490719154315	Bahrain
44	0.003988628072111192	Ethiopia
24	0.0038707266288195616	Cambodia
86	0.0038440319624139098	Malta
146	0.003779519851933584	Zambia
22	0.0037617234076631487	BurkinaFaso
16	0.0037483760744603228	Bhutan
97	0.0037483760744603228	Niger
92	0.0036415974088377144	Mozambique
83	0.003519246854478475	Malawi
60	0.0034814294104038015	Iceland
101	0.003423590966524888	Oman
15	0.00338354896691641	Benin
112	0.003370201633713584	Rwanda
9	0.0032878930789628233	Azerbaijan
129	0.0032878930789628233	Tajikistan
25	0.003267872079158584	Cameroon
143	0.0032122581908134757	Venezuela
85	0.0031544197469345623	Mali
57	0.003067662081116193	Guyana
14	0.0030209464149063016	Belize
113	0.0028785748607428234	SaudiArabia
125	0.0028630029720061933	Suriname
37	0.002836308305600541	DemocraticRepublicCongo
145	0.0027028349735722804	Yemen
55	0.0026672420850314105	Guinea
23	0.0025026249755298892	Burundi
27	0.0024870530867932587	CentralAfricanRepublic
32	0.0022823939776832588	Congo
109	0.002173390756526846	Qatar
124	0.0021711662009930416	Sudan
135	0.0021444715345873893	Turkmenistan
73	0.0021244505347831504	Kuwait
98	0.0020666120909042375	Nigeria
87	0.0019731807584844547	Mauritania
2	0.0017974408713139114	Algeria
47	0.001788542649178694	Gabon
56	0.001730704205299781	Guinea-Bissau
79	0.001704009538894129	Libya
78	0.0016639675392856508	Liberia
20	0.0015905572066701073	Brunei
64	0.0012768948764036946	Iraq
28	0.0012635475432008685	Chad
4	0.00115676887757826	Angola
