0	0.0841817496229261	clarkii
1	0.08055429864253394	akindynos
2	0.07671945701357466	chrysopterus
4	0.07222850678733031	bicinctus
8	0.05206636500754148	melanopus
5	0.05189291101055807	tricinctus
3	0.047462292609351434	chrysogaster
11	0.047081447963800906	leucokranos
6	0.04358974358974359	perideraion
10	0.04058823529411765	percula
9	0.03872926093514329	ocellaris
13	0.038288084464555054	omanensis
7	0.03787707390648567	allardi
15	0.033295625942684766	sandaracinos
17	0.03144796380090498	ephippium
16	0.03107843137254902	akallopisos
12	0.030886123680241327	polymnus
14	0.023672699849170437	rubrocinctus
20	0.019460784313725492	latezonatus
23	0.018985671191553543	nigripes
19	0.01829185520361991	fuscocaudatus
21	0.018159879336349924	latifasciatus
25	0.01708521870286576	biaculeatus
22	0.017051282051282052	mccullochi
18	0.01680995475113122	frenatus
24	0.012613122171945702	sebae
