26	0.14049499736703527	Heteractis aurora
27	0.12941548183254345	Stichodactyla gigantea
28	0.12927856766719326	Stichodactyla haddoni
29	0.1261506055818852	Macrodactyla doreensis
30	0.1163349131121643	Heteractus malu
31	0.10363349131121644	Cryptodendrum adhaesivum
32	0.09581885202738283	Heteractis crispa
33	0.07084781463928383	Entacmaea quadricolor
34	0.04434965771458663	Heteractis magnifica
35	0.0437809373354397	Stichodactyla mertensii
