0	0.08364173054894704	clarkii
1	0.08068048789698275	akindynos
2	0.07647306874110998	chrysopterus
4	0.07411288596855607	bicinctus
5	0.0541331520712964	tricinctus
8	0.05148660045567262	melanopus
3	0.04779527459939831	chrysogaster
11	0.04517389826668177	leucokranos
6	0.04244867389197286	perideraion
7	0.040588849867200384	allardi
10	0.03904056996840502	percula
9	0.03822866709464648	ocellaris
13	0.037932857520486384	omanensis
15	0.03258625681306094	sandaracinos
17	0.03181211686366325	ephippium
16	0.031280289012247775	akallopisos
12	0.02856450536862908	polymnus
14	0.024866885691627958	rubrocinctus
20	0.01959266392256083	latezonatus
23	0.01859509333736138	nigripes
19	0.018337046687562152	fuscocaudatus
21	0.01770766461488111	latifasciatus
22	0.017669901690520247	mccullochi
25	0.017669901690520247	biaculeatus
18	0.017355210654179727	frenatus
24	0.012307566431277771	sebae
