26	0.1420631341600902	Heteractis aurora
28	0.13431792559188274	Stichodactyla haddoni
29	0.1298759864712514	Macrodactyla doreensis
27	0.12593010146561442	Stichodactyla gigantea
30	0.11698985343855693	Heteractus malu
31	0.10190529875986472	Cryptodendrum adhaesivum
32	0.09480270574971815	Heteractis crispa
33	0.06958286358511838	Entacmaea quadricolor
34	0.04252536640360766	Heteractis magnifica
35	0.042119503945885005	Stichodactyla mertensii
