0	0.08403527079723785	clarkii
1	0.081261640012183	akindynos
2	0.07652075354879942	chrysopterus
4	0.07443865807198957	bicinctus
5	0.0549283749169908	tricinctus
8	0.05041966456792774	melanopus
3	0.048112882528872226	chrysogaster
11	0.045074620903839145	leucokranos
6	0.04188906475466724	perideraion
7	0.04084052746418746	allardi
10	0.03887077526850044	percula
13	0.038291583241378276	omanensis
9	0.03788714742933608	ocellaris
15	0.03263197839014575	sandaracinos
17	0.03216263312678813	ephippium
16	0.03091687096500382	akallopisos
12	0.029106895880247056	polymnus
14	0.023999021365195553	rubrocinctus
20	0.02004953090438838	latezonatus
21	0.01872388018713894	latifasciatus
19	0.01811722646907564	fuscocaudatus
23	0.017989904083803094	nigripes
18	0.01756050309817804	frenatus
22	0.017278396636691815	mccullochi
25	0.01705121355708786	biaculeatus
24	0.01190589128166208	sebae
