0	0.08523111612175874	clarkii
1	0.08091665943977105	akindynos
2	0.07730899314890295	chrysopterus
4	0.07235712427369699	bicinctus
5	0.05270141358078224	tricinctus
8	0.05206833752493279	melanopus
3	0.04694302315497355	chrysogaster
6	0.04459717283843552	perideraion
11	0.04443239961841991	leucokranos
10	0.039601942589541236	percula
9	0.038591622582603416	ocellaris
7	0.03840083253837481	allardi
13	0.038149336570982566	omanensis
15	0.03162778596825947	sandaracinos
17	0.031289567253490594	ephippium
12	0.03079091145607493	polymnus
16	0.030183852224438472	akallopisos
14	0.025800017344549474	rubrocinctus
20	0.01939120631341601	latezonatus
23	0.01847194519122366	nigripes
21	0.017925591882750846	latifasciatus
19	0.017895238921169024	fuscocaudatus
22	0.017639406816407945	mccullochi
25	0.017626398404301448	biaculeatus
18	0.01749197814586766	frenatus
24	0.012678865666464314	sebae
