surfNumber1: 50
surfNumber2: 50
tolerance: 0.5
gamma1:  0
gamma2:  -10
file1: barret/10_1.txt
file2: barret/10_2.txt
convergence reached, number of iterations:  1845
Final error 1:  0.4909983633387889  % 
Final error 2:  0.26299817924337443  %
iteration check  1845
