000 (4139.013.000) 07/26 19:51:03 Job submitted from host: <192.168.0.112:9618?addrs=192.168.0.112-9618+[--1]-9618&noUDP&sock=16662_5318_3>
...
001 (4139.013.000) 07/26 19:51:05 Job executing on host: <192.168.0.101:9618?addrs=192.168.0.101-9618+[--1]-9618&noUDP&sock=512_c494_4>
...
005 (4139.013.000) 07/26 19:51:26 Job terminated.
	(1) Normal termination (return value 0)
		Usr 0 00:00:08, Sys 0 00:00:00  -  Run Remote Usage
		Usr 0 00:00:00, Sys 0 00:00:00  -  Run Local Usage
		Usr 0 00:00:08, Sys 0 00:00:00  -  Total Remote Usage
		Usr 0 00:00:00, Sys 0 00:00:00  -  Total Local Usage
	0  -  Run Bytes Sent By Job
	0  -  Run Bytes Received By Job
	0  -  Total Bytes Sent By Job
	0  -  Total Bytes Received By Job
...
