40	0.012195007507507507	Egypt
61	0.011906437687687687	India
62	0.011838400900900901	Indonesia
72	0.011240146396396396	Kenya
52	0.011101726726726727	Greece
77	0.010794388138138138	Lebanon
130	0.010742774024024024	Tanzania
102	0.01070289039039039	Pakistan
31	0.010686467717717718	Colombia
21	0.010470626876876877	Bulgaria
80	0.010449512012012012	Lithuania
114	0.010411974474474475	Senegal
94	0.010367398648648649	Netherlands
43	0.010334553303303304	Estonia
74	0.010292323573573573	Kyrgyzstan
34	0.010099943693693693	Croatia
107	0.009548611111111112	Poland
82	0.009492304804804804	Madagascar
105	0.00917088963963964	Peru
35	0.009154466966966967	Cyprus
26	0.009147428678678678	Canada
1	0.009131006006006005	Albania
13	0.009079391891891891	Belgium
141	0.009067661411411411	USA
140	0.009020739489489489	Uruguay
132	0.008969125375375375	Togo
133	0.00896677927927928	Tunisia
96	0.008910472972972972	Nicaragua
54	0.008884665915915916	Guatemala
95	0.008847128378378378	NewZealand
76	0.008837743993993993	Latvia
91	0.008814283033033034	Morocco
115	0.008795514264264264	Serbia
49	0.008643018018018018	Georgia
110	0.008633633633633633	Romania
123	0.008626595345345345	Spain
137	0.00849756006006006	Ukraine
118	0.008417792792792794	Slovakia
25	0.0084131006006006	Cameroon
103	0.00834740990990991	Panama
36	0.008319256756756757	CzechRepublic
18	0.008279373123123122	BosniaHerzegovina
15	0.008232451201201202	Benin
108	0.008183183183183184	Portugal
121	0.008136261261261261	SouthAfrica
134	0.00807057057057057	Turkey
147	0.007929804804804805	Zimbabwe
92	0.007915728228228228	Mozambique
46	0.007880536786786787	France
7	0.007819538288288288	Australia
38	0.007819538288288288	Denmark
144	0.007796077327327327	Vietnam
70	0.007763231981981982	Jordan
111	0.007721002252252252	Russia
138	0.00771631006006006	UnitedArabEmirates
17	0.007678772522522522	Bolivia
124	0.0076482732732732735	Sudan
139	0.007596659159159159	UnitedKingdom
41	0.00748170045045045	ElSalvador
51	0.007458239489489489	Ghana
67	0.007394894894894895	Italy
68	0.007352665165165165	IvoryCoast
136	0.007275243993993994	Uganda
145	0.007249436936936937	Yemen
58	0.007186092342342343	Honduras
131	0.007150900900900901	Thailand
106	0.00711570945945946	Philippines
30	0.007047672672672672	China
39	0.007014827327327327	Ecuador
19	0.006937406156156156	Brazil
59	0.006928021771771772	Hungary
81	0.006890484234234234	Macedonia
8	0.006829485735735736	Austria
116	0.006813063063063063	SierraLeone
50	0.0067450262762762765	Germany
93	0.0067450262762762765	Nepal
9	0.006740334084084084	Azerbaijan
48	0.006716873123123123	Gambia
42	0.006712180930930931	Eritrea
66	0.006665259009009009	Israel
44	0.006655874624624625	Ethiopia
33	0.006637105855855856	CostaRica
75	0.006569069069069069	Laos
14	0.006540915915915916	Belize
57	0.006533877627627627	Guyana
97	0.006524493243243243	Niger
88	0.0064963400900900905	Mexico
12	0.006465840840840841	Belarus
104	0.006437687687687687	Paraguay
126	0.006371996996996997	Sweden
37	0.006341497747747748	DemocraticRepublicCongo
119	0.006318036786786787	Slovenia
71	0.006278153153153153	Kazakhstan
32	0.0062570382882882886	Congo
89	0.006167886636636637	Mongolia
83	0.006151463963963964	Malawi
10	0.006146771771771772	Bahrain
0	0.0059215465465465465	Afghanistan
55	0.00585350975975976	Guinea
24	0.005790165165165165	Cambodia
100	0.005783126876876877	Norway
11	0.0057526276276276276	Bangladesh
122	0.005729166666666666	SouthKorea
142	0.005703359609609609	Uzbekistan
29	0.005689283033033033	Chile
63	0.005637668918918919	Iran
146	0.005628284534534535	Zambia
45	0.005590746996996997	Finland
143	0.005438250750750751	Venezuela
22	0.005424174174174175	BurkinaFaso
101	0.0054077515015015015	Oman
6	0.005313907657657658	Armenia
85	0.005313907657657658	Mali
73	0.005119181681681682	Kuwait
98	0.005048798798798799	Nigeria
84	0.005027683933933934	Malaysia
109	0.005025337837837838	Qatar
60	0.005015953453453454	Iceland
2	0.004999530780780781	Algeria
125	0.004905686936936937	Suriname
117	0.004748498498498499	Singapore
127	0.004739114114114114	Switzerland
113	0.004710960960960961	SaudiArabia
16	0.0045138888888888885	Bhutan
56	0.004485735735735736	Guinea-Bissau
86	0.004457582582582583	Malta
112	0.004366084834834835	Rwanda
129	0.00430274024024024	Tajikistan
79	0.004234703453453454	Libya
69	0.004082207207207207	Japan
135	0.004037631381381381	Turkmenistan
47	0.003967248498498498	Gabon
87	0.003917980480480481	Mauritania
23	0.0038921734234234236	Burundi
27	0.0035989114114114112	CentralAfricanRepublic
28	0.003573104354354354	Chad
65	0.003566066066066066	Ireland
20	0.003073385885885886	Brunei
78	0.0030640015015015016	Liberia
64	0.002660472972972973	Iraq
4	0.002315596846846847	Angola
