402	0.0026281028939859055	2710
153	0.0025992267106176984	106
925	0.00258960131616163	7204
616	0.0022823291085255822	4100
640	0.0022323510988498394	4407
166	0.0022001430481699163	303
401	0.0021779305994251417	2709
619	0.0021738583171552663	4103
169	0.0021609010553874813	306
293	0.002149794831015094	1701
999	0.0021235101000004445	7602
259	0.0021220292700841257	1211
255	0.0020913020493205214	1207
332	0.002089821219404203	2302
912	0.0020579833762033595	7108
617	0.002025034910565277	4101
813	0.0020176307609836856	6203
618	0.0020102266114020943	4102
836	0.001923227853818394	6309
323	0.0019195257790275981	2202
266	0.001908419554655211	1404
260	0.0018995345751573012	1212
706	0.0018780625413706857	5201
365	0.001864735072123821	2523
165	0.0018354886812765347	302
641	0.0018121656100945215	4408
595	0.0017803277668936779	3923
206	0.0017781065220192004	713
222	0.0017769958995819616	901
231	0.0017607067705024603	910
240	0.0017551536583162667	1101
636	0.0017284987198225373	4403
168	0.0017233158151154233	305
796	0.001714801043096593	6103
797	0.0016899971419982616	6104
832	0.001687775897123784	6305
211	0.001685184444770227	804
167	0.0016614911661091342	304
341	0.0016403893398015984	2402
642	0.0016300235303873703	4409
637	0.0016007771395400838	4404
499	0.0015985558946656063	3102
342	0.0015926325750003332	2403
802	0.001574492408525434	6109
283	0.0015696797112973995	1517
524	0.001567458466422922	3401
707	0.001550058714906182	5202
795	0.0015433949802827497	6102
403	0.001541173735408272	2711
186	0.0015304377185149645	507
758	0.0015296973035568053	5607
340	0.0015271058512032483	2401
187	0.0015211825315379751	508
798	0.0015189612866634977	6105
164	0.0015163698343099406	301
814	0.0015159996268308612	6204
263	0.0015156294193517815	1301
202	0.001515259211872702	709
313	0.001505633817416633	2007
799	0.0014993402902722802	6106
962	0.0014849021985881767	7313
958	0.0014782384639647444	7309
837	0.0014778682564856648	6310
923	0.0014737959742157896	7202
794	0.001471574729341312	6101
807	0.001468242862029596	6114
250	0.001463800372280641	1202
336	0.0014526941479082536	2306
282	0.001449732488075617	1516
315	0.0014478814506802193	2009
405	0.0014449197908475825	2713
170	0.0014430687534521848	307
223	0.0014404773010986277	902
295	0.0014401070936195482	1703
907	0.0014286306617680813	7103
1001	0.001424558379498206	7604
399	0.0014215967196655693	2707
801	0.0014167840224375348	6108
538	0.0014138223626048983	3602
225	0.0014008651008371132	904
291	0.0013997544783998744	1604
895	0.0013912397063810442	7010
668	0.001390499291422885	4800
881	0.0013771718221760204	6910
650	0.001375690992259702	4417
264	0.001374950577301543	1302
343	0.0013745803698224633	2501
201	0.0013742101623433838	708
1009	0.001373099539906145	7612
759	0.0013686570501571902	5608
651	0.001366065597803633	4418
241	0.0013616231080546782	1102
822	0.00136014227813836	6212
172	0.0013579210332638823	402
414	0.0013553295809103254	2806
998	0.001345333978975177	7601
307	0.0013438531490588585	2001
502	0.0013412616967053016	3105
175	0.0013386702443517445	405
635	0.0013386702443517445	4402
318	0.00133385754712371	2103
392	0.0013327469246864714	2621
242	0.0013301554723329143	1103
296	0.001326823605021198	1704
217	0.0013220109077931635	810
317	0.0013197896629186861	2102
800	0.0013179386255232882	6107
319	0.001309423853504458	2104
362	0.0013083132310672194	2520
541	0.0013005388740065483	3605
1322	0.0012997984590483892	9705
714	0.0012983176291320709	5209
978	0.001294615554341275	7403
805	0.0012901730645923201	6112
239	0.0012890624421550813	1008
245	0.0012890624421550813	1106
803	0.0012872114047596836	6110
955	0.0012864709898015244	7306
207	0.0012853603673642856	714
916	0.0012820285000525694	7112
960	0.0012820285000525694	7311
316	0.0012790668402199328	2101
287	0.0012712924831592618	1522
708	0.0012698116532429435	5203
653	0.0012664797859312273	4420
811	0.0012661095784521478	6201
281	0.001264998956014909	1515
610	0.001264998956014909	4012
867	0.001264998956014909	6811
1293	0.001264998956014909	9406
459	0.0012624075036613519	2904
752	0.0012616670887031927	5601
1095	0.001257965013912397	8431
817	0.001257224598954238	6207
815	0.001248339619456328	6205
755	0.0012479694119772486	5604
866	0.0012442673371864529	6810
709	0.0012438971297073732	5204
936	0.0012435269222282935	7215
441	0.0012416758848328958	2833
808	0.0012416758848328958	6115
188	0.0012401950549165775	510
203	0.0012361227726467021	710
1254	0.0012361227726467021	9028
204	0.0012346419427303839	711
422	0.0012339015277722247	2814
1199	0.001233531320293145	8609
891	0.0012331611128140656	7006
710	0.0012294590380232697	5205
713	0.0012294590380232697	5208
957	0.0012242761333161557	7308
937	0.0012216846809625986	7217
639	0.0012209442660044395	4406
886	0.00122057405852536	7001
821	0.001218723021129962	6211
196	0.0012168719837345643	703
842	0.0012131699089437684	6405
205	0.0012105784565902115	712
308	0.0012079870042366544	2002
1224	0.0012072465892784953	8904
594	0.0012065061743203361	3922
179	0.0012035445144876996	409
314	0.0012035445144876996	2008
1223	0.0012024338920504608	8903
563	0.0011994722322178242	3814
348	0.001198731817259665	2506
306	0.0011968807798642671	1905
819	0.0011939191200316306	6209
214	0.0011913276676780735	807
935	0.0011902170452408349	7214
189	0.0011898468377617552	511
218	0.0011868851779291186	811
574	0.0011861447629709595	3901
510	0.0011824426881801636	3208
363	0.001179481028347527	2521
208	0.0011776299909521293	801
302	0.0011754087460776517	1806
820	0.0011728172937240948	6210
838	0.0011702258413705377	6401
981	0.0011680045964960603	7407
278	0.0011657833516215829	1512
1082	0.0011624514843098666	8418
327	0.0011598600319563095	2206
934	0.001158749409519071	7213
415	0.0011557877496864342	2807
789	0.0011554175422073547	6002
575	0.0011528260898537976	3902
1186	0.0011528260898537976	8544
359	0.0011513452599374793	2517
1290	0.0011513452599374793	9403
717	0.0011502346375002407	5212
863	0.0011494942225420816	6807
906	0.0011494942225420816	7102
379	0.0011487538075839222	2608
292	0.0011483836001048428	1605
1096	0.001148013392625763	8432
243	0.0011476431851466836	1104
498	0.0011450517327931265	3101
812	0.001144681525314047	6202
151	0.001143941110355888	104
818	0.001143941110355888	6208
1227	0.0011406092430441717	8907
816	0.0011394986206069329	6206
185	0.001136907168253376	506
183	0.0011335753009416598	504
765	0.0011317242635462618	5705
712	0.0011313540560671824	5207
959	0.0011295030186717844	7310
804	0.0011276519812763864	6111
149	0.0011269115663182273	102
590	0.0011265413588391478	3917
1204	0.0011261711513600682	8705
1179	0.001125430736401909	8537
522	0.0011239499064855908	3306
931	0.0011232094915274316	7210
1007	0.0011228392840483522	7610
1004	0.0011217286616111133	7607
918	0.0011213584541320337	7114
609	0.0011198776242157154	4011
210	0.0011191372092575562	803
372	0.0011161755494249197	2601
194	0.0011158053419458402	701
1298	0.0011128436821132035	9507
364	0.0011121032671550443	2522
982	0.0011121032671550443	7408
1003	0.0011121032671550443	7606
546	0.0011117330596759649	3704
1219	0.0011113628521968852	8804
1135	0.0011050693250525324	8474
929	0.0011043289100943733	7208
171	0.0011035884951362141	401
177	0.0011021076652198958	407
1215	0.0011002566278244979	8716
740	0.0010987757979081796	5505
311	0.0010954439305964636	2005
322	0.0010921120632847474	2201
329	0.0010921120632847474	2208
554	0.0010921120632847474	3805
1016	0.0010921120632847474	7806
176	0.001088039781014872	406
265	0.001088039781014872	1401
193	0.0010869291585776332	604
219	0.0010869291585776332	812
1149	0.0010832270837868375	8503
1222	0.0010832270837868375	8902
930	0.0010806356314332804	7209
1057	0.0010806356314332804	8304
358	0.001079154801516962	2516
357	0.0010787845940378826	2515
917	0.0010780441790797235	7113
827	0.0010773037641215644	6217
681	0.0010769335566424847	4907
1201	0.0010765633491634052	8702
644	0.001075822934205246	4411
512	0.0010747123117680073	3210
1188	0.0010739718968098481	8546
289	0.0010736016893307684	1602
374	0.0010728612743726093	2603
1011	0.0010710102369772116	7614
324	0.0010702698220190524	2203
423	0.0010702698220190524	2815
646	0.0010695294070608933	4413
286	0.0010687889921027342	1521
1225	0.0010687889921027342	8905
749	0.0010680485771445748	5514
645	0.0010669379547073362	4412
843	0.0010669379547073362	6406
599	0.0010665677472282565	4001
407	0.001066197539749177	2715
829	0.0010658273322700974	6302
436	0.001065457124791018	2828
347	0.0010613848425211425	2505
927	0.0010599040126048243	7206
868	0.0010591635976466651	6812
1012	0.0010591635976466651	7615
611	0.001058423182688506	4013
1235	0.0010576827677303469	9007
1228	0.001056572145293108	8908
220	0.0010550913153767898	813
750	0.0010532402779813918	5515
648	0.001050648825627835	4415
721	0.001050648825627835	5305
173	0.001048797788232437	403
1286	0.0010473169583161187	9306
216	0.0010465765433579596	809
328	0.0010458361283998004	2207
966	0.0010454659209207207	7317
1244	0.001043614883525323	9018
444	0.0010432446760462433	2836
1017	0.0010432446760462433	7901
831	0.0010428744685671639	6304
557	0.0010425042610880842	3808
729	0.001039912808734527	5402
1203	0.0010388021862972885	8704
695	0.0010380617713391293	5103
1152	0.0010380617713391293	8506
875	0.0010369511489018905	6904
947	0.0010336192815901743	7227
390	0.0010317682441947766	2619
760	0.0010310278292366174	5609
209	0.0010273257544458215	802
371	0.001026955546966742	2530
974	0.0010265853394876624	7325
833	0.0010254747170504238	6306
1141	0.001021032227301469	8480
212	0.0010188109824269913	805
835	0.0010188109824269913	6308
388	0.0010117770403244794	2617
716	0.0010106664178872408	5211
443	0.0010073345505755245	2835
523	0.0010073345505755245	3307
464	0.0010069643430964449	2909
199	0.0010051133057010471	706
454	0.0010051133057010471	2849
1062	0.0010021516458684106	8309
191	0.000999930400993933	602
779	0.0009988197785566943	5903
673	0.0009925262514123416	4823
1241	0.0009925262514123416	9015
862	0.0009921560439332619	6806
236	0.0009891943841006253	1005
840	0.0009888241766215459	6403
285	0.0009880837616633867	1520
1083	0.0009866029317470682	8419
1208	0.0009866029317470682	8709
921	0.0009862327242679888	7118
1177	0.0009862327242679888	8535
790	0.0009847518943516705	6003
928	0.0009847518943516705	7207
331	0.0009832710644353522	2301
919	0.000982530649477193	7115
762	0.000979939197123636	5702
643	0.0009791987821654768	4410
897	0.000978088159728238	7013
903	0.000978088159728238	7019
1074	0.000978088159728238	8410
614	0.0009777179522491586	4016
1321	0.0009758669148537606	9704
1002	0.000975496707374681	7605
1172	0.0009721648400629649	8530
535	0.0009688329727512487	3506
446	0.0009684627652721691	2839
983	0.0009680925577930895	7409
288	0.0009666117278767713	1601
913	0.0009647606904813734	7109
1178	0.000963279860565055	8536
1078	0.0009629096530859755	8414
256	0.000960688408211498	1208
511	0.0009603182007324185	3209
674	0.0009584671633370206	4824
1221	0.000958096955857941	8901
634	0.0009566161259416228	4401
230	0.0009558757109834635	909
747	0.0009532842586299065	5512
310	0.0009525438436717474	2004
521	0.0009521736361926678	3305
597	0.0009521736361926678	3925
680	0.0009495821838391107	4906
828	0.0009488417688809516	6301
1288	0.0009488417688809516	9401
1174	0.0009481013539227925	8532
770	0.0009477311464437129	5805
685	0.0009462503165273946	4911
1313	0.0009443992791319968	9614
728	0.0009436588641738376	5401
1014	0.0009436588641738376	7801
457	0.0009432886566947581	2902
320	0.0009429184492156784	2105
404	0.0009429184492156784	2712
246	0.0009425482417365988	1107
628	0.0009425482417365988	4205
1147	0.0009425482417365988	8501
303	0.0009421780342575192	1902
412	0.0009418078267784397	2804
1200	0.0009414376192993601	8701
1216	0.0009414376192993601	8801
1277	0.0009410674118202805	9206
970	0.000940697204341201	7321
434	0.000938105751987644	2826
1093	0.0009377355445085644	8429
1064	0.0009347738846759277	8311
990	0.0009344036771968482	7419
631	0.000933663262238689	4302
294	0.0009332930547596095	1702
948	0.0009332930547596095	7228
858	0.0009329228472805299	6802
792	0.0009299611874478933	6005
337	0.0009292207724897341	2307
350	0.0009288505650106545	2508
864	0.000928480357531575	6808
1156	0.000928480357531575	8511
1129	0.0009281101500524954	8468
806	0.0009240378677826201	6113
456	0.0009229272453453814	2901
1046	0.0009210762079499835	8208
876	0.0009203357929918243	6905
432	0.0009184847555964265	2824
406	0.0009177443406382673	2714
528	0.0009173741331591878	3405
297	0.0009170039256801082	1801
213	0.0009158933032428694	806
693	0.0009147826808056307	5101
378	0.0009144124733265511	2607
964	0.0009129316434102328	7315
400	0.0009118210209729941	2708
387	0.0009092295686194371	2616
1013	0.0009077487387031187	7616
748	0.0009073785312240392	5513
849	0.0009070083237449596	6507
865	0.0009070083237449596	6809
1167	0.00090663811626588	8523
744	0.0009062679087868005	5509
954	0.0009062679087868005	7305
537	0.0009058977013077209	3601
1094	0.0009055274938286413	8430
469	0.0009047870788704822	2914
1116	0.0009033062489541639	8452
525	0.0009025658339960048	3402
215	0.0009021956265169251	808
270	0.0009021956265169251	1504
520	0.0009021956265169251	3304
419	0.0009018254190378455	2811
694	0.0008973829292888907	5102
1162	0.0008970127218098111	8517
516	0.0008966425143307316	3214
701	0.0008966425143307316	5109
339	0.0008947914769353336	2309
360	0.0008947914769353336	2518
382	0.0008940510619771745	2611
910	0.0008940510619771745	7106
1056	0.0008933106470190153	8303
715	0.0008929404395399358	5210
1142	0.0008925702320608562	8481
1175	0.0008925702320608562	8533
496	0.0008922000245817766	2942
1291	0.0008907191946654583	9404
411	0.0008903489871863788	2803
669	0.0008892383647491401	4802
1092	0.0008888681572700604	8428
600	0.0008884979497909808	4002
602	0.000886646912395583	4004
455	0.0008836852525629464	2852
1259	0.0008836852525629464	9033
754	0.0008822044226466281	5603
1068	0.0008818342151675485	8404
607	0.0008810938002093893	4009
872	0.0008810938002093893	6901
774	0.0008799831777721506	5809
1040	0.000879612970293071	8202
697	0.0008781321403767528	5105
1018	0.0008766513104604345	7903
869	0.0008755406880231958	6813
860	0.0008751704805441161	6804
1146	0.000874430065585957	8487
550	0.0008740598581068774	3801
973	0.0008740598581068774	7324
426	0.0008722088207114795	2818
1302	0.0008703577833160817	9603
666	0.000867396123483445	4706
345	0.0008670259160043655	2503
612	0.0008670259160043655	4014
393	0.0008662855010462063	2701
1039	0.0008655450860880472	8201
952	0.0008644344636508085	7303
1043	0.0008640642561717289	8205
261	0.0008636940486926493	1213
1025	0.0008599919739018535	8007
956	0.0008588813514646148	7307
192	0.0008585111439855353	603
926	0.0008581409365064557	7205
277	0.0008577707290273761	1511
788	0.0008574005215482965	6001
879	0.0008536984467575007	6908
505	0.000852587824320262	3203
753	0.0008522176168411825	5602
596	0.0008514772018830233	3924
971	0.0008481453345713071	7322
1198	0.0008481453345713071	8608
577	0.0008477751270922275	3904
301	0.000847404919613148	1805
1076	0.0008466645046549888	8412
787	0.0008459240896968297	5911
1300	0.0008455538822177501	9601
351	0.0008444432597805114	2509
734	0.0008444432597805114	5407
471	0.0008425922223851136	2916
539	0.000842222014906034	3603
493	0.0008414815999478747	2939
1169	0.0008407411849897156	8526
161	0.000837779525157079	208
1171	0.000837779525157079	8529
380	0.0008374093176779995	2609
977	0.0008374093176779995	7402
933	0.0008366689027198403	7212
1151	0.0008366689027198403	8505
1289	0.0008362986952407608	9402
559	0.0008355582802826016	3810
1197	0.0008340774503662832	8607
1101	0.0008337072428872037	8437
671	0.0008318562054918058	4810
624	0.0008314859980127263	4115
675	0.0008303753755754875	4901
1119	0.0008296349606173284	8455
576	0.0008288945456591693	3903
1090	0.0008285243381800897	8426
1063	0.0008281541307010101	8310
989	0.0008277839232219304	7418
1118	0.0008277839232219304	8454
1143	0.0008277839232219304	8482
257	0.0008274137157428509	1209
1281	0.0008266733007846917	9301
841	0.0008263030933056122	6404
513	0.000825562678347453	3211
771	0.000825562678347453	5806
148	0.0008251924708683735	101
882	0.0008248222633892939	6911
738	0.0008244520559102143	5503
234	0.0008233414334729756	1003
247	0.0008233414334729756	1108
809	0.000822971225993896	6116
551	0.0008222308110357369	3802
1306	0.0008222308110357369	9607
497	0.0008214903960775778	3006
761	0.0008214903960775778	5701
569	0.0008211201885984981	3820
604	0.0008207499811194185	4006
608	0.000820379773640339	4010
237	0.0008188989437240207	1006
1148	0.0008166776988495433	8502
743	0.000815196868933225	5508
975	0.0008144564539750657	7326
565	0.0008137160390169066	3816
229	0.0008118650016215087	908
904	0.0008114947941424292	7020
1037	0.0008111245866633496	8112
1183	0.0008074225118725538	8541
893	0.0008070523043934742	7008
953	0.0008066820969143947	7304
1180	0.0008066820969143947	8538
290	0.0008059416819562355	1603
542	0.000805571474477156	3606
1301	0.0008044608520399173	9602
1233	0.0008033502296026785	9005
1226	0.0008026098146445194	8906
660	0.0008022396071654398	4602
1005	0.0008011289847282011	7608
433	0.0008000183622909623	2825
664	0.0008000183622909623	4704
391	0.0007981673248955645	2620
159	0.0007977971174164849	206
1133	0.0007970567024583258	8472
184	0.0007963162875001666	505
951	0.0007963162875001666	7302
1145	0.0007963162875001666	8486
254	0.000795946080021087	1206
606	0.000795946080021087	4008
704	0.000795946080021087	5112
711	0.000795946080021087	5206
1106	0.000795946080021087	8442
652	0.0007955758725420075	4419
495	0.0007948354575838483	2941
773	0.0007948354575838483	5808
1045	0.0007948354575838483	8207
368	0.0007944652501047688	2526
431	0.0007926142127093708	2823
909	0.0007903929678348934	7105
961	0.0007903929678348934	7312
453	0.0007900227603558138	2847
625	0.0007900227603558138	4201
769	0.0007889121379185751	5804
1311	0.0007885419304394955	9612
448	0.000788171722960416	2841
672	0.0007870611005231772	4811
1196	0.0007855802706068589	8606
1236	0.0007852100631277793	9008
1207	0.000783729233211461	8708
152	0.0007833590257323815	105
221	0.0007822484032951428	814
861	0.0007822484032951428	6805
1107	0.0007818781958160632	8443
623	0.0007800271584206652	4114
1303	0.0007792867434625061	9604
519	0.0007781761210252674	3303
905	0.0007781761210252674	7101
1008	0.0007778059135461878	7611
533	0.0007752144611926308	3503
963	0.0007752144611926308	7314
195	0.0007748442537135513	702
507	0.0007748442537135513	3205
1202	0.0007741038387553921	8703
1299	0.0007733634237972329	9508
965	0.0007729932163181533	7316
940	0.0007726230088390737	7220
896	0.0007722528013599942	7011
735	0.000771512386401835	5408
1085	0.0007707719714436759	8421
514	0.0007704017639645963	3212
155	0.0007700315564855168	202
848	0.0007681805190901189	6506
620	0.0007670698966528801	4104
1070	0.000766329481694721	8406
1182	0.000766329481694721	8540
688	0.0007659592742156414	5003
699	0.0007652188592574822	5107
899	0.0007652188592574822	7015
1213	0.0007648486517784027	8714
1081	0.0007641082368202435	8417
232	0.0007629976143830048	1001
154	0.0007626274069039253	201
280	0.0007622571994248457	1514
684	0.0007622571994248457	4910
1185	0.0007615167844666865	8543
1000	0.000761146576987607	7603
1122	0.000761146576987607	8459
786	0.0007604061620294477	5910
987	0.0007600359545503682	7413
1211	0.0007578147096758907	8712
1024	0.0007574445021968112	8003
1138	0.0007574445021968112	8477
980	0.0007570742947177316	7406
1157	0.0007555934648014133	8512
1252	0.0007555934648014133	9026
568	0.0007552232573223338	3819
1160	0.0007548530498432542	8515
603	0.0007537424274060155	4005
409	0.0007530020124478562	2801
312	0.0007526318049687767	2006
949	0.0007526318049687767	7229
566	0.0007522615974896971	3817
582	0.0007504105600942992	3909
381	0.0007496701451361401	2610
763	0.000748929730177981	5703
1159	0.0007481893152198218	8514
767	0.0007474489002616627	5802
435	0.0007463382778244239	2827
885	0.0007452276553871852	6914
1021	0.0007452276553871852	7907
757	0.0007441170329499465	5606
756	0.0007437468254708669	5605
300	0.0007433766179917873	1804
321	0.0007426362030336282	2106
1023	0.000741895788075469	8002
601	0.0007415255805963895	4003
689	0.0007411553731173099	5004
659	0.0007407851656382303	4601
1247	0.0007407851656382303	9021
1283	0.0007404149581591508	9303
939	0.000739304335721912	7219
782	0.0007385639207637528	5906
1091	0.0007385639207637528	8427
736	0.0007381937132846732	5501
772	0.0007378235058055937	5807
299	0.0007359724684101958	1803
985	0.0007359724684101958	7411
1136	0.0007359724684101958	8475
481	0.0007348618459729571	2926
1054	0.000734121431014798	8301
1255	0.0007330108085775592	9029
462	0.0007319001861403205	2907
586	0.0007319001861403205	3913
615	0.0007315299786612409	4017
1079	0.0007315299786612409	8415
1089	0.0007315299786612409	8425
1256	0.0007304193562240022	9030
1055	0.000729678941265843	8302
486	0.0007274576963913656	2932
944	0.0007263470739541268	7224
741	0.0007259768664750472	5506
1026	0.0007248662440378085	8101
386	0.000724496036558729	2615
572	0.000724496036558729	3824
702	0.0007222747916842515	5110
526	0.0007215343767260924	3403
398	0.0007211641692470128	2706
458	0.0007207939617679333	2903
1320	0.0007207939617679333	9703
298	0.0007204237542888537	1802
1189	0.0007204237542888537	8547
305	0.0007200535468097741	1904
1150	0.0007200535468097741	8504
279	0.0007185727168934557	1513
1080	0.000717462094456217	8416
1115	0.0007163514720189783	8451
1127	0.0007163514720189783	8465
1308	0.0007156110570608192	9609
558	0.00071487064210266	3809
676	0.0007145004346235805	4902
593	0.0007137600196654213	3920
1117	0.000712279189749103	8453
1098	0.0007119089822700234	8434
730	0.0007104281523537051	5403
1038	0.0007104281523537051	8113
477	0.0007100579448746255	2922
1114	0.0007100579448746255	8450
908	0.0007078367000001481	7104
506	0.000707096285041989	3204
1033	0.0007067260775629094	8108
1060	0.0007063558700838297	8307
778	0.0007045048326884319	5902
1030	0.0007045048326884319	8105
271	0.0007033942102511932	1505
472	0.0007033942102511932	2917
667	0.0007033942102511932	4707
344	0.0007022835878139545	2502
1032	0.0007019133803348749	8107
722	0.0007015431728557953	5306
1125	0.0007004325504185566	8462
733	0.0006996921354603975	5406
945	0.0006989517205022382	7225
1066	0.0006989517205022382	8402
555	0.0006985815130231587	3806
460	0.0006982113055440791	2905
529	0.0006982113055440791	3406
1217	0.0006982113055440791	8802
197	0.0006967304756277608	704
698	0.0006967304756277608	5106
180	0.0006963602681486812	410
1212	0.0006963602681486812	8713
174	0.0006956198531905221	404
943	0.0006956198531905221	7223
567	0.0006952496457114425	3818
588	0.0006952496457114425	3915
470	0.0006941390232742038	2915
517	0.0006941390232742038	3215
1176	0.0006919177783997263	8534
478	0.0006915475709206467	2923
1285	0.0006915475709206467	9305
578	0.0006908071559624876	3905
483	0.0006900667410043285	2928
679	0.0006896965335252489	4905
969	0.0006874752886507715	7320
781	0.0006867348736926123	5905
857	0.0006863646662135328	6801
696	0.0006859944587344531	5104
1097	0.0006845136288181348	8433
1309	0.0006841434213390552	9610
725	0.0006834030063808961	5309
844	0.0006830327989018165	6501
889	0.0006830327989018165	7004
1050	0.0006822923839436574	8212
1100	0.0006822923839436574	8436
461	0.0006815519689854983	2906
638	0.0006815519689854983	4405
745	0.0006815519689854983	5510
1102	0.0006815519689854983	8438
1184	0.0006808115540273391	8542
473	0.0006804413465482595	2918
1140	0.0006804413465482595	8479
1251	0.0006804413465482595	9025
1161	0.0006797009315901004	8516
536	0.0006785903091528616	3507
888	0.0006785903091528616	7003
1250	0.000678220101673782	9024
157	0.0006771094792365433	204
1155	0.0006763690642783842	8509
1194	0.0006759988567993046	8604
630	0.0006752584418411455	4301
986	0.0006748882343620659	7412
1072	0.0006748882343620659	8408
377	0.0006741478194039068	2606
491	0.0006726669894875885	2937
1205	0.0006722967820085088	8706
356	0.0006715563670503497	2514
686	0.0006700755371340314	5001
1010	0.0006700755371340314	7613
839	0.0006689649146967927	6402
932	0.0006685947072177131	7211
467	0.0006682244997386335	2912
1260	0.0006682244997386335	9101
273	0.0006674840847804744	1507
479	0.0006667436698223153	2924
354	0.0006660032548641561	2512
508	0.0006656330473850764	3206
573	0.0006652628399059969	3825
1190	0.0006652628399059969	8548
1280	0.0006652628399059969	9209
1061	0.0006641522174687582	8308
571	0.0006637820099896786	3823
1209	0.0006637820099896786	8710
873	0.0006623011800733603	6902
1137	0.0006619309725942807	8476
1315	0.000660820350157042	9616
1249	0.0006604501426779625	9023
284	0.0006597097277198033	1518
950	0.0006593395202407238	7301
1006	0.0006593395202407238	7609
883	0.0006578586903244054	6912
504	0.0006571182753662462	3202
591	0.0006571182753662462	3918
775	0.0006571182753662462	5810
823	0.0006567480678871667	6213
500	0.0006560076529290075	3103
663	0.000655637445449928	4703
416	0.0006552672379708484	2808
1111	0.0006552672379708484	8447
830	0.0006548970304917688	6303
984	0.0006545268230126893	7410
1253	0.0006545268230126893	9027
581	0.0006541566155336097	3908
887	0.0006541566155336097	7002
1187	0.0006537864080545301	8545
397	0.0006534162005754505	2705
1041	0.000653045993096371	8203
1067	0.0006519353706591322	8403
1084	0.000651194955700973	8420
920	0.0006500843332637343	7117
967	0.0006500843332637343	7318
410	0.000648603503347416	2802
1153	0.000648603503347416	8507
466	0.0006482332958683365	2911
915	0.0006478630883892569	7111
992	0.0006467524659520182	7502
996	0.000646012050993859	7507
633	0.0006456418435147795	4304
227	0.0006445312210775407	906
768	0.0006445312210775407	5803
731	0.0006426801836821428	5404
1028	0.0006423099762030632	8103
1257	0.0006423099762030632	9031
810	0.0006415695612449041	6117
834	0.0006411993537658245	6307
941	0.0006411993537658245	7221
1139	0.0006411993537658245	8478
1015	0.0006404589388076654	7804
1144	0.0006404589388076654	8483
1229	0.0006404589388076654	9001
425	0.0006400887313285858	2817
946	0.0006400887313285858	7226
1245	0.0006389781088913471	9019
997	0.0006386079014122674	7508
1165	0.0006386079014122674	8521
552	0.0006382376939331879	3803
1173	0.00063638665653779	8531
871	0.0006349058266214717	6815
385	0.000633795204184233	2614
785	0.000633795204184233	5909
892	0.0006326845817469943	7007
1132	0.0006315739593097555	8471
370	0.0006308335443515964	2529
1206	0.0006304633368725168	8707
1265	0.0006289825069561985	9106
156	0.000628612299477119	203
1166	0.000628612299477119	8522
1248	0.000628612299477119	9022
988	0.0006278718845189598	7415
1126	0.0006278718845189598	8463
1128	0.0006278718845189598	8467
784	0.0006275016770398802	5908
1192	0.0006275016770398802	8602
585	0.0006271314695608007	3912
1307	0.0006256506396444824	9608
1077	0.0006249102246863232	8413
267	0.0006245400172072436	1501
1099	0.000624169809728164	8435
1287	0.000624169809728164	9307
238	0.0006223187723327662	1007
1087	0.0006219485648536866	8423
900	0.000621578357374607	7016
253	0.0006212081498955275	1205
367	0.0006212081498955275	2525
1170	0.0006212081498955275	8527
580	0.0006208379424164479	3907
1263	0.0006208379424164479	9104
338	0.0006204677349373683	2308
485	0.0006197273199792092	2930
687	0.0006197273199792092	5002
228	0.0006193571125001296	907
825	0.0006193571125001296	6215
366	0.00061898690502105	2524
532	0.0006171358676256521	3502
1124	0.0006171358676256521	8461
561	0.0006167656601465725	3812
942	0.0006167656601465725	7222
413	0.000616395452667493	2805
627	0.000616395452667493	4203
1022	0.0006156550377093338	8001
1305	0.0006152848302302542	9606
304	0.0006149146227511747	1903
476	0.0006149146227511747	2921
1168	0.0006149146227511747	8525
475	0.0006141742077930155	2920
570	0.0006141742077930155	3821
437	0.000613804000313936	2829
531	0.0006119529629185381	3501
564	0.0006119529629185381	3815
252	0.0006108423404812993	1204
488	0.0006108423404812993	2934
824	0.0006101019255231402	6214
1242	0.0006086210956068219	9016
158	0.0006082508881277423	205
1284	0.0006082508881277423	9304
1103	0.0006071402656905036	8439
826	0.000606770058211424	6216
389	0.0006060296432532649	2618
1088	0.0006052892282951058	8424
1071	0.0006041786058578669	8407
901	0.0006038083983787874	7017
751	0.0006026977759415487	5516
1073	0.0006023275684624691	8409
1075	0.0006023275684624691	8411
1058	0.0006019573609833895	8305
1276	0.0006019573609833895	9205
1164	0.00060158715350431	8519
1243	0.00060158715350431	9017
480	0.0006008467385461508	2925
200	0.0006004765310670712	707
489	0.0005997361161089121	2935
890	0.0005997361161089121	7005
995	0.000598995701150753	7506
1181	0.0005982552861925938	8539
683	0.0005964042487971959	4909
1258	0.0005964042487971959	9032
1163	0.0005952936263599572	8518
1121	0.000594553211401798	8458
395	0.0005941830039227185	2703
584	0.0005927021740064002	3911
1027	0.0005927021740064002	8102
1238	0.0005908511366110022	9011
162	0.0005904809291319227	209
450	0.0005904809291319227	2844
682	0.0005904809291319227	4908
553	0.0005897405141737635	3804
746	0.000589370306694684	5511
884	0.0005886298917365248	6913
492	0.0005882596842574452	2938
361	0.0005864086468620474	2519
465	0.0005845576094666494	2910
1246	0.0005841874019875699	9020
518	0.0005830767795503312	3302
1234	0.0005819661571130925	9006
355	0.0005812257421549333	2513
150	0.0005808555346758537	103
408	0.0005808555346758537	2716
647	0.0005786342898013763	4414
427	0.0005782640823222968	2819
791	0.0005775236673641375	6004
394	0.0005767832524059784	2702
1105	0.0005767832524059784	8441
353	0.0005764130449268988	2511
1292	0.0005764130449268988	9405
579	0.0005760428374478192	3906
874	0.0005760428374478192	6903
1191	0.0005753024224896601	8601
777	0.0005734513850942622	5901
440	0.0005727109701361031	2832
1210	0.0005723407626570235	8711
846	0.000571970555177944	6504
1270	0.0005716003476988644	9111
1131	0.0005708599327407052	8470
325	0.0005704897252616256	2204
490	0.0005704897252616256	2936
976	0.0005704897252616256	7401
727	0.000570119517782546	5311
764	0.0005686386878662277	5704
1231	0.0005671578579499095	9003
870	0.0005664174429917503	6814
1123	0.0005660472355126707	8460
163	0.0005656770280335912	210
424	0.0005645664055963525	2816
474	0.0005638259906381932	2919
562	0.0005627153682009545	3813
776	0.0005627153682009545	5811
421	0.0005619749532427954	2813
1230	0.0005619749532427954	9002
691	0.0005612345382846362	5006
724	0.0005608643308055567	5308
629	0.0005604941233264771	4206
979	0.0005604941233264771	7405
268	0.000559753708368318	1502
534	0.0005593835008892384	3505
373	0.0005590132934101588	2602
501	0.0005590132934101588	3104
737	0.0005582728784519997	5502
420	0.0005579026709729201	2812
911	0.0005556814260984426	7107
703	0.0005545708036612039	5111
592	0.0005538303887030447	3919
1154	0.0005516091438285673	8508
1059	0.0005512389363494878	8306
1317	0.0005512389363494878	9618
449	0.0005504985213913285	2843
972	0.0005501283139122489	7323
494	0.0005490176914750102	2940
274	0.0005471666540796124	1508
527	0.0005471666540796124	3404
160	0.0005460560316423737	207
938	0.0005456858241632941	7218
509	0.0005453156166842145	3207
258	0.0005438347867678962	1210
1048	0.0005434645792888166	8210
487	0.000543094371809737	2933
1042	0.000543094371809737	8204
1049	0.000543094371809737	8211
880	0.0005419837493724983	6909
855	0.0005412433344143392	6703
589	0.0005401327119771005	3916
1237	0.0005397625044980209	9010
1052	0.0005393922970189413	8214
1069	0.0005386518820607822	8405
1130	0.0005386518820607822	8469
1112	0.0005382816745817026	8448
515	0.000537911467102623	3213
780	0.000537911467102623	5904
346	0.0005364306371863047	2504
1271	0.0005360604297072251	9112
662	0.000535320014749066	4702
1240	0.0005345795997909068	9014
429	0.0005342093923118272	2821
1108	0.0005338391848327477	8444
968	0.0005334689773536681	7319
1269	0.0005334689773536681	9110
438	0.0005316179399582703	2830
621	0.0005316179399582703	4105
878	0.0005293966950837927	6907
417	0.0005286562801256336	2809
605	0.0005286562801256336	4007
793	0.000528286072646554	6006
583	0.0005279158651674744	3910
352	0.0005271754502093153	2510
852	0.0005264350352511562	6603
428	0.000525694620292997	2820
1279	0.0005238435828975991	9208
326	0.0005219925455022012	2205
1120	0.0005201415081068034	8457
632	0.0005197713006277238	4303
1019	0.0005190308856695647	7904
233	0.0005168096407950871	1002
1134	0.0005153288108787689	8473
556	0.0005149586033996893	3807
677	0.0005142181884415302	4903
178	0.000513477773483371	408
877	0.0005127373585252119	6906
1304	0.0005123671510461323	9605
894	0.0005119969435670527	7009
1323	0.0005119969435670527	970
198	0.0005105161136507345	705
451	0.0005101459061716548	2845
547	0.0005101459061716548	3705
1273	0.0005090352837344161	9114
484	0.0005071842463390182	2929
783	0.0005071842463390182	5907
1193	0.0005068140388599387	8603
898	0.0005060736239017795	7014
924	0.0005057034164227	7203
275	0.0005031119640691429	1509
1261	0.000501260926673745	9102
847	0.0004997800967574267	6505
993	0.0004997800967574267	7504
678	0.0004990396817992676	4904
1268	0.0004979290593620289	9109
1029	0.0004971886444038698	8104
1267	0.0004945971920503127	9108
482	0.000493486569613074	2927
1272	0.0004920057396967557	9113
333	0.0004912653247385965	2303
1104	0.0004912653247385965	8440
262	0.000489044079864119	1214
384	0.0004879334574268803	2613
503	0.0004879334574268803	3201
856	0.00048756324994780073	6704
272	0.000486452627510562	1506
719	0.000486452627510562	5302
994	0.000483861175157005	7505
1110	0.0004834909676779254	8446
396	0.00048312076019884584	2704
1047	0.00048201013776160714	8209
235	0.0004805293078452888	1004
1218	0.00047793785549173176	8803
626	0.0004771974405335726	4202
1086	0.0004753464031381748	8422
1275	0.000474235780700936	9202
445	0.0004731251582636973	2837
657	0.0004720145358264586	4503
1266	0.00047164432834737903	9107
463	0.0004712741208682994	2908
543	0.0004701634984310607	3701
598	0.000469052875993822	3926
1220	0.0004657210086821058	8805
439	0.0004642401787657875	2831
1294	0.0004642401787657875	9503
766	0.00046349976380762834	5801
330	0.000459427481537753	2209
530	0.000459427481537753	3407
452	0.0004575764441423551	2846
1295	0.00045609561422603684	9504
649	0.0004535041618724798	4416
226	0.00045276374691432066	905
700	0.00045276374691432066	5108
1044	0.0004512829169980024	8206
545	0.00045091270951892276	3703
665	0.0004505425020398432	4705
1262	0.00044869146464444535	9103
1297	0.0004479510496862862	9506
309	0.000447210634728127	2003
739	0.00044684042724904745	5504
1214	0.00044684042724904745	8715
249	0.00044350855993733127	1201
1278	0.00044276814497917213	9207
1282	0.00044276814497917213	9302
418	0.000442027730021013	2810
1113	0.000442027730021013	8449
726	0.0004409171075837742	5310
548	0.0004401766926256151	3706
1274	0.0004398064851465355	9201
376	0.0004386958627092968	2605
349	0.00043758524027205805	2507
190	0.00043647461783481934	601
1312	0.00043647461783481934	9613
560	0.00043610441035573977	3811
430	0.000429810883211387	2822
1316	0.000429810883211387	9617
1314	0.00042907046825322784	9615
549	0.00042870026077414827	3707
244	0.00042721943085782994	1105
690	0.00042610880842059123	5005
1020	0.00042610880842059123	7905
1109	0.0004212961111925568	8445
224	0.0004190748663180793	903
1296	0.0004190748663180793	9505
845	0.00041759403640176103	6502
1318	0.00041685362144360183	9701
1036	0.00041537279152728356	8111
914	0.00041426216909004485	7110
468	0.0004131515466528061	2913
718	0.00041056009429924905	5301
851	0.00040907926438293077	6602
587	0.0004075984344666125	3914
1065	0.00040648781202937373	8401
1239	0.0004038963596758167	9013
654	0.00040056449236410056	4421
1310	0.0003972326250523844	9611
442	0.0003953815876569865	2834
269	0.0003950113801779069	1503
181	0.00039464117269882734	501
544	0.00039464117269882734	3702
1051	0.0003942709652197478	8213
1053	0.0003935305502615886	8215
732	0.00039279013530342944	5405
276	0.0003924199278243499	1510
705	0.0003924199278243499	5113
922	0.0003920497203452703	7201
369	0.00038834764555447456	2528
447	0.00038834764555447456	2840
661	0.00038723702311723585	4701
902	0.0003850157782427584	7018
670	0.00038020308101472387	4807
334	0.0003794626660565647	2304
622	0.0003772414211820873	4106
692	0.0003772414211820873	5007
742	0.0003772414211820873	5507
1319	0.0003713181015168141	9702
248	0.0003709478940377345	1109
335	0.00036761602672601834	2305
850	0.00036539478185154087	6601
613	0.00036428415941430216	4015
723	0.00036243312201890426	5307
182	0.00035539917991639233	502
1195	0.0003542885574791536	8605
1031	0.0003528077275628353	8106
991	0.0003524375200837557	7501
720	0.0003516971051255966	5303
375	0.00034762482285572127	2604
1158	0.0003472546153766417	8513
251	0.00033133569377621994	1203
859	0.00033022507133898123	6803
658	0.00032059967688291227	4504
853	0.00031578697965487776	6701
1264	0.00030838283007328626	9105
383	0.000306902000156968	2612
1232	0.00030134888797077433	9004
540	0.000279876854184159	3604
1035	0.00027395353451888576	8110
1034	0.0002661791774582147	8109
854	0.00024840921846239504	6702
656	0.00024692838854607676	4502
655	0.0002343413342573712	4501
