402	0.002644815501958359	2710
153	0.0025922490208204496	106
925	0.002560296846011132	7204
401	0.002476808905380334	2709
616	0.0022689479832336975	4100
640	0.002264481550195836	4407
169	0.0022383700955129525	306
999	0.002144918573490002	7602
619	0.0021150278293135434	4103
293	0.0021091871091871092	1701
166	0.0021067821067821068	303
259	0.002101972101972102	1211
912	0.0020947570947570946	7108
618	0.0020531849103277676	4102
332	0.0020497491926063354	2302
617	0.0020222634508348792	4101
323	0.002005084862227719	2202
836	0.0020047412904555762	6309
255	0.001999244142101285	1207
260	0.00198687555830413	1212
813	0.0019765684051398337	6203
706	0.001924001924001924	5201
266	0.0019054490483061911	1404
165	0.0018893011750154608	302
641	0.0018381089809661238	4408
222	0.0018068439497010925	901
206	0.001802377516663231	713
365	0.0017573696145124717	2523
636	0.0017559953274238988	4403
168	0.0017484367484367485	305
796	0.0017474060331203187	6103
403	0.0017360681646395933	2711
211	0.0017164845736274308	804
595	0.0016979316979316979	3923
797	0.0016817838246409676	6104
231	0.001679035250463822	910
341	0.0016556723699580843	2402
167	0.0016240637669209098	304
240	0.0016116951831237545	1101
832	0.0016086030371744657	6305
802	0.0015948601662887378	6109
342	0.0015910808767951624	2403
164	0.0015845530131244417	301
499	0.0015835222978080122	3102
637	0.001581804438947296	4404
340	0.0015563801278086992	2401
263	0.0015467601181886896	1301
795	0.001544011544011544	6102
707	0.001531986531986532	5202
642	0.0015316429602143888	4409
283	0.0015275200989486703	1517
186	0.001509654366797224	507
794	0.0014945372088229231	6101
837	0.0014862914862914863	6310
313	0.0014804507661650519	2007
758	0.0014794200508486224	5607
223	0.00147701504844362	902
524	0.001472205043633615	3401
958	0.0014691128976843262	7309
799	0.001463615749330035	6106
923	0.0014553700267985982	7202
282	0.0014543393114821686	1516
798	0.0014539957397100255	6105
336	0.0014522778808493094	2306
907	0.0014488421631278774	7103
538	0.0014457500171785886	3602
250	0.001443001443001443	1202
187	0.001439565725280011	508
170	0.0014388785817357247	307
202	0.0014371607228750086	709
405	0.0014368171511028654	2713
807	0.0014350992922421493	6114
201	0.0014306328592042878	708
295	0.0014241049955335669	1703
399	0.0014058956916099773	2707
651	0.0013997113997113997	4418
315	0.0013973063973063973	2009
814	0.0013928399642685358	6204
962	0.0013856249570535285	7313
1322	0.0013821892393320965	9705
650	0.0013687899402185116	4417
291	0.001357452071737786	1604
225	0.0013567649281934996	904
172	0.0013474884903456332	402
881	0.001337181337181337	6910
1001	0.001336837765409194	7604
1254	0.0013361506218649076	9028
801	0.0013340891912320483	6108
668	0.001333402047687762	4800
895	0.0013289356146499003	7010
264	0.0013254998969284683	1302
241	0.001324812753384182	1102
392	0.0013234384662956092	2621
574	0.001320002748574177	3901
960	0.0013189720332577475	7311
502	0.0013141620284477427	3105
414	0.0013134748849034563	2806
714	0.0013134748849034563	5209
708	0.0013048855905998763	5203
822	0.0013048855905998763	6212
978	0.0013014498728784443	7403
296	0.0013011063011063011	1704
175	0.0012983577269291555	405
759	0.001297327011612726	5608
316	0.0012914862914862916	2101
803	0.0012904555761698619	6110
635	0.0012890812890812892	4402
242	0.0012877070019927162	1103
752	0.0012866762866762867	5601
239	0.0012842712842712843	1008
281	0.0012832405689548547	1515
459	0.0012828969971827116	2904
1009	0.0012818662818662818	7612
998	0.0012811791383219955	7601
287	0.0012780869923727067	1522
610	0.0012760255617398474	4012
362	0.0012732769875627018	2520
955	0.0012712155569298425	7306
422	0.0012684669827526971	2814
710	0.001266749123891981	5205
307	0.0012640005497148354	2001
207	0.0012619391190819762	714
886	0.0012602212602212603	7001
867	0.0012598776884491171	6811
891	0.0012591905449048306	7006
755	0.0012567855424998281	5604
563	0.0012557548271833986	3814
1095	0.0012554112554112554	8431
245	0.0012516319659176803	1106
319	0.001251288394145537	2104
441	0.0012509448223733937	2833
713	0.0012506012506012505	5208
709	0.001249570535284821	5204
1223	0.0012416683845255273	8903
815	0.0012396069538926683	6205
317	0.0012337662337662339	2102
343	0.0012334226619940905	2501
981	0.001228956228956229	7407
214	0.0012248333676905105	807
217	0.001223802652374081	810
318	0.0012220847935133648	2103
639	0.0012210540781969353	4406
575	0.0012207105064247921	3902
936	0.0012193362193362194	7215
1293	0.0012183055040197897	9406
800	0.0012179619322476465	6107
541	0.0012145262145262146	3605
314	0.0012114340685769258	2008
327	0.0012062804919947777	2206
203	0.001201814058956916	710
821	0.0012007833436404865	6211
308	0.0012004397718683433	2002
653	0.0011959733388304816	4420
1199	0.0011959733388304816	8609
906	0.001194942623514052	7102
805	0.0011901326187040472	6112
415	0.0011870404727547584	2807
916	0.0011818868961726106	7112
1179	0.0011818868961726106	8537
188	0.0011815433244004672	510
372	0.0011774204631347489	2601
1004	0.0011763897478183193	7607
205	0.0011750154607297464	712
510	0.00117432831718546	3208
808	0.0011722668865526008	6115
937	0.0011712361712361713	7217
179	0.001170549027691885	409
842	0.0011688311688311688	6405
302	0.0011660825946540232	1806
1298	0.00116573902288188	9507
817	0.0011636775922490208	6207
935	0.0011629904487047344	7214
934	0.0011598983027554456	7213
243	0.0011592111592111593	1104
363	0.0011585240156668727	2521
811	0.0011578368721225864	6201
379	0.0011574933003504432	2608
789	0.0011571497285783	6002
185	0.0011564625850340137	506
218	0.0011561190132618705	811
358	0.0011544011544011544	2516
1204	0.0011540575826290112	8705
208	0.0011533704390847249	801
594	0.0011533704390847249	3922
1082	0.0011523397237682951	8418
740	0.001151996151996152	5505
599	0.0011506218649075793	4001
1135	0.0011506218649075793	8474
717	0.0011482168625025768	5212
863	0.0011482168625025768	6807
927	0.0011471861471861473	7206
306	0.001145124716553288	1905
204	0.0011437504294647151	711
292	0.0011427197141482856	1605
546	0.0011423761423761424	3704
196	0.00113997113997114	703
151	0.001135161135161135	104
818	0.0011300075585789872	6208
866	0.0011286332714904143	6810
957	0.0011286332714904143	7308
1244	0.001127946127946128	9018
348	0.0011276025561739848	2506
329	0.001124510410224696	2208
681	0.001123136123136123	4907
278	0.0011207311207311207	1512
359	0.0011207311207311207	2517
1149	0.0011200439771868343	8503
286	0.0011197004054146911	1521
645	0.0011197004054146911	4412
917	0.0011172954030096887	7113
189	0.0011169518312375455	511
498	0.0011166082594654023	3101
609	0.0011162646876932592	4011
819	0.0011152339723768294	6209
554	0.0011148904006046863	3805
812	0.001114546828832543	6202
929	0.001114546828832543	7208
712	0.0011104239675668248	5207
1203	0.0011097368240225384	8704
1141	0.0011076753933896791	8480
324	0.001107331821617536	2203
765	0.0011069882498453928	5705
210	0.0011066446780732494	803
364	0.001105957534528963	2522
1222	0.0011045832474403904	8902
1186	0.0011032089603518174	8544
1225	0.001102178245035388	8905
729	0.001100803957946815	5402
149	0.001098742527313956	102
522	0.001098742527313956	3306
966	0.001098742527313956	7317
918	0.001097368240225383	7114
931	0.0010970246684532399	7210
1290	0.0010966810966810967	9403
982	0.0010932453789596647	7408
1224	0.0010929018071875215	8904
820	0.0010915275200989486	6210
721	0.0010908403765546623	5305
388	0.001090153233010376	2617
512	0.0010884353741496598	3210
423	0.0010860303717446574	2815
829	0.001083625369339655	6302
1152	0.0010832817975675118	8506
193	0.0010829382257953686	604
1219	0.001081563938706796	8804
1215	0.0010812203669346527	8716
590	0.0010791589363017935	3917
838	0.0010784717927575071	6401
1227	0.001076753933896791	8907
1228	0.0010760667903525047	8908
816	0.0010757232185803615	6206
176	0.0010753796468082183	406
644	0.0010750360750360751	4411
1057	0.0010740053597196454	8304
1003	0.001073318216175359	7606
1235	0.0010688517831374973	9007
611	0.0010678210678210678	4013
1188	0.0010667903525046383	8546
265	0.0010650724936439222	1401
1012	0.0010650724936439222	7615
913	0.0010616367759224902	7109
831	0.0010606060606060607	6304
779	0.0010602624888339173	5903
328	0.0010599189170617741	2207
760	0.001059575345289631	5609
289	0.0010575139146567717	1602
1201	0.0010557960557960558	8702
1017	0.001054421768707483	7901
1096	0.0010513296227581941	8432
194	0.001050986050986051	701
695	0.0010506424792139078	5103
919	0.0010506424792139078	7115
614	0.001049268192125335	4016
827	0.0010489246203531917	6217
1007	0.0010465196179481895	7610
177	0.001045832474403903	407
804	0.0010454889026317597	6111
523	0.0010420531849103278	3307
183	0.0010399917542774685	504
220	0.0010393046107331821	813
322	0.0010386174671888958	2201
311	0.0010379303236446094	2005
674	0.0010379303236446094	4824
680	0.001034151034151034	4906
464	0.001033807462378891	2909
928	0.0010324331752903182	7207
749	0.0010317460317460319	5514
1083	0.0010317460317460319	8419
1011	0.0010307153164296021	7614
833	0.0010293410293410294	6306
347	0.0010289974575688862	2505
843	0.0010289974575688862	6406
407	0.0010283103140245997	2715
959	0.0010276231704803133	7310
868	0.0010259053116195972	6812
921	0.001025561739847454	7118
374	0.0010252181680753109	2603
1167	0.0010252181680753109	8523
390	0.0010241874527588814	2619
1277	0.0010231567374424518	9206
357	0.0010214388785817357	2515
790	0.0010207517350374494	6003
1016	0.0010200645914931628	7806
947	0.0010190338761767333	7227
219	0.0010186903044045901	812
454	0.0010186903044045901	2849
1286	0.0010186903044045901	9306
371	0.0010162853019995877	2530
469	0.0010159417302274445	2914
1174	0.0010142238713667284	8532
199	0.0010114752971895828	706
1046	0.0010114752971895828	8208
930	0.00101010101010101	7209
173	0.001009757438328867	403
1241	0.001008383151240294	9015
990	0.0010080395794681508	7419
212	0.0010076960076960077	805
1208	0.0010066652923795781	8709
1259	0.0010056345770631484	9033
1178	0.0010042602899745757	8536
456	0.0010039167182024325	2901
750	0.0010039167182024325	5515
171	0.0010035731464302893	401
1074	0.00100151171579743	8410
1172	0.00100151171579743	8530
191	0.0009994502851645708	602
209	0.0009994502851645708	802
1078	0.0009994502851645708	8414
1093	0.0009980759980759981	8429
1177	0.0009960145674431388	8535
331	0.0009956709956709957	2301
646	0.0009908609908609908	4413
1221	0.0009905174190888476	8901
685	0.0009898302755445613	4911
983	0.0009863945578231293	7409
1147	0.0009863945578231293	8501
436	0.0009860509860509861	2828
216	0.0009850202707345564	809
716	0.0009836459836459837	5211
806	0.0009836459836459837	6113
748	0.0009833024118738405	5513
444	0.000982615268329554	2836
974	0.0009819281247852676	7325
236	0.0009784924070638356	1005
648	0.0009781488352916924	4415
875	0.0009767745482031195	6904
948	0.0009764309764309765	7228
1062	0.0009750566893424037	8309
378	0.000974025974025974	2607
1156	0.0009705902563045421	8511
631	0.0009702466845323988	4302
835	0.0009699031127602556	6308
412	0.0009681852538995396	2804
1116	0.0009678416821273964	8452
862	0.00096715453858311	6806
903	0.0009664673950388236	7019
1313	0.0009657802514945372	9614
1162	0.0009633752490895348	8517
457	0.000962000962000962	2902
747	0.0009599395313681028	5512
770	0.0009571909571909572	5805
535	0.000956847385418814	3506
285	0.0009561602418745276	1520
443	0.0009547859547859548	2835
1321	0.0009527245241530956	9704
673	0.0009523809523809524	4823
1216	0.0009486016628873771	8801
446	0.0009479145193430908	2839
865	0.0009479145193430908	6809
1129	0.0009475709475709476	8468
455	0.0009468838040266611	2852
419	0.0009434480863052292	2811
697	0.0009434480863052292	5105
1013	0.0009434480863052292	7616
970	0.0009424173709887995	7321
1002	0.0009420737992166564	7605
525	0.0009417302274445132	3402
411	0.0009406995121280836	2803
643	0.0009406995121280836	4410
1064	0.0009406995121280836	8311
792	0.0009396687968116539	6005
954	0.0009386380814952243	7305
1200	0.0009369202226345083	8701
754	0.0009358895073180788	5603
849	0.0009358895073180788	6507
1018	0.0009341716484573627	7903
434	0.0009331409331409332	2826
1142	0.0009324537895966467	8481
728	0.0009321102178245035	5401
600	0.0009303923589637876	4002
270	0.0009286745001030716	1504
557	0.0009286745001030716	3808
897	0.0009283309283309283	7013
762	0.0009279873565587851	5702
1025	0.0009279873565587851	8007
964	0.0009273002130144988	7315
493	0.0009262694976980691	2939
382	0.000925925925925926	2611
213	0.0009255823541537827	806
694	0.0009255823541537827	5102
230	0.0009245516388373532	909
550	0.0009207723493437779	3801
628	0.0009197416340273483	4205
1076	0.0009187109187109187	8412
828	0.0009183673469387755	6301
393	0.0009180237751666323	2701
1302	0.0009180237751666323	9603
297	0.0009173366316223459	1801
406	0.0009173366316223459	2714
693	0.00091561877276163	5101
910	0.00091561877276163	7106
634	0.0009135573421287707	4401
788	0.0009125266268123411	6001
256	0.0009121830550401979	1208
1092	0.0009114959114959115	8428
496	0.0009108087679516251	2942
520	0.0009108087679516251	3304
320	0.0009104651961794819	2105
1039	0.0009097780526351954	8201
840	0.0009080601937744795	6403
666	0.0009077166220023363	4706
1094	0.0009077166220023363	8430
1288	0.0009059987631416203	9401
246	0.0009056551913694771	1107
738	0.0009035937607366179	5503
261	0.0009011887583316155	1213
426	0.0008977530406101835	2818
1056	0.0008977530406101835	8303
404	0.0008974094688380403	2712
528	0.0008974094688380403	3405
1151	0.0008967223252937538	8505
1175	0.000895348038205181	8533
360	0.0008943173228887515	2518
303	0.0008932866075723219	1902
597	0.0008929430358001787	3925
301	0.0008925994640280355	1805
350	0.0008925994640280355	2508
744	0.0008922558922558922	5509
905	0.0008922558922558922	7101
521	0.000891912320483749	3305
864	0.0008895073180787466	6808
669	0.0008891637463066034	4802
277	0.0008888201745344603	1511
559	0.0008888201745344603	3810
310	0.0008867587439016011	2004
400	0.0008867587439016011	2708
537	0.000885040885040885	3601
973	0.000885040885040885	7324
715	0.0008846973132687418	5210
539	0.0008840101697244555	3603
337	0.0008829794544080258	2307
1043	0.0008802308802308802	8205
1040	0.0008792001649144506	8202
876	0.0008785130213701642	6905
701	0.0008781694495980211	5109
511	0.0008774823060537346	3209
387	0.0008771387342815914	2616
432	0.0008761080189651618	2824
971	0.0008750773036487322	7322
1146	0.000874733731876589	8487
471	0.0008733594447880162	2916
1133	0.0008726723012437298	8472
1236	0.0008726723012437298	9008
345	0.0008723287294715867	2503
607	0.0008709544423830139	4009
879	0.0008706108706108706	6908
513	0.0008699237270665842	3211
542	0.0008682058682058682	3606
787	0.0008682058682058682	5911
576	0.000867862296433725	3903
858	0.0008668315811172954	6802
612	0.0008664880093451521	4014
860	0.0008658008658008658	6804
192	0.000864426578712293	603
675	0.000864426578712293	4901
872	0.0008630522916237202	6901
1207	0.000862708719851577	8708
1090	0.0008623651480794338	8426
1068	0.000860990860990861	8404
774	0.0008603037174465746	5809
1070	0.0008561808561808561	8406
753	0.0008534322820037105	5602
380	0.0008530887102315674	2609
734	0.0008530887102315674	5407
294	0.0008520579949151377	1702
909	0.000850683707826565	7105
1171	0.0008503401360544217	8529
215	0.0008479351336494194	808
940	0.000847247990105133	7220
448	0.0008448429877001305	2841
1281	0.0008444994159279873	9301
1306	0.0008441558441558442	9607
497	0.0008427815570672713	3006
1197	0.0008424379852951282	8607
671	0.0008414072699786985	4810
1198	0.0008414072699786985	8608
516	0.0008410636982065554	3214
608	0.0008410636982065554	4010
956	0.0008407201264344122	7307
899	0.0008403765546622689	7015
1169	0.0008396894111179826	8526
433	0.0008393458393458394	2825
159	0.0008372844087129801	206
933	0.0008369408369408369	7212
229	0.0008359101216244073	908
896	0.0008348794063079778	7011
1107	0.0008328179756751185	8443
1233	0.0008324744039029753	9005
977	0.0008321308321308322	7402
1106	0.0008321308321308322	8442
453	0.0008307565450422594	2847
1037	0.0008307565450422594	8112
841	0.0008304129732701161	6404
288	0.0008300694014979729	1601
1148	0.0008293822579536866	8502
1145	0.0008280079708651137	8486
761	0.0008273208273208273	5701
861	0.0008266336837765409	6805
565	0.000824915824915825	3816
339	0.0008238851095993953	2309
1185	0.0008231979660551089	8543
1005	0.0008228543942829657	7608
1202	0.0008228543942829657	8703
602	0.0008221672507386793	4004
625	0.0008221672507386793	4201
869	0.0008214801071943929	6813
952	0.0008214801071943929	7303
237	0.0008211365354222497	1006
704	0.0008211365354222497	5112
1014	0.0008211365354222497	7801
486	0.0008197622483336769	2932
926	0.0008190751047893905	7205
624	0.0008180443894729609	4115
1180	0.0008177008177008177	8538
1311	0.0008177008177008177	9612
1085	0.0008170136741565313	8421
989	0.0008166701023843881	7418
773	0.0008159829588401016	5808
949	0.0008156393870679585	7229
247	0.0008152958152958153	1108
1255	0.0008149522435236721	9029
664	0.0008125472411186697	4704
1196	0.0008108293822579537	8606
569	0.0008104858104858105	3820
809	0.0008104858104858105	6116
1119	0.0008104858104858105	8455
577	0.0008091115233972377	3904
495	0.0008087679516250944	2941
1226	0.0008077372363086649	8906
1063	0.0008073936645365217	8310
1291	0.0008073936645365217	9404
688	0.0008070500927643784	5003
1118	0.0008070500927643784	8454
1045	0.0008036143750429465	8207
596	0.00080292723149866	3924
904	0.0008022400879543737	7020
368	0.000801209372637944	2526
782	0.0007984607984607984	5906
961	0.0007981172266886552	7312
257	0.0007977736549165121	1209
566	0.0007974300831443689	3817
1091	0.0007970865113722256	8427
769	0.0007967429396000824	5804
975	0.0007963993678279393	7326
148	0.0007960557960557961	101
1252	0.0007950250807393665	9026
1136	0.0007946815089672233	8475
1138	0.0007939943654229368	8477
290	0.0007929636501065073	1603
184	0.0007919329347900777	505
771	0.000790902219473648	5806
431	0.0007905586477015049	2823
1024	0.0007902150759293617	8003
505	0.000789184360612932	3203
848	0.000789184360612932	6506
155	0.0007888407888407889	202
951	0.0007888407888407889	7302
711	0.0007874665017522161	5206
1289	0.0007874665017522161	9402
462	0.0007864357864357864	2907
321	0.0007860922146636433	2106
1182	0.0007860922146636433	8540
1247	0.0007857486428915001	9021
479	0.0007854050711193568	2924
953	0.0007854050711193568	7304
786	0.0007836872122586408	5910
660	0.0007819693533979248	4602
526	0.0007816257816257817	3403
735	0.0007802514945372089	5408
985	0.0007799079227650656	7411
1256	0.0007792207792207792	9030
234	0.000778877207448636	1003
1183	0.0007785336356764929	8541
312	0.0007775029203600632	2006
551	0.0007768157768157768	3802
152	0.0007757850614993473	105
572	0.000775441489727204	3824
1008	0.0007750979179550608	7611
271	0.0007747543461829176	1505
1122	0.0007747543461829176	8459
603	0.0007744107744107744	4005
1079	0.0007744107744107744	8415
1023	0.0007740672026386312	8002
606	0.0007733800590943448	4008
1157	0.0007713186284614857	8512
965	0.0007709750566893424	7316
604	0.0007665086236514808	4006
1301	0.0007665086236514808	9602
1143	0.0007661650518793376	8482
623	0.0007658214801071944	4114
1213	0.0007654779083350511	8714
195	0.0007647907647907648	702
391	0.0007647907647907648	2620
1038	0.0007637600494743352	8113
519	0.0007630729059300488	3303
1101	0.0007630729059300488	8437
1176	0.0007613550470693328	8534
1114	0.0007610114752971895	8450
1150	0.0007610114752971895	8504
1160	0.0007610114752971895	8515
1132	0.0007606679035250464	8471
1184	0.0007606679035250464	8542
772	0.00075998075998076	5807
154	0.0007579193293479008	201
743	0.0007579193293479008	5508
756	0.0007562014704871848	5605
987	0.0007562014704871848	7413
386	0.0007558578987150416	2615
582	0.0007555143269428984	3909
221	0.0007541400398543256	814
615	0.000753109324537896	4017
944	0.0007517350374493232	7224
1320	0.0007507043221328935	9703
1081	0.0007500171785886072	8417
533	0.0007489864632721776	3503
699	0.0007469250326393184	5107
889	0.0007465814608671751	7004
409	0.0007452071737786023	2801
1127	0.0007438328866900295	8465
1054	0.0007431457431457431	8301
1251	0.0007424585996014568	9025
882	0.0007417714560571703	6911
161	0.0007414278842850272	208
1212	0.000741084312512884	8713
491	0.0007407407407407407	2937
351	0.0007403971689685975	2509
1189	0.0007400535971964544	8547
943	0.0007393664536521679	7223
458	0.0007390228818800247	2903
1080	0.0007390228818800247	8416
1300	0.0007386793101078815	9601
280	0.0007383357383357384	1514
1066	0.0007376485947914519	8402
1128	0.0007376485947914519	8467
1303	0.0007376485947914519	9604
298	0.0007373050230193087	1802
885	0.0007373050230193087	6914
767	0.0007369614512471656	5802
684	0.0007355871641585928	4910
514	0.0007349000206143063	3212
736	0.0007349000206143063	5501
741	0.00073421287707002	5506
477	0.0007338693052978768	2922
473	0.0007335257335257335	2918
593	0.0007335257335257335	3920
893	0.0007335257335257335	7008
730	0.0007321514464371607	5403
1308	0.0007321514464371607	9609
461	0.0007318078746650175	2906
1026	0.0007311207311207312	8101
969	0.0007300900158043015	7320
254	0.0007294028722600151	1206
300	0.0007294028722600151	1804
1125	0.0007294028722600151	8462
1260	0.0007294028722600151	9101
568	0.0007290593004878719	3819
1159	0.0007283721569435855	8514
344	0.0007280285851714424	2502
733	0.0007266542980828696	5406
1315	0.0007266542980828696	9616
1021	0.0007259671545385831	7907
757	0.0007256235827664399	5606
481	0.0007235621521335807	2926
567	0.0007232185803614375	3818
1000	0.0007232185803614375	7603
696	0.0007218442932728647	5104
381	0.0007208135779564352	2610
672	0.0007208135779564352	4811
980	0.0007197828626400055	7406
1299	0.0007194392908678623	9508
689	0.0007173778602350031	5004
620	0.0007170342884628599	4104
1211	0.0007166907166907167	8712
1250	0.0007163471449185734	9024
507	0.0007156600013742871	3205
573	0.0007156600013742871	3825
435	0.0007146292860578575	2827
1194	0.0007139421425135711	8604
1217	0.0007135985707414279	8802
232	0.0007118807118807118	1001
1117	0.0007118807118807118	8453
517	0.0007115371401085687	3215
667	0.0007094757094757095	4707
1283	0.0007094757094757095	9303
887	0.0007091321377035662	7002
1030	0.000708788565931423	8105
558	0.0007081014223871367	3809
397	0.0007077578506149934	2705
601	0.0007074142788428502	4003
984	0.0007053528482099911	7410
939	0.0007050092764378479	7219
467	0.0007043221328935615	2912
963	0.0007043221328935615	7314
354	0.0007039785611214183	2512
763	0.0007036349893492751	5703
157	0.0007029478458049886	204
1285	0.0007029478458049886	9305
908	0.0007026042740328455	7104
1190	0.0007022607022607023	8548
915	0.0007015735587164158	7111
1111	0.0007008864151721295	8447
555	0.0007005428433999862	3806
1010	0.0007005428433999862	7613
398	0.0006998556998556999	2706
470	0.0006995121280835567	2915
702	0.0006995121280835567	5110
945	0.0006995121280835567	7225
377	0.0006991685563114135	2606
506	0.0006991685563114135	3204
1245	0.0006977942692228407	9019
1209	0.0006971071256785542	8710
483	0.0006967635539064111	2928
571	0.0006967635539064111	3823
1055	0.0006967635539064111	8302
460	0.0006964199821342679	2905
485	0.0006964199821342679	2930
586	0.0006960764103621246	3913
778	0.0006960764103621246	5902
1060	0.0006947021232735518	8307
996	0.0006943585515014086	7507
679	0.0006940149797292654	4905
1084	0.0006940149797292654	8420
652	0.0006936714079571223	4419
1253	0.000693327836184979	9027
284	0.0006929842644128358	1518
1033	0.0006929842644128358	8108
279	0.0006922971208685495	1513
1173	0.0006922971208685495	8531
536	0.0006919535490964063	3507
588	0.0006905792620078335	3915
508	0.000689892118463547	3206
578	0.000689892118463547	3905
1205	0.0006892049749192607	8706
1115	0.0006885178313749742	8451
1072	0.0006878306878306879	8408
663	0.0006871435442864014	4703
1089	0.0006867999725142582	8425
1161	0.0006861128289699718	8516
174	0.0006826771112485398	404
997	0.0006826771112485398	7508
1280	0.0006819899677042535	9209
676	0.0006806156806156807	4902
1165	0.0006806156806156807	8521
633	0.000679584965299251	4304
630	0.0006792413935271078	4301
1028	0.0006792413935271078	8103
1032	0.0006768363911221054	8107
1276	0.0006768363911221054	9205
305	0.0006764928193499622	1904
950	0.0006758056758056758	7301
1263	0.0006747749604892462	9104
686	0.000674431388717103	5001
416	0.0006730571016285302	2808
1100	0.0006730571016285302	8436
1309	0.0006730571016285302	9610
932	0.0006689342403628118	7211
1140	0.0006679035250463822	8479
478	0.000667559953274239	2923
299	0.0006668728097299526	1803
1265	0.0006668728097299526	9106
1144	0.0006658420944135229	8483
1097	0.0006654985226413798	8433
1102	0.0006644678073249501	8438
1249	0.000664124235552807	9023
466	0.0006637806637806638	2911
581	0.0006637806637806638	3908
888	0.0006637806637806638	7003
1166	0.0006637806637806638	8522
986	0.0006630935202363774	7412
687	0.0006627499484642341	5002
180	0.0006620628049199478	410
591	0.0006620628049199478	3918
1229	0.0006617192331478046	9001
992	0.0006610320896035182	7502
227	0.000660688517831375	906
1098	0.000660688517831375	8434
941	0.0006603449460592318	7221
437	0.0006582835154263725	2829
946	0.0006579399436542294	7226
1137	0.0006579399436542294	8476
529	0.0006572528001099429	3406
967	0.0006569092283377997	7318
1041	0.0006565656565656566	8203
1087	0.0006562220847935134	8423
823	0.0006551913694770838	6213
830	0.0006551913694770838	6303
552	0.0006548477977049406	3803
504	0.0006541606541606541	3202
1164	0.0006531299388442246	8519
1153	0.0006527863670720813	8507
1155	0.0006527863670720813	8509
659	0.0006524427952999381	4601
1050	0.0006524427952999381	8212
488	0.0006517556517556518	2934
489	0.0006510685082113653	2935
561	0.0006490070775785062	3812
1206	0.0006483199340342197	8707
356	0.0006466020751735037	2514
1248	0.0006466020751735037	9022
197	0.0006459149316292174	704
698	0.0006445406445406446	5106
785	0.0006445406445406446	5909
1058	0.0006441970727685013	8305
731	0.0006438535009963581	5404
873	0.0006438535009963581	6902
857	0.0006424792139077853	6801
1006	0.0006421356421356421	7609
1243	0.0006414484985913558	9017
784	0.0006411049268192125	5908
1307	0.0006411049268192125	9608
1257	0.000640074211502783	9031
562	0.0006386999244142102	3813
585	0.0006386999244142102	3912
722	0.0006376692090977805	5306
518	0.0006369820655534941	3302
1073	0.0006369820655534941	8409
1246	0.0006352642066927781	9020
725	0.0006345770631484917	5309
385	0.0006342334913763486	2614
1242	0.0006338899196042053	9016
424	0.0006335463478320621	2816
638	0.0006332027760599189	4405
682	0.0006332027760599189	4908
1077	0.0006332027760599189	8413
988	0.0006328592042877758	7415
273	0.0006321720607434893	1507
768	0.0006321720607434893	5803
824	0.0006321720607434893	6214
892	0.0006321720607434893	7007
389	0.0006318284889713461	2618
810	0.0006307977736549165	6117
410	0.0006304542018827733	2802
1168	0.0006301106301106301	8525
834	0.0006297670583384869	6307
901	0.0006297670583384869	7017
1238	0.0006290799147942005	9011
1284	0.0006290799147942005	9304
556	0.0006287363430220573	3807
570	0.0006287363430220573	3821
745	0.0006259877688449117	5510
775	0.0006259877688449117	5810
1187	0.0006259877688449117	8545
472	0.0006253006253006253	2917
942	0.0006253006253006253	7222
781	0.0006249570535284821	5905
532	0.0006246134817563389	3502
1234	0.0006246134817563389	9006
1305	0.0006228956228956229	9606
839	0.0006225520511234796	6402
584	0.0006222084793513365	3911
844	0.0006218649075791933	6501
1287	0.0006218649075791933	9307
920	0.0006215213358070501	7117
1230	0.0006208341922627637	9002
737	0.0006204906204906205	5502
1170	0.0006204906204906205	8527
553	0.0006201470487184773	3804
1123	0.0006194599051741909	8460
751	0.0006187727616299045	5516
1015	0.000618085618085618	7804
727	0.0006173984745413317	5311
1163	0.0006163677592249021	8518
995	0.0006153370439084724	7506
1231	0.0006146499003641861	9003
1258	0.0006146499003641861	9032
449	0.0006143063285920429	2843
883	0.0006132756132756133	6912
361	0.0006125884697313269	2519
825	0.0006125884697313269	6215
476	0.0006119013261870405	2921
1061	0.0006119013261870405	8308
413	0.0006115577544148973	2805
564	0.0006112141826427541	3815
605	0.0006108706108706108	4007
592	0.0006105270390984677	3919
475	0.0006098398955541813	2920
1192	0.0006098398955541813	8602
370	0.0006088091802377517	2529
367	0.0006084656084656085	2525
1067	0.0006081220366934652	8403
338	0.0006070913213770357	2308
1103	0.0006067477496048924	8439
450	0.0006057170342884629	2844
427	0.0006050298907441764	2819
776	0.0006050298907441764	5811
268	0.0006033120318834604	1502
1121	0.0006029684601113173	8458
580	0.0006026248883391741	3907
253	0.0006002198859341717	1205
492	0.0005995327423898852	2938
252	0.0005988455988455988	1204
1126	0.0005988455988455988	8463
304	0.0005981584553013125	1903
395	0.0005978148835291692	2703
968	0.0005978148835291692	7319
238	0.000597471311757026	1007
465	0.0005967841682127397	2910
1075	0.0005967841682127397	8411
1139	0.0005967841682127397	8478
1181	0.0005967841682127397	8539
683	0.0005960970246684532	4909
408	0.00059575345289631	2716
1131	0.00059575345289631	8470
1022	0.0005933484504913076	8001
228	0.0005930048787191644	907
267	0.0005930048787191644	1501
355	0.0005930048787191644	2513
1124	0.000592317735174878	8461
911	0.0005909434480863053	7107
890	0.0005902563045420188	7005
1027	0.00058716415859273	8102
791	0.0005861334432763004	6004
579	0.0005857898715041572	3906
1154	0.000585446299732014	8508
156	0.0005851027279598708	203
200	0.0005851027279598708	707
1099	0.0005847591561877276	8435
691	0.0005840720126434412	5006
1088	0.0005837284408712981	8424
158	0.0005826977255548684	205
527	0.0005826977255548684	3404
487	0.000582010582010582	2933
884	0.000582010582010582	6913
1292	0.000582010582010582	9405
480	0.0005816670102384388	2925
979	0.0005816670102384388	7405
874	0.0005813234384662956	6903
900	0.0005813234384662956	7016
366	0.0005809798666941524	2524
474	0.0005789184360612932	2919
1270	0.0005761698618841476	9111
425	0.000573421287707002	2817
846	0.000573421287707002	6504
1071	0.000573421287707002	8407
894	0.0005727341441627156	7009
1120	0.0005723905723905724	8457
438	0.0005713598570741428	2830
627	0.000568267711124854	4203
500	0.0005679241393527108	3103
1112	0.0005675805675805675	8448
1130	0.0005675805675805675	8469
531	0.0005668934240362812	3501
1191	0.0005668934240362812	8601
871	0.000566549852264138	6815
534	0.0005662062804919947	3505
647	0.0005658627087198516	4414
274	0.0005638012780869924	1508
1105	0.0005631141345427059	8441
976	0.00056139627568199	7401
972	0.0005610527039098468	7323
394	0.0005600219885934172	2702
724	0.0005600219885934172	5308
746	0.000559678416821274	5511
1134	0.0005593348450491308	8473
1210	0.0005583041297327012	8711
353	0.000557960557960558	2511
1048	0.000557960557960558	8210
1323	0.0005569298426441284	970
501	0.0005545248402391259	3104
877	0.0005545248402391259	6906
1269	0.0005541812684669827	9110
150	0.0005534941249226964	103
490	0.0005531505531505531	2936
764	0.0005528069813784099	5704
163	0.0005524634096062668	210
440	0.0005514326942898371	2832
509	0.0005514326942898371	3207
880	0.000551089122517694	6909
1193	0.0005504019789734075	8603
429	0.0005497148354291211	2821
1052	0.000549371263656978	8214
1273	0.0005490276918848347	9114
793	0.0005483405483405483	6006
993	0.0005469662612519755	7504
421	0.0005466226894798324	2813
898	0.0005455919741634027	7014
373	0.0005449048306191164	2602
1271	0.0005445612588469731	9112
780	0.0005435305435305436	5904
826	0.0005435305435305436	6216
1240	0.0005428433999862571	9014
515	0.0005421562564419708	3213
855	0.0005411255411255411	6703
703	0.0005397512540369683	5111
924	0.000539064110492682	7203
346	0.0005376898234041092	2504
1069	0.0005373462516319659	8405
1108	0.0005370026798598227	8444
494	0.0005356283927712499	2940
162	0.0005352848209991067	209
428	0.0005342541056826771	2820
1317	0.0005315055315055315	9618
777	0.0005311619597333883	5901
1261	0.0005308183879612451	9102
1304	0.0005308183879612451	9605
547	0.0005304748161891019	3705
258	0.0005301312444169587	1210
870	0.0005294441008726723	6814
878	0.0005277262420119563	6907
1042	0.000527382670239813	8204
1049	0.000527382670239813	8211
678	0.0005256648113790971	4904
1047	0.0005232598089740947	8209
583	0.0005225726654298083	3910
1237	0.0005225726654298083	9010
1275	0.0005215419501133786	9202
420	0.0005211983783412355	2812
1019	0.0005181062323919467	7904
325	0.0005167319453033739	2204
662	0.0005163883735312307	4702
938	0.0005163883735312307	7218
1059	0.0005143269428983714	8306
484	0.0005139833711262282	2929
1104	0.0005122655122655123	8440
629	0.0005115783687212259	4206
384	0.0005108912251769395	2613
677	0.0005088297945440803	4903
249	0.000508486222771937	1201
852	0.0005074555074555075	6603
160	0.0005064247921390779	207
417	0.0005060812203669347	2809
326	0.0005053940768226482	2205
1044	0.000505050505050505	8206
1268	0.0005047069332783619	9109
847	0.0005012712155569298	6505
856	0.0005012712155569298	6704
621	0.0005005840720126435	4105
198	0.000499896928468357	705
1267	0.0004978354978354978	9108
233	0.000494743351886209	1002
1279	0.000494743351886209	9208
275	0.0004940562083419226	1509
589	0.0004930254930254931	3916
632	0.0004885590599876315	4303
503	0.0004871847728990586	3201
482	0.0004864976293547722	2927
1029	0.0004864976293547722	8104
545	0.0004858104858104858	3703
1110	0.0004854669140383426	8446
1266	0.0004785954785954786	9107
451	0.0004779083350511922	2845
1278	0.0004768776197347626	9207
783	0.00047653404796261936	5907
452	0.000474129045557617	2846
665	0.000474129045557617	4705
719	0.000474129045557617	5302
352	0.0004730983302411874	2510
463	0.0004717240431526146	2908
1086	0.0004696626125197554	8422
1218	0.0004696626125197554	8803
235	0.000468975468975469	1004
690	0.0004686318972033258	5005
1294	0.00046828832543118257	9503
1262	0.00046485260770975055	9103
430	0.00046382189239332097	2822
445	0.00046176046176046176	2837
626	0.00046176046176046176	4202
657	0.00046107331821617536	4503
439	0.00046038617467188895	2831
543	0.00045729402872260016	3701
739	0.00045729402872260016	5504
766	0.00045523259808974095	5801
1312	0.00045351473922902497	9613
262	0.00045248402391259533	1214
1272	0.00045248402391259533	9113
396	0.00045145330859616575	2704
654	0.00045145330859616575	4421
178	0.0004483611626468769	408
649	0.0004483611626468769	4416
1295	0.00044698687555830416	9504
468	0.00044629973201401775	2913
1220	0.0004459561602418745	8805
598	0.0004432075860647289	3926
994	0.00044286401429258573	7505
1109	0.0004425204425204425	8445
1316	0.0004425204425204425	9617
1214	0.0004421768707482993	8715
330	0.0004414897272040129	2209
1314	0.0004414897272040129	9615
548	0.00043977186834329694	3706
530	0.00043908472479901054	3407
309	0.00043839758125472413	2003
544	0.00043839758125472413	3702
1036	0.0004380540094825809	8111
1274	0.00043771043771043773	9201
1310	0.0004373668659382945	9611
1297	0.0004363361506218649	9506
560	0.0004349618635332921	3811
700	0.0004346182917611489	5108
190	0.0004325568611282897	601
1113	0.0004322132893561465	8449
549	0.00042740328454614167	3707
244	0.00042602899745756886	1105
1318	0.0004243111385968529	9701
1239	0.00042224970796399367	9013
272	0.0004212189926475641	1506
418	0.0004212189926475641	2810
732	0.0004205318491032777	5405
1020	0.00041778327492613207	7905
1282	0.0004167525596097025	9302
333	0.00041640898783755926	2303
1051	0.00041640898783755926	8213
661	0.00041503470074898645	4701
376	0.00041400398543255687	2605
726	0.0004102246959389817	5310
447	0.00040885040885040887	2840
226	0.00040816326530612246	905
1296	0.00040781969353397924	9505
587	0.00040335326049611764	3914
718	0.00040197897340754483	5301
692	0.00039888682745825604	5007
670	0.00039751254036968323	4807
914	0.0003968253968253968	7110
181	0.00039510753796468084	501
349	0.0003933896791039648	2507
442	0.0003913282484711056	2834
613	0.000386861815433244	4015
1195	0.000385143956572528	8605
1031	0.0003837696694839552	8106
1053	0.0003837696694839552	8215
224	0.0003830825259396688	903
1065	0.000381708238851096	8401
705	0.0003810210953068096	5113
851	0.00037999037999038	6602
269	0.00037827252112966397	1503
248	0.00037689823404109116	1109
922	0.00037689823404109116	7201
276	0.0003741496598639456	1510
1319	0.00037037037037037035	9702
845	0.00036968322682608395	6502
369	0.00036590393733250875	2528
723	0.0003655603655603656	5307
742	0.0003655603655603656	5507
334	0.00036418607847179277	2304
335	0.00035834535834535836	2305
902	0.0003521610664467807	7018
720	0.0003494124922696351	5303
622	0.0003425410568267711	4106
859	0.0003408231979660551	6803
658	0.0003380746237889095	4504
991	0.0003370439084724799	7501
251	0.0003356696213839071	1203
182	0.0003346389060674775	502
375	0.0003339517625231911	2604
850	0.0003339517625231911	6601
1264	0.0003291417577131863	9105
1232	0.0003260496117638975	9004
383	0.00031814746100460386	2612
1158	0.0003157424585996015	8513
853	0.00029856386999244143	6701
540	0.0002865388579674294	3604
1035	0.00025767882910740053	8110
854	0.00025321239606953893	6702
1034	0.0002439359582216725	8109
656	0.00023569023569023568	4502
655	0.00022091664948807805	4501
