153	0.002665464846767963	106
402	0.0025511358758847813	2710
925	0.002544892655631775	7204
640	0.0022627771404490436	4407
619	0.0022198550012096237	4103
616	0.002194491918931785	4100
259	0.0021886388999445916	1211
999	0.0021773230632360172	7602
169	0.0021761524594385785	306
293	0.0021511795784265523	1701
166	0.002135961729059849	303
617	0.0021082574391871325	4101
813	0.00209850240754181	6203
255	0.0020704079164032808	1207
332	0.0020469958404545066	2302
912	0.0020419232239989385	7108
323	0.002002903097417648	2202
401	0.0019849538391902544	2709
260	0.0019471043164064024	1212
266	0.001945153310077338	1404
365	0.0019330570708371378	2523
836	0.0019092547936225505	6309
618	0.0018877937240028406	4102
706	0.0018460421885608596	5201
165	0.001844481383497608	302
206	0.0018421401759027307	713
641	0.0018144358860300142	4408
595	0.0018097534708402595	3923
231	0.0017941454202077432	910
168	0.001761758715145272	305
222	0.0017512232809683234	901
240	0.0017336642240067426	1101
796	0.0017188365759058521	6103
636	0.001711032550589594	4403
832	0.0017094717455263424	6305
797	0.0017047893303365877	6104
637	0.0016962049024887038	4404
211	0.0016880106759066327	804
642	0.0016649888012236712	4409
524	0.0016497709518569679	3401
341	0.0016482101467937163	2402
802	0.0016423571278065226	6109
167	0.001636113907553516	304
814	0.0016177744480603095	6204
283	0.0015873387493269028	1517
795	0.0015873387493269028	6102
342	0.0015846073404662125	2403
336	0.0015713404974285737	2306
186	0.0015428558050242314	507
707	0.0015342713771763475	5202
799	0.0015342713771763475	6106
340	0.001532710572113096	2401
202	0.0015143711126198894	709
962	0.0015128103075566378	7313
250	0.001510859301227573	1202
315	0.0015104690999617602	2009
798	0.001503445477177128	6105
499	0.0014972022569241215	3102
187	0.0014968120556583086	508
758	0.0014960316531266828	5607
295	0.001494470848063431	1703
958	0.0014893982316078634	7309
164	0.0014831550113548568	301
794	0.001482374608823231	6101
313	0.0014815942062916052	2007
225	0.0014733999797095342	904
403	0.0014706685708488437	2711
263	0.0014687175645197793	1301
343	0.001465595954393276	2501
807	0.0014550605202163277	6114
895	0.0014507683062923856	7010
923	0.0014472564949000696	7202
1001	0.0014468662936342564	7604
291	0.0014417936771786888	1604
282	0.0014386720670521854	1516
307	0.0014359406581914951	2001
801	0.0014359406581914951	6108
822	0.0014300876392043015	6212
502	0.001428136632875237	3105
668	0.0014273562303436112	4800
650	0.0014218934126222305	4417
264	0.001419552205027353	1302
170	0.0014187718024957273	307
201	0.0014179913999641015	708
651	0.0014051147581922755	4418
538	0.001403553953129024	3602
800	0.001403163751863211	6107
837	0.001403163751863211	6310
172	0.001398481336673456	402
881	0.0013973107328760174	6910
317	0.0013937989214837013	2102
414	0.001386775298699069	2806
319	0.0013813124809776882	2104
207	0.0013789712733828108	714
759	0.0013762398645221206	5608
392	0.0013758496632563077	2621
242	0.00137350845566143	1103
223	0.0013731182543956172	902
907	0.0013696064430033011	7103
541	0.0013672652354084238	3605
405	0.0013668750341426109	2713
296	0.0013625828202186688	1704
399	0.0013567298012314751	2707
217	0.0013411217505989589	810
635	0.0013391707442698944	4402
241	0.0013380001404724557	1102
955	0.001332537322751075	7306
714	0.0013313667189536363	5209
175	0.0013301961151561976	405
815	0.0013255136999664426	6205
281	0.0013223920898399394	1515
998	0.0013114664543971782	7601
1009	0.001304052630346733	7612
803	0.0013009310202202295	6110
916	0.001299370215156978	7112
245	0.001298980013891165	1106
817	0.0012981996113595393	6207
808	0.0012974192088279135	6115
318	0.0012958584037646619	2103
610	0.001295468202498849	4012
805	0.001295078001233036	6112
653	0.0012946877999672232	4420
709	0.00129429759870141	5204
1293	0.0012915661898407198	9406
203	0.0012880543784484038	710
316	0.0012853229695877133	2101
708	0.0012849327683219004	5203
1199	0.0012849327683219004	8609
821	0.0012810307556637714	6211
179	0.0012798601518663327	409
287	0.001278299346803081	1522
239	0.0012763483404740165	1008
362	0.0012751777366765778	2520
978	0.0012751777366765778	7403
314	0.0012716659252842617	2008
842	0.0012693247176893841	6405
819	0.0012669835100945067	6209
188	0.0012642521012338165	510
960	0.0012638618999680036	7311
204	0.0012623010949047518	711
710	0.0012595696860440615	5205
218	0.0012583990822466228	811
937	0.0012568382771833712	7217
441	0.0012541068683226807	2833
639	0.0012521558619936163	4406
866	0.001249034251867113	6810
189	0.0012463028430064226	511
867	0.0012443518366773581	6811
1322	0.001241230226550855	9705
205	0.0012384988176901645	712
936	0.0012384988176901645	7215
1254	0.0012373282138927258	9028
214	0.0012353772075636613	807
306	0.0012291339873106548	1905
752	0.0012275731822474032	5601
811	0.0012217201632602095	6201
348	0.0012193789556653322	2506
838	0.0012170377480704548	6401
886	0.0012166475468046419	7001
713	0.0012135259366781385	5208
957	0.0012065023138935064	7308
1224	0.0012049415088302546	8904
459	0.0012045513075644417	2904
574	0.0012045513075644417	3901
422	0.0012037709050328159	2814
590	0.0012026003012353772	3917
935	0.001199478691108874	7214
1082	0.0011986982885772482	8418
812	0.0011983080873114351	6202
498	0.0011979178860456222	3101
594	0.001195186477184932	3922
208	0.0011944060746533062	801
891	0.0011944060746533062	7006
1223	0.0011936256721216804	8903
563	0.001191674665792616	3814
755	0.001191674665792616	5604
1095	0.001191674665792616	8431
740	0.001191284464526803	5505
820	0.0011889432569319254	6210
712	0.0011846510430079836	5207
609	0.001182700036678919	4011
278	0.0011807490303498544	1512
363	0.0011803588290840415	2521
510	0.0011803588290840415	3208
193	0.0011764568164259125	604
981	0.0011764568164259125	7407
816	0.0011709939987045318	6206
308	0.001170213596172906	2002
1007	0.0011678723885780286	7610
1186	0.0011670919860464028	8544
292	0.001165921382248964	1605
934	0.001165921382248964	7213
149	0.001165531180983151	102
1135	0.0011608487657933963	8474
196	0.0011604585645275834	703
243	0.0011604585645275834	1104
931	0.0011592879607301447	7210
1290	0.0011588977594643318	9403
185	0.00115733695440108	506
302	0.0011565565518694542	1806
982	0.0011514839354138866	7408
863	0.0011507035328822608	6807
829	0.0011468015202241316	6302
717	0.0011464113189583187	5212
177	0.0011425093063001897	407
789	0.0011413387025027508	6002
918	0.0011397778974394993	7114
818	0.0011393876961736864	6208
311	0.0011386072936420606	2005
765	0.0011382170923762477	5705
959	0.0011382170923762477	7310
1004	0.0011374366898446219	7607
522	0.0011358758847813703	3306
327	0.001132754274654867	2206
966	0.0011315836708574282	7317
804	0.0011311934695916153	6111
328	0.0011292424632625509	2207
210	0.001128852261996738	803
415	0.001128852261996738	2807
1096	0.0011257306518702346	8432
359	0.0011214384379462927	2517
219	0.001120658035414667	812
364	0.0011148050164274733	2522
171	0.0011105128025035314	401
648	0.0011105128025035314	4415
546	0.0011089519974402796	3704
646	0.0011085617961744667	4413
324	0.0011050499847821507	2203
1219	0.0011030989784530862	8804
512	0.0011019283746556473	3210
1057	0.0011015381733898344	8304
358	0.0010999773683265828	2516
407	0.0010988067645291441	2715
1204	0.0010988067645291441	8705
183	0.0010984165632633312	504
436	0.0010984165632633312	2828
843	0.0010921733430103247	6406
1286	0.0010921733430103247	9306
1016	0.0010913929404786989	7806
695	0.001091002739212886	5103
760	0.001090612537947073	5609
372	0.0010898321354154473	2601
575	0.0010894419341496344	3902
1012	0.0010886615316180086	7615
176	0.0010882713303521957	406
1179	0.0010882713303521957	8537
194	0.0010859301227573181	701
379	0.0010847595189598794	2608
322	0.0010843693176940665	2201
1149	0.001082418311365002	8503
357	0.0010820281100991892	2515
557	0.0010812477075675634	3808
750	0.0010800771037701247	5515
681	0.001079296701238499	4907
929	0.001078906499972686	7208
749	0.001078516298706873	5514
1003	0.001077735896175247	7606
1215	0.0010761750911119955	8716
835	0.0010753946885803697	6308
1222	0.0010750044873145568	8902
611	0.001074614286048744	4013
554	0.0010711024746564279	3805
906	0.001070712273390615	7102
1227	0.001069931870858989	8907
827	0.0010691514683273632	6217
930	0.0010652494556692342	7209
151	0.0010648592544034213	104
220	0.001062518046808544	813
523	0.0010621278455427308	3307
721	0.0010609572417452921	5305
423	0.0010593964366820406	2815
212	0.0010566650278213503	805
173	0.0010554944240239116	403
644	0.0010547140214922858	4411
209	0.001054323820226473	802
347	0.0010539336189606598	2505
1225	0.0010527630151632211	8905
236	0.0010512022100999695	1005
289	0.0010504218075683437	1602
875	0.00104456878858115	6904
917	0.00104456878858115	7113
970	0.001041447178454647	7321
216	0.0010406667759230211	809
831	0.0010394961721255824	6304
444	0.0010371549645307049	2836
329	0.0010355941594674533	2208
320	0.0010352039582016404	2105
868	0.0010340333544042017	6812
199	0.0010336431531383888	706
1235	0.0010320823480751372	9007
265	0.0010305215430118856	1401
1228	0.0010301313417460727	8908
350	0.0010293509392144467	2508
673	0.0010273999328853822	4823
1298	0.0010270097316195693	9507
974	0.0010254489265563178	7325
1011	0.0010254489265563178	7614
1152	0.0010254489265563178	8506
1203	0.001024278322758879	8704
833	0.0010219371151640015	6306
645	0.0010211567126323757	4412
729	0.0010211567126323757	5402
1017	0.0010195959075691241	7901
191	0.0010188155050374983	602
374	0.0010184253037716854	2603
443	0.0010121820835186789	2835
1062	0.001011791882252866	8309
1201	0.0010106212784554273	8702
286	0.001007889869594737	1521
331	0.001007889869594737	2301
597	0.001007889869594737	3925
1188	0.0010071094670631112	8546
862	0.0010028172531391692	6806
230	0.0010024270518733563	909
599	0.0010020368506075434	4001
303	0.0010012564480759176	1902
371	0.0010012564480759176	2530
256	0.0009981348379494144	1208
840	0.0009969642341519755	6403
748	0.0009965740328861626	5513
1014	0.0009965740328861626	7801
903	0.0009942328252912852	7019
716	0.000991501416430595	5211
685	0.0009907210138989692	4911
511	0.0009875994037724658	3209
927	0.0009860385987092142	7206
1244	0.0009852581961775884	9018
947	0.0009848679949117755	7227
390	0.0009825267873168982	2619
614	0.0009809659822536464	4016
388	0.0009805757809878335	2617
1078	0.0009770639695955174	8414
897	0.000974332560734827	7013
643	0.0009739423594690141	4410
1216	0.0009731619569373883	8801
628	0.0009723815544057625	4205
680	0.0009723815544057625	4906
602	0.0009712109506083237	4004
747	0.000970040346810885	5512
1074	0.000970040346810885	8410
1241	0.0009696501455450722	9015
1013	0.0009673089379501947	7616
948	0.0009657481328869431	7228
285	0.0009645775290895044	1520
288	0.0009641873278236915	1601
779	0.0009637971265578785	5903
1288	0.000961846120228814	9401
1321	0.0009602853151655624	9704
1141	0.0009583343088364979	8480
762	0.000957944107570685	5702
770	0.0009571637050390592	5805
828	0.0009552126987099946	6301
1313	0.0009544322961783688	9614
520	0.0009540420949125559	3304
454	0.0009524812898493043	2849
1172	0.0009513106860518655	8530
674	0.0009481890759253623	4824
446	0.0009470184721279236	2839
521	0.0009462380695962978	3305
631	0.0009446772645330462	4302
537	0.0009435066607356074	3601
339	0.0009407752518749171	2309
360	0.0009388242455458525	2518
1277	0.0009372634404826009	9206
1083	0.000936873239216788	8419
1208	0.000936873239216788	8709
310	0.0009357026354193493	2004
1200	0.0009357026354193493	8701
849	0.0009349222328877235	6507
525	0.0009345320316219106	3402
876	0.0009345320316219106	6905
921	0.0009333614278244719	7118
1178	0.0009333614278244719	8536
387	0.0009318006227612202	2616
434	0.0009318006227612202	2826
1156	0.0009310202202295944	8511
528	0.0009298496164321557	3405
634	0.0009298496164321557	4401
744	0.0009294594151663428	5509
858	0.0009278986101030911	6802
404	0.0009271182075714653	2712
1147	0.0009271182075714653	8501
411	0.0009267280063056524	2803
496	0.0009263378050398395	2942
990	0.0009263378050398395	7419
1002	0.0009255574025082137	7605
294	0.0009251672012424009	1702
806	0.0009228259936475234	6113
774	0.0009224357923817105	5809
865	0.0009216553898500847	6809
1068	0.0009216553898500847	8404
913	0.0009212651885842718	7109
1177	0.0009208749873184589	8535
1291	0.000920484786052646	9404
246	0.0009193141822552072	1107
419	0.0009193141822552072	2811
790	0.0009193141822552072	6003
1005	0.0009193141822552072	7608
864	0.0009165827733945169	6808
1093	0.0009165827733945169	8429
378	0.000915802370862891	2607
215	0.0009134611632680137	808
213	0.0009119003582047621	806
1046	0.0009111199556731362	8208
728	0.0009103395531415104	5401
464	0.0009095591506098846	2909
973	0.0009087787480782588	7324
535	0.0009068277417491942	3506
297	0.0009064375404833813	1801
928	0.0009040963328885039	7207
406	0.0009029257290910651	2714
456	0.0009025355278252522	2901
1076	0.0009025355278252522	8412
715	0.0009021453265594394	5210
257	0.0009009747227620007	1209
277	0.0008982433139013103	1511
270	0.0008978531126354974	1504
457	0.0008978531126354974	2902
964	0.0008978531126354974	7315
1039	0.0008974629113696845	8201
1300	0.0008970727101038716	9601
1281	0.0008966825088380587	9301
754	0.0008947315025089941	5603
919	0.0008943413012431812	7115
596	0.0008931706974457425	3924
872	0.0008927804961799296	6901
693	0.000890829489850865	5101
432	0.0008888784835218006	2824
516	0.0008888784835218006	3214
1221	0.0008884882822559877	8901
229	0.0008880980809901748	908
879	0.0008877078797243618	6908
393	0.0008861470746611102	2701
351	0.0008845862695978586	2509
1056	0.0008841960683320457	8303
1129	0.0008830254645346069	8468
505	0.000882635263268794	3203
694	0.0008818548607371682	5102
753	0.0008818548607371682	5602
234	0.000878733250610665	1003
337	0.0008783430493448521	2307
697	0.0008779528480790392	5105
1174	0.0008775626468132263	8532
469	0.0008771724455474134	2914
869	0.0008748312379525359	6813
954	0.0008740508354209101	7305
1018	0.0008736606341550972	7903
607	0.0008728802316234714	4009
1259	0.0008674174139020907	9033
1142	0.0008670272126362778	8481
237	0.000866246810104652	1006
771	0.0008650762063072133	5806
1302	0.0008650762063072133	9603
788	0.0008635154012439616	6001
382	0.0008627349987123358	2611
550	0.0008615643949148971	3801
1094	0.0008615643949148971	8430
675	0.0008600035898516455	4901
792	0.0008600035898516455	6005
412	0.0008584427847883938	2804
426	0.0008584427847883938	2818
971	0.0008584427847883938	7322
734	0.0008580525835225809	5407
841	0.0008572721809909551	6404
860	0.0008561015771935165	6804
539	0.0008553211746618906	3603
910	0.0008553211746618906	7106
1064	0.0008545407721302648	8311
192	0.0008541505708644519	603
669	0.0008525897658012003	4802
983	0.0008525897658012003	7409
254	0.0008514191620037615	1206
1092	0.0008514191620037615	8428
159	0.0008510289607379486	206
743	0.0008506387594721357	5508
577	0.0008482975518772583	3904
701	0.0008475171493456324	5109
232	0.0008467367468140066	1001
1289	0.0008467367468140066	9402
738	0.0008463465455481937	5503
493	0.0008447857404849422	2939
608	0.0008440053379533164	4010
989	0.0008424445328900647	7418
1063	0.0008424445328900647	8310
1116	0.0008420543316242518	8452
152	0.0008393229227635614	105
280	0.0008381523189661227	1514
400	0.0008381523189661227	2708
953	0.0008377621177003098	7304
666	0.0008373719164344969	4706
612	0.000836981715168684	4014
551	0.0008362013126370582	3802
786	0.0008350307088396194	5910
1167	0.0008350307088396194	8523
301	0.0008346405075738065	1805
1196	0.0008346405075738065	8606
1175	0.0008334699037763679	8533
952	0.000833079702510555	7303
933	0.0008322992999789292	7212
513	0.0008319090987131163	3211
471	0.0008311286961814904	2916
221	0.0008303482936498646	814
652	0.0008303482936498646	4419
956	0.000828787488586613	7307
1146	0.0008280070860549872	8487
773	0.0008276168847891742	5808
247	0.0008260560797259226	1108
455	0.0008252756771942968	2852
161	0.0008248854759284839	208
148	0.0008237148721310452	101
497	0.0008237148721310452	3006
569	0.0008237148721310452	3820
1043	0.0008237148721310452	8205
623	0.0008233246708652322	4114
155	0.0008221540670677936	202
624	0.0008221540670677936	4115
1198	0.0008221540670677936	8608
1025	0.0008217638658019807	8007
1101	0.0008202030607387291	8437
787	0.0008198128594729162	5911
769	0.0008178618531438516	5804
1090	0.0008174716518780387	8426
761	0.0008166912493464129	5701
975	0.0008163010480806	7326
882	0.0008159108468147871	6911
1306	0.0008159108468147871	9607
1226	0.0008147402430173483	8906
606	0.0008143500417515354	4008
1162	0.0008131794379540967	8517
1197	0.0008127892366882838	8607
565	0.000811618632890845	3816
1303	0.0008112284316250321	9604
604	0.0008092774252959677	4006
321	0.0008065460164352773	2106
345	0.0008065460164352773	2503
893	0.0008057656139036515	7008
664	0.000803814607574587	4704
977	0.000803424406308774	7402
1148	0.000803424406308774	8502
261	0.0008014733999797095	1213
1145	0.0008010831987138966	8486
926	0.000799912594916458	7205
1098	0.000799522393650645	8434
391	0.0007991321923848321	2620
1171	0.0007971811860557676	8529
1040	0.0007964007835241418	8202
809	0.000795230179726703	6116
1037	0.000795230179726703	8112
699	0.0007944497771950772	5107
1106	0.0007940595759292643	8442
1118	0.0007928889721318256	8454
600	0.0007924987708660127	4002
1299	0.0007921085696001998	9508
433	0.0007913281670685739	2825
1233	0.0007901575632711352	9005
519	0.0007893771607395094	3303
290	0.0007889869594736965	1603
615	0.0007862555506130062	4017
1143	0.0007862555506130062	8482
1301	0.0007862555506130062	9602
763	0.0007843045442839417	5703
1136	0.0007843045442839417	8475
380	0.0007835241417523158	2609
735	0.0007831339404865029	5408
1311	0.0007819633366890642	9612
671	0.0007804025316258126	4810
711	0.0007796221290941868	5206
1119	0.0007796221290941868	8455
961	0.0007788417265625609	7312
154	0.0007780613240309351	201
195	0.0007780613240309351	702
676	0.0007776711227651222	4902
620	0.0007772809214993094	4104
542	0.0007765005189676836	3606
568	0.0007761103177018707	3819
453	0.0007753299151702448	2847
495	0.0007753299151702448	2941
965	0.0007753299151702448	7316
1211	0.000774549512638619	8712
659	0.0007737691101069932	4601
582	0.0007733789088411803	3909
741	0.0007733789088411803	5506
951	0.0007733789088411803	7302
1283	0.0007725985063095545	9303
559	0.0007718181037779287	3810
963	0.0007718181037779287	7314
184	0.0007706474999804899	505
576	0.0007706474999804899	3903
625	0.0007706474999804899	4201
861	0.0007706474999804899	6805
1207	0.0007698670974488641	8708
533	0.0007694768961830512	3503
672	0.0007694768961830512	4811
905	0.0007686964936514254	7101
1085	0.0007675258898539866	8421
1202	0.0007667454873223608	8703
1169	0.000765965084790735	8526
1055	0.0007647944809932964	8302
529	0.0007640140784616706	3406
679	0.0007640140784616706	4905
593	0.0007624532733984189	3920
660	0.0007612826696009802	4602
757	0.0007605022670693544	5606
1045	0.0007605022670693544	8207
904	0.0007601120658035415	7020
1151	0.0007601120658035415	8505
305	0.0007581610594744769	1904
1070	0.0007566002544112253	8406
1107	0.0007566002544112253	8443
435	0.0007558198518795995	2827
603	0.0007554296506137865	4005
368	0.0007546492480821607	2526
987	0.0007546492480821607	7413
1252	0.0007546492480821607	9026
704	0.0007530884430189092	5112
507	0.0007519178392214705	3205
1081	0.0007515276379556575	8417
448	0.0007511374366898446	2841
778	0.0007511374366898446	5902
772	0.0007503570341582188	5807
909	0.0007499668328924059	7105
980	0.0007487962290949672	7406
1000	0.0007476256252975285	7603
1150	0.0007464550215000897	8504
1066	0.0007433334113735864	8402
782	0.0007429432101077736	5906
684	0.0007425530088419607	4910
1023	0.0007417726063103349	8002
601	0.0007409922037787091	4003
767	0.0007409922037787091	5802
830	0.0007409922037787091	6303
1060	0.0007409922037787091	8307
1140	0.0007390411974496445	8479
1255	0.0007386509961838316	9029
1159	0.0007378705936522058	8514
312	0.0007374803923863929	2006
848	0.0007374803923863929	6506
1180	0.0007366999898547671	8538
689	0.0007363097885889542	5004
381	0.0007351391847915154	2610
1024	0.0007351391847915154	8003
1097	0.0007347489835257025	8433
344	0.0007343587822598896	2502
698	0.0007343587822598896	5106
688	0.0007335783797282638	5003
1185	0.000732797977196638	8543
1236	0.000732797977196638	9008
431	0.0007316273733991994	2823
940	0.0007312371721333864	7220
667	0.0007308469708675735	4707
1117	0.0007304567696017606	8453
896	0.0007300665683359477	7011
1054	0.0007300665683359477	8301
1021	0.0007292861658043219	7907
481	0.000728895964538509	2926
1320	0.0007253841531461928	9703
472	0.000724603750614567	2917
157	0.0007242135493487541	204
273	0.0007238233480829412	1507
985	0.0007226527442855024	7411
702	0.0007218723417538766	5110
566	0.0007214821404880637	3817
279	0.0007210919392222508	1513
885	0.0007210919392222508	6914
300	0.000720701737956438	1804
638	0.0007203115366906251	4405
949	0.0007203115366906251	7229
969	0.0007191409328931863	7320
1217	0.0007187507316273734	8802
1212	0.0007179703290957476	8713
180	0.0007175801278299347	410
271	0.000716409524032496	1505
1008	0.000716409524032496	7611
1160	0.0007152389202350572	8515
514	0.0007148487189692443	3212
1100	0.0007148487189692443	8436
1138	0.0007136781151718056	8477
730	0.0007128977126401798	5403
823	0.0007125075113743669	6213
1182	0.0007125075113743669	8540
356	0.0007117271088427411	2514
458	0.0007117271088427411	2903
736	0.0007117271088427411	5501
1122	0.0007105565050453023	8459
504	0.0007101663037794894	3202
299	0.0007097761025136765	1803
486	0.0007089956999820508	2932
1213	0.0007089956999820508	8714
1127	0.0007086054987162379	8465
857	0.000708215297450425	6801
588	0.0007062642911213604	3915
873	0.0007062642911213604	6902
1115	0.0007058740898555475	8451
483	0.0007050936873239217	2928
398	0.0007043132847922959	2706
839	0.0007043132847922959	6402
1308	0.0007043132847922959	9609
462	0.0007035328822606701	2907
479	0.0007035328822606701	2924
932	0.0007027524797290442	7211
1089	0.0007027524797290442	8425
197	0.0007023622784632313	704
555	0.0007023622784632313	3806
725	0.0007023622784632313	5309
1183	0.0007023622784632313	8541
526	0.0007011916746657926	3403
1133	0.0007011916746657926	8472
1114	0.0007008014733999797	8450
1033	0.000699630869602541	8108
756	0.000699240668336728	5605
834	0.000699240668336728	6307
1265	0.000699240668336728	9106
1161	0.0006988504670709151	8516
889	0.0006984602658051022	7004
478	0.0006976798632734765	2923
722	0.0006976798632734765	5306
900	0.0006965092594760378	7016
943	0.0006961190582102249	7223
1038	0.0006961190582102249	8113
1032	0.000695728856944412	8107
1157	0.000695338655678599	8512
500	0.0006949484544127861	3103
1189	0.0006941680518811603	8547
944	0.0006937778506153474	7224
284	0.0006929974480837216	1518
844	0.0006926072468179087	6501
586	0.0006922170455520958	3913
416	0.0006918268442862829	2808
1091	0.0006918268442862829	8427
1079	0.0006906562404888441	8415
1030	0.0006890954354255925	8105
899	0.0006887052341597796	7015
1102	0.0006883150328939667	8438
1249	0.0006883150328939667	9023
733	0.0006871444290965279	5406
409	0.0006863640265649022	2801
1080	0.0006855836240332764	8416
386	0.0006851934227674635	2615
517	0.0006848032215016506	3215
506	0.0006836326177042119	3204
253	0.0006832424164383989	1205
174	0.0006824620139067731	404
227	0.0006820718126409602	906
945	0.0006816816113751473	7225
1155	0.0006797306050460828	8509
1247	0.0006797306050460828	9021
731	0.000678560001248644	5404
591	0.0006773893974512053	3918
633	0.0006773893974512053	4304
908	0.0006773893974512053	7104
745	0.0006769991961853924	5510
883	0.0006766089949195795	6912
304	0.0006762187936537666	1903
571	0.0006754383911221409	3823
1256	0.0006750481898563278	9030
558	0.000674657988590515	3809
781	0.0006738775860588892	5905
238	0.0006707559759323859	1007
298	0.0006707559759323859	1802
466	0.0006699755734007601	2911
536	0.0006699755734007601	3507
461	0.0006688049696033214	2906
1309	0.0006672441645400697	9610
572	0.0006668539632742568	3824
696	0.0006668539632742568	5104
1251	0.0006664637620084439	9025
508	0.000666073560742631	3206
1026	0.0006652931582110052	8101
1067	0.0006645127556793794	8403
460	0.0006641225544135666	2905
470	0.0006637323531477537	2915
663	0.0006637323531477537	4703
1139	0.0006633421518819407	8478
1192	0.0006629519506161278	8602
578	0.0006617813468186891	3905
1209	0.0006602205417554375	8710
887	0.0006598303404896246	7002
1173	0.0006586597366921858	8531
354	0.0006563185290973084	2512
686	0.0006563185290973084	5001
1125	0.0006551479252998696	8462
939	0.0006547577240340567	7219
967	0.0006547577240340567	7318
1010	0.0006543675227682438	7613
1061	0.0006543675227682438	8308
1187	0.0006543675227682438	8545
1194	0.0006539773215024309	8604
892	0.000653587120236618	7007
473	0.0006531969189708051	2918
200	0.0006524165164391794	707
467	0.0006524165164391794	2912
824	0.0006520263151733665	6214
385	0.0006516361139075536	2614
573	0.0006512459126417406	3825
950	0.0006508557113759277	7301
1006	0.0006508557113759277	7609
1190	0.0006508557113759277	8548
920	0.0006504655101101148	7117
784	0.0006500753088443019	5908
377	0.0006492949063126761	2606
425	0.0006492949063126761	2817
775	0.0006489047050468632	5810
1245	0.0006489047050468632	9019
785	0.0006485145037810503	5909
1050	0.0006481243025152374	8212
1285	0.0006481243025152374	9305
413	0.0006477341012494245	2805
768	0.0006450026923887341	5803
630	0.0006446124911229212	4301
475	0.0006438320885912954	2920
156	0.0006434418873254825	203
986	0.0006434418873254825	7412
1205	0.0006434418873254825	8706
477	0.000641100679730605	2922
1176	0.000641100679730605	8534
627	0.0006403202771989793	4203
581	0.0006399300759331664	3908
826	0.0006387594721357276	6216
888	0.0006387594721357276	7003
267	0.0006379790696041018	1501
567	0.0006379790696041018	3818
941	0.0006368084658066631	7221
810	0.0006356378620092244	6117
1137	0.0006348574594775985	8476
1111	0.0006344672582117856	8447
988	0.0006340770569459727	7415
1184	0.0006340770569459727	8542
552	0.0006325162518827211	3803
884	0.0006325162518827211	6913
252	0.0006321260506169082	1204
1284	0.0006317358493510953	9304
532	0.0006309554468194694	3502
228	0.0006305652455536565	907
751	0.0006305652455536565	5516
163	0.0006301750442878436	210
1287	0.0006301750442878436	9307
1315	0.0006301750442878436	9616
397	0.0006297848430220308	2705
1144	0.0006297848430220308	8483
553	0.000629004440490405	3804
1072	0.0006278338366929663	8408
1257	0.0006270534341613404	9031
394	0.0006266632328955275	2702
580	0.0006254926290980888	3907
370	0.000624712226566463	2529
1015	0.0006243220253006501	7804
825	0.0006239318240348372	6215
355	0.0006231514215032113	2513
1280	0.0006231514215032113	9209
946	0.0006223710189715855	7226
984	0.0006223710189715855	7410
1305	0.0006223710189715855	9606
491	0.0006219808177057726	2937
158	0.0006215906164399597	205
1153	0.0006208102139083339	8507
992	0.0006200298113767081	7502
647	0.0006172984025160178	4414
561	0.0006169082012502049	3812
585	0.000616517999984392	3912
1088	0.000616517999984392	8424
1229	0.0006161277987185791	9001
683	0.0006157375974527662	4909
564	0.0006153473961869533	3815
1099	0.0006153473961869533	8435
531	0.0006149571949211403	3501
996	0.0006149571949211403	7507
1165	0.0006149571949211403	8521
1206	0.0006141767923895145	8707
450	0.0006137865911237016	2844
485	0.0006126159873262629	2930
777	0.00061222578606045	5901
338	0.0006118355847946371	2308
1307	0.0006102747797313854	9608
890	0.0006091041759339467	7005
150	0.0006075433708706952	103
160	0.0006075433708706952	207
325	0.0006075433708706952	2204
353	0.0006075433708706952	2511
1073	0.0006075433708706952	8409
1087	0.0006075433708706952	8423
746	0.0006071531696048821	5511
1077	0.0006067629683390693	8413
846	0.0006063727670732564	6504
361	0.0006059825658074435	2519
366	0.0006044217607441919	2524
871	0.0006044217607441919	6815
1250	0.0006044217607441919	9024
1263	0.000604031559478379	9104
421	0.0006036413582125661	2813
437	0.0006028609556809402	2829
570	0.0006028609556809402	3821
942	0.0006016903518835015	7222
1028	0.0006009099493518757	8103
1126	0.0006005197480860628	8463
724	0.0006001295468202499	5308
1103	0.000599739345554437	8439
1084	0.0005985687417569982	8420
1132	0.0005985687417569982	8471
915	0.0005981785404911853	7111
997	0.0005977883392253724	7508
1292	0.0005970079366937466	9405
1253	0.0005966177354279337	9027
1170	0.0005962275341621208	8527
901	0.000595837332896308	7017
703	0.0005954471316304951	5111
534	0.000595056930364682	3505
1246	0.000595056930364682	9020
1075	0.0005946667290988692	8411
911	0.0005938863265672434	7107
274	0.0005919353202381789	1508
427	0.0005919353202381789	2819
1258	0.0005919353202381789	9032
1041	0.000591545118972366	8203
1022	0.000591154917706553	8001
1164	0.0005899843139091143	8519
852	0.0005895941126433014	6603
198	0.0005892039113774885	705
268	0.0005888137101116756	1502
1131	0.0005888137101116756	8470
776	0.0005884235088458627	5811
162	0.0005876431063142369	209
1058	0.0005856920999851723	8305
410	0.0005849116974535465	2802
727	0.0005849116974535465	5311
389	0.0005837410936561079	2618
367	0.000583350892390295	2525
1260	0.000583350892390295	9101
518	0.0005810096847954175	3302
494	0.0005798390809979788	2940
972	0.00057866847720054	7323
440	0.0005774978734031013	2832
687	0.0005763272696056626	5002
562	0.0005759370683398497	3813
258	0.0005755468670740368	1210
1071	0.0005755468670740368	8407
1163	0.0005755468670740368	8518
465	0.0005747664645424109	2910
682	0.0005747664645424109	4908
417	0.000574376263276598	2809
791	0.000574376263276598	6004
1242	0.0005739860620107851	9016
976	0.0005735958607449722	7401
1248	0.0005735958607449722	9022
995	0.0005732056594791593	7506
408	0.0005724252569475336	2716
1166	0.0005724252569475336	8522
373	0.0005716448544159078	2602
691	0.0005716448544159078	5006
1181	0.0005712546531500949	8539
492	0.0005700840493526561	2938
527	0.0005700840493526561	3404
1124	0.0005665722379603399	8461
1130	0.000566182036694527	8469
1270	0.000566182036694527	9111
178	0.0005657918354287141	408
488	0.0005638408290996496	2934
395	0.0005634506278338367	2703
490	0.0005614996215047722	2936
874	0.0005614996215047722	6903
1069	0.0005614996215047722	8405
1048	0.0005603290177073335	8210
1042	0.0005591584139098948	8204
1210	0.0005591584139098948	8711
1276	0.0005591584139098948	9205
780	0.0005587682126440818	5904
326	0.0005583780113782689	2205
476	0.0005583780113782689	2921
1128	0.0005583780113782689	8467
870	0.0005575976088466431	6814
621	0.0005556466025175786	4105
584	0.000553695596188514	3911
979	0.000553695596188514	7405
993	0.0005533053949227011	7504
1191	0.0005533053949227011	8601
449	0.0005529151936568882	2843
489	0.0005525249923910753	2935
1059	0.0005525249923910753	8306
878	0.0005521347911252624	6907
503	0.0005509641873278236	3201
509	0.0005505739860620107	3207
855	0.0005505739860620107	6703
1240	0.0005505739860620107	9014
487	0.0005494033822645721	2933
589	0.0005486229797329463	3916
346	0.0005474523759355076	2504
1243	0.0005462817721380688	9017
793	0.0005439405645431914	6006
632	0.0005435503632773785	4303
1168	0.0005435503632773785	8525
629	0.0005431601620115656	4206
420	0.0005427699607457526	2812
1121	0.0005427699607457526	8458
1123	0.0005419895582141268	8460
1234	0.0005415993569483139	9006
424	0.0005392581493534366	2816
1238	0.0005392581493534366	9011
480	0.0005388679480876235	2925
1052	0.0005369169417585591	8214
1112	0.0005349659354294945	8448
583	0.0005341855328978687	3910
579	0.0005334051303662429	3906
474	0.0005310639227713654	2919
438	0.0005306737215055525	2830
515	0.0005295031177081138	3213
556	0.000528722715176488	3807
1317	0.0005279423126448623	9618
877	0.0005263815075816106	6906
764	0.0005259913063157977	5704
1134	0.0005256011050499848	8473
1193	0.0005256011050499848	8603
662	0.0005252109037841719	4702
677	0.000524820702518359	4903
1027	0.0005236500987209203	8102
1231	0.0005236500987209203	9003
1105	0.0005228696961892944	8441
428	0.0005224794949234815	2820
352	0.000520528488594417	2510
719	0.0005197480860627912	5302
592	0.0005193578847969783	3919
737	0.0005185774822653524	5502
1271	0.0005185774822653524	9112
924	0.0005181872809995395	7203
938	0.0005181872809995395	7218
463	0.0005177970797337266	2908
1323	0.0005177970797337266	970
894	0.000516626475936288	7009
783	0.000516236274670475	5907
626	0.0005150656708730364	4202
1154	0.0005150656708730364	8508
598	0.0005146754696072234	3926
1237	0.0005138950670755976	9010
235	0.0005135048658097847	1004
501	0.0005131146645439718	3104
1049	0.000512334262012346	8211
968	0.0005103832556832814	7319
856	0.0005088224506200298	6704
333	0.0005084322493542169	2303
1029	0.0005084322493542169	8104
233	0.000508042048088404	1002
275	0.0005072616455567782	1509
1230	0.0005068714442909652	9002
1279	0.0005064812430251523	9208
1275	0.0005060910417593394	9202
1218	0.0005053106392277136	8803
384	0.0005045302366960879	2613
605	0.000504140035430275	4007
429	0.0005014086265695846	2821
880	0.0005014086265695846	6909
396	0.0005002380227721459	2704
445	0.0004982870164430813	2837
739	0.0004971164126456426	5504
547	0.0004963360101140168	3705
847	0.0004928241987217007	6505
1261	0.000491653594924262	9102
262	0.0004912633936584491	1214
451	0.0004900927898610103	2845
1220	0.0004897025885951974	8805
272	0.0004889221860635716	1506
1019	0.0004858005759370683	7904
1104	0.0004838495696080038	8440
249	0.0004834593683421909	1201
1269	0.0004834593683421909	9110
482	0.00048189856327893925	2927
898	0.00048150836201312636	7014
1020	0.00048150836201312636	7905
484	0.00048111816074731346	2929
1086	0.00048072795948150056	8422
1272	0.00047916715441824893	9113
1266	0.00047838675188662314	9107
1120	0.00047799655062081024	8457
1294	0.0004760455442917457	9503
548	0.00047526514176011986	3706
766	0.00047526514176011986	5801
1273	0.00047448473922849407	9114
1297	0.000470582726570365	9506
678	0.00046980232403873916	4904
1304	0.00046902192150711337	9605
309	0.0004682415189754876	2003
1214	0.0004682415189754876	8715
1108	0.0004678513177096746	8444
226	0.0004651199088489843	905
700	0.0004647297075831714	5108
994	0.00046394930505154556	7505
1047	0.00046004729239341655	8209
330	0.0004596570911276036	2209
190	0.0004561452797352875	601
439	0.00045497467593784874	2831
349	0.00045458447467203585	2507
1282	0.00045419427340622295	9302
657	0.0004534138708745971	4503
545	0.00045146286454553257	3703
1268	0.0004510726632797197	9109
649	0.0004506824620139068	4416
543	0.0004502922607480939	3701
244	0.00044990205948228093	1105
1314	0.00044912165695065514	9615
1296	0.0004467804493557777	9505
530	0.0004463902480899648	3407
1044	0.0004452196442925261	8206
726	0.0004448294430267132	5310
845	0.0004448294430267132	6502
560	0.0004444392417609003	3811
665	0.00044248823543183575	4705
1036	0.0004409274303685841	8111
418	0.0004389764240395196	2810
1318	0.0004385862227737067	9701
452	0.0004381960215078938	2846
1262	0.0004346842101155776	9103
430	0.0004323430025207002	2822
442	0.0004319528012548873	2834
1113	0.00043156259998907435	8449
1312	0.00043039199619163566	9613
718	0.0004284409898625711	5301
1267	0.0004276605873309453	9108
1278	0.00042570958100188075	9207
1065	0.00042531937973606785	8401
376	0.0004233683734070033	2605
468	0.0004218075683437517	2913
670	0.00041985656201468715	4807
276	0.00041829575695143557	1510
1274	0.00041790555568562267	9201
587	0.0004175153544198097	3914
1110	0.0004147839455591194	8446
1295	0.00041283293923005486	9504
690	0.00041205253669842907	5005
661	0.00041010153036936454	4701
850	0.00040697992024286126	6601
224	0.0004058093164454225	903
705	0.0004058093164454225	5113
922	0.00040502891391379673	7201
1316	0.00040502891391379673	9617
335	0.0004034681088505451	2305
851	0.0004034681088505451	6602
902	0.0004030779075847322	7018
914	0.0004030779075847322	7110
1109	0.000399956297458229	8445
181	0.00039917589492660313	501
1319	0.00039917589492660313	9702
334	0.00039800529112916444	2304
720	0.00039800529112916444	5303
549	0.0003972248885975386	3707
447	0.00039527388226847407	2840
1310	0.00039488368100266117	9611
654	0.0003944934797368483	4421
732	0.00039371307720522243	5405
1053	0.00039332287593940953	8215
369	0.00039254247340778374	2528
613	0.00038629925315477725	4015
248	0.00038590905188896435	1109
269	0.0003839580455598998	1503
622	0.000383177643028274	4106
1051	0.0003827874417624611	8213
544	0.00038161683796502234	3702
182	0.0003726422088513255	502
1239	0.0003722520075855126	9013
1158	0.00036874019619319645	8513
742	0.0003667891898641319	5507
1031	0.00036288717720600285	8106
1195	0.0003613263721427512	8605
723	0.00036015576834531253	5307
375	0.00035157134049742855	2604
692	0.0003488399316367382	5007
251	0.0003472791265734866	1203
991	0.0003468889253076737	7501
859	0.00033284167973840907	6803
658	0.00033011027087771874	4504
383	0.000316453226574267	2612
1232	0.00031255121391613795	9004
540	0.0003106002075870734	3604
1264	0.00030708839619475724	9105
656	0.00028913913796736355	4502
1035	0.0002754820936639118	8110
853	0.0002750918923980989	6701
854	0.0002575328354365182	6702
1034	0.00025675243290489234	8109
655	0.00023958357720912446	4501
