61	0.012224822119287522	India
40	0.011964832412757536	Egypt
62	0.011887896683274172	Indonesia
130	0.011301593365487162	Tanzania
72	0.011224657636003799	Kenya
52	0.011054868439902584	Greece
102	0.010810796470507086	Pakistan
21	0.01071263709151107	Bulgaria
80	0.010688760485809337	Lithuania
77	0.010643660230594952	Lebanon
94	0.010508359464951796	Netherlands
31	0.010500400596384551	Colombia
114	0.010460606253548329	Senegal
107	0.010150210379425794	Poland
34	0.01012633377372406	Croatia
43	0.010057356912807942	Estonia
74	0.009922056147164786	Kyrgyzstan
82	0.009606354360664088	Madagascar
26	0.00946840063883185	Canada
133	0.009295958486541554	Tunisia
105	0.009266775968461656	Peru
13	0.009203105019923701	Belgium
35	0.009136781115196663	Cyprus
141	0.00909433381617136	USA
1	0.00907576312284779	Albania
54	0.009049233560956974	Guatemala
76	0.009049233560956974	Latvia
96	0.009049233560956974	Nicaragua
115	0.00904392764857881	Serbia
110	0.008972297831473611	Romania
95	0.008868832540099432	NewZealand
140	0.008805161591561477	Uruguay
132	0.008802508635372396	Togo
103	0.008752102467779847	Panama
123	0.008744143599212603	Spain
91	0.008712308124943625	Morocco
121	0.00868577856305281	SouthAfrica
118	0.00847354206792629	Slovakia
25	0.008447012506035476	Cameroon
134	0.008409871119388334	Turkey
108	0.008393953382253846	Portugal
46	0.008378035645119356	France
18	0.008359464951795787	BosniaHerzegovina
36	0.008356811995606705	CzechRepublic
49	0.008226817142341712	Georgia
15	0.00815518732523651	Benin
38	0.008123351850967533	Denmark
144	0.00799335699770254	Vietnam
147	0.007988051085324377	Zimbabwe
137	0.007950909698677237	Ukraine
7	0.007895197618706525	Australia
41	0.00783417962635765	ElSalvador
70	0.007797038239710509	Jordan
67	0.00772806137879439	Italy
92	0.007722755466416227	Mozambique
111	0.007698878860714494	Russia
139	0.007698878860714494	UnitedKingdom
58	0.007669696342634598	Honduras
81	0.007664390430256435	Macedonia
17	0.00763786086836562	Bolivia
136	0.007608678350285723	Uganda
138	0.007404400723726449	UnitedArabEmirates
68	0.007332770906621248	IvoryCoast
59	0.007234611527625233	Hungary
30	0.00717624649146544	China
131	0.007125840323872892	Thailand
106	0.0070860459810366695	Philippines
93	0.007080740068658506	Nepal
8	0.007078087112469425	Austria
124	0.00707012824390218	Sudan
50	0.007054210506767691	Germany
51	0.006969315908717084	Ghana
116	0.006932174522069942	SierraLeone
145	0.006897686091611883	Yemen
66	0.006863197661153824	Israel
42	0.006834015143073927	Eritrea
12	0.0068207503621285194	Belarus
19	0.0068127914935612755	Brazil
97	0.0066907555088635265	Niger
75	0.0066695318593508746	Laos
39	0.006632390472703734	Ecuador
44	0.00651831335657323	Ethiopia
48	0.006515660400384148	Gambia
88	0.006515660400384148	Mexico
57	0.006446683539468029	Guyana
33	0.00641219510900997	CostaRica
119	0.006401583284253644	Slovenia
83	0.006398930328064562	Malawi
14	0.00630607686144671	Belize
104	0.006300770949068547	Paraguay
37	0.006258323650043243	DemocraticRepublicCongo
89	0.006234447044341509	Mongolia
9	0.006218529307207021	Azerbaijan
71	0.006149552446290902	Kazakhstan
10	0.00612832879677825	Bahrain
0	0.006062004892051213	Afghanistan
29	0.005977110294000605	Chile
126	0.005974457337811523	Sweden
32	0.005863033177870101	Congo
63	0.005828544747412041	Iran
24	0.0057144676312815374	Cambodia
11	0.005685285113201641	Bangladesh
142	0.005685285113201641	Uzbekistan
22	0.005565902084692973	BurkinaFaso
55	0.005555290259936648	Guinea
146	0.005518148873289506	Zambia
122	0.005443866099995225	SouthKorea
143	0.005412030625726247	Venezuela
100	0.005390806976213595	Norway
85	0.005340400808621046	Mali
45	0.0053324419400538016	Finland
127	0.005268770991515846	Switzerland
125	0.005234282561057787	Suriname
101	0.005210405955356053	Oman
6	0.005207752999166972	Armenia
73	0.005022046065931267	Kuwait
98	0.00500878128498586	Nigeria
60	0.004958375117393311	Iceland
84	0.004945110336447904	Malaysia
16	0.0046638969804052655	Bhutan
2	0.00463736741851445	Algeria
56	0.0046294085499472065	Guinea-Bissau
117	0.0046161437690017985	Singapore
109	0.004507372565249457	Qatar
129	0.004462272310035072	Tajikistan
112	0.00444104866052242	Rwanda
113	0.004271259464421205	SaudiArabia
86	0.004045758188349278	Malta
69	0.0038096450875210247	Japan
87	0.0037831155256302096	Mauritania
135	0.0037831155256302096	Turkmenistan
23	0.0037804625694411284	Burundi
79	0.003738015270415824	Libya
47	0.0037141386647140907	Gabon
65	0.003531084687667468	Ireland
27	0.00339313096583523	CentralAfricanRepublic
28	0.0032604831563811556	Chad
78	0.0031145705659816735	Liberia
20	0.002955393194636784	Brunei
64	0.002268277541664677	Iraq
4	0.002058694002727239	Angola
