153	0.0025121380560176355	106
925	0.0023109641470902475	7204
813	0.0022501048132970883	6203
402	0.002150363127358299	2710
293	0.0021402199050594393	1701
999	0.002131767219810389	7602
365	0.0020911943306149497	2523
640	0.00205569305256894	4407
166	0.0020472403673198903	303
259	0.0020252633856723606	1211
619	0.0020252633856723606	4103
595	0.0020049769410746404	3923
617	0.0020049769410746404	4101
323	0.001991452644676161	2202
616	0.001959332440729771	4100
332	0.0019136879403849015	2302
266	0.0019103068662852814	1404
169	0.0019018541810362315	306
255	0.001859590754790982	1207
260	0.0018274705508445923	1212
814	0.0018156367914959224	6204
524	0.001759849068852193	3401
832	0.001759849068852193	6305
231	0.0017497058465533331	910
240	0.0017429436983540931	1101
165	0.0017294194019556132	302
206	0.0017192761796567533	713
802	0.0017175856426069433	6109
637	0.0017158951055571334	4404
758	0.0016736316793118837	5607
641	0.0016702506052122638	4408
797	0.001668560068162454	6104
796	0.001644892549465114	6103
668	0.0016364398642160641	4800
795	0.0016330587901164442	6102
912	0.0016313682530666343	7108
187	0.0016296777160168241	508
836	0.0016161534196183444	6309
211	0.0016060101973194845	804
881	0.0016026291232198644	6910
636	0.0015958669750206246	4403
800	0.0015941764379708147	6107
799	0.0015874142897715747	6106
307	0.0015806521415723347	2001
283	0.0015789616045225247	1517
336	0.0015789616045225247	2306
341	0.0015789616045225247	2402
168	0.0015688183822236649	305
222	0.0015688183822236649	901
315	0.001567127845173855	2009
707	0.0015654373081240448	5202
342	0.0015620562340244249	2403
343	0.001546841400576135	2501
798	0.001545150863526325	6105
642	0.0015400792523768952	4409
962	0.0015400792523768952	7313
295	0.001538388715327085	1703
313	0.001536698178277275	2007
822	0.0015350076412274651	6212
618	0.001529936030078035	4102
958	0.0015282454930282251	7309
794	0.0015265549559784152	6101
803	0.0015197928077791752	6110
895	0.0015197928077791752	7010
167	0.0015130306595799354	304
1001	0.0015028874372810756	7604
202	0.0014978158261316455	709
706	0.0014944347520320256	5201
807	0.0014910536779324055	6114
801	0.0014792199185837357	6108
414	0.0014724577703844957	2806
866	0.0014673861592350659	6810
218	0.001460624011035826	811
225	0.001460624011035826	904
837	0.0014555523998863958	6310
923	0.001448790251687156	7202
319	0.001447099714637346	2104
317	0.001443718640537726	2102
282	0.001438647029388296	1516
499	0.001438647029388296	3102
817	0.001438647029388296	6207
264	0.001435265955288676	1302
296	0.0014268132700396262	1704
502	0.0014234321959400063	3105
306	0.0014200511218403862	1905
340	0.0014200511218403862	2401
1186	0.0014183605847905762	8544
186	0.0014115984365913362	507
1293	0.0014048362883920965	9406
291	0.0014014552142924764	1604
805	0.0013997646772426664	6112
714	0.0013946930660932366	5209
957	0.0013946930660932366	7308
538	0.0013913119919936165	3602
242	0.0013862403808441867	1103
635	0.0013811687696947566	4402
653	0.0013811687696947566	4420
759	0.0013811687696947566	5608
392	0.0013777876955951367	2621
815	0.0013777876955951367	6205
937	0.0013777876955951367	7217
401	0.0013744066214955166	2709
959	0.0013744066214955166	7310
650	0.0013727160844457067	4417
241	0.0013676444732962768	1102
819	0.0013659539362464667	6209
205	0.0013642633991966567	712
867	0.0013642633991966567	6811
172	0.0013625728621468468	402
709	0.001359191788047227	5204
812	0.0013575012509974168	6202
207	0.0013541201768977969	714
170	0.001349048565748367	307
175	0.0013473580286985569	405
808	0.0013473580286985569	6115
164	0.001335524269349887	301
203	0.001335524269349887	710
811	0.001335524269349887	6201
842	0.0013338337323000771	6405
318	0.0013270715841008371	2103
590	0.0013270715841008371	3917
201	0.0013253810470510272	708
955	0.0013219999729514073	7306
217	0.0013186188988517872	810
541	0.0013186188988517872	3605
838	0.0013152378247521673	6401
594	0.0013118567506525472	3922
816	0.0013118567506525472	6206
821	0.0013101662136027373	6211
916	0.0013084756765529273	7112
177	0.0013067851395031174	407
710	0.0013034040654034975	5205
281	0.0012966419172042575	1515
316	0.0012949513801544475	2101
287	0.0012915703060548274	1522
936	0.0012881892319552076	7215
1290	0.0012881892319552076	9403
302	0.0012831176208057775	1806
250	0.0012780460096563477	1202
179	0.0012763554726065377	409
935	0.0012763554726065377	7214
610	0.0012746649355567276	4012
204	0.0012712838614571077	711
1096	0.0012712838614571077	8432
189	0.0012695933244072977	511
960	0.0012662122503076776	7311
362	0.0012628311762080578	2520
311	0.0012611406391582478	2005
314	0.0012611406391582478	2008
752	0.0012594501021084379	5601
804	0.001257759565058628	6111
214	0.001250997416859388	807
176	0.001249306879809578	406
651	0.0012476163427597678	4418
646	0.001242544731610338	4413
1009	0.001240854194560528	7612
223	0.001239163657510718	902
1007	0.001239163657510718	7610
974	0.001237473120460908	7325
789	0.001235782583411098	6002
829	0.001235782583411098	6302
1254	0.001234092046361288	9028
818	0.0012324015093114781	6208
820	0.001229020435211858	6210
245	0.001227329898162048	1106
522	0.001227329898162048	3306
931	0.001227329898162048	7210
193	0.0012256393611122381	604
171	0.0012222582870126183	401
712	0.0012222582870126183	5207
188	0.0012188772129129982	510
843	0.0012188772129129982	6406
907	0.0012188772129129982	7103
239	0.0012171866758631882	1008
510	0.0012171866758631882	3208
934	0.0012171866758631882	7213
891	0.0012036623794647084	7006
405	0.0012002813053650883	2713
875	0.0012002813053650883	6904
278	0.0011985907683152784	1512
755	0.0011985907683152784	5604
886	0.0011985907683152784	7001
185	0.0011952096942156585	506
357	0.0011935191571658484	2515
1135	0.0011935191571658484	8474
183	0.0011918286201160384	504
498	0.0011901380830662285	3101
348	0.0011867570089666086	2506
982	0.0011867570089666086	7408
1082	0.0011867570089666086	8418
1199	0.0011816853978171785	8609
359	0.0011799948607673686	2517
219	0.0011783043237175586	812
863	0.0011766137866677487	6807
196	0.0011749232496179385	703
648	0.0011749232496179385	4415
998	0.0011715421755183187	7601
1215	0.0011698516384685087	8716
399	0.0011681611014186988	2707
639	0.0011681611014186988	4406
713	0.0011664705643688886	5208
978	0.0011630894902692687	7403
322	0.0011613989532194588	2201
574	0.001158017879119839	3901
1223	0.001158017879119839	8903
1291	0.0011563273420700287	9404
194	0.0011546368050202188	701
407	0.0011546368050202188	2715
740	0.0011529462679704088	5505
328	0.001149565193870789	2207
708	0.0011478746568209788	5203
1062	0.0011478746568209788	8309
557	0.0011461841197711689	3808
263	0.001144493582721359	1301
609	0.001144493582721359	4011
173	0.001141112508621739	403
827	0.001141112508621739	6217
243	0.0011394219715719289	1104
835	0.0011394219715719289	6308
212	0.001137731434522119	805
840	0.001137731434522119	6403
717	0.001136040897472309	5212
363	0.001132659823372689	2521
441	0.0011309692863228791	2833
191	0.001129278749273069	602
1016	0.0011242071381236392	7806
597	0.0011225166010738292	3925
347	0.001120826064024019	2505
512	0.001120826064024019	3210
750	0.0011174449899243992	5515
770	0.0011140639158247793	5805
563	0.0011123733787749693	3814
436	0.0011106828417251592	2828
288	0.0011073017676255393	1601
546	0.0011073017676255393	3704
749	0.0011073017676255393	5514
628	0.0011056112305757293	4205
673	0.0011056112305757293	4823
1201	0.0011056112305757293	8702
918	0.0011039206935259194	7114
760	0.0011022301564761092	5609
1322	0.0011022301564761092	9705
966	0.0011005396194262993	7317
324	0.0010988490823764894	2203
149	0.0010937774712270593	102
554	0.0010937774712270593	3805
729	0.0010937774712270593	5402
220	0.0010920869341772494	813
1095	0.0010903963971274394	8431
1003	0.0010887058600776295	7606
1011	0.0010887058600776295	7614
930	0.0010870153230278195	7209
1224	0.0010870153230278195	8904
327	0.0010853247859780096	2206
1012	0.0010853247859780096	7615
230	0.0010836342489281994	909
695	0.0010836342489281994	5103
765	0.0010836342489281994	5705
289	0.0010802531748285796	1602
876	0.0010802531748285796	6905
403	0.0010785626377787696	2711
685	0.0010768721007289597	4911
762	0.0010768721007289597	5702
1188	0.0010768721007289597	8546
753	0.0010734910266293396	5602
1222	0.0010734910266293396	8902
1141	0.0010718004895795296	8480
320	0.0010701099525297197	2105
364	0.0010701099525297197	2522
1288	0.0010684194154799097	9401
728	0.0010667288784300996	5401
292	0.0010650383413802896	1605
1057	0.0010650383413802896	8304
523	0.0010633478043304797	3307
575	0.0010633478043304797	3902
634	0.0010616572672806697	4401
303	0.0010599667302308598	1902
643	0.0010582761931810499	4410
831	0.0010582761931810499	6304
1286	0.0010582761931810499	9306
236	0.0010548951190814298	1005
981	0.0010548951190814298	7407
339	0.0010532045820316198	2309
903	0.0010532045820316198	7019
516	0.0010515140449818099	3214
644	0.001049823507932	4411
862	0.001049823507932	6806
350	0.0010481329708821898	2508
631	0.0010481329708821898	4302
379	0.0010464424338323798	2608
970	0.0010447518967825699	7321
611	0.0010396802856331398	4013
216	0.0010379897485833299	809
948	0.0010379897485833299	7228
849	0.00103629921153352	6507
1004	0.00103629921153352	7607
422	0.0010329181374339	2814
868	0.0010312276003840901	6812
161	0.00102615598923466	208
511	0.0010244654521848501	3209
1149	0.0010227749151350402	8503
415	0.00102108437808523	2807
1298	0.00102108437808523	9507
256	0.0010177033039856101	1208
308	0.0010177033039856101	2002
329	0.0010177033039856101	2208
444	0.0010177033039856101	2836
371	0.0010160127669358002	2530
1219	0.0010160127669358002	8804
602	0.0010109411557863701	4004
833	0.0010092506187365602	6306
865	0.0010092506187365602	6809
199	0.0010075600816867503	706
771	0.0010075600816867503	5806
897	0.0010075600816867503	7013
209	0.0010058695446369403	802
459	0.0010058695446369403	2904
351	0.0010024884705373202	2509
521	0.0010024884705373202	3305
360	0.0009991073964377003	2518
716	0.0009974168593878904	5211
779	0.0009974168593878904	5903
1321	0.0009974168593878904	9704
443	0.0009957263223380804	2835
596	0.0009889641741388404	3924
525	0.0009872736370890305	3402
858	0.0009872736370890305	6802
1235	0.0009872736370890305	9007
294	0.0009855831000392206	1702
956	0.0009838925629894104	7307
528	0.0009822020259396005	3405
1203	0.0009822020259396005	8704
1056	0.0009805114888897905	8303
864	0.0009788209518399806	6808
971	0.0009788209518399806	7322
265	0.0009771304147901706	1401
310	0.0009771304147901706	2004
423	0.0009771304147901706	2815
1313	0.0009771304147901706	9614
285	0.0009754398777403606	1520
1172	0.0009754398777403606	8530
1225	0.0009754398777403606	8905
680	0.0009737493406905505	4906
208	0.0009720588036407406	801
676	0.0009720588036407406	4902
879	0.0009703682665909306	6908
947	0.0009703682665909306	7227
1014	0.0009703682665909306	7801
1179	0.0009703682665909306	8537
246	0.0009686777295411206	1107
748	0.0009686777295411206	5513
1300	0.0009686777295411206	9601
743	0.0009669871924913106	5508
828	0.0009669871924913106	6301
1302	0.0009652966554415007	9603
210	0.0009636061183916906	803
774	0.0009636061183916906	5809
1039	0.0009636061183916906	8201
1204	0.0009636061183916906	8705
577	0.0009619155813418807	3904
882	0.0009619155813418807	6911
1017	0.0009619155813418807	7901
929	0.0009602250442920707	7208
1013	0.0009602250442920707	7616
1227	0.0009568439701924508	8907
715	0.0009551534331426407	5210
404	0.0009517723590430208	2712
247	0.0009500818219932108	1108
520	0.0009500818219932108	3304
215	0.0009483912849434008	808
790	0.0009483912849434008	6003
917	0.0009483912849434008	7113
1152	0.0009450102108437808	8506
286	0.0009433196737939709	1521
374	0.0009433196737939709	2603
734	0.0009416291367441608	5407
786	0.0009416291367441608	5910
257	0.0009399385996943509	1209
607	0.0009399385996943509	4009
1078	0.000938248062644541	8414
358	0.000934866988544921	2516
645	0.000934866988544921	4412
721	0.000934866988544921	5305
747	0.000931485914445301	5512
1083	0.000931485914445301	8419
537	0.000929795377395491	3601
921	0.000929795377395491	7118
446	0.000928104840345681	2839
513	0.000928104840345681	3211
787	0.000928104840345681	5911
432	0.000926414303295871	2824
1101	0.000926414303295871	8437
378	0.0009247237662460611	2607
606	0.0009247237662460611	4008
989	0.0009247237662460611	7418
234	0.000923033229196251	1003
454	0.000923033229196251	2849
953	0.000923033229196251	7304
1281	0.000923033229196251	9301
1081	0.0009196521550966311	8417
699	0.0009162710809970112	5107
841	0.0009145805439472011	6404
148	0.0009128900068973912	101
652	0.0009111994698475812	4419
659	0.0009111994698475812	4601
565	0.0009095089327977712	3816
254	0.0009078183957479612	1206
608	0.0009078183957479612	4010
933	0.0009078183957479612	7212
1216	0.0009078183957479612	8801
152	0.0009061278586981513	105
213	0.0009061278586981513	806
551	0.0009061278586981513	3802
406	0.0009044373216483412	2714
434	0.0009044373216483412	2826
1074	0.0009027467845985313	8410
1147	0.0009027467845985313	8501
229	0.0009010562475487212	908
411	0.0009010562475487212	2803
232	0.0008976751734491013	1001
666	0.0008976751734491013	4706
1156	0.0008976751734491013	8511
744	0.0008959846363992913	5509
906	0.0008959846363992913	7102
1200	0.0008959846363992913	8701
151	0.0008942940993494813	104
1244	0.0008942940993494813	9018
872	0.0008909130252498614	6901
1197	0.0008909130252498614	8607
927	0.0008892224882000514	7206
388	0.0008875319511502414	2617
1228	0.0008858414141004314	8908
1303	0.0008858414141004314	9604
280	0.0008841508770506215	1514
963	0.0008841508770506215	7314
1146	0.0008841508770506215	8487
1177	0.0008841508770506215	8535
1289	0.0008841508770506215	9402
372	0.0008824603400008114	2601
773	0.0008824603400008114	5808
614	0.0008807698029510015	4016
735	0.0008807698029510015	5408
973	0.0008807698029510015	7324
221	0.0008790792659011915	814
337	0.0008790792659011915	2307
469	0.0008773887288513815	2914
237	0.0008756981918015715	1006
788	0.0008756981918015715	6001
1055	0.0008756981918015715	8302
990	0.0008740076547517616	7419
792	0.0008723171177019515	6005
869	0.0008723171177019515	6813
1005	0.0008723171177019515	7608
1068	0.0008723171177019515	8404
681	0.0008706265806521416	4907
1119	0.0008706265806521416	8455
331	0.0008672455065525216	2301
539	0.0008672455065525216	3603
569	0.0008672455065525216	3820
675	0.0008672455065525216	4901
873	0.0008672455065525216	6902
1046	0.0008672455065525216	8208
1299	0.0008672455065525216	9508
159	0.0008655549695027117	206
457	0.0008655549695027117	2902
763	0.0008638644324529016	5703
767	0.0008638644324529016	5802
860	0.0008638644324529016	6804
961	0.0008621738954030917	7312
529	0.0008604833583532817	3406
533	0.0008604833583532817	3503
535	0.0008604833583532817	3506
1140	0.0008587928213034717	8479
604	0.0008571022842536617	4006
1063	0.0008537212101540417	8310
277	0.0008520306731042318	1511
672	0.0008520306731042318	4811
952	0.0008520306731042318	7303
954	0.0008520306731042318	7305
1208	0.0008520306731042318	8709
154	0.0008503401360544217	201
270	0.0008503401360544217	1504
738	0.0008503401360544217	5503
1043	0.0008503401360544217	8205
951	0.0008486495990046118	7302
312	0.0008469590619548019	2006
497	0.0008469590619548019	3006
603	0.0008452685249049918	4005
674	0.0008435779878551819	4824
1092	0.0008435779878551819	8428
1226	0.0008435779878551819	8906
1283	0.0008435779878551819	9303
390	0.0008418874508053718	2619
669	0.0008418874508053718	4802
928	0.0008418874508053718	7207
1259	0.0008418874508053718	9033
664	0.0008401969137555619	4704
711	0.0008401969137555619	5206
823	0.0008401969137555619	6213
1076	0.0008401969137555619	8412
1150	0.0008401969137555619	8504
624	0.0008385063767057519	4115
893	0.0008385063767057519	7008
496	0.0008368158396559419	2942
612	0.0008368158396559419	4014
694	0.0008368158396559419	5102
806	0.0008368158396559419	6113
1306	0.0008368158396559419	9607
754	0.0008351253026061319	5603
772	0.0008351253026061319	5807
926	0.0008351253026061319	7205
261	0.000833434765556322	1213
1241	0.000833434765556322	9015
301	0.0008317442285065119	1805
387	0.0008317442285065119	2616
391	0.0008317442285065119	2620
861	0.0008317442285065119	6805
1175	0.0008317442285065119	8533
745	0.0008283631544068919	5510
975	0.0008283631544068919	7326
697	0.000826672617357082	5105
582	0.000824982080307272	3909
1025	0.000824982080307272	8007
1221	0.000824982080307272	8901
830	0.000823291543257462	6303
1178	0.000823291543257462	8536
1301	0.000823291543257462	9602
419	0.000821601006207652	2811
1174	0.000821601006207652	8532
1309	0.000821601006207652	9610
615	0.0008199104691578421	4017
693	0.0008199104691578421	5101
321	0.0008182199321080321	2106
506	0.0008182199321080321	3204
671	0.0008182199321080321	4810
781	0.0008182199321080321	5905
892	0.0008182199321080321	7007
1066	0.0008165293950582221	8402
505	0.0008131483209586021	3203
1106	0.0008131483209586021	8442
1142	0.0008131483209586021	8481
964	0.0008097672468589821	7315
1021	0.0008097672468589821	7907
623	0.0008063861727593622	4114
809	0.0008063861727593622	6116
273	0.0008046956357095522	1507
844	0.0008046956357095522	6501
910	0.0008046956357095522	7106
1064	0.0008030050986597422	8311
704	0.0008013145616099322	5112
900	0.0008013145616099322	7016
197	0.0007996240245601222	704
493	0.0007996240245601222	2939
550	0.0007996240245601222	3801
857	0.0007996240245601222	6801
1002	0.0007996240245601222	7605
1040	0.0007996240245601222	8202
660	0.0007979334875103123	4602
1198	0.0007979334875103123	8608
601	0.0007962429504605023	4003
1136	0.0007962429504605023	8475
965	0.0007945524134106923	7316
1094	0.0007945524134106923	8430
1100	0.0007945524134106923	8436
1211	0.0007945524134106923	8712
1277	0.0007945524134106923	9206
1098	0.0007928618763608824	8434
471	0.0007911713393110723	2916
1207	0.0007911713393110723	8708
919	0.0007894808022612624	7115
987	0.0007894808022612624	7413
1018	0.0007894808022612624	7903
1143	0.0007894808022612624	8482
356	0.0007860997281616424	2514
741	0.0007860997281616424	5506
969	0.0007860997281616424	7320
504	0.0007844091911118324	3202
519	0.0007844091911118324	3303
834	0.0007844091911118324	6307
638	0.0007827186540620224	4405
702	0.0007827186540620224	5110
730	0.0007827186540620224	5403
344	0.0007810281170122124	2502
542	0.0007810281170122124	3606
593	0.0007810281170122124	3920
768	0.0007810281170122124	5803
412	0.0007776470429125924	2804
698	0.0007776470429125924	5106
701	0.0007776470429125924	5109
722	0.0007776470429125924	5306
290	0.0007759565058627825	1603
305	0.0007759565058627825	1904
453	0.0007759565058627825	2847
778	0.0007759565058627825	5902
904	0.0007759565058627825	7020
568	0.0007742659688129726	3819
1054	0.0007742659688129726	8301
1171	0.0007742659688129726	8529
1202	0.0007742659688129726	8703
495	0.0007708848947133526	2941
625	0.0007708848947133526	4201
1060	0.0007708848947133526	8307
684	0.0007691943576635425	4910
725	0.0007691943576635425	5309
1097	0.0007691943576635425	8433
1160	0.0007675038206137326	8515
1233	0.0007675038206137326	9005
284	0.0007658132835639226	1518
769	0.0007658132835639226	5804
977	0.0007658132835639226	7402
983	0.0007658132835639226	7409
500	0.0007641227465141126	3103
507	0.0007641227465141126	3205
679	0.0007641227465141126	4905
810	0.0007641227465141126	6117
1162	0.0007641227465141126	8517
368	0.0007624322094643026	2526
949	0.0007624322094643026	7229
1085	0.0007624322094643026	8421
456	0.0007607416724144927	2901
1080	0.0007607416724144927	8416
627	0.0007590511353646826	4203
1070	0.0007590511353646826	8406
559	0.0007556700612650626	3810
588	0.0007556700612650626	3915
1139	0.0007556700612650626	8478
746	0.0007539795242152527	5511
826	0.0007539795242152527	6216
1115	0.0007539795242152527	8451
1196	0.0007539795242152527	8606
267	0.0007522889871654428	1501
297	0.0007522889871654428	1801
576	0.0007522889871654428	3903
839	0.0007522889871654428	6402
889	0.0007505984501156327	7004
195	0.0007489079130658228	702
455	0.0007489079130658228	2852
932	0.0007489079130658228	7211
400	0.0007472173760160128	2708
393	0.0007455268389662028	2701
1045	0.0007455268389662028	8207
1067	0.0007455268389662028	8403
1093	0.0007455268389662028	8429
1138	0.0007455268389662028	8477
736	0.0007438363019163928	5501
1180	0.0007438363019163928	8538
514	0.0007421457648665828	3212
1114	0.0007421457648665828	8450
757	0.0007404552278167728	5606
1148	0.0007404552278167728	8502
299	0.0007370741537171528	1803
1129	0.0007370741537171528	8468
1169	0.0007370741537171528	8526
1000	0.0007353836166673429	7603
1008	0.0007353836166673429	7611
1192	0.0007353836166673429	8602
431	0.0007336930796175329	2823
435	0.0007320025425677229	2827
478	0.0007320025425677229	2923
600	0.0007320025425677229	4002
398	0.000730312005517913	2706
1037	0.000730312005517913	8112
1117	0.000730312005517913	8453
1187	0.000730312005517913	8545
426	0.0007286214684681029	2818
555	0.0007286214684681029	3806
824	0.0007286214684681029	6214
883	0.0007286214684681029	6912
884	0.0007286214684681029	6913
913	0.000726930931418293	7109
945	0.000726930931418293	7225
425	0.000725240394368483	2817
481	0.000725240394368483	2926
620	0.000725240394368483	4104
980	0.000723549857318673	7406
1090	0.000723549857318673	8426
683	0.000721859320268863	4909
1102	0.000721859320268863	8438
1116	0.000721859320268863	8452
253	0.0007201687832190531	1205
409	0.0007201687832190531	2801
508	0.0007201687832190531	3206
689	0.0007201687832190531	5004
1213	0.0007201687832190531	8714
155	0.000718478246169243	202
416	0.0007167877091194331	2808
1032	0.0007167877091194331	8107
1089	0.0007167877091194331	8425
1157	0.0007167877091194331	8512
156	0.0007150971720696231	203
174	0.0007134066350198131	404
184	0.0007134066350198131	505
561	0.0007117160979700031	3812
667	0.0007117160979700031	4707
1118	0.0007117160979700031	8454
591	0.0007100255609201931	3918
599	0.0007100255609201931	4001
1151	0.0007100255609201931	8505
1167	0.0007100255609201931	8523
777	0.0007083350238703831	5901
1287	0.0007083350238703831	9307
775	0.0007066444868205732	5810
782	0.0007066444868205732	5906
394	0.0007049539497707631	2702
470	0.0007049539497707631	2915
733	0.0007049539497707631	5406
200	0.0007032634127209532	707
238	0.0007015728756711433	1007
483	0.0007015728756711433	2928
871	0.0007015728756711433	6815
940	0.0007015728756711433	7220
160	0.0006998823386213332	207
192	0.0006981918015715233	603
696	0.0006981918015715233	5104
354	0.0006965012645217132	2512
433	0.0006965012645217132	2825
731	0.0006965012645217132	5404
761	0.0006965012645217132	5701
1153	0.0006965012645217132	8507
448	0.0006948107274719033	2841
517	0.0006948107274719033	3215
578	0.0006948107274719033	3905
985	0.0006948107274719033	7411
986	0.0006948107274719033	7412
1041	0.0006948107274719033	8203
558	0.0006931201904220933	3809
785	0.0006931201904220933	5909
943	0.0006931201904220933	7223
1236	0.0006931201904220933	9008
1265	0.0006931201904220933	9106
382	0.0006914296533722833	2611
885	0.0006914296533722833	6914
381	0.0006897391163224733	2610
647	0.0006880485792726634	4414
686	0.0006880485792726634	5001
972	0.0006880485792726634	7323
1145	0.0006880485792726634	8486
1245	0.0006880485792726634	9019
150	0.0006863580422228533	103
633	0.0006863580422228533	4304
1061	0.0006863580422228533	8308
1161	0.0006863580422228533	8516
756	0.0006846675051730434	5605
1026	0.0006846675051730434	8101
1284	0.0006846675051730434	9304
1307	0.0006846675051730434	9608
896	0.0006829769681232333	7011
942	0.0006829769681232333	7222
1125	0.0006829769681232333	8462
920	0.0006812864310734234	7117
1320	0.0006812864310734234	9703
279	0.0006795958940236135	1513
566	0.0006779053569738034	3817
1122	0.0006779053569738034	8459
1252	0.0006779053569738034	9026
564	0.0006745242828741835	3815
271	0.0006728337458243735	1505
878	0.0006728337458243735	6907
939	0.0006728337458243735	7219
1212	0.0006728337458243735	8713
326	0.0006711432087745635	2205
486	0.0006711432087745635	2932
227	0.0006694526717247535	906
852	0.0006694526717247535	6603
1058	0.0006694526717247535	8305
1311	0.0006694526717247535	9612
300	0.0006677621346749435	1804
325	0.0006677621346749435	2204
586	0.0006677621346749435	3913
158	0.0006660715976251336	205
552	0.0006660715976251336	3803
848	0.0006660715976251336	6506
157	0.0006643810605753235	204
163	0.0006643810605753235	210
380	0.0006643810605753235	2609
663	0.0006643810605753235	4703
1183	0.0006643810605753235	8541
751	0.0006626905235255136	5516
950	0.0006626905235255136	7301
1107	0.0006626905235255136	8443
1155	0.0006626905235255136	8509
724	0.0006609999864757036	5308
783	0.0006609999864757036	5907
1255	0.0006609999864757036	9029
825	0.0006593094494258936	6215
888	0.0006593094494258936	7003
1292	0.0006593094494258936	9405
389	0.0006576189123760837	2618
477	0.0006576189123760837	2922
1206	0.0006576189123760837	8707
413	0.0006559283753262736	2805
629	0.0006559283753262736	4206
1127	0.0006559283753262736	8465
1133	0.0006559283753262736	8472
1050	0.0006542378382764637	8212
1280	0.0006542378382764637	9209
178	0.0006525473012266537	408
1072	0.0006525473012266537	8408
1088	0.0006525473012266537	8424
1189	0.0006525473012266537	8547
473	0.0006508567641768437	2918
1173	0.0006508567641768437	8531
1182	0.0006508567641768437	8540
180	0.0006491662271270337	410
1124	0.0006491662271270337	8461
1185	0.0006491662271270337	8543
258	0.0006474756900772238	1210
909	0.0006474756900772238	7105
1091	0.0006474756900772238	8427
1305	0.0006474756900772238	9606
1308	0.0006474756900772238	9609
338	0.0006457851530274137	2308
526	0.0006457851530274137	3403
1015	0.0006457851530274137	7804
472	0.0006440946159776038	2917
386	0.0006424040789277937	2615
1033	0.0006424040789277937	8108
458	0.0006407135418779838	2903
462	0.0006407135418779838	2907
304	0.0006390230048281738	1903
944	0.0006390230048281738	7224
988	0.0006390230048281738	7415
632	0.0006373324677783638	4303
1159	0.0006373324677783638	8514
1249	0.0006373324677783638	9023
464	0.0006339513936787439	2909
688	0.0006339513936787439	5003
890	0.0006339513936787439	7005
703	0.0006322608566289339	5111
162	0.0006305703195791239	209
475	0.0006305703195791239	2920
531	0.0006305703195791239	3501
440	0.000628879782529314	2832
228	0.0006271892454795039	907
573	0.0006271892454795039	3825
494	0.000625498708429694	2940
580	0.0006238081713798839	3907
630	0.0006238081713798839	4301
1077	0.0006238081713798839	8413
532	0.000622117634330074	3502
571	0.000622117634330074	3823
252	0.000620427097280264	1204
1315	0.000620427097280264	9616
527	0.000618736560230454	3404
1023	0.000618736560230454	8002
1217	0.000618736560230454	8802
396	0.000617046023180644	2704
581	0.000617046023180644	3908
776	0.000617046023180644	5811
784	0.000617046023180644	5908
874	0.000617046023180644	6903
1079	0.000617046023180644	8415
1137	0.000617046023180644	8476
1165	0.000617046023180644	8521
461	0.0006153554861308341	2906
905	0.0006153554861308341	7101
946	0.0006153554861308341	7226
1048	0.0006153554861308341	8210
553	0.000613664949081024	3804
572	0.000613664949081024	3824
1285	0.000613664949081024	9305
1024	0.0006119744120312141	8003
1105	0.0006085933379315941	8441
1271	0.0006085933379315941	9112
791	0.0006069028008817842	6004
1038	0.0006052122638319741	8113
1181	0.0006052122638319741	8539
1205	0.0006052122638319741	8706
1258	0.0006052122638319741	9032
421	0.0006035217267821642	2813
460	0.0006035217267821642	2905
1006	0.0006035217267821642	7609
1010	0.0006035217267821642	7613
309	0.0006018311897323542	2003
370	0.0006018311897323542	2529
1209	0.0006018311897323542	8710
333	0.0006001406526825442	2303
361	0.0006001406526825442	2519
479	0.0006001406526825442	2924
480	0.0006001406526825442	2925
1144	0.0006001406526825442	8483
1163	0.0006001406526825442	8518
1247	0.0006001406526825442	9021
492	0.0005984501156327342	2938
1059	0.0005984501156327342	8306
427	0.0005967595785829242	2819
967	0.0005950690415331142	7318
1073	0.0005950690415331142	8409
1250	0.0005950690415331142	9024
719	0.0005933785044833043	5302
1121	0.0005933785044833043	8458
1126	0.0005916879674334942	8463
377	0.0005899974303836843	2606
509	0.0005899974303836843	3207
355	0.0005883068933338744	2513
385	0.0005883068933338744	2614
466	0.0005883068933338744	2911
901	0.0005883068933338744	7017
1042	0.0005883068933338744	8204
1075	0.0005883068933338744	8411
272	0.0005866163562840643	1506
536	0.0005866163562840643	3507
996	0.0005866163562840643	7507
450	0.0005849258192342544	2844
1030	0.0005849258192342544	8105
1256	0.0005849258192342544	9030
345	0.0005832352821844443	2503
570	0.0005832352821844443	3821
1112	0.0005815447451346344	8448
1317	0.0005815447451346344	9618
298	0.0005798542080848244	1802
515	0.0005798542080848244	3213
534	0.0005798542080848244	3505
592	0.0005798542080848244	3919
585	0.0005781636710350144	3912
780	0.0005781636710350144	5904
1190	0.0005781636710350144	8548
198	0.0005764731339852044	705
682	0.0005764731339852044	4908
764	0.0005764731339852044	5704
1243	0.0005764731339852044	9017
589	0.0005747825969353945	3916
887	0.0005747825969353945	7002
1132	0.0005747825969353945	8471
992	0.0005730920598855844	7502
420	0.0005697109857859644	2812
691	0.0005680204487361545	5006
1071	0.0005680204487361545	8407
1176	0.0005680204487361545	8534
408	0.0005663299116863445	2716
847	0.0005663299116863445	6505
941	0.0005663299116863445	7221
275	0.0005646393746365345	1509
353	0.0005646393746365345	2511
870	0.0005646393746365345	6814
908	0.0005646393746365345	7104
1099	0.0005646393746365345	8435
367	0.0005629488375867246	2525
1194	0.0005629488375867246	8604
1229	0.0005629488375867246	9001
346	0.0005612583005369146	2504
395	0.0005612583005369146	2703
485	0.0005612583005369146	2930
1069	0.0005612583005369146	8405
467	0.0005595677634871046	2912
677	0.0005595677634871046	4903
997	0.0005595677634871046	7508
1131	0.0005595677634871046	8470
491	0.0005578772264372946	2937
976	0.0005578772264372946	7401
1263	0.0005578772264372946	9104
417	0.0005561866893874847	2809
1022	0.0005561866893874847	8001
1251	0.0005561866893874847	9025
1028	0.0005544961523376746	8103
1103	0.0005544961523376746	8439
1276	0.0005544961523376746	9205
1087	0.0005528056152878647	8423
1297	0.0005511150782380546	9506
899	0.0005494245411882447	7015
1027	0.0005494245411882447	8102
268	0.0005477340041384347	1502
984	0.0005477340041384347	7410
503	0.0005460434670886247	3201
1210	0.0005460434670886247	8711
1020	0.0005443529300388147	7905
626	0.0005426623929890048	4202
1275	0.0005426623929890048	9202
235	0.0005392813188893848	1004
424	0.0005392813188893848	2816
438	0.0005392813188893848	2830
766	0.0005392813188893848	5801
1164	0.0005392813188893848	8519
1246	0.0005392813188893848	9020
727	0.0005375907818395748	5311
1270	0.0005375907818395748	9111
1242	0.0005359002447897648	9016
1279	0.0005359002447897648	9208
274	0.0005342097077399549	1508
397	0.0005342097077399549	2705
995	0.0005342097077399549	7506
1170	0.0005342097077399549	8527
437	0.0005325191706901448	2829
1052	0.0005325191706901448	8214
1154	0.0005325191706901448	8508
1248	0.0005325191706901448	9022
1214	0.0005308286336403349	8715
330	0.0005291380965905249	2209
410	0.0005291380965905249	2802
476	0.0005274475595407149	2921
490	0.0005274475595407149	2936
880	0.0005274475595407149	6909
384	0.0005257570224909049	2613
846	0.0005257570224909049	6504
911	0.0005257570224909049	7107
1134	0.0005257570224909049	8473
429	0.0005240664854410949	2821
1257	0.0005240664854410949	9031
793	0.0005223759483912849	6006
938	0.0005223759483912849	7218
1113	0.0005223759483912849	8449
1191	0.0005223759483912849	8601
465	0.000520685411341475	2910
567	0.000520685411341475	3818
1184	0.0005189948742916649	8542
1218	0.0005189948742916649	8803
1253	0.0005189948742916649	9027
690	0.000517304337241855	5005
1084	0.000517304337241855	8420
1237	0.000517304337241855	9010
1238	0.000517304337241855	9011
233	0.0005156138001920451	1002
489	0.0005156138001920451	2935
562	0.0005156138001920451	3813
856	0.0005156138001920451	6704
979	0.0005156138001920451	7405
428	0.000513923263142235	2820
1086	0.000513923263142235	8422
548	0.0005122327260924251	3706
1266	0.0005122327260924251	9107
474	0.000510542189042615	2919
501	0.0005088516519928051	3104
1029	0.0005088516519928051	8104
894	0.0005071611149429951	7009
1123	0.0005071611149429951	8460
1193	0.0005071611149429951	8603
518	0.0005054705778931851	3302
1130	0.0005054705778931851	8469
621	0.0005037800408433751	4105
1128	0.0005037800408433751	8467
366	0.0005020895037935652	2524
439	0.0005020895037935652	2831
662	0.0005020895037935652	4702
1240	0.0005020895037935652	9014
226	0.0004987084296939452	905
687	0.0004987084296939452	5002
1049	0.0004987084296939452	8211
579	0.0004970178926441351	3906
915	0.0004970178926441351	7111
1166	0.0004970178926441351	8522
649	0.0004953273555943252	4416
1318	0.0004936368185445153	9701
488	0.0004919462814947052	2934
739	0.0004919462814947052	5504
877	0.0004919462814947052	6906
1260	0.0004919462814947052	9101
484	0.0004902557444448953	2929
851	0.0004885652073950853	6602
1272	0.0004885652073950853	9113
1282	0.0004885652073950853	9302
244	0.00048687467034527526	1105
1231	0.00048687467034527526	9003
1268	0.00048687467034527526	9109
560	0.0004851841332954653	3811
700	0.0004851841332954653	5108
850	0.0004851841332954653	6601
855	0.0004851841332954653	6703
993	0.0004851841332954653	7504
190	0.0004834935962456553	601
276	0.0004834935962456553	1510
449	0.0004834935962456553	2843
583	0.0004834935962456553	3910
482	0.0004818030591958453	2927
898	0.0004818030591958453	7014
1104	0.0004818030591958453	8440
445	0.0004801125221460353	2837
1065	0.0004801125221460353	8401
1111	0.0004801125221460353	8447
678	0.0004784219850962254	4904
352	0.0004767314480464154	2510
373	0.0004767314480464154	2602
463	0.0004767314480464154	2908
598	0.0004767314480464154	3926
1047	0.0004767314480464154	8209
1269	0.0004767314480464154	9110
584	0.0004750409109966054	3911
902	0.0004750409109966054	7018
1019	0.0004750409109966054	7904
1230	0.0004750409109966054	9002
1296	0.00047335037394679544	9505
556	0.00047165983689698545	3807
1294	0.00046996929984717545	9503
334	0.00046827876279736545	2304
605	0.00046827876279736545	4007
269	0.0004665882257475555	1503
1120	0.0004665882257475555	8457
1312	0.0004648976886977455	9613
487	0.0004632071516479355	2933
1314	0.0004632071516479355	9615
262	0.0004615166145981255	1214
349	0.0004615166145981255	2507
543	0.00045982607754831557	3701
1323	0.00045982607754831557	970
1168	0.0004581355404985056	8525
737	0.0004564450034486956	5502
1053	0.0004564450034486956	8215
1304	0.0004564450034486956	9605
968	0.00045306392934907564	7319
1110	0.00045306392934907564	8446
1234	0.00045137339229926564	9006
1108	0.00044799231819964564	8444
451	0.0004463017811498357	2845
924	0.0004463017811498357	7203
1044	0.0004463017811498357	8206
1274	0.0004463017811498357	9201
1278	0.0004463017811498357	9207
376	0.0004429207070502157	2605
1220	0.0004429207070502157	8805
530	0.0004412301700004057	3407
845	0.0004412301700004057	6502
224	0.00043615855885097577	903
547	0.00043615855885097577	3705
181	0.0004344680218011658	501
622	0.0004344680218011658	4106
442	0.00043108694770154583	2834
718	0.00043108694770154583	5301
657	0.00042770587360192584	4503
249	0.0004260153365521159	1201
587	0.0004260153365521159	3914
670	0.0004260153365521159	4807
1262	0.0004260153365521159	9103
692	0.0004243247995023059	5007
994	0.0004226342624524959	7505
726	0.00041756265130306596	5310
922	0.00041418157720344597	7201
1319	0.00041418157720344597	9702
654	0.000412491040153636	4421
369	0.000410800503103826	2528
661	0.000410800503103826	4701
452	0.00040910996605401603	2846
665	0.00040741942900420603	4705
544	0.0004057288919543961	3702
742	0.0004057288919543961	5507
540	0.0004040383549045861	3604
1158	0.0004040383549045861	8513
1316	0.0004040383549045861	9617
705	0.0004023478178547761	5113
732	0.0004023478178547761	5405
1109	0.0004023478178547761	8445
1261	0.0004006572808049661	9102
1273	0.0004006572808049661	9114
723	0.00039896674375515615	5307
251	0.00039727620670534615	1203
914	0.00039727620670534615	7110
545	0.00039558566965553616	3703
549	0.00039558566965553616	3707
720	0.00039558566965553616	5303
335	0.0003854424473566763	2305
418	0.0003854424473566763	2810
447	0.0003854424473566763	2840
1036	0.00037868029915743634	8111
182	0.00037698976210762635	502
375	0.00037529922505781635	2604
430	0.00037529922505781635	2822
248	0.0003736086880080064	1109
1295	0.0003736086880080064	9504
1051	0.0003719181509581964	8213
991	0.00036684653980876647	7501
468	0.0003651560027589565	2913
859	0.00036008439160952653	6803
1310	0.00035670331750990654	9611
613	0.0003516317063604766	4015
1267	0.0003482506322608566	9108
1195	0.00034656009521104666	8605
1264	0.00034317902111142667	9105
658	0.00033472633586237674	4504
1239	0.00030598720601560705	9013
1031	0.0002941534466669372	8106
1232	0.00028570076141788724	9004
656	0.00028401022436807724	4502
1034	0.0002806291502684573	8109
383	0.0002755575391190273	2612
854	0.00026710485386997743	6702
655	0.00026372377977035744	4501
853	0.0002552710945213075	6701
1035	0.00025019948337187757	8110
