40	0.011910024537597623	Egypt
61	0.011849161044801937	India
62	0.01158008033981049	Indonesia
72	0.011445539987314768	Kenya
130	0.0112949829261886	Tanzania
77	0.011112392447801546	Lebanon
102	0.011093172397445015	Pakistan
52	0.011041918929827596	Greece
31	0.01088815852697534	Colombia
43	0.010551807645736032	Estonia
80	0.01048133412776208	Lithuania
21	0.01041406395151422	Bulgaria
94	0.010346793775266358	Netherlands
34	0.010321167041457649	Croatia
107	0.010119356512714063	Poland
114	0.009927156009148744	Senegal
115	0.009859885832900882	Serbia
26	0.009574788419278992	Canada
82	0.009549161685470283	Madagascar
105	0.009536348318565927	Peru
74	0.009453061433687623	Kyrgyzstan
96	0.009421028016426736	Nicaragua
54	0.009363367865357141	Guatemala
13	0.009241640879765771	Belgium
1	0.009183980728696176	Albania
95	0.009023813642391743	NewZealand
132	0.008994983566856945	Togo
140	0.008962950149596059	Uruguay
103	0.008953340124417793	Panama
141	0.008921306707156906	USA
35	0.008876459922991665	Cyprus
91	0.00884122316400469	Morocco
123	0.00884122316400469	Spain
133	0.008796376379839448	Tunisia
134	0.008773952987756828	Turkey
76	0.008741919570495941	Latvia
118	0.008738716228769853	Slovakia
110	0.008661836027343725	Romania
36	0.00860417587627413	CzechRepublic
108	0.008584955825917596	Portugal
137	0.008533702358300178	Ukraine
46	0.008395958664078367	France
18	0.008370331930269658	BosniaHerzegovina
49	0.00836392524681748	Georgia
41	0.008344705196460947	ElSalvador
15	0.008235791577773934	Benin
121	0.008178131426704338	SouthAfrica
144	0.008110861250456475	Vietnam
147	0.008098047883552121	Zimbabwe
25	0.008066014466291235	Cameroon
58	0.007953897505878132	Honduras
38	0.007950694164152044	Denmark
7	0.007918660746891158	Australia
92	0.007889830671356358	Mozambique
136	0.00788662732963027	Uganda
67	0.0077296635850519265	Italy
70	0.007710443534695394	Jordan
81	0.0076784101174345075	Macedonia
51	0.007547073106664873	Ghana
17	0.007473396246964833	Bolivia
139	0.007447769513156124	UnitedKingdom
111	0.0073164325023864895	Russia
30	0.007297212452029958	China
138	0.00726838237649516	UnitedArabEmirates
8	0.007249162326138628	Austria
50	0.00724275564268645	Germany
59	0.00722033225060383	Hungary
106	0.007185095491616855	Philippines
19	0.007162672099534234	Brazil
68	0.007153062074355968	IvoryCoast
124	0.007117825315368993	Sudan
131	0.007095401923286372	Thailand
93	0.007060165164299397	Nepal
66	0.007024928405312422	Israel
42	0.007015318380134156	Eritrea
145	0.0069544548873384715	Yemen
104	0.006906404761447142	Paraguay
33	0.006848744610377546	CostaRica
12	0.006803897826212305	Belarus
44	0.006707797574429645	Ethiopia
88	0.006656544106812227	Mexico
97	0.006630917373003517	Niger
119	0.006621307347825251	Slovenia
39	0.006589273930564365	Ecuador
75	0.006586070588838276	Laos
116	0.006563647196755656	SierraLeone
57	0.00652841043776868	Guyana
48	0.006486766995329528	Gambia
14	0.006464343603246907	Belize
89	0.0063330065924772725	Mongolia
83	0.0061952628982554605	Malawi
126	0.006118382696829332	Sweden
0	0.006060722545759736	Afghanistan
11	0.006025485786772761	Bangladesh
9	0.006006265736416229	Azerbaijan
71	0.005929385534990101	Kazakhstan
10	0.005926182193264013	Bahrain
29	0.005881335409098772	Chile
37	0.005878132067372683	DemocraticRepublicCongo
142	0.005705151614163895	Uzbekistan
32	0.005641084779642123	Congo
55	0.005618661387559502	Guinea
63	0.005580221286846438	Iran
146	0.005564204578215995	Zambia
24	0.005474511009885512	Cambodia
22	0.005442477592624626	BurkinaFaso
122	0.005388020783281119	SouthKorea
100	0.005372004074650676	Norway
143	0.005368800732924587	Venezuela
45	0.005365597391198499	Finland
85	0.005288717189772371	Mali
6	0.005211836988346243	Armenia
127	0.005086906661028785	Switzerland
60	0.005022839826507012	Iceland
101	0.0049011128409156435	Oman
84	0.004843452689846047	Malaysia
125	0.004779385855324275	Suriname
73	0.004680082261815526	Kuwait
117	0.00467047223663726	Singapore
98	0.004641642161102462	Nigeria
2	0.004609608743841575	Algeria
129	0.004446238315811054	Tajikistan
16	0.0043757647978371035	Bhutan
56	0.004353341405754483	Guinea-Bissau
112	0.004327714671945774	Rwanda
109	0.004302087938137065	Qatar
86	0.004282867887780532	Malta
113	0.0040137871827890855	SaudiArabia
69	0.00390807690582816	Japan
23	0.0037639265281541705	Burundi
135	0.003722283085715018	Turkmenistan
47	0.003719079743988929	Gabon
87	0.003712673060536752	Mauritania
79	0.0035460992907801418	Libya
65	0.003488439139710546	Ireland
28	0.003286628610966961	Chad
27	0.0031520882584712374	CentralAfricanRepublic
78	0.0029438710462754746	Liberia
20	0.0028221440606841057	Brunei
64	0.002242339208262059	Iraq
4	0.0019123950104749275	Angola
