000 (4140.001.000) 07/26 19:52:51 Job submitted from host: <192.168.0.112:9618?addrs=192.168.0.112-9618+[--1]-9618&noUDP&sock=16662_5318_3>
...
001 (4140.001.000) 07/26 19:52:52 Job executing on host: <192.168.0.163:9618?addrs=192.168.0.163-9618+[--1]-9618&noUDP&sock=525_af4f_4>
...
005 (4140.001.000) 07/26 19:53:05 Job terminated.
	(1) Normal termination (return value 0)
		Usr 0 00:00:10, Sys 0 00:00:00  -  Run Remote Usage
		Usr 0 00:00:00, Sys 0 00:00:00  -  Run Local Usage
		Usr 0 00:00:10, Sys 0 00:00:00  -  Total Remote Usage
		Usr 0 00:00:00, Sys 0 00:00:00  -  Total Local Usage
	0  -  Run Bytes Sent By Job
	0  -  Run Bytes Received By Job
	0  -  Total Bytes Sent By Job
	0  -  Total Bytes Received By Job
...
