40	0.042264349657714584	Dialictus    sp.
20	0.04096893101632438	Bombus    vagans
24	0.02691943127962085	Carposcalis    confusus
84	0.026635071090047393	Sphaerophoria    bifurcata
48	0.025982095839915745	Eusphalerum    sp.
38	0.021748288572933122	Dialictus    cressoni
51	0.021295418641390205	Evylaeus    quebecensis
19	0.020989994734070563	Bombus    terricola
72	0.01686150605581885	Parasyrphus    relictus
47	0.01646129541864139	Eusphalerum    phothos
86	0.015745129015271194	Sphaerophoria    sp.
99	0.012648762506582412	Xylota    hinei
21	0.012585571353343865	Bombylius    major
67	0.01234333859926277	Orthoneura    pulchella
4	0.012280147446024223	Andrena    miranda
69	0.012227488151658767	Osmia    proxima
41	0.01215376513954713	Eclimus    harrisi
11	0.01214323328067404	Andrena    w-scripta
36	0.012090573986308584	Crabro    sp.
18	0.011943127962085309	Bombus    ternarius
71	0.011943127962085309	Paramyia    nitens
95	0.011869404949973671	Tropidia    quadrata
12	0.01185887309110058	Anthaxia    expansa
77	0.011837809373354397	Pidonia    ruficolis
61	0.011806213796735123	Mallota    posticata
50	0.011711427066877304	Evylaeus    divergens
17	0.01167983149025803	Bombus    perplexus
83	0.01158504476040021	Sarcophaga    nearctica
101	0.011542917324907847	Zeraea    americana
5	0.011490258030542391	Andrena    nivalis
46	0.01139547130068457	Eusphalerum    convexum
39	0.011279620853080569	Dialictus    imitatus
54	0.0110057925223802	Halictus    rubicundus
76	0.010974196945760926	Phaonia    serva
62	0.010837282780410743	Melagyna    lasiophthalma
56	0.007382833070036862	Hylaeus    basalis
31	0.007340705634544497	Chalcosyrphus    nigra
80	0.007224855186940495	Psithyrus    sp.
33	0.007182727751448131	Cheilosia    sialia
98	0.007172195892575039	Xylota    bigelowi
96	0.007130068457082675	Tychius    stephensi
89	0.007098472880463402	Syritta    rectus
65	0.007056345444971038	Nomada    sayi
3	0.007045813586097946	Andrena    melanochroa
14	0.007045813586097946	Blera    badia
30	0.007045813586097946	Chalcosyrphus    memorum
66	0.007045813586097946	Orsodacne    atra
8	0.006993154291732491	Andrena    thaspii
16	0.006982622432859399	Blera    nigripes
0	0.006908899420747762	Acmaeopsoides    rufula
92	0.006908899420747762	Temnostoma    barberi
28	0.006898367561874671	Chalcosyrphus    curvarius
85	0.00688783570300158	Sphaerophoria    longipilosa
10	0.006877303844128489	Andrena    wilkella
32	0.006866771985255398	Cheilosia    pallipes
88	0.006856240126382306	Syritta    pipiens
2	0.006845708267509215	Ancistrocerus    sp.
45	0.006845708267509215	Eupyses    vestris
59	0.006845708267509215	Judolia    montivagans
91	0.006814112690889942	Temnostoma    balyras
44	0.0067825171142706685	Eudasyphora    cyanicolor
78	0.0067825171142706685	Pieris    napi
9	0.006750921537651396	Andrena    wheeleri
23	0.006729857819905213	Cantharis    sp.
13	0.006708794102159031	Anthonomus    sp.
27	0.006708794102159031	Celastrina    argiolus
29	0.00669826224328594	Chalcosyrphus    inarmatus
53	0.006687730384412849	Halictus    confusus
37	0.006635071090047393	Dalopius    sp.
64	0.006635071090047393	Nomada    cuneata
87	0.006624539231174302	Sphecodes    sp.
7	0.006614007372301211	Andrena    sigmundi
35	0.0066034755134281205	Cheilosia    tristis
52	0.006592943654555029	Fannia    ungulata
60	0.006592943654555029	Lygus    refidorsus
22	0.006571879936808847	Bombylius    pigmaeus
73	0.006550816219062665	Passaloecus    sp.
70	0.006540284360189574	Osmia    pumila
79	0.006540284360189574	Poanes    hobomok
100	0.006529752501316482	Xylota    sp.
63	0.0065086887835703	Melanostoma    sp.
82	0.0065086887835703	Rhopalum    sp.
90	0.006487625065824118	Temnostoma    alternans
6	0.006466561348077935	Andrena    rufosignata
57	0.006466561348077935	Hylaeus    ellipticus
94	0.006424433912585572	Trachysida    aspera
58	0.006413902053712481	Hylaeus    stevensi
97	0.006392838335966298	Vespula    arenaria
34	0.006361242759347025	Cheilosia    slossonae
68	0.006350710900473934	Osmia    lignaria
25	0.006329647182727751	Carposcalis    obscura
93	0.006287519747235387	Thamnotettix    confinis
74	0.006234860452869932	Pegohylemyia    fugax
43	0.006213796735123749	Eremomyioides    setosa
15	0.006192733017377567	Blera    confusa
26	0.006171669299631385	Cateres    pennatus
49	0.006161137440758294	Evodinus    monticola
75	0.0061084781463928385	Phalaenophana    pyramusalis
55	0.006003159557661927	Hoplitis    producta
81	0.006003159557661927	Pyrophaena    rosarum
1	0.00592943654555029	Agiotes    stabilis
42	0.001769352290679305	Ephemerella    sp.
