20	0.04106666666666667	Bombus    vagans
40	0.040633333333333334	Dialictus    sp.
84	0.025333333333333333	Sphaerophoria    bifurcata
24	0.025177777777777778	Carposcalis    confusus
48	0.025144444444444445	Eusphalerum    sp.
51	0.02227777777777778	Evylaeus    quebecensis
19	0.021733333333333334	Bombus    terricola
38	0.0217	Dialictus    cressoni
86	0.016622222222222222	Sphaerophoria    sp.
72	0.0166	Parasyrphus    relictus
47	0.01633333333333333	Eusphalerum    phothos
83	0.012611111111111111	Sarcophaga    nearctica
18	0.012444444444444444	Bombus    ternarius
99	0.01241111111111111	Xylota    hinei
76	0.012311111111111111	Phaonia    serva
21	0.012277777777777778	Bombylius    major
77	0.012177777777777777	Pidonia    ruficolis
95	0.012155555555555555	Tropidia    quadrata
69	0.012144444444444444	Osmia    proxima
4	0.011955555555555556	Andrena    miranda
17	0.011844444444444444	Bombus    perplexus
101	0.01181111111111111	Zeraea    americana
41	0.011755555555555556	Eclimus    harrisi
50	0.011722222222222222	Evylaeus    divergens
5	0.011666666666666667	Andrena    nivalis
11	0.0116	Andrena    w-scripta
61	0.011566666666666666	Mallota    posticata
36	0.011544444444444444	Crabro    sp.
67	0.011444444444444445	Orthoneura    pulchella
39	0.0113	Dialictus    imitatus
12	0.011177777777777778	Anthaxia    expansa
62	0.011155555555555556	Melagyna    lasiophthalma
46	0.011033333333333332	Eusphalerum    convexum
54	0.011033333333333332	Halictus    rubicundus
71	0.01101111111111111	Paramyia    nitens
88	0.007666666666666666	Syritta    pipiens
0	0.0075	Acmaeopsoides    rufula
3	0.007466666666666667	Andrena    melanochroa
28	0.0074333333333333335	Chalcosyrphus    curvarius
53	0.0074333333333333335	Halictus    confusus
30	0.007411111111111111	Chalcosyrphus    memorum
89	0.007333333333333333	Syritta    rectus
13	0.007266666666666667	Anthonomus    sp.
6	0.007244444444444445	Andrena    rufosignata
29	0.0072	Chalcosyrphus    inarmatus
96	0.007177777777777778	Tychius    stephensi
33	0.007166666666666667	Cheilosia    sialia
49	0.007166666666666667	Evodinus    monticola
82	0.0071	Rhopalum    sp.
2	0.0070888888888888885	Ancistrocerus    sp.
78	0.0070888888888888885	Pieris    napi
100	0.0070777777777777775	Xylota    sp.
8	0.007011111111111111	Andrena    thaspii
44	0.007011111111111111	Eudasyphora    cyanicolor
66	0.007	Orsodacne    atra
98	0.007	Xylota    bigelowi
23	0.006977777777777778	Cantharis    sp.
37	0.006966666666666667	Dalopius    sp.
65	0.006966666666666667	Nomada    sayi
7	0.006955555555555556	Andrena    sigmundi
60	0.006955555555555556	Lygus    refidorsus
87	0.006944444444444444	Sphecodes    sp.
16	0.006933333333333333	Blera    nigripes
14	0.006922222222222222	Blera    badia
15	0.006888888888888889	Blera    confusa
74	0.006877777777777778	Pegohylemyia    fugax
1	0.006855555555555556	Agiotes    stabilis
80	0.006822222222222223	Psithyrus    sp.
85	0.0068111111111111115	Sphaerophoria    longipilosa
91	0.0068111111111111115	Temnostoma    balyras
31	0.0067777777777777775	Chalcosyrphus    nigra
75	0.0067777777777777775	Phalaenophana    pyramusalis
10	0.006711111111111111	Andrena    wilkella
27	0.006711111111111111	Celastrina    argiolus
90	0.006677777777777778	Temnostoma    alternans
79	0.006666666666666667	Poanes    hobomok
22	0.006655555555555555	Bombylius    pigmaeus
59	0.006655555555555555	Judolia    montivagans
70	0.006588888888888889	Osmia    pumila
73	0.006522222222222222	Passaloecus    sp.
45	0.006511111111111111	Eupyses    vestris
58	0.006488888888888889	Hylaeus    stevensi
68	0.006488888888888889	Osmia    lignaria
56	0.006466666666666667	Hylaeus    basalis
81	0.006422222222222222	Pyrophaena    rosarum
92	0.006355555555555555	Temnostoma    barberi
63	0.006333333333333333	Melanostoma    sp.
93	0.0063	Thamnotettix    confinis
52	0.006277777777777778	Fannia    ungulata
9	0.006233333333333333	Andrena    wheeleri
57	0.006177777777777778	Hylaeus    ellipticus
43	0.006166666666666667	Eremomyioides    setosa
64	0.006166666666666667	Nomada    cuneata
34	0.0061333333333333335	Cheilosia    slossonae
94	0.006111111111111111	Trachysida    aspera
55	0.006055555555555555	Hoplitis    producta
35	0.005977777777777778	Cheilosia    tristis
26	0.005955555555555556	Cateres    pennatus
97	0.005955555555555556	Vespula    arenaria
25	0.005633333333333333	Carposcalis    obscura
32	0.0054444444444444445	Cheilosia    pallipes
42	0.0014222222222222223	Ephemerella    sp.
