105	0.2043888888888889	Cornus    canadensis
108	0.11305555555555556	Maian hemum    canadense
102	0.10597777777777778	Aralia    nudicaulis
107	0.09881111111111111	Linnaea    borealis
104	0.08531111111111112	Clintonia    borealis
110	0.06716666666666667	Oxalis    montana
113	0.05973333333333333	Trillium    undulatum
103	0.05811111111111111	Chimaphila    umbella a
112	0.05536666666666667	Trientalis    borealis
106	0.05435555555555555	Cypripedium    acaule
111	0.05181111111111111	Pyrola    secunda
109	0.04604444444444444	Medeola    virginiana
