40	0.0394914317302377	Dialictus    sp.
20	0.039447208402432286	Bombus    vagans
84	0.02642343836373687	Sphaerophoria    bifurcata
24	0.025749032614704258	Carposcalis    confusus
48	0.024577114427860695	Eusphalerum    sp.
51	0.02127142067440575	Evylaeus    quebecensis
19	0.02122719734660033	Bombus    terricola
38	0.02074074074074074	Dialictus    cressoni
72	0.01709231619679381	Parasyrphus    relictus
47	0.016882255389718076	Eusphalerum    phothos
86	0.016340519624101713	Sphaerophoria    sp.
101	0.012448866777224987	Zeraea    americana
5	0.012360420121614151	Andrena    nivalis
95	0.012271973466003316	Tropidia    quadrata
21	0.012139303482587065	Bombylius    major
54	0.012095080154781647	Halictus    rubicundus
41	0.012084024322830293	Eclimus    harrisi
36	0.01205085682697623	Crabro    sp.
77	0.01205085682697623	Pidonia    ruficolis
17	0.012006633499170813	Bombus    perplexus
99	0.011907131011608623	Xylota    hinei
69	0.011885019347705915	Osmia    proxima
18	0.01187396351575456	Bombus    ternarius
39	0.011807628524046435	Dialictus    imitatus
4	0.01179657269209508	Andrena    miranda
11	0.011763405196241018	Andrena    w-scripta
61	0.011752349364289663	Mallota    posticata
76	0.011674958540630182	Phaonia    serva
50	0.011641791044776119	Evylaeus    divergens
83	0.011553344389165285	Sarcophaga    nearctica
67	0.011498065229408513	Orthoneura    pulchella
62	0.011265892758430072	Melagyna    lasiophthalma
12	0.011177446102819236	Anthaxia    expansa
46	0.011011608623548922	Eusphalerum    convexum
71	0.01080154781647319	Paramyia    nitens
28	0.0077722498618021	Chalcosyrphus    curvarius
27	0.007506909894969597	Celastrina    argiolus
88	0.007495854063018242	Syritta    pipiens
29	0.007473742399115533	Chalcosyrphus    inarmatus
7	0.007418463239358762	Andrena    sigmundi
16	0.00736318407960199	Blera    nigripes
8	0.007341072415699281	Andrena    thaspii
91	0.007341072415699281	Temnostoma    balyras
56	0.007307904919845219	Hylaeus    basalis
90	0.007307904919845219	Temnostoma    alternans
44	0.00728579325594251	Eudasyphora    cyanicolor
53	0.00728579325594251	Halictus    confusus
66	0.00728579325594251	Orsodacne    atra
96	0.00728579325594251	Tychius    stephensi
3	0.007197346600331675	Andrena    melanochroa
33	0.007197346600331675	Cheilosia    sialia
65	0.007197346600331675	Nomada    sayi
98	0.007186290768380321	Xylota    bigelowi
2	0.0071752349364289664	Ancistrocerus    sp.
87	0.007153123272526258	Sphecodes    sp.
37	0.007142067440574903	Dalopius    sp.
80	0.007131011608623549	Psithyrus    sp.
23	0.00710889994472084	Cantharis    sp.
15	0.007053620784964069	Blera    confusa
78	0.007020453289110005	Pieris    napi
89	0.006987285793255943	Syritta    rectus
31	0.006965174129353234	Chalcosyrphus    nigra
59	0.006965174129353234	Judolia    montivagans
6	0.006943062465450525	Andrena    rufosignata
30	0.006932006633499171	Chalcosyrphus    memorum
45	0.006920950801547816	Eupyses    vestris
49	0.006920950801547816	Evodinus    monticola
100	0.006887783305693753	Xylota    sp.
13	0.0068767274737423995	Anthonomus    sp.
60	0.006854615809839691	Lygus    refidorsus
75	0.006821448313985627	Phalaenophana    pyramusalis
68	0.006810392482034273	Osmia    lignaria
73	0.0067993366500829185	Passaloecus    sp.
82	0.006755113322277502	Rhopalum    sp.
85	0.006755113322277502	Sphaerophoria    longipilosa
0	0.006733001658374793	Acmaeopsoides    rufula
92	0.006633499170812604	Temnostoma    barberi
1	0.006622443338861249	Agiotes    stabilis
93	0.006611387506909895	Thamnotettix    confinis
14	0.006567164179104477	Blera    badia
70	0.006556108347153124	Osmia    pumila
32	0.00652294085129906	Cheilosia    pallipes
58	0.006467661691542288	Hylaeus    stevensi
74	0.006412382531785517	Pegohylemyia    fugax
64	0.0064013266998341626	Nomada    cuneata
22	0.00634604754007739	Bombylius    pigmaeus
34	0.00634604754007739	Cheilosia    slossonae
81	0.006279712548369265	Pyrophaena    rosarum
43	0.00626865671641791	Eremomyioides    setosa
63	0.0062465450525152014	Melanostoma    sp.
26	0.006235489220563847	Cateres    pennatus
35	0.006202321724709785	Cheilosia    tristis
10	0.006158098396904367	Andrena    wilkella
57	0.006102819237147596	Hylaeus    ellipticus
52	0.0059480375898286345	Fannia    ungulata
25	0.005925925925925926	Carposcalis    obscura
94	0.005881702598120509	Trachysida    aspera
97	0.005837479270315091	Vespula    arenaria
9	0.005826423438363737	Andrena    wheeleri
79	0.00578220011055832	Poanes    hobomok
55	0.00545052515201769	Hoplitis    producta
42	0.001370923161967938	Ephemerella    sp.
