105	0.20666666666666667	Cornus    canadensis
108	0.11223311546840958	Maian hemum    canadense
102	0.10691721132897604	Aralia    nudicaulis
107	0.09564270152505447	Linnaea    borealis
104	0.085599128540305	Clintonia    borealis
110	0.06582788671023965	Oxalis    montana
113	0.05994553376906318	Trillium    undulatum
103	0.059586056644880175	Chimaphila    umbella a
106	0.05505446623093682	Cypripedium    acaule
112	0.054052287581699346	Trientalis    borealis
111	0.05218954248366013	Pyrola    secunda
109	0.046416122004357296	Medeola    virginiana
