20	0.04058386411889597	Bombus    vagans
40	0.04032908704883227	Dialictus    sp.
84	0.025743099787685776	Sphaerophoria    bifurcata
24	0.025583864118895967	Carposcalis    confusus
48	0.02464968152866242	Eusphalerum    sp.
19	0.022048832271762207	Bombus    terricola
51	0.021932059447983016	Evylaeus    quebecensis
38	0.021719745222929937	Dialictus    cressoni
72	0.01754777070063694	Parasyrphus    relictus
47	0.016231422505307857	Eusphalerum    phothos
86	0.015817409766454352	Sphaerophoria    sp.
17	0.012441613588110403	Bombus    perplexus
99	0.012409766454352442	Xylota    hinei
21	0.012367303609341827	Bombylius    major
95	0.012303609341825903	Tropidia    quadrata
5	0.01227176220806794	Andrena    nivalis
69	0.012261146496815287	Osmia    proxima
67	0.012239915074309979	Orthoneura    pulchella
4	0.012154989384288748	Andrena    miranda
61	0.012144373673036094	Mallota    posticata
101	0.012070063694267516	Zeraea    americana
77	0.012016985138004246	Pidonia    ruficolis
18	0.01197452229299363	Bombus    ternarius
41	0.011910828025477707	Eclimus    harrisi
71	0.011751592356687898	Paramyia    nitens
36	0.011656050955414013	Crabro    sp.
76	0.011475583864118895	Phaonia    serva
46	0.011401273885350319	Eusphalerum    convexum
83	0.011401273885350319	Sarcophaga    nearctica
54	0.011316348195329087	Halictus    rubicundus
11	0.011284501061571126	Andrena    w-scripta
62	0.011061571125265393	Melagyna    lasiophthalma
39	0.011040339702760084	Dialictus    imitatus
50	0.011040339702760084	Evylaeus    divergens
12	0.010881104033970275	Anthaxia    expansa
7	0.0074946921443736735	Andrena    sigmundi
23	0.007484076433121019	Cantharis    sp.
85	0.007420382165605095	Sphaerophoria    longipilosa
28	0.00737791932059448	Chalcosyrphus    curvarius
30	0.007356687898089172	Chalcosyrphus    memorum
8	0.007335456475583864	Andrena    thaspii
33	0.007335456475583864	Cheilosia    sialia
91	0.007282377919320594	Temnostoma    balyras
92	0.007239915074309979	Temnostoma    barberi
27	0.007218683651804671	Celastrina    argiolus
37	0.007208067940552017	Dalopius    sp.
89	0.007208067940552017	Syritta    rectus
60	0.007186836518046709	Lygus    refidorsus
31	0.007154989384288747	Chalcosyrphus    nigra
53	0.007144373673036094	Halictus    confusus
66	0.0071019108280254775	Orsodacne    atra
16	0.00708067940552017	Blera    nigripes
100	0.007070063694267516	Xylota    sp.
13	0.0070382165605095545	Anthonomus    sp.
80	0.0070382165605095545	Psithyrus    sp.
78	0.0070276008492569	Pieris    napi
96	0.006963906581740976	Tychius    stephensi
15	0.006942675159235669	Blera    confusa
49	0.006932059447983015	Evodinus    monticola
6	0.006857749469214437	Andrena    rufosignata
59	0.006857749469214437	Judolia    montivagans
0	0.006825902335456476	Acmaeopsoides    rufula
29	0.006825902335456476	Chalcosyrphus    inarmatus
43	0.006825902335456476	Eremomyioides    setosa
3	0.006804670912951167	Andrena    melanochroa
98	0.006804670912951167	Xylota    bigelowi
14	0.006762208067940552	Blera    badia
82	0.006762208067940552	Rhopalum    sp.
44	0.006740976645435244	Eudasyphora    cyanicolor
88	0.006698513800424628	Syritta    pipiens
26	0.0066772823779193205	Cateres    pennatus
56	0.006666666666666667	Hylaeus    basalis
65	0.006666666666666667	Nomada    sayi
87	0.006666666666666667	Sphecodes    sp.
90	0.006666666666666667	Temnostoma    alternans
22	0.0065817409766454355	Bombylius    pigmaeus
9	0.006539278131634819	Andrena    wheeleri
34	0.006518046709129512	Cheilosia    slossonae
64	0.006496815286624204	Nomada    cuneata
25	0.006475583864118896	Carposcalis    obscura
73	0.006475583864118896	Passaloecus    sp.
2	0.006464968152866242	Ancistrocerus    sp.
58	0.00643312101910828	Hylaeus    stevensi
74	0.00643312101910828	Pegohylemyia    fugax
81	0.006401273885350318	Pyrophaena    rosarum
57	0.006390658174097665	Hylaeus    ellipticus
55	0.00638004246284501	Hoplitis    producta
52	0.006358811040339703	Fannia    ungulata
94	0.0063481953290870485	Trachysida    aspera
1	0.006305732484076433	Agiotes    stabilis
70	0.006305732484076433	Osmia    pumila
35	0.006231422505307856	Cheilosia    tristis
10	0.0062208067940552015	Andrena    wilkella
79	0.006210191082802548	Poanes    hobomok
97	0.006178343949044586	Vespula    arenaria
75	0.0061571125265392785	Phalaenophana    pyramusalis
45	0.006093418259023355	Eupyses    vestris
63	0.0060828025477707	Melanostoma    sp.
93	0.00599787685774947	Thamnotettix    confinis
68	0.005912951167728238	Osmia    lignaria
32	0.0057006369426751595	Cheilosia    pallipes
42	0.0015711252653927814	Ephemerella    sp.
