40	0.01264042886158559	Egypt
61	0.012038757366896413	India
62	0.011605234242333434	Indonesia
130	0.011594579296107615	Tanzania
74	0.011410282023107914	Kyrgyzstan
114	0.011164552325774981	Senegal
72	0.010991242966070656	Kenya
21	0.010977091865614491	Bulgaria
31	0.010953617687210735	Colombia
52	0.01067758798654813	Greece
102	0.010490626976991976	Pakistan
25	0.0101256950687577	Cameroon
77	0.010113541770718876	Lebanon
80	0.010057270335963773	Lithuania
43	0.009809709319748276	Estonia
82	0.009633236772883162	Madagascar
49	0.009577631272267172	Georgia
34	0.009494223021343189	Croatia
140	0.009480571371491359	Uruguay
94	0.009394832351080478	Netherlands
1	0.009308260912995706	Albania
17	0.009239170246062665	Bolivia
133	0.00916958012852529	Tunisia
111	0.009079845503279725	Russia
26	0.009026404288615855	Canada
105	0.008935670762161622	Peru
124	0.008890220757167116	Sudan
92	0.008863749875137349	Mozambique
132	0.008670628974794392	Togo
145	0.008662970732194585	Yemen
139	0.00864798721406453	UnitedKingdom
95	0.00860603336330037	NewZealand
141	0.008585722372057403	USA
147	0.008573735557553358	Zimbabwe
18	0.008560083907701528	BosniaHerzegovina
137	0.008498318516298738	Ukraine
138	0.008403089934405488	UnitedArabEmirates
118	0.008288216295408385	Slovakia
76	0.00825608497319615	Latvia
35	0.008120400892351746	Cyprus
110	0.008084939899443946	Romania
32	0.008076948689774582	Congo
9	0.00807178770019645	Azerbaijan
13	0.00806146572104019	Belgium
103	0.008041654180401559	Panama
15	0.008020344287949921	Benin
39	0.007997702527220058	Ecuador
67	0.007888655811940199	Italy
7	0.00781207338594213	Australia
121	0.007808244264642227	SouthAfrica
91	0.007761628874904272	Morocco
136	0.007719508540605334	Uganda
123	0.0076986980987580325	Spain
96	0.007687377218393101	Nicaragua
115	0.007651583258415743	Serbia
107	0.007630772816568441	Poland
44	0.007563014017913629	Ethiopia
144	0.007316451902906802	Vietnam
54	0.007252189258482336	Guatemala
97	0.0072352079379349385	Niger
42	0.007234209036726268	Eritrea
68	0.007212066726600739	IvoryCoast
100	0.0071489694669197214	Norway
70	0.007090866713282056	Jordan
51	0.006963007358572237	Ghana
83	0.006958179336063663	Malawi
71	0.006897079878799986	Kazakhstan
37	0.00687060899677022	DemocraticRepublicCongo
2	0.006657510072253854	Algeria
36	0.0066155562214896945	CzechRepublic
108	0.006583924349881797	Portugal
81	0.006576432590816768	Macedonia
38	0.0065639463257083875	Denmark
143	0.006562780940964939	Venezuela
113	0.006537142476609063	SaudiArabia
46	0.006530316651683149	France
14	0.006482369393666966	Belize
63	0.006478040821762727	Iran
73	0.0064201045516598405	Kuwait
89	0.006418772683381614	Mongolia
12	0.006409116638364466	Belarus
19	0.006398128725069091	Brazil
22	0.006356507841374488	BurkinaFaso
126	0.006350514434122465	Sweden
109	0.006312722671727766	Qatar
10	0.006295907834715147	Bahrain
122	0.0062862517896979985	SouthKorea
0	0.006273266073985283	Afghanistan
134	0.006175706722605134	Turkey
88	0.006113275397063231	Mexico
45	0.006101122099024406	Finland
98	0.00602953417906969	Nigeria
50	0.006021210002330769	Germany
30	0.005972763293710252	China
48	0.00593214131122432	Gambia
116	0.0058898544933906035	SierraLeone
112	0.005874038557586655	Rwanda
8	0.005867379216195518	Austria
41	0.005812273166183864	ElSalvador
66	0.005785302833549762	Israel
104	0.005776812173276063	Paraguay
57	0.005771651183697932	Guyana
106	0.005767489095328472	Philippines
58	0.005735024806046682	Honduras
79	0.005721206672660074	Libya
131	0.0055760330303333	Thailand
75	0.005512269836513169	Laos
93	0.005496953351313555	Nepal
85	0.005469317084540339	Mali
129	0.005427862684380514	Tajikistan
59	0.0054068857589984354	Hungary
101	0.005375253887390537	Oman
11	0.005353777511404122	Bangladesh
146	0.005316152232544201	Zambia
6	0.005278693437219059	Armenia
55	0.005256884094163087	Guinea
119	0.005236406619385342	Slovenia
84	0.0052357406852462296	Malaysia
117	0.005189125295508274	Singapore
23	0.005140179136283422	Burundi
28	0.005138847268005195	Chad
142	0.005041287916625046	Uzbekistan
127	0.005035460992907801	Switzerland
33	0.0049612093363966304	CostaRica
47	0.004947557686544801	Gabon
24	0.004890620317650585	Cambodia
60	0.0048734725135684085	Iceland
86	0.004777577997536044	Malta
29	0.004772417007957913	Chile
135	0.004656045017147804	Turkmenistan
87	0.0045057103852429	Mauritania
56	0.004254653214797057	Guinea-Bissau
125	0.004202876835480971	Suriname
16	0.00408151033862751	Bhutan
20	0.004008257583325009	Brunei
27	0.0039932740651949525	CentralAfricanRepublic
69	0.0039932740651949525	Japan
65	0.0038837278993107583	Ireland
4	0.003464189391669164	Angola
64	0.00343422235540905	Iraq
78	0.0030075250557719843	Liberia
