000 (417.009.000) 07/25 23:30:22 Job submitted from host: <192.168.0.154:9618?addrs=192.168.0.154-9618+[--1]-9618&noUDP&sock=514_23c4_3>
...
001 (417.009.000) 07/25 23:30:23 Job executing on host: <192.168.0.163:9618?addrs=192.168.0.163-9618+[--1]-9618&noUDP&sock=525_af4f_4>
...
005 (417.009.000) 07/25 23:35:46 Job terminated.
	(1) Normal termination (return value 0)
		Usr 0 00:05:21, Sys 0 00:00:00  -  Run Remote Usage
		Usr 0 00:00:00, Sys 0 00:00:00  -  Run Local Usage
		Usr 0 00:05:21, Sys 0 00:00:00  -  Total Remote Usage
		Usr 0 00:00:00, Sys 0 00:00:00  -  Total Local Usage
	0  -  Run Bytes Sent By Job
	0  -  Run Bytes Received By Job
	0  -  Total Bytes Sent By Job
	0  -  Total Bytes Received By Job
...
