SDensity: 2.55
tolerance: 1.0
gamma1:  -10
gamma2:  -10
file1: countriesTest1/g1_m10_g2_m10_2.55_1.txt
file2: countriesTest1/g1_m10_g2_m10_2.55_2.txt
s:  360 2999
convergence reached, number of iterations:  1264
Final error 1:  0.8141112618724559  % 
Final error 2:  0.995732574679943  %
iteration check  1264
