SDensity: 1.8
tolerance: 1.0
gamma1:  -10
gamma2:  -10
file1: countriesTest1/g1_m10_g2_m10_1.8_1.txt
file2: countriesTest1/g1_m10_g2_m10_1.8_2.txt
s:  254 2117
convergence reached, number of iterations:  1605
Final error 1:  0.8905852417302799  % 
Final error 2:  0.9768009768009768  %
iteration check  1605
