SDensity: 0.75
tolerance: 1.0
gamma1:  -10
gamma2:  -10
file1: countriesTest1/g1_m10_g2_m10_0.75_1.txt
file2: countriesTest1/g1_m10_g2_m10_0.75_2.txt
s:  106 882
convergence reached, number of iterations:  3156
Final error 1:  0.7672634271099744  % 
Final error 2:  0.8583690987124464  %
iteration check  3156
