SDensity: 3.15
tolerance: 1.0
gamma1:  -10
gamma2:  -10
file1: countriesTest1/g1_m10_g2_m10_3.15_1.txt
file2: countriesTest1/g1_m10_g2_m10_3.15_2.txt
s:  445 3705
convergence reached, number of iterations:  1077
Final error 1:  0.9708737864077669  % 
Final error 2:  0.9823182711198428  %
iteration check  1077
