SDensity: 0.15
tolerance: 1.0
gamma1:  -10
gamma2:  -10
file1: countriesTest1/g1_m10_g2_m10_0.15_1.txt
file2: countriesTest1/g1_m10_g2_m10_0.15_2.txt
s:  22 177
convergence reached, number of iterations:  13446
Final error 1:  0.851581508515815  % 
Final error 2:  0.9749303621169917  %
iteration check  13446
