SDensity: 4.95
tolerance: 1.0
gamma1:  -10
gamma2:  -10
file1: countriesTest1/g1_m10_g2_m10_4.95_1.txt
file2: countriesTest1/g1_m10_g2_m10_4.95_2.txt
s:  698 5822
convergence reached, number of iterations:  750
Final error 1:  0.7525870178739417  % 
Final error 2:  0.9140767824497258  %
iteration check  750
