SDensity: 1.5
tolerance: 1.0
gamma1:  -10
gamma2:  -10
file1: countriesTest1/g1_m10_g2_m10_1.5_1.txt
file2: countriesTest1/g1_m10_g2_m10_1.5_2.txt
s:  212 1764
convergence reached, number of iterations:  1692
Final error 1:  0.9689922480620154  % 
Final error 2:  0.9456264775413712  %
iteration check  1692
