668	0.0019397420784208908	4800
595	0.001918112138876572	3923
524	0.001908069666945281	3401
959	0.0018475573360772456	7310
958	0.0017824100181639993	7309
606	0.001768762556308655	4008
306	0.0017548575951730214	1905
511	0.0017533125994912844	3209
895	0.0017502226081278103	7010
313	0.0017494501102869417	2007
288	0.0017453301218023096	1601
957	0.0017270476729017543	7308
866	0.0017267901736214648	6810
1009	0.0017255026772200171	7612
974	0.0017229276844171221	7325
685	0.0017054177333574352	4911
610	0.0016951177621458548	4012
510	0.0016873927837371694	3208
876	0.001686620285896301	6905
302	0.0016825002974116688	1806
1013	0.0016729728240409568	7616
1142	0.00166602034347314	8481
614	0.0016600978600264812	4016
753	0.0016564928701024281	5602
779	0.0016541753765798224	5903
597	0.0016531453794586643	3925
523	0.0016528878801783749	3307
607	0.0016449054024894	4009
672	0.0016369229248004251	4811
1062	0.0016366654255201357	8309
892	0.001622245465823923	7007
1096	0.0016194129737407384	8432
1001	0.0016160654830969748	7604
1157	0.0016158079838166852	8512
975	0.0016150354859758168	7326
516	0.0016142629881349482	3214
603	0.0016114304960517635	4005
392	0.001609628001089737	2621
1081	0.0016021605219613412	8417
1207	0.001601645523400762	8708
594	0.001598040533476709	3922
1146	0.0015977830341964193	8487
1097	0.0015954655406738138	8433
999	0.0015867105651439703	7602
497	0.0015836205737804962	3006
1141	0.0015813030802578907	8480
320	0.0015756380960915213	2105
1156	0.0015692006140842836	8511
1172	0.00156585312344052	8530
319	0.0015612181363953087	2104
267	0.00155529565294865	1501
1083	0.0015519481623048864	8419
590	0.0015401031954115688	3917
781	0.0015388156990101213	5905
648	0.0015354682083663577	4415
512	0.001535210709086068	3210
323	0.0015313482198817253	2202
864	0.0015277432299576723	6808
525	0.0015259407349956457	3402
1095	0.0015259407349956457	8431
771	0.0015243957393139087	5806
572	0.001522593244351882	3824
171	0.0015177007580263813	401
1198	0.0015158982630643547	8608
565	0.0015148682659431967	3816
521	0.0015112632760191436	3305
1321	0.0015071432875345112	9704
862	0.0015055982918527743	6806
947	0.0015037957968907477	7227
1203	0.001501993301928721	8704
1102	0.0014958133192017728	8438
873	0.0014950408213609042	6902
608	0.001490920832876272	4010
1135	0.0014829383551872972	8474
787	0.001480878360944981	5911
1008	0.001478818366702665	7611
948	0.0014785608674223755	7228
528	0.0014770158717406386	3405
1303	0.0014749558774983223	9604
863	0.0014736683810968748	6807
520	0.0014716083868545587	3304
177	0.0014695483926122426	407
1100	0.001467745897650216	8436
173	0.001466200901968479	403
558	0.0014613084156429783	3809
754	0.0014607934170823992	5603
1254	0.0014569309278780567	9028
176	0.0014510084444313979	406
1067	0.0014494634487496607	8403
786	0.001444055963863581	5910
359	0.0014368459840154748	2517
455	0.0014363309854548956	2852
835	0.0014347859897731587	6308
1215	0.0014347859897731587	8716
391	0.001430923500568816	2620
1005	0.0014262885135236047	7608
1007	0.0014260310142433152	7610
582	0.001420881028637525	3909
936	0.0014152160444711557	7215
581	0.0014110960559865235	3908
1060	0.0014105810574259446	8307
752	0.001410323558145655	5601
407	0.0014095510603047865	2715
1119	0.00140774856534276	8455
1072	0.0014064610689413122	8408
1080	0.0014064610689413122	8416
1188	0.0014036285768581278	8546
971	0.00140234108045668	7322
1200	0.0014010535840552325	8701
1043	0.0013935861049268368	8205
1140	0.0013925561078056788	8479
937	0.0013915261106845207	7217
469	0.0013884361193210466	2914
1147	0.0013874061221998885	8501
533	0.0013861186257984408	3503
1021	0.00138122613947294	7907
1187	0.0013796811437912031	8545
604	0.0013778786488291765	4006
1289	0.0013760761538671499	9402
1293	0.0013747886574657024	9406
162	0.0013716986661022283	209
421	0.0013709261682613597	2813
1078	0.001367063679057017	8414
903	0.00136551868337528	7019
676	0.0013606261970497793	4902
963	0.0013572787064060157	7314
1223	0.001356506208565147	8903
318	0.001355991210004568	2103
557	0.0013552187121636996	3808
1076	0.001354446214322831	8412
1055	0.0013541887150425415	8302
836	0.0013526437193608044	6309
1092	0.0013508412243987777	8428
886	0.0013503262258381988	7001
1101	0.0013490387294367511	8437
1073	0.0013477512330353036	8409
475	0.0013464637366338561	2920
522	0.001344918740952119	3306
1089	0.001343888743830961	8425
1283	0.001342343748149224	9303
446	0.0013415712503083554	2839
156	0.0013407987524674868	203
1006	0.0013405412531871973	7609
535	0.0013387387582251707	3506
956	0.0013387387582251707	7307
1016	0.0013364212647025652	7806
280	0.0013353912675814071	1514
675	0.0013351337683011177	4901
969	0.00133384627189967	7320
1003	0.0013325587754982225	7606
161	0.001332301276217933	208
1004	0.0013317862776573539	7607
671	0.0013307562805361958	4810
643	0.0013286962862938797	4410
973	0.001323803799968379	7324
1115	0.001322258804286642	8451
949	0.0013181388158020099	7229
561	0.0013168513194005624	3812
729	0.0013142763265976672	5402
981	0.0013142763265976672	7407
1144	0.0013140188273173777	8483
730	0.001303718856105797	5403
1149	0.0013034613568255076	8503
1143	0.001301143863302902	8482
728	0.0012985688705000069	5401
953	0.0012977963726591385	7304
731	0.0012975388733788488	5404
942	0.0012975388733788488	7222
424	0.0012965088762576908	2816
1074	0.0012965088762576908	8410
679	0.0012962513769774013	4905
925	0.0012903288935307425	7204
1197	0.001289041397129295	8607
740	0.0012874964014475579	5505
414	0.0012851789079249523	2806
423	0.0012844064100840838	2815
1208	0.001280543920879741	8709
342	0.0012800289223191621	2403
1299	0.001278998925198004	9508
1054	0.001277453929516267	8301
575	0.001276938930955688	3902
1180	0.00127590893383453	8538
317	0.0012733339410316348	2102
637	0.0012728189424710558	4404
1193	0.0012710164475090292	8603
284	0.0012661239611835285	1518
1160	0.0012650939640623704	8515
1085	0.0012625189712594754	8421
478	0.0012614889741383174	2923
869	0.0012612314748580277	6813
296	0.0012609739755777383	1704
1077	0.0012602014777368697	8413
493	0.0012591714806157116	2939
861	0.0012589139813354222	6805
1206	0.0012586564820551327	8707
1284	0.0012550514921310795	9304
411	0.0012529914978887634	2803
944	0.0012519615007676053	7224
1259	0.0012491290086844207	9033
514	0.0012465540158815257	3212
154	0.0012455240187603676	201
199	0.0012444940216392096	706
932	0.0012432065252377619	7211
860	0.0012421765281166038	6804
951	0.0012393440360334194	7302
952	0.0012388290374728403	7303
341	0.0012385715381925508	2402
996	0.0012383140389122613	7507
891	0.0012380565396319717	7006
1216	0.001234194050427629	8801
904	0.001233164053306471	7020
1099	0.0012300740619429968	8435
1189	0.0012280140677006807	8547
507	0.0012267265712992332	3205
1045	0.0012262115727386543	8207
532	0.0012259540734583646	3502
782	0.0012244090777766277	5906
943	0.0012244090777766277	7223
432	0.0012223490835343116	2824
741	0.0012200315900117058	5506
314	0.0012179715957693898	2008
1266	0.0012161691008073633	9107
1226	0.0012148816044059156	8906
790	0.0012123066116030206	6003
1204	0.0012117916130424415	8705
513	0.001211019115201573	3211
364	0.0012079291238380988	2522
1070	0.0012063841281563618	8406
526	0.0012035516360731772	3403
242	0.0012027791382323086	1103
1098	0.0012025216389520191	8434
725	0.0011996891468688345	5309
755	0.0011996891468688345	5604
504	0.0011968566547856498	3202
680	0.0011963416562250709	4906
1063	0.0011963416562250709	8310
1105	0.0011963416562250709	8441
508	0.0011958266576644918	3206
509	0.0011955691583842023	3207
865	0.0011955691583842023	6809
562	0.0011932516648615968	3813
1106	0.0011924791670207282	8442
756	0.0011919641684601493	5605
215	0.0011906766720587015	808
580	0.0011881016792558066	3907
1202	0.001187329181414938	8703
453	0.0011868141828543588	2847
682	0.0011855266864529113	4908
931	0.0011847541886120428	7210
315	0.0011844966893317533	2009
1280	0.0011844966893317533	9209
307	0.0011829516936500163	2001
350	0.0011824366950894372	2508
480	0.0011821791958091478	2925
577	0.0011806342001274106	3904
339	0.0011801192015668317	2309
1068	0.001179861702286542	8404
987	0.0011749692159610415	7413
347	0.0011747117166807518	2505
982	0.0011744542174004623	7408
1178	0.0011729092217187254	8536
470	0.0011687892332340932	2915
940	0.001167759236112935	7220
285	0.00116518424331004	1520
336	0.0011633817483480133	2306
1040	0.0011628667497874344	8202
1258	0.0011628667497874344	9032
305	0.0011613217541056973	1904
546	0.0011608067555451183	3704
1114	0.0011602917569845392	8450
875	0.0011584892620225126	6904
1285	0.0011584892620225126	9305
624	0.0011577167641816442	4115
1122	0.0011559142692196176	8459
466	0.0011548842720984596	2911
1056	0.0011543692735378804	8303
967	0.0011535967756970118	7318
247	0.0011507642836138274	1108
1000	0.0011507642836138274	7603
628	0.0011497342864926693	4205
789	0.0011487042893715113	6002
172	0.0011484467900912216	402
986	0.0011479317915306427	7412
1086	0.0011474167929700636	8422
563	0.0011466442951291952	3814
593	0.001144584300886879	3920
419	0.0011440693023263	2811
1235	0.001142009308083984	9007
1090	0.0011412368102431153	8426
961	0.0011389193167205098	7312
678	0.0011368593224781937	4904
1046	0.0011368593224781937	8208
441	0.0011355718260767462	2833
619	0.001134026830395009	4103
749	0.0011301643411906663	5514
785	0.0011299068419103769	5909
699	0.0011291343440695083	5107
1082	0.0011270743498271922	8418
1145	0.0011268168505469028	8486
174	0.0011265593512666133	404
241	0.0011263018519863236	1102
964	0.0011257868534257447	7315
881	0.0011244993570242972	6910
934	0.001123984358463718	7213
425	0.0011232118606228495	2817
1138	0.0011216668649411126	8477
897	0.0011196068706987965	7013
989	0.0011193493714185068	7418
874	0.0011178043757367698	6903
890	0.0011160018807747432	7005
1112	0.0011152293829338746	8448
1126	0.0011136843872521377	8463
484	0.0011131693886915585	2929
1136	0.0011131693886915585	8475
985	0.0011126543901309796	7411
576	0.0011123968908506902	3903
770	0.001111881892290111	5805
933	0.0011116243930098216	7212
287	0.0011111093944492425	1522
362	0.0011093068994872158	2520
970	0.0011093068994872158	7321
498	0.0011090494002069264	3101
310	0.0011082769023660578	2004
602	0.0011072469052448998	4004
666	0.0011059594088434523	4706
893	0.0011044144131617153	7008
1020	0.0011044144131617153	7905
506	0.0011033844160405573	3204
436	0.0011026119181996887	2828
471	0.0011015819210785306	2916
152	0.001098749428995346	105
551	0.0010984919297150565	3802
1113	0.0010984919297150565	8449
644	0.0010979769311544774	4411
404	0.0010974619325938985	2712
534	0.0010974619325938985	3505
600	0.0010961744361924508	4002
673	0.0010951444390712927	4823
1201	0.0010946294405107138	8702
515	0.0010928269455486872	3213
612	0.0010920544477078186	4014
722	0.001087676959942897	5306
1155	0.0010871619613823178	8509
316	0.0010853594664202914	2101
1237	0.0010848444678597123	9010
747	0.0010838144707385543	5512
398	0.0010802094808145012	2706
1118	0.0010802094808145012	8454
1286	0.001079694482253922	9306
311	0.0010732570002466844	2005
792	0.0010732570002466844	6005
736	0.0010729995009663947	5501
990	0.0010696520103226311	7419
980	0.001068622013201473	7406
742	0.0010673345168000256	5507
163	0.0010670770175197361	210
735	0.001066562018959157	5408
843	0.0010657895211182884	6406
592	0.0010647595239971304	3919
1129	0.0010647595239971304	8468
197	0.0010642445254365515	704
467	0.0010596095383913402	2912
1282	0.0010583220419898927	9302
337	0.001056519547027866	2307
183	0.0010560045484672871	504
988	0.0010549745513461289	7415
813	0.0010547170520658394	6203
1171	0.0010521420592629444	8529
1088	0.0010516270607023653	8424
1124	0.0010516270607023653	8461
609	0.0010508545628614967	4011
536	0.0010498245657403387	3507
638	0.0010482795700586017	4405
1061	0.0010475070722177331	8308
946	0.0010467345743768645	7226
887	0.0010459620765359962	7002
960	0.001045447077975417	7311
578	0.0010451895786951276	3905
1091	0.001044417080854259	8427
479	0.0010418420880513638	2924
669	0.0010408120909302058	4802
1159	0.0010382370981273108	8514
955	0.0010374646002864422	7306
916	0.0010366921024455736	7112
1121	0.0010351471067638366	8458
343	0.0010348896074835472	2501
871	0.001034374608922968	6815
1064	0.001032829613241231	8311
465	0.0010305121197186253	2910
716	0.0010289671240368884	5211
1103	0.0010287096247565987	8439
880	0.0010284521254763093	6909
244	0.0010274221283551512	1105
1250	0.0010269071297945723	9024
1307	0.0010269071297945723	9608
559	0.0010253621341128351	3810
1290	0.001024332136991677	9403
178	0.0010227871413099401	408
697	0.0010207271470676238	5105
1139	0.0010189246521055974	8478
198	0.0010155771614618336	705
495	0.0010155771614618336	2941
900	0.0010148046636209653	7016
542	0.0010135171672195176	3606
371	0.001013259667939228	2530
857	0.0010083671816137273	6801
348	0.0010078521830531484	2506
1186	0.0010070796852122798	8544
1044	0.0010065646866517007	8206
239	0.0010063071873714113	1008
289	0.0010057921888108323	1602
1177	0.0010042471931290952	8535
564	0.0010039896938488057	3815
921	0.0010032171960079371	7118
220	0.0010027021974473582	813
705	0.0010016722003262002	5113
1185	0.001000127204644463	8543
1205	0.001000127204644463	8706
1288	0.0009998697053641736	9401
1127	0.0009970372132809889	8465
294	0.0009965222147204098	1702
1257	0.0009962647154401203	9031
918	0.0009960072161598308	7114
1192	0.0009960072161598308	8602
882	0.0009926597255160673	6911
776	0.0009924022262357776	5811
664	0.0009918872276751987	4704
1128	0.0009913722291146196	8467
1181	0.000990084732713172	8539
420	0.0009882822377511454	2812
1110	0.0009882822377511454	8446
293	0.0009872522406299874	1701
494	0.000986994741349698	2940
1065	0.0009833897514256447	8401
867	0.0009815872564636183	6811
777	0.0009810722579030391	5901
579	0.0009802997600621706	3906
473	0.000980042260781881	2918
1125	0.000980042260781881	8462
324	0.0009777247672592756	2203
1212	0.0009777247672592756	8713
1252	0.000976437270857828	9026
264	0.0009754072737366699	1302
1292	0.0009730897802140643	9405
738	0.0009718022838126168	5503
751	0.0009705147874111692	5516
744	0.0009699997888505901	5509
203	0.0009684547931688531	710
205	0.000967939794608274	712
1211	0.000967939794608274	8712
569	0.0009676822953279846	3820
460	0.0009671672967674056	2905
962	0.000966394798926537	7313
877	0.0009656223010856685	6906
261	0.0009648498032447999	1213
272	0.0009630473082827733	1506
1050	0.0009622748104419048	8212
1104	0.0009604723154798782	8440
950	0.0009596998176390097	7301
519	0.0009566098262755356	3303
945	0.0009566098262755356	7225
696	0.000956352326995246	5104
368	0.000955322329874088	2526
941	0.000954807331313509	7221
695	0.0009540348334726405	5103
351	0.0009535198349120615	2509
1219	0.0009535198349120615	8804
218	0.0009530048363514823	811
322	0.0009530048363514823	2201
216	0.0009519748392303243	809
938	0.0009514598406697453	7218
808	0.0009499148449880082	6115
568	0.0009473398521851131	3819
939	0.0009455373572230866	7219
715	0.0009450223586625076	5210
217	0.0009445073601019286	810
543	0.0009434773629807705	3701
935	0.000943219863700481	7214
153	0.0009421898665793229	106
773	0.0009414173687384543	5808
898	0.0009414173687384543	7014
994	0.0009409023701778753	7505
527	0.0009406448708975858	3404
584	0.0009403873716172963	3911
1148	0.0009401298723370068	8502
474	0.0009398723730567173	2919
329	0.0009388423759355592	2208
517	0.0009370398809735327	3215
583	0.0009367823816932431	3910
1249	0.0009365248824129537	9023
332	0.000934207388890348	2302
184	0.000932147394648032	505
175	0.0009306023989662949	405
757	0.0009287999040042683	5606
1066	0.0009262249112013732	8402
1094	0.0009254524133605047	8430
234	0.0009223624219970306	1003
585	0.000921589924156162	3912
496	0.0009200449284744249	2942
483	0.0009197874291941355	2928
179	0.0009195299299138459	409
1194	0.0009179849342321088	8604
1305	0.0009177274349518193	9606
1218	0.0009174699356715298	8803
243	0.0009169549371109508	1104
772	0.0009166974378306612	5807
1026	0.0009164399385503718	8101
539	0.0009161824392700822	3603
560	0.0009141224450277661	3811
1042	0.0009133499471868976	8204
571	0.0009130924479066081	3823
879	0.0009123199500657396	6908
1169	0.000910517455103713	8526
530	0.0009087149601416865	3407
416	0.0009081999615811074	2808
983	0.0009063974666190808	7409
589	0.0009056249687782122	3916
531	0.0009022774781344486	3501
312	0.0009012474810132906	2006
482	0.0009012474810132906	2927
290	0.000900474983172422	1603
321	0.0008997024853315535	2106
615	0.0008997024853315535	4017
570	0.0008981574896498165	3821
698	0.0008971274925286584	5106
282	0.0008968699932483689	1516
822	0.0008968699932483689	6212
814	0.0008930075040440262	6204
1274	0.0008930075040440262	9201
435	0.0008927500047637367	2827
434	0.0008924925054834471	2826
399	0.0008919775069228681	2707
631	0.0008912050090819996	4302
191	0.0008904325112411311	602
1248	0.000889402514119973	9022
709	0.000887857518438236	5204
248	0.0008873425198776569	1109
827	0.0008873425198776569	6217
620	0.0008870850205973675	4104
717	0.0008847675270747618	5212
537	0.0008839950292338932	3601
646	0.0008834800306733142	4413
878	0.0008770425486660765	6907
587	0.0008698325688179701	3914
160	0.0008690600709771016	207
642	0.000866227578893917	4409
258	0.0008659700796136275	1210
440	0.0008659700796136275	2832
1224	0.0008646825832121799	8904
550	0.0008644250839318905	3801
650	0.0008610775932881268	4417
872	0.0008592750983261001	6901
1302	0.0008579876019246526	9603
920	0.0008574726033640736	7117
1244	0.0008572151040837841	9018
1179	0.0008569576048034946	8537
462	0.0008541251127203099	2907
1306	0.0008536101141597309	9607
330	0.0008528376163188624	2209
759	0.0008520651184779938	5608
185	0.0008505201227962568	506
489	0.0008505201227962568	2935
1038	0.0008464001343116246	8113
1084	0.0008461426350313351	8420
837	0.000845112637910177	6310
1002	0.0008443401400693085	7605
1109	0.0008443401400693085	8445
1161	0.0008438251415087295	8516
1255	0.00084356764222844	9029
490	0.0008415076479861239	2936
588	0.0008404776508649658	3915
459	0.0008371301602212021	2904
1195	0.0008371301602212021	8605
1246	0.0008353276652591756	9020
389	0.0008348126666985966	2618
901	0.000834555167418307	7017
774	0.0008342976681380176	5809
1041	0.0008337826695774386	8203
714	0.0008319801746154119	5209
888	0.0008309501774942539	7003
1253	0.0008306926782139644	9027
354	0.0008296626810928064	2512
684	0.0008294051818125168	4910
842	0.0008294051818125168	6405
954	0.0008283751846913588	7305
327	0.0008281176854110692	2206
193	0.0008273451875702007	604
231	0.0008273451875702007	910
780	0.0008270876882899112	5904
598	0.0008268301890096217	3926
788	0.0008250276940475951	6001
439	0.0008247701947673056	2831
281	0.0008239976969264371	1515
1291	0.0008239976969264371	9404
734	0.0008193627098812259	5407
704	0.0008185902120403574	5112
219	0.0008175602149191994	812
431	0.0008175602149191994	2823
1123	0.0008173027156389098	8460
257	0.0008170452163586203	1209
1311	0.0008160152192374622	9612
325	0.0008136977257148566	2204
1251	0.0008129252278739881	9025
702	0.00081189523075283	5110
713	0.00081189523075283	5208
840	0.0008116377314725406	6403
745	0.000811380232192251	5510
769	0.000811380232192251	5804
221	0.0008085477401090664	814
712	0.0008082902408287769	5207
438	0.0008077752422681979	2830
623	0.0008077752422681979	4114
797	0.0008067452451470398	6104
283	0.0008054577487455922	1517
328	0.0008052002494653027	2207
1117	0.0008021102581018286	8453
149	0.000800307763139802	102
743	0.000800307763139802	5508
639	0.000799792764579223	4406
596	0.0007995352652989335	3924
1210	0.0007987627674580649	8711
750	0.0007974752710566174	5515
1108	0.0007974752710566174	8444
1120	0.0007974752710566174	8457
413	0.0007964452739354594	2805
1233	0.0007956727760945908	9005
739	0.0007954152768143014	5504
821	0.0007954152768143014	6211
1276	0.0007949002782537223	9205
783	0.0007946427789734328	5907
1012	0.0007920677861705377	7615
995	0.0007918102868902481	7506
1319	0.0007918102868902481	9702
926	0.0007915527876099586	7205
1313	0.0007915527876099586	9614
651	0.0007912952883296691	4418
505	0.000790265291208511	3203
344	0.000788720295526774	2502
824	0.0007858878034435894	6214
917	0.0007851153056027208	7113
765	0.0007833128106406943	5705
1011	0.0007833128106406943	7614
858	0.0007825403127998257	6802
1048	0.0007820253142392467	8210
1137	0.0007802228192772201	8476
849	0.0007794503214363516	6507
807	0.0007789353228757726	6114
485	0.000777132827913746	2930
816	0.0007766178293531669	6206
586	0.0007758453315122985	3913
209	0.0007750728336714299	802
194	0.0007745578351108509	701
1058	0.0007743003358305614	8305
746	0.0007735278379896928	5511
566	0.0007732703387094034	3817
443	0.0007717253430276663	2835
811	0.0007714678437473767	6201
429	0.0007701803473459291	2821
357	0.0007688928509444816	2515
1301	0.0007683778523839026	9602
1032	0.0007655453603007179	8107
626	0.0007640003646189809	4202
838	0.0007640003646189809	6401
919	0.0007621978696569544	7115
326	0.0007616828710963753	2205
885	0.0007611678725357963	6914
164	0.0007583353804526116	301
254	0.000756017886930006	1206
278	0.000756017886930006	1512
245	0.0007552453890891375	1106
711	0.0007544728912482689	5206
363	0.0007531853948468214	2521
1272	0.0007516403991650844	9113
1245	0.0007506104020439263	9019
1047	0.0007498379042030577	8209
979	0.0007477779099607417	7405
841	0.0007464904135592941	6404
1315	0.000745975414998715	9616
213	0.0007457179157184256	806
256	0.0007452029171578466	1208
635	0.000744430419316978	4402
148	0.000743915420756399	101
1217	0.0007392804337111878	8802
158	0.0007372204394688717	205
758	0.0007361904423477136	5607
1199	0.0007354179445068451	8609
1213	0.0007346454466659766	8714
1231	0.0007346454466659766	9003
476	0.0007341304481053976	2921
1152	0.0007331004509842395	8506
309	0.00073284295170395	2003
794	0.0007323279531433709	6101
1297	0.0007323279531433709	9506
889	0.0007312979560222129	7004
1033	0.0007312979560222129	8108
703	0.0007305254581813444	5111
1027	0.0007289804624996074	8102
276	0.0007287229632193178	1510
894	0.0007282079646587388	7009
204	0.0007266629689770017	711
1191	0.0007261479704164227	8601
812	0.0007207404855303429	6202
1069	0.0007199679876894744	8405
763	0.0007197104884091849	5703
1241	0.0007184229920077374	9015
356	0.0007176504941668688	2514
911	0.0007171354956062898	7107
502	0.0007166204970457107	3105
458	0.0007158479992048423	2903
1034	0.0007155904999245527	8109
629	0.0007140455042428156	4206
1320	0.0007140455042428156	9703
641	0.0007132730064019471	4408
333	0.000712758007841368	2303
616	0.000712758007841368	4100
405	0.0007125005085610786	2713
691	0.0007125005085610786	5006
538	0.0007096680164778939	3602
415	0.0007083805200764464	2807
1015	0.0007081230207961569	7804
1093	0.0007078655215158674	8429
1263	0.0007073505229552884	9104
555	0.0007068355243947094	3806
246	0.0007058055272735513	1107
883	0.0007058055272735513	6912
233	0.0007052905287129723	1002
766	0.0007047755301523933	5801
552	0.0007037455330312352	3803
617	0.0007014280395086296	4101
764	0.0007009130409480506	5704
1275	0.0007003980423874715	9202
1051	0.0006970505517437079	8213
803	0.0006934455618196547	6110
1010	0.0006913855675773386	7613
358	0.0006898405718956016	2516
1039	0.0006893255733350225	8201
541	0.000689068074054733	3605
1111	0.000689068074054733	8447
397	0.000688553075494154	2705
852	0.000688553075494154	6603
762	0.0006857205834109694	5702
737	0.0006841755877292323	5502
899	0.0006818580942066267	7015
1222	0.0006816005949263372	8902
805	0.0006813430956460477	6112
1317	0.0006808280970854686	9618
468	0.0006803130985248896	2913
647	0.0006782531042825735	4414
1318	0.0006782531042825735	9701
775	0.000677480606441705	5810
253	0.0006759356107599679	1205
196	0.0006754206121993889	703
445	0.0006746481143585204	2837
591	0.0006746481143585204	3918
168	0.0006702706265935987	305
166	0.0006700131273133092	303
301	0.0006689831301921511	1805
1057	0.0006689831301921511	8304
367	0.0006687256309118616	2525
150	0.0006676956337907036	103
1024	0.0006676956337907036	8003
1017	0.000666923135949835	7901
447	0.0006651206409878085	2840
784	0.0006625456481849134	5908
202	0.0006615156510637553	709
1265	0.0006615156510637553	9106
481	0.0006607431532228867	2926
930	0.0006599706553820183	7209
923	0.0006571381632988336	7202
444	0.000655335668336807	2836
308	0.0006522456769733328	2002
760	0.0006514731791324644	5609
165	0.0006504431820113063	302
815	0.0006501856827310168	6205
487	0.0006499281834507273	2933
299	0.0006483831877689902	1803
1049	0.0006473531906478322	8211
718	0.000645808194966095	5301
518	0.000645293196405516	3302
832	0.0006450356971252265	6305
929	0.0006445206985646475	7208
189	0.000644263199284358	511
275	0.000644263199284358	1509
1153	0.0006427182036026209	8507
829	0.0006424607043223314	6302
195	0.0006398857115194363	702
896	0.0006398857115194363	7011
400	0.0006383407158376993	2708
724	0.0006380832165574097	5308
1281	0.0006380832165574097	9301
1154	0.0006370532194362517	8508
791	0.0006367957201559622	6004
291	0.0006360232223150936	1604
649	0.0006355082237545146	4416
820	0.000635250724474225	6210
477	0.000633705728792488	2922
1256	0.0006316457345501719	9030
966	0.0006313882352698824	7317
1107	0.0006303582381487244	8443
825	0.0006272682467852503	6215
394	0.0006267532482246713	2702
378	0.0006262382496640922	2607
1151	0.0006249507532626446	8505
801	0.0006228907590203285	6108
851	0.0006223757604597495	6602
159	0.0006213457633385915	206
240	0.0006213457633385915	1101
464	0.0006205732654977229	2909
778	0.0006203157662174334	5902
303	0.0006198007676568544	1902
211	0.0006182557719751174	804
548	0.0006161957777328013	3706
1270	0.0006151657806116432	9111
1014	0.0006149082813313537	7801
1271	0.0006146507820510642	9112
499	0.0006128482870890376	3102
1079	0.0006102732942861425	8415
1242	0.0006102732942861425	9016
1214	0.0006069258036423788	8715
1190	0.0006066683043620893	8548
188	0.0006064108050817998	510
1173	0.0006051233086803523	8531
271	0.0006038358122789047	1505
553	0.0006025483158774572	3804
1131	0.0006020333173168782	8470
232	0.0006017758180365886	1001
402	0.0006012608194760096	2710
1247	0.00060100332019572	9021
269	0.0006007458209154305	1503
456	0.000600488321635141	2901
1116	0.000600488321635141	8452
544	0.000599973323074562	3702
621	0.0005994583245139829	4105
767	0.0005992008252336935	5802
395	0.0005948233374687718	2703
689	0.0005932783417870347	5004
719	0.0005922483446658766	5302
1287	0.0005912183475447186	9307
667	0.0005891583533024025	4707
701	0.0005876133576206655	5109
683	0.0005868408597797969	4909
710	0.0005865833604995074	5205
260	0.0005847808655374808	1212
355	0.0005840083676966123	2513
1196	0.0005829783705754543	8606
1312	0.0005829783705754543	9613
1309	0.0005822058727345857	9610
167	0.0005804033777725592	304
360	0.0005793733806514011	2518
1308	0.0005788583820908221	9609
237	0.000577828384969664	1006
640	0.000577828384969664	4407
427	0.0005762833892879269	2819
1236	0.0005760258900076374	9008
1278	0.0005757683907273479	9207
848	0.0005752533921667689	6506
450	0.0005749958928864794	2844
201	0.0005744808943259004	708
830	0.0005742233950456108	6303
1322	0.0005729358986441633	9705
200	0.0005726783993638738	707
625	0.0005724209000835843	4201
463	0.0005716484022427157	2908
212	0.0005711334036821367	805
574	0.0005711334036821367	3901
1175	0.0005688159101595312	8533
262	0.0005685584108792416	1214
1071	0.0005685584108792416	8407
361	0.000567270914477794	2519
222	0.0005670134151975045	901
1220	0.000566755915917215	8805
972	0.0005657259187960569	7323
1052	0.0005652109202354779	8214
545	0.0005631509259931618	3703
547	0.0005623784281522933	3705
768	0.0005623784281522933	5803
554	0.0005618634295917143	3805
913	0.0005610909317508457	7109
274	0.0005608334324705563	1508
674	0.0005608334324705563	4824
1227	0.0005590309375085296	8907
1087	0.0005582584396676612	8423
839	0.0005580009403873716	6402
1243	0.0005577434411070822	9017
408	0.0005574859418267926	2716
928	0.0005559409461450555	7207
349	0.000555683446864766	2507
236	0.0005554259475844765	1005
1268	0.0005546534497436079	9109
810	0.0005538809519027394	6117
633	0.0005523359562210024	4304
1232	0.0005520784569407128	9004
1209	0.0005518209576604234	8710
266	0.0005495034641378177	1404
1228	0.0005489884655772387	8908
1025	0.0005482159677363702	8007
823	0.0005471859706152122	6213
855	0.0005469284713349226	6703
1150	0.0005469284713349226	8504
472	0.0005464134727743436	2917
529	0.0005461559734940541	3406
448	0.0005451259763728961	2841
454	0.0005438384799714485	2849
259	0.0005412634871685534	1211
461	0.0005410059878882638	2906
831	0.0005410059878882638	6304
492	0.0005386884943656583	2938
657	0.0005386884943656583	4503
627	0.0005384309950853687	4203
708	0.0005374009979642107	5203
488	0.0005350835044416051	2934
1221	0.0005350835044416051	8901
833	0.0005330235101992889	6306
636	0.0005325085116387099	4403
870	0.0005325085116387099	6814
800	0.0005317360137978414	6107
834	0.0005301910181161044	6307
457	0.0005296760195555254	2902
396	0.0005271010267526303	2704
187	0.0005265860281920512	508
1028	0.0005260710296314722	8103
632	0.0005157710584198917	4303
265	0.0005149985605790232	1401
997	0.0005149985605790232	7508
365	0.0005126810670564176	2523
452	0.0005116510699352595	2846
844	0.0005111360713746805	6501
1182	0.0005098485749732329	8540
1174	0.0005093335764126539	8532
1075	0.0005088185778520749	8411
806	0.0005067585836097588	6113
549	0.0005057285864886007	3707
978	0.0005044410900871532	7403
688	0.0005034110929659952	5003
295	0.0005028960944054162	1703
1323	0.0005023810958448372	970
733	0.0005005786008828105	5406
611	0.0004972311102390468	4013
491	0.0004969736109587574	2937
908	0.0004964586123981784	7104
1225	0.0004964586123981784	8905
1240	0.0004956861145573098	9014
268	0.0004954286152770203	1502
653	0.0004954286152770203	4420
1300	0.0004931111217544147	9601
379	0.00048796113614862446	2608
799	0.00048538614334572936	6106
1238	0.00048203865270196567	9011
802	0.00048178115342167616	6109
630	0.00048126615486109714	4301
230	0.0004797211591793601	909
486	0.00047920616061878106	2932
700	0.000478176163497623	5108
652	0.00047688866709617546	4419
1059	0.0004748286728538594	8306
965	0.00047457117357356987	7316
300	0.0004691636886874901	1804
727	0.00046272620668025234	5311
1230	0.00046272620668025234	9002
263	0.0004598937145970677	1301
226	0.0004580912196350411	905
573	0.0004580912196350411	3825
501	0.00045731872179417257	3104
634	0.0004503662412263558	4401
273	0.00044933624410519775	1507
340	0.00044779124842346063	2401
433	0.0004470187505825921	2825
663	0.00044573125418114455	4703
690	0.00044315626137824944	5005
417	0.0004416112656965124	2809
658	0.00044109626713593336	4504
1310	0.0004400662700147753	9611
567	0.0004392937721739068	3818
622	0.00043800627577245924	4106
422	0.0004362037808104326	2814
670	0.0004356887822498536	4807
214	0.0004315687937652214	807
1036	0.0004305387966440634	8111
796	0.00043028129736377387	6103
235	0.0004282213031214578	1004
252	0.00042719130600029975	1204
304	0.00042667630743972073	1903
692	0.00042667630743972073	5007
270	0.0004264188081594312	1504
410	0.0004261613088791417	2802
412	0.00042410131463682557	2804
170	0.0004225563189550885	307
1023	0.0004225563189550885	8002
795	0.0004220413203945095	6102
181	0.00042152632183393047	501
694	0.00042101132327335145	5102
426	0.0004204963247127724	2818
384	0.0004179213319098773	2613
1183	0.0004168913347887193	8541
406	0.00041586133766756124	2714
868	0.00041199884846321853	6812
828	0.0004114838499026395	6301
255	0.000410711352061771	1207
846	0.00041019635350119196	6504
1176	0.00040968135494061294	8534
902	0.0004091663563800339	7018
1029	0.00040710636213771783	8104
206	0.0004063338642968493	713
210	0.0004060763650165598	803
1277	0.00040478886861511224	9206
618	0.0004040163707742437	4102
818	0.0004037588714939542	6208
157	0.0004035013722136647	204
225	0.0004024713750925066	904
707	0.00039886638516845345	5202
804	0.0003975788887670059	6111
748	0.0003952613952444003	5513
556	0.0003947463966838213	3807
1229	0.00039448889740353177	9001
907	0.0003924289031612157	7103
977	0.00039062640819918906	7402
819	0.00039011140963861004	6209
451	0.00038985391035832053	2845
207	0.0003893389117977415	714
388	0.0003888239132371625	2617
393	0.000388566413956873	2701
223	0.0003859914211539779	902
1295	0.0003859914211539779	9504
998	0.00038573392187368836	7601
817	0.0003841889261919513	6207
910	0.00038238643122992473	7106
656	0.0003818714326693457	4502
884	0.0003816139333890562	6913
659	0.0003810989348284772	4601
1133	0.0003782664427452925	8472
500	0.000378008943465003	3103
859	0.000378008943465003	6803
437	0.0003736314557000813	2829
906	0.00037234395929863377	7102
292	0.0003707989636168967	1605
334	0.00036925396793515965	2304
338	0.00036899646865487014	2308
968	0.000367451472973133	7319
1273	0.00036539147873081694	9114
1167	0.0003643614816096589	8523
798	0.00036307398520821134	6105
927	0.00036024149312502673	7206
346	0.0003589539967235792	2504
601	0.00035869649744328967	4003
403	0.0003538040111177889	2711
654	0.00035225901543605185	4421
984	0.00035225901543605185	7410
809	0.0003504565204740253	6116
1018	0.0003483965262317092	7903
1314	0.0003483965262317092	9615
660	0.00034762402839084067	4602
793	0.00034118654638360285	6006
914	0.00033861155358070775	7110
850	0.00033629406005810216	6601
677	0.00033603656077781265	4903
681	0.0003334615679749175	4907
993	0.00032985657805086434	7504
353	0.00032959907877057483	2511
345	0.00032547909028594267	2503
387	0.0003229040974830475	2616
655	0.00032187410036188947	4501
1037	0.00032161660108159996	8112
605	0.0003200716053998629	4007
250	0.0003177541118772573	1202
430	0.0003174966125969678	2822
370	0.00031698161403638877	2529
661	0.00031595161691523073	4701
428	0.0003151791190743622	2820
1019	0.0003149216197940727	7904
909	0.00031363412339262514	7105
706	0.0003126041262714671	5201
1132	0.0003120891277108881	8471
1234	0.0003095141349079929	9006
180	0.0003066816428248083	410
847	0.00030565164570365026	6505
449	0.0003046216485824922	2843
1031	0.00030307665290075516	8106
686	0.0003012741579387286	5001
1163	0.00029921416369641245	8518
1296	0.00029663917089351734	9505
227	0.0002958666730526488	906
369	0.0002950941752117803	2528
385	0.00029457917665120126	2614
1170	0.00029148918528772714	8527
169	0.0002873691968030949	306
992	0.00028582420112135786	7502
238	0.00028530920256077883	1007
286	0.00028530920256077883	1521
1294	0.00028350670759875226	9503
1134	0.00028324920831846275	8473
251	0.00028273420975788373	1203
418	0.0002814467133564362	2810
1279	0.0002793867191141201	9208
186	0.00027861422127325157	507
229	0.00027835672199296206	908
375	0.0002762967277506459	2604
662	0.0002734642356674613	4702
409	0.00027243423854630326	2801
442	0.00027166174070543473	2834
732	0.0002703742443039872	5405
1162	0.00026754175222080257	8517
1030	0.0002618767680544333	8105
1184	0.00026058927165298573	8542
1130	0.0002567267824486431	8469
182	0.00025518178676690596	502
845	0.00025440928892603743	6502
693	0.0002533792918048794	5101
1298	0.0002518342961231423	9507
277	0.00024153432491156188	1511
1164	0.00024101932635098284	8519
905	0.0002402468285101143	7101
761	0.0002399893292298248	5701
915	0.00023895933210866675	7111
826	0.0002379293349875087	6216
1053	0.00023586934074519263	8215
249	0.00023483934362403456	1201
723	0.00023483934362403456	5307
190	0.00023380934650287652	601
381	0.0002332943479422975	2610
912	0.00023200685154084995	7108
298	0.00022968935801824433	1802
192	0.00022788686305621775	603
377	0.0002242818731321646	2606
390	0.00022402437385187507	2619
1269	0.00022273687745042752	9110
279	0.00022041938392782193	1513
335	0.0002199043853672429	2305
991	0.00021861688896579535	7501
645	0.00021707189328405826	4412
374	0.00021166440839797852	2603
151	0.00021089191055711	104
372	0.00021011941271624146	2601
721	0.0002067719220724778	5305
382	0.00019904694366379246	2611
1158	0.00019724444870176588	8513
1262	0.00019672945014118686	9103
331	0.0001956994530200288	2301
1264	0.0001956994530200288	9105
208	0.00019518445445944977	801
228	0.00019286696093684418	907
155	0.00019260946165655467	202
922	0.00019003446885365954	7201
726	0.00018848947317192248	5310
720	0.00018694447749018542	5303
540	0.00018514198252815884	3604
1165	0.00018127949332381616	8521
976	0.00018024949620265812	7401
380	0.0001794769983617896	2609
1022	0.00017664450627860495	8001
1166	0.0001732970156348413	8522
401	0.0001709795221122357	2709
1261	0.0001684045293093406	9102
924	0.00016634453506702448	7203
503	0.00016273954514297133	3201
1267	0.0001622245465823923	9108
1260	0.0001619670473021028	9101
665	0.0001617095480218133	4705
856	0.0001601645523400762	6704
1239	0.000155529565294865	9013
1316	0.000155529565294865	9617
854	0.00015527206601457548	6702
687	0.00015501456673428597	5002
613	0.00015475706745399646	4015
297	0.00015269707321168038	1801
366	0.00015192457537081184	2524
1168	0.00015192457537081184	8525
1304	0.0001511520775299433	9605
373	0.0001508945782496538	2602
386	0.00014986458112849573	2615
1035	0.0001488345840073377	8110
352	0.00014831958544675867	2510
224	0.00014754708760589014	903
599	0.00014703208904531112	4001
853	0.0001462595912044426	6701
383	0.0001395646099169153	2612
376	0.0001284921408644663	2605
