595	0.001960664952035997	3923
524	0.0019495680449659358	3401
668	0.0019406905193098864	4800
958	0.0018848889294718633	7309
959	0.00184272068260563	7310
957	0.0018306726120724203	7308
306	0.0017938942914973595	1905
866	0.001789772583157051	6810
999	0.0017279469580524232	7602
313	0.001711777179178905	2007
1001	0.0016841934387476095	7604
974	0.0016696089323126715	7325
510	0.0016569267528040298	3208
323	0.0016559755893408817	2202
895	0.001635367047639339	7010
1009	0.0016280747944218703	7612
288	0.0016166608328640926	1601
319	0.0016150755604255125	2104
648	0.0015928817462853896	4415
590	0.0015912964738468095	3917
302	0.0015887600379450811	1806
511	0.001579565457801316	3209
1293	0.0015738584770224272	9406
597	0.0015697367686821186	3925
813	0.0015624445154646498	6203
594	0.0015402507013245268	3922
516	0.0015358119384965023	3214
685	0.0015304220122053297	4911
876	0.0015282026307913172	6905
1096	0.0015202762685984162	8432
1013	0.0015133010698686633	7616
171	0.001510447579479219	401
1062	0.0015085452525529228	8309
753	0.0015056917621634784	5602
606	0.001494594855093417	4008
937	0.0014939607461179848	7217
523	0.0014825467845602073	3307
318	0.0014733522044164421	2103
320	0.0014676452236375534	2105
1081	0.001464157624272677	8417
607	0.001456231262079776	4009
835	0.0014514754447640353	6308
1007	0.0014473537364237269	7610
177	0.001441329701157122	407
975	0.0014394273742308259	7326
512	0.0014381591562799617	3210
610	0.0014368909383290975	4012
862	0.0014273793036976162	6806
863	0.0014232575953573078	6807
864	0.0014178676690661351	6808
881	0.0014169165056029868	6910
392	0.0014115265793118142	2621
614	0.0014080389799469377	4016
296	0.0014067707619960736	1704
414	0.0014067707619960736	2806
1254	0.0014058195985329255	9028
528	0.001402331999168049	3405
307	0.0013982102908277406	2001
925	0.0013896498196594074	7204
1141	0.0013867963292699631	8480
1188	0.0013867963292699631	8546
1142	0.0013820405119542225	8481
317	0.0013807722940033583	2102
1215	0.0013763335311753337	8716
1097	0.0013731629862981732	8433
407	0.0013728459318104573	2715
359	0.0013661877875684205	2517
522	0.0013658707330807044	3306
1082	0.0013649195696175563	8418
1223	0.001363968406154408	8903
886	0.0013620660792281118	7001
315	0.0013614319702526798	2009
948	0.0013595296433263834	7228
1156	0.0013595296433263834	8511
672	0.0013573102619123712	4811
341	0.001356042043961507	2402
173	0.0013550908804983589	403
808	0.0013531885535720627	6115
779	0.0013525544445966305	5903
1321	0.001349066845231754	9704
752	0.0013462133548423098	5601
1172	0.0013462133548423098	8530
903	0.0013446280824037295	7019
1303	0.0013443110279160136	9604
971	0.0013439939734282975	7322
1186	0.0013436769189405814	8544
637	0.0013408234285511372	4404
936	0.0013376528836739766	7215
176	0.0013367017202108285	406
1135	0.0013367017202108285	8474
892	0.0013351164477722484	7007
336	0.0013344823387968162	2306
521	0.001332262957382804	3305
242	0.0013313117939196559	1103
814	0.0013297265214810756	6204
970	0.0013294094669933597	7321
565	0.0013278241945547794	3816
955	0.001324970704165335	7306
956	0.0013224342682636068	7307
557	0.0013221172137758907	3808
1095	0.0013211660503127426	8431
676	0.0013205319413373104	4902
525	0.0013186296144110142	3402
963	0.0013119714701689774	7314
1146	0.0013107032522181132	8487
1003	0.0013065815438778046	7606
771	0.0013059474349023726	5806
314	0.0013056303804146565	2008
786	0.0012970699092463235	5910
497	0.001293582309881447	3006
608	0.0012923140919305829	4010
728	0.0012923140919305829	5401
1004	0.0012923140919305829	7607
973	0.0012919970374428668	7324
1067	0.0012910458739797187	8403
1207	0.0012907288194920026	8708
873	0.0012904117650042865	6902
218	0.0012831195117868177	811
603	0.0012770954765202128	4005
1147	0.0012767784220324967	8501
619	0.0012758272585693487	4103
1005	0.0012742419861307686	7608
267	0.0012723396592044722	1501
1140	0.0012723396592044722	8479
740	0.001270437332278176	5505
604	0.0012688520598395957	4006
947	0.0012672667874010157	7227
1119	0.0012663156239378674	8455
729	0.001263462133548423	5402
643	0.001263145079060707	4410
822	0.001263145079060707	6212
1203	0.0012628280245729911	8704
865	0.0012606086431589786	6809
843	0.0012593404252081147	6406
1157	0.0012590233707203986	8512
582	0.0012577551527695344	3909
787	0.0012568039893063863	5911
962	0.001255218716867806	7313
1283	0.0012533163899415098	9303
781	0.0012523652264783617	5905
161	0.0012507799540397815	208
1055	0.0012498287905766334	8302
931	0.001248243518138053	7210
789	0.0012450729732608927	6002
836	0.0012444388642854607	6309
1290	0.0012441218097977446	9403
1078	0.0012425365373591644	8414
1102	0.0012425365373591644	8438
1198	0.0012406342104328682	8608
364	0.0012377807200434237	2522
875	0.0012349272296539795	6904
1021	0.0012327078482399672	7907
1016	0.001230488466825955	7806
1092	0.0012266838129733624	8428
342	0.0012257326495102143	2403
602	0.0012254155950224982	4004
1149	0.0012206597777067575	8503
1288	0.0012168551238541652	9401
1200	0.001215269851415585	8701
1060	0.0012140016334647207	8307
969	0.0012124163610261404	7320
897	0.0012101969796121281	7013
891	0.00120924581614898	7006
199	0.001208294652685832	706
709	0.001207343489222684	5204
446	0.0012057582167841036	2839
609	0.0012051241078086716	4011
754	0.001201319453956079	5603
513	0.0011991000725420668	3211
205	0.0011959295276649064	712
1289	0.0011949783642017583	9402
1083	0.00119402720073861	8419
749	0.0011914907648368819	5514
628	0.0011905396013737336	4205
1008	0.0011895884379105855	7611
1100	0.0011876861109842893	8436
350	0.0011867349475211412	2508
797	0.0011864178930334251	6104
981	0.0011864178930334251	7407
960	0.0011841985116194129	7311
153	0.0011832473481562648	106
339	0.0011822961846931167	2309
203	0.0011816620757176845	710
280	0.0011794426943036722	1514
673	0.00117722331288966	4823
293	0.0011759550949387958	1701
1068	0.0011753209859633638	8404
1043	0.0011743698225002157	8205
311	0.0011724674955739193	2005
347	0.001169931059672191	2505
1299	0.001169931059672191	9508
343	0.001169296950696759	2501
520	0.001169296950696759	3304
241	0.0011683457872336109	1102
535	0.0011683457872336109	3506
1076	0.0011651752423564505	8412
575	0.0011645411333810183	3902
1089	0.001162321751967006	8425
1080	0.001161687642991574	8416
455	0.0011610535340161419	2852
1101	0.0011607364795284258	8437
801	0.0011594682615775618	6108
755	0.0011585170981144135	5604
790	0.0011582000436266976	6003
934	0.0011553465532372531	7213
1006	0.001154395389774105	7609
179	0.0011518589538723767	409
725	0.0011515418993846606	5309
558	0.0011509077904092286	3809
1187	0.0011496395724583644	8545
932	0.0011474201910443521	7211
156	0.0011452008096303398	203
869	0.0011448837551426237	6813
348	0.0011432984827040437	2506
741	0.0011423473192408954	5506
175	0.001140127937826883	405
1063	0.0011398108833391672	8310
730	0.0011394938288514511	5403
1056	0.001138225610900587	8303
744	0.0011372744474374388	5509
411	0.0011369573929497227	2803
935	0.0011369573929497227	7214
162	0.0011344209570479944	209
900	0.0011341039025602785	7016
1073	0.001130933357683118	8409
1291	0.001130616303195402	9404
572	0.0011296651397322537	3824
441	0.0011280798672936737	2833
423	0.0011277628128059576	2815
391	0.0011271287038305256	2620
989	0.001124275213441081	7418
1216	0.001124275213441081	8801
816	0.001122689941002501	6206
498	0.001122372886514785	3101
1201	0.0011214217230516368	8702
679	0.0011192023416376246	4905
283	0.00111634885124818	1517
215	0.001115397687785032	808
840	0.001115397687785032	6403
949	0.001114446524321884	7229
982	0.0011128612518833036	7408
533	0.0011125441973955875	3503
680	0.0011103248159815753	4906
1197	0.0011100077614938594	8607
231	0.001109056598030711	910
800	0.001107471325592131	6107
362	0.001107154271104415	2520
436	0.0011068372166166988	2828
287	0.0011058860531535507	1522
324	0.0011049348896904026	2203
731	0.0011043007807149707	5404
1106	0.0011039837262272546	8442
860	0.0011033496172518224	6804
351	0.0011030325627641065	2509
1074	0.0011030325627641065	8410
289	0.00110113023583781	1602
332	0.00110113023583781	2302
365	0.0011008131813500942	2523
699	0.001099862017886946	5107
918	0.00109954496339923	7114
1115	0.0010963744185220694	8451
1160	0.0010963744185220694	8515
832	0.0010960573640343536	6305
893	0.0010957403095466374	7008
964	0.0010957403095466374	7315
1136	0.0010954232550589213	8475
577	0.0010947891460834894	3904
264	0.0010909844922308968	1302
842	0.0010909844922308968	6405
563	0.0010897162742800326	3814
1054	0.0010893992197923167	8301
675	0.0010871798383783042	4901
546	0.0010855945659397242	3704
1180	0.001084960456964292	8538
617	0.0010840092935011439	4101
183	0.0010836922390134278	504
316	0.0010836922390134278	2101
867	0.0010836922390134278	6811
642	0.0010824240210625638	4409
837	0.0010814728575994155	6310
425	0.0010805216941362674	2817
1098	0.0010798875851608354	8434
469	0.0010795705306731193	2914
1226	0.0010795705306731193	8906
961	0.0010783023127222552	7312
337	0.0010776682037468232	2307
322	0.001077351149259107	2201
951	0.001076399985795959	7302
671	0.001075448822332811	4810
551	0.0010744976588696626	3802
432	0.0010735464954065145	2824
916	0.0010725953319433664	7112
644	0.0010722782774556503	4411
1045	0.0010719612229679344	8207
953	0.0010716441684802183	7304
1189	0.00106910773257849	8547
861	0.0010672054056521938	6805
475	0.0010668883511644777	2920
714	0.0010665712966767616	5209
1284	0.0010653030787258974	9304
821	0.0010643519152627493	6211
747	0.001062132533848737	5512
1085	0.001062132533848737	8421
879	0.0010618154793610212	6908
794	0.0010599131524347248	6101
1072	0.0010599131524347248	8408
1208	0.0010586449344838606	8709
952	0.0010583278799961447	7303
593	0.0010580108255084286	3920
857	0.0010580108255084286	6801
1285	0.0010580108255084286	9305
758	0.0010576937710207125	5607
651	0.0010548402806312683	4418
1040	0.001053255008192688	8202
1061	0.001053255008192688	8308
247	0.001052620899217256	1108
904	0.0010519867902418238	7020
712	0.0010507185722909596	5207
581	0.0010491332998523795	3908
493	0.0010488162453646634	2939
803	0.0010481821363892312	6110
933	0.0010475480274137992	7212
282	0.0010472309729260831	1516
310	0.0010472309729260831	2004
154	0.0010465968639506512	201
217	0.0010465968639506512	810
421	0.001045645700487503	2813
478	0.0010446945370243548	2923
812	0.0010446945370243548	6202
987	0.0010440604280489228	7413
561	0.0010431092645857747	3812
882	0.0010431092645857747	6911
713	0.0010415239921471944	5208
1143	0.0010405728286840463	8482
285	0.0010396216652208982	1520
1122	0.001038353447270034	8459
1286	0.001038353447270034	9306
284	0.001038036392782318	1518
646	0.001038036392782318	4413
1193	0.001038036392782318	8603
152	0.0010370852293191699	105
294	0.0010370852293191699	1702
650	0.0010351829023928737	4417
792	0.0010348658479051576	6005
172	0.0010326464664911453	402
807	0.0010326464664911453	6114
1259	0.0010326464664911453	9033
811	0.0010313782485402811	6201
785	0.0010307441395648491	5909
202	0.0010297929761017008	709
770	0.0010297929761017008	5805
827	0.0010291588671262689	6217
1064	0.0010285247581508369	8311
509	0.0010278906491754047	3207
1090	0.0010253542132736763	8426
695	0.0010247201042982443	5103
722	0.0010244030498105282	5306
1070	0.0010234518863473801	8406
1202	0.0010234518863473801	8703
220	0.001023134831859664	813
782	0.001023134831859664	5906
624	0.001022817777371948	4115
631	0.0010205983959579357	4302
802	0.0010186960690316395	6109
1224	0.0010183790145439234	8904
715	0.0010180619600562075	5210
1178	0.0010180619600562075	8536
1046	0.0010177449055684914	8208
508	0.0010167937421053433	3206
514	0.0010164766876176272	3212
596	0.0010158425786421952	3924
717	0.0010155255241544791	5212
357	0.001014257306203615	2515
507	0.001014257306203615	3205
398	0.0010129890882527508	2706
735	0.0010126720337650347	5408
756	0.0010114038158141705	5605
166	0.0010110867613264546	303
278	0.0010110867613264546	1512
399	0.0010101355978633065	2707
838	0.0010101355978633065	6401
1114	0.0010088673799124423	8450
1292	0.0010085503254247262	9405
404	0.0010060138895229978	2712
666	0.0010053797805475659	4706
266	0.0010050627260598498	1404
219	0.0010047456715721337	812
1280	0.0010044286170844176	9209
502	0.0010041115625967017	3105
453	0.0010031603991335536	2847
805	0.0010031603991335536	6112
495	0.0010025262901581214	2941
580	0.0010012580722072572	3907
943	0.0010012580722072572	7223
576	0.0010003069087441091	3903
1192	0.000999989854256393	8602
829	0.0009996727997686771	6302
799	0.000999355745280961	6106
1211	0.000999038690793245	8712
641	0.0009987216363055288	4408
986	0.000998404581817813	7412
204	0.0009980875273300968	711
942	0.0009977704728423807	7222
239	0.0009968193093792327	1008
773	0.0009961852004038007	5808
305	0.0009955510914283685	1904
178	0.0009949169824529365	408
772	0.0009945999279652204	5807
996	0.0009945999279652204	7507
1204	0.0009945999279652204	8705
419	0.0009942828734775043	2811
944	0.0009942828734775043	7224
763	0.00099301465552664	5703
243	0.0009926976010389242	1104
1099	0.0009926976010389242	8435
815	0.0009917464375757761	6205
858	0.000991112328600344	6802
635	0.0009895270561617636	4402
1266	0.0009876247292354675	9107
216	0.0009869906202600355	809
1219	0.000985088293333739	8804
612	0.000983503020895159	4014
640	0.000983503020895159	4407
698	0.0009796983670425665	5106
759	0.000977161931140838	5608
480	0.0009768448766531222	2925
765	0.00097621076767769	5705
990	0.0009755766587022579	7419
504	0.0009739913862636777	3202
985	0.0009739913862636777	7411
716	0.0009733572772882456	5211
174	0.0009730402228005296	404
777	0.0009727231683128135	5901
1077	0.0009724061138250976	8413
1088	0.0009708208413865173	8424
1138	0.0009698696779233692	8477
259	0.000968601459972505	1211
1011	0.000968601459972505	7614
197	0.0009663820785584927	704
1066	0.0009663820785584927	8402
743	0.0009651138606076285	5508
234	0.0009644797516321966	1003
757	0.0009641626971444805	5606
470	0.0009632115336813324	2915
738	0.0009622603702181842	5503
736	0.0009590898253410238	5501
526	0.0009587727708533077	3403
796	0.0009587727708533077	6103
371	0.0009584557163655917	2530
669	0.0009571874984147275	4802
745	0.0009565533894392954	5510
424	0.0009549681170007153	2816
620	0.0009549681170007153	4104
967	0.0009543340080252832	7318
506	0.0009540169535375672	3204
1127	0.000953065790074419	8465
1144	0.000952431681098987	8483
988	0.0009514805176358388	7415
402	0.0009486270272463944	2710
532	0.0009479929182709623	3502
1000	0.0009479929182709623	7603
1313	0.0009479929182709623	9614
541	0.0009467247003200982	3605
569	0.0009460905913446662	3820
615	0.000945139427881518	4017
1171	0.0009445053189060859	8529
1155	0.0009410177195412094	8509
734	0.0009387983381271972	5407
788	0.0009384812836394812	6001
443	0.000937213065688617	2835
537	0.000937213065688617	3601
1235	0.0009365789567131849	9007
1118	0.0009356277932500368	8454
198	0.0009353107387623207	705
542	0.0009346766297868886	3606
327	0.0009337254663237405	2206
254	0.0009334084118360245	1206
930	0.0009324572483728763	7209
921	0.0009311890304220123	7118
1258	0.0009299208124711481	9032
682	0.0009283355400325678	4908
702	0.0009280184855448518	5110
940	0.0009280184855448518	7220
1206	0.0009277014310571358	8707
750	0.0009273843765694197	5515
363	0.0009261161586185555	2521
1103	0.0009257991041308395	8439
328	0.0009248479406676914	2207
193	0.0009238967772045432	604
256	0.0009232626682291111	1208
164	0.0009210432868150989	301
163	0.0009207262323273829	210
1306	0.0009204091778396668	9607
600	0.0009200921233519508	4002
1020	0.0009194580143765187	7905
874	0.0009188239054010866	6903
1199	0.0009181897964256545	8609
194	0.0009178727419379385	701
466	0.0009178727419379385	2911
515	0.0009169215784747903	3213
496	0.00091375103359763	2942
260	0.0009131169246221979	1212
534	0.0009127998701344819	3505
1124	0.0009127998701344819	8461
321	0.0009124828156467658	2106
1179	0.0009108975432081856	8537
762	0.0009093122707696054	5702
616	0.0009089952162818893	4100
1105	0.0009080440528187412	8441
1145	0.000906775834867877	8486
1113	0.0009039223444784327	8449
1117	0.0009026541265275685	8453
878	0.0009010688540889883	6907
312	0.0009007517996012723	2006
664	0.0009004347451135562	4704
1050	0.0009001176906258402	8212
774	0.0008998006361381241	5809
240	0.0008994835816504081	1101
191	0.0008966300912609638	602
795	0.0008963130367732477	6102
623	0.0008956789277978156	4114
711	0.0008953618733100996	5206
697	0.0008950448188223835	5105
638	0.0008931424918960873	4405
562	0.0008921913284329391	3813
149	0.0008915572194575071	102
705	0.0008915572194575071	5113
890	0.0008915572194575071	7005
923	0.0008915572194575071	7202
776	0.000891240164969791	5811
704	0.000890923110482075	5112
1148	0.0008893378380434948	8502
1012	0.0008890207835557788	7615
751	0.0008887037290680627	5516
291	0.0008877525656049146	1604
1112	0.0008874355111171986	8448
1086	0.0008861672931663344	8422
820	0.0008855331841909023	6210
871	0.0008845820207277542	6815
281	0.0008791920944365815	1515
187	0.0008785579854611494	508
1126	0.0008782409309734334	8463
696	0.0008772897675102852	5104
168	0.000875704495071705	305
536	0.000875387440583989	3507
329	0.0008744362771208408	2208
471	0.0008734851136576928	2916
1161	0.0008734851136576928	8516
592	0.0008731680591699768	3919
966	0.0008731680591699768	7317
1129	0.0008731680591699768	8468
872	0.0008712657322436805	6901
1014	0.0008693634053173842	7801
1212	0.0008693634053173842	8713
473	0.0008687292963419521	2918
165	0.00086809518736652	302
185	0.0008674610783910879	506
435	0.0008655587514647918	2827
980	0.0008646075880016436	7406
261	0.0008642905335139276	1213
746	0.0008627052610753474	5511
244	0.0008620711520999153	1105
578	0.0008614370431244832	3905
1282	0.0008614370431244832	9302
946	0.0008611199886367672	7226
499	0.0008608029341490511	3102
538	0.0008604858796613351	3602
211	0.0008579494437596067	804
819	0.0008573153347841747	6209
678	0.0008569982802964587	4904
246	0.0008566812258087426	1107
1125	0.0008554130078578784	8462
742	0.0008535106809315822	5507
1139	0.0008528765719561501	8478
494	0.0008509742450298538	2940
684	0.0008503401360544217	4910
929	0.0008500230815667057	7208
517	0.0008468525366895453	3215
564	0.0008465354822018293	3815
1042	0.0008449502097632491	8204
290	0.0008433649373246688	1603
483	0.0008430478828369528	2928
467	0.0008427308283492368	2912
639	0.0008420967193738047	4406
926	0.0008417796648860886	7205
1026	0.0008411455559106565	8101
1039	0.0008411455559106565	8201
917	0.0008408285014229406	7113
1302	0.0008401943924475085	9603
295	0.0008379750110334962	1703
245	0.0008373409020580641	1106
1252	0.0008373409020580641	9026
160	0.000836389738594916	207
1159	0.0008360726841071999	8514
1177	0.0008344874116686197	8535
1307	0.0008341703571809036	9608
950	0.0008332191937177555	7301
849	0.0008329021392300396	6507
519	0.0008313168667914593	3303
368	0.0008306827578160273	2526
817	0.0008306827578160273	6207
885	0.0008306827578160273	6914
213	0.0008297315943528791	806
945	0.0008297315943528791	7225
1281	0.000829097485377447	9301
938	0.0008278292674265828	7218
479	0.0008262439949880026	2924
954	0.0008256098860125705	7305
939	0.0008243416680617065	7219
405	0.0008237075590862744	2713
653	0.0008227563956231262	4420
1057	0.0008214881776722621	8304
887	0.000821171123184546	7002
258	0.00082085406869683	1210
1121	0.00082085406869683	8458
589	0.0008202199597213979	3916
824	0.0008202199597213979	6214
831	0.0008199029052336818	6304
444	0.0008183176327951016	2836
1222	0.0008170494148442374	8902
769	0.0008167323603565215	5804
360	0.0008151470879179413	2518
880	0.0008151470879179413	6909
389	0.0008148300334302252	2618
550	0.0008129277065039289	3801
484	0.0008113424340653487	2929
920	0.0008110253795776327	7117
1032	0.0008110253795776327	8107
1250	0.0008107083250899166	9024
707	0.0008100742161144845	5202
209	0.0008091230526513364	802
257	0.0008088059981636204	1209
941	0.0008088059981636204	7221
527	0.0008075377802127563	3404
333	0.0008069036712373242	2303
760	0.0008069036712373242	5609
841	0.0008069036712373242	6404
1237	0.0008062695622618921	9010
703	0.00080563545328646	5111
778	0.0008050013443110279	5902
767	0.0008043672353355958	5802
883	0.0008040501808478798	6912
330	0.0008037331263601637	2209
559	0.0008037331263601637	3810
568	0.0008030990173847317	3819
710	0.0008005625814830033	5205
184	0.0007999284725075713	505
674	0.0007999284725075713	4824
460	0.0007986602545567071	2905
1181	0.0007986602545567071	8539
440	0.0007961238186549788	2832
167	0.0007954897096795467	304
636	0.0007948556007041146	4403
1002	0.0007948556007041146	7605
1311	0.0007948556007041146	9612
356	0.0007939044372409665	2514
434	0.0007935873827532504	2826
1244	0.0007929532737778183	9018
196	0.0007926362192901023	703
1169	0.0007926362192901023	8526
221	0.0007920021103146703	814
272	0.0007916850558269542	1506
1041	0.0007891486199252259	8203
255	0.0007866121840234975	1207
1213	0.0007853439660726333	8714
303	0.0007843928026094852	1902
901	0.0007843928026094852	7017
148	0.0007837586936340531	101
358	0.0007837586936340531	2516
888	0.0007834416391463372	7003
416	0.0007812222577323249	2808
1205	0.0007812222577323249	8706
1249	0.0007812222577323249	9023
465	0.0007802710942691767	2910
830	0.0007802710942691767	6303
798	0.0007799540397814607	6105
474	0.0007793199308060286	2919
325	0.0007790028763183126	2204
1058	0.0007786858218305965	8305
1091	0.0007777346583674484	8427
354	0.0007774176038797323	2512
555	0.0007774176038797323	3806
877	0.0007764664404165842	6906
1257	0.0007764664404165842	9031
1094	0.0007758323314411521	8430
1153	0.0007739300045148559	8507
588	0.0007729788410517078	3915
554	0.0007726617865639918	3805
804	0.0007694912416868313	6111
253	0.0007688571327113992	1205
539	0.0007688571327113992	3603
571	0.0007653695333465228	3823
1065	0.0007653695333465228	8401
1255	0.0007653695333465228	9029
1233	0.0007631501519325105	9005
1305	0.0007628330974447945	9606
766	0.0007621989884693624	5801
378	0.0007615648794939303	2607
783	0.0007615648794939303	5907
1137	0.0007615648794939303	8476
413	0.000759662552567634	2805
834	0.0007561749532027576	6307
1152	0.0007558578987150416	8506
570	0.0007555408442273255	3821
1044	0.0007555408442273255	8206
212	0.0007552237897396095	805
818	0.0007549067352518934	6208
1185	0.0007549067352518934	8543
591	0.0007542726262764614	3918
852	0.0007539555717887453	6603
983	0.0007526873538378811	7409
898	0.000751736190374733	7014
1309	0.000751102081399301	9610
598	0.000750785026911585	3926
1104	0.000750785026911585	8440
420	0.0007504679724238689	2812
529	0.0007498338634484368	3406
574	0.0007488826999852887	3901
189	0.0007485656454975727	511
1210	0.0007485656454975727	8711
1128	0.0007482485910098566	8467
889	0.0007476144820344245	7004
1194	0.0007466633185712764	8604
1110	0.0007453951006204122	8446
583	0.0007450780461326962	3910
1301	0.0007450780461326962	9602
1251	0.0007447609916449801	9025
1274	0.0007431757192064	9201
344	0.0007428586647186838	2502
1038	0.0007428586647186838	8113
1317	0.0007425416102309679	9618
530	0.0007419075012555358	3407
459	0.0007415904467678198	2904
505	0.0007412733922801037	3203
276	0.0007403222288169556	1510
531	0.0007387369563783754	3501
482	0.0007384199018906593	2927
1069	0.0007381028474029433	8405
188	0.0007374687384275112	510
775	0.000736517574964363	5810
1297	0.000735883465988931	9506
994	0.0007352493570134989	7505
739	0.0007339811390626348	5504
150	0.0007292253217468941	103
833	0.0007289082672591781	6306
225	0.000728591212771462	904
579	0.0007279571037960299	3906
585	0.0007276400493083139	3912
629	0.0007266888858451658	4206
626	0.0007247865589188696	4202
647	0.0007247865589188696	4414
340	0.0007244695044311535	2401
326	0.0007238353954557215	2205
207	0.0007235183409680054	714
462	0.0007222501230171412	2907
489	0.0007222501230171412	2935
724	0.0007219330685294252	5308
1017	0.0007181284146768328	7901
633	0.0007178113601891167	4304
485	0.0007174943057014007	2930
275	0.0007162260877505365	1509
1265	0.0007162260877505365	9106
560	0.0007159090332628204	3811
543	0.0007140067063365242	3701
308	0.0007114702704347958	2002
1010	0.0007095679435084996	7613
586	0.0007092508890207836	3913
206	0.0007076656165822034	713
232	0.0007073485620944873	1001
828	0.0007070315076067713	6301
309	0.0007044950717050429	2003
1175	0.0007044950717050429	8533
1248	0.0007044950717050429	9022
1287	0.0007041780172173269	9307
1048	0.0007038609627296108	8210
230	0.0007035439082418948	909
222	0.0007032268537541787	901
490	0.0007032268537541787	2936
652	0.0007032268537541787	4419
1227	0.0007013245268278826	8907
972	0.0007010074723401665	7323
1245	0.0007010074723401665	9019
848	0.0007000563088770184	6506
566	0.0006987880909261542	3817
764	0.0006956175460489938	5704
919	0.0006943493280981296	7115
1174	0.0006943493280981296	8532
634	0.0006933981646349816	4401
1253	0.0006933981646349816	9027
584	0.0006927640556595495	3911
768	0.0006924470011718334	5803
1241	0.0006918128921964013	9015
1246	0.0006902276197578211	9020
1275	0.0006902276197578211	9202
1150	0.000689593510782389	8504
1196	0.0006889594018069569	8606
195	0.0006861059114175125	702
810	0.0006861059114175125	6117
301	0.0006854718024420804	1805
1221	0.0006854718024420804	8901
415	0.0006848376934666484	2807
844	0.0006838865300035003	6501
627	0.000681350094101772	4203
170	0.0006797648216631917	307
200	0.0006797648216631917	707
667	0.0006788136582000436	4707
1015	0.0006784966037123276	7804
1084	0.0006781795492246115	8420
476	0.0006756431133228832	2921
552	0.0006753260588351672	3803
894	0.0006750090043474512	7009
236	0.000674057840884303	1005
691	0.0006731066774211549	5006
611	0.0006715214049825747	4013
708	0.0006715214049825747	5203
587	0.0006705702415194265	3914
361	0.0006696190780562784	2519
454	0.0006696190780562784	2849
780	0.0006693020235685624	5904
158	0.0006686679145931304	205
1218	0.0006686679145931304	8803
791	0.0006683508601054143	6004
400	0.0006664485331791181	2708
1109	0.0006664485331791181	8445
439	0.0006642291517651057	2831
825	0.0006620097703510934	6215
1191	0.0006591562799616491	8601
438	0.0006588392254739331	2830
394	0.0006572539530353529	2702
431	0.0006566198440599208	2823
1276	0.0006550345716213405	9205
1315	0.0006550345716213405	9616
458	0.0006547175171336245	2903
481	0.0006547175171336245	2926
1272	0.0006544004626459084	9113
456	0.0006515469722564641	2901
911	0.0006509128632810321	7107
265	0.000650595808793316	1401
1116	0.0006483764273793037	8452
1195	0.0006480593728915877	8605
379	0.0006477423184038716	2608
248	0.0006471082094284395	1109
649	0.0006471082094284395	4416
472	0.0006448888280144272	2917
1228	0.0006442547190389951	8908
965	0.0006417182831372669	7316
1231	0.0006401330106986866	9003
201	0.0006398159562109706	708
1025	0.0006391818472355385	8007
273	0.0006372795203092422	1507
701	0.0006369624658215262	5109
719	0.0006353771933829461	5302
1027	0.0006341089754320819	8102
683	0.0006334748664566498	4909
823	0.0006315725395303535	6213
1318	0.0006296702126040573	9701
1225	0.000627450831190045	8905
367	0.000626816722214613	2525
1123	0.0006258655587514648	8460
618	0.0006255485042637488	4102
868	0.0006252314497760327	6812
1093	0.0006242802863128846	8429
214	0.0006230120683620204	807
355	0.0006230120683620204	2513
233	0.0006223779593865883	1002
839	0.0006211097414357241	6402
1300	0.000620158577972576	9601
349	0.00061984152348486	2507
447	0.00061984152348486	2840
1033	0.00061984152348486	8108
896	0.0006185733055339959	7011
1236	0.0006166709786076996	9008
1322	0.0006147686516814033	9705
1319	0.0006141345427059713	9702
625	0.000612232215779675	4201
806	0.0006119151612919589	6113
299	0.0006109639978288109	1803
1271	0.0006109639978288109	9112
477	0.0006106469433410949	2922
1120	0.0006100128343656628	8457
689	0.0006084275619270826	5004
998	0.0006077934529516505	7601
1108	0.0006074763984639344	8444
632	0.00060462290807449	4303
553	0.000604305853586774	3804
548	0.000603671744611342	3706
271	0.0006030376356359099	1505
159	0.0006024035266604778	206
1049	0.0006017694176850457	8211
1079	0.0006011353087096136	8415
429	0.0006008182542218976	2821
1320	0.0006005011997341815	9703
457	0.0006001841452464655	2902
1173	0.0005998670907587494	8531
1308	0.0005992329817833174	9609
237	0.0005979647638324532	1006
718	0.0005976477093447371	5301
784	0.0005941601099798607	5908
908	0.0005928918920289966	7104
292	0.0005913066195904163	1605
500	0.0005894042926641201	3103
1217	0.0005884531292009719	8802
263	0.0005881360747132559	1301
408	0.0005878190202255398	2716
1047	0.0005836973118852314	8209
995	0.0005833802573975153	7506
1182	0.0005827461484220832	8540
448	0.0005824290939343672	2841
1190	0.000580843821495787	8548
851	0.0005805267670080709	6602
1214	0.0005789414945694907	8715
979	0.0005786244400817746	7405
1024	0.0005773562221309106	8003
1107	0.0005767221131554785	8443
1028	0.0005760880041800464	8103
1247	0.0005760880041800464	9021
396	0.0005710151323765897	2704
884	0.0005710151323765897	6913
427	0.0005703810234011577	2819
899	0.0005703810234011577	7015
169	0.0005697469144257256	306
928	0.0005684786964748614	7207
518	0.0005681616419871454	3302
395	0.0005678445874994293	2703
426	0.0005678445874994293	2818
733	0.0005678445874994293	5406
1263	0.0005668934240362812	9104
1151	0.0005665763695485651	8505
1071	0.000565308151597701	8407
1312	0.0005634058246714047	9613
978	0.0005630887701836886	7403
1131	0.0005627717156959726	8470
1270	0.0005608693887696764	9111
461	0.0005602352797942443	2906
694	0.0005599182253065283	5102
748	0.0005570647349170839	5513
492	0.0005564306259416518	2938
406	0.0005554794624785037	2714
422	0.0005554794624785037	2814
463	0.0005554794624785037	2908
601	0.0005551624079907876	4003
1059	0.0005551624079907876	8306
621	0.0005542112445276395	4105
1256	0.0005532600810644915	9030
468	0.0005529430265767754	2913
1154	0.0005510406996504791	8508
737	0.0005488213182364668	5502
269	0.0005485042637487508	1503
1277	0.0005485042637487508	9206
855	0.0005462848823347385	6703
397	0.0005459678278470224	2705
1018	0.0005459678278470224	7903
870	0.0005443825554084423	6814
630	0.0005437484464330102	4301
491	0.0005386755746295535	2937
487	0.0005383585201418375	2933
1087	0.0005370903021909734	8423
445	0.0005361391387278252	2837
927	0.0005355050297523932	7206
270	0.000534236811801529	1504
1243	0.0005317003758998006	9017
663	0.0005307492124366525	4703
412	0.0005282127765349242	2804
544	0.0005247251771700477	3702
274	0.0005240910681946156	1508
486	0.0005237740137068996	2932
1051	0.0005228228502437515	8213
186	0.0005221887412683194	507
913	0.0005180670329280109	7109
210	0.0005164817604894307	803
450	0.0005161647060017146	2844
417	0.0005152135425385665	2809
902	0.0005148964880508504	7018
388	0.0005136282700999863	2617
262	0.0005129941611245543	1214
809	0.0005126771066368382	6116
1034	0.000511091834198258	8109
1111	0.0005088724527842457	8447
997	0.0005079212893210976	7508
1023	0.0005076042348333815	8002
1183	0.0005076042348333815	8541
1278	0.0005076042348333815	9207
235	0.0005047507444439371	1004
727	0.0005041166354685051	5311
223	0.000503482526493073	902
1052	0.0004999949271281965	8214
573	0.0004996778726404805	3825
157	0.0004984096546896163	204
1268	0.0004923856194230116	9109
907	0.0004917515104475795	7103
659	0.0004914344559598634	4601
700	0.0004914344559598634	5108
464	0.0004911174014721474	2909
1029	0.0004911174014721474	8104
793	0.0004895321290335672	6006
547	0.000487946856594987	3705
1220	0.0004866786386441228	8805
433	0.0004863615841564068	2825
1242	0.0004863615841564068	9016
1298	0.0004828739847915303	9507
1240	0.00048255693030381427	9014
657	0.0004816057668406662	4503
670	0.0004816057668406662	4807
304	0.00048128871235295014	1903
452	0.00047938638542665386	2846
1232	0.0004781181674757897	9004
1176	0.0004771670040126416	8534
549	0.0004762158405494935	3707
370	0.0004755817315740614	2529
488	0.000472411186696901	2934
300	0.00047209413220918495	1804
226	0.0004657530424548641	905
977	0.0004654359879671481	7402
677	0.00046353366104085185	4903
338	0.0004632166065531358	2308
1323	0.00046289955206541976	970
250	0.0004616313341145556	1202
252	0.00045909489821282726	1204
1162	0.00045846078923739516	8517
1075	0.0004581437347496791	8411
346	0.0004578266802619631	2504
1133	0.0004546561353848027	8472
1238	0.0004540220264093706	9011
658	0.0004533879174339385	4504
545	0.0004514855905076423	3703
910	0.0004514855905076423	7106
1209	0.00045053442704449416	8710
268	0.0004502173725567781	1502
353	0.000449583263581346	2511
906	0.0004483150456304819	7102
387	0.00044799799114276584	2616
859	0.00044736388216733375	6803
622	0.00044609566421646956	4106
826	0.00044609566421646956	6216
180	0.0004451445007533215	410
660	0.0004451445007533215	4602
850	0.0004410227924130129	6601
1310	0.0004410227924130129	9611
1295	0.00044038868343758083	9504
706	0.00043753519304813647	5201
1036	0.00043753519304813647	8111
403	0.0004369010840727044	2711
556	0.0004369010840727044	3807
1170	0.00043499875714640815	8527
1294	0.00043436464817097606	9503
227	0.00043404759368326	906
693	0.00043373053919554396	5101
1229	0.0004283406129043713	9001
686	0.0004277065039289392	5001
409	0.0004273894494412232	2801
1037	0.0004235847955886307	8112
393	0.00042326774110091464	2701
692	0.00042199952315005046	5007
1167	0.00042199952315005046	8523
688	0.00042104835968690237	5003
501	0.00041946308724832214	3104
968	0.00041882897827289005	7319
410	0.00041724370583430987	2802
229	0.0004143902154448655	908
690	0.00040868323466597677	5005
846	0.00040868323466597677	6504
384	0.0004080491256905447	2613
181	0.0004074150167151126	501
286	0.00040614679876424845	1521
390	0.00040329330837480403	2619
656	0.00040170803593622386	4502
1132	0.0004001227634976437	8471
681	0.00039790338208363135	4907
761	0.00039631810964505117	5701
912	0.0003928305102801747	7108
238	0.0003918793468170266	1007
385	0.00039156229232931053	2614
845	0.00038934291091529826	6502
567	0.0003877576384767181	3818
1230	0.000387123529501286	9002
847	0.00038458709359955767	6505
334	0.0003836359301364095	2304
654	0.00037888011282066894	4421
451	0.0003753925134557925	2845
1234	0.00037507545896807643	9006
449	0.0003741242955049283	2843
905	0.00037380724101721224	7101
645	0.000371904914090916	4412
1163	0.00037000258716461974	8518
661	0.0003671490967751754	4701
1279	0.0003671490967751754	9208
1273	0.00036683204228745933	9114
732	0.0003661979333120273	5405
428	0.00036271033394715083	2820
984	0.0003623932794594348	7410
993	0.0003623932794594348	7504
374	0.00036207622497171874	2603
605	0.00036207622497171874	4007
1314	0.0003617591704840027	9615
909	0.00036144211599628665	7105
1019	0.00035985684355770647	7904
723	0.0003500281544385092	5307
1134	0.0003478087730244969	8473
369	0.0003468576095613488	2528
662	0.0003455893916104846	4702
721	0.00034495528263505255	5305
1164	0.00034495528263505255	8519
1296	0.0003446382281473365	9505
437	0.00034305295570875627	2829
540	0.00033988241083159586	3604
914	0.00033798008390529963	7110
1053	0.00033798008390529963	8215
381	0.00033512659351585527	2610
1130	0.00033417543005270713	8469
345	0.0003272002313229542	2503
442	0.0003262490678598061	2834
992	0.00032498084990894194	7502
655	0.00032402968644579385	4501
377	0.00032276146849492967	2606
277	0.0003214932505440655	1511
430	0.0003167374332283249	2822
331	0.00031642037874060884	2301
208	0.0003154692152774607	801
182	0.00031483510630202867	502
372	0.00031198161591258425	2601
251	0.0003113475069371522	1203
190	0.00030722579859684366	601
1031	0.00030595758064597947	8106
375	0.00030342114474425115	2604
151	0.0003031040902565351	104
279	0.000302152926793387	1513
1165	0.0002989823819162266	8521
228	0.0002967630005022143	907
976	0.0002964459460144983	7401
1030	0.00029422656460048596	8105
382	0.00029295834664962183	2611
418	0.0002920071831864737	2810
1269	0.00029010485626017747	9110
915	0.0002891536927970293	7111
1166	0.0002891536927970293	8522
155	0.0002882025293338812	202
1184	0.00028788547484616514	8542
856	0.00028059322162869623	6704
1022	0.0002802761671409802	8001
192	0.0002774226767515358	603
991	0.00027456918636209146	7501
380	0.00027139864148493104	2609
1158	0.00026759398763233854	8513
726	0.0002656916607060423	5310
1264	0.00026378933377974603	9105
401	0.0002606187889025856	2709
922	0.00025903351646400544	7201
613	0.00025522886261141294	4015
1262	0.0002523753722219686	9103
1304	0.0002507900997833884	9605
1261	0.00024857071836937607	9102
352	0.00024540017349221566	2510
249	0.00024286373759048734	1201
335	0.00024286373759048734	2305
599	0.00024096141066419111	4001
503	0.00023969319271332693	3201
298	0.00023366915744672215	1802
854	0.00023113272154499383	6702
720	0.00023018155808184572	5303
297	0.00022859628564326552	1801
1267	0.00022859628564326552	9108
1316	0.000224791631790673	9617
373	0.00022257225037666074	2602
1168	0.00022130403242579658	8525
687	0.00022035286896264844	5002
224	0.0002130606157451795	903
665	0.00021115828881888325	4705
924	0.00020893890740487098	7203
1239	0.00020862185291715493	9013
386	0.00020323192662598222	2615
1260	0.0002029148721382662	9101
366	0.00020101254521196995	2524
1035	0.00018959858365419246	8110
853	0.00018642803877703205	6701
376	0.00016613655156320545	2605
383	0.0001534543720545638	2612
