67	0.022668520144376158	Italy
50	0.022553897180762852	Germany
123	0.020439469320066336	Spain
8	0.019929762949956104	Austria
46	0.01956882255389718	France
107	0.018088479172763634	Poland
36	0.017134913666959323	CzechRepublic
13	0.016527655838454784	Belgium
141	0.01636181835918447	USA
134	0.01632279777582675	Turkey
108	0.01628865476538874	Portugal
94	0.015664325431665203	Netherlands
61	0.015344844405423861	India
119	0.015181445712613404	Slovenia
34	0.014657106623744025	Croatia
52	0.0146010145351673	Greece
115	0.014225441420349235	Serbia
38	0.014120573602575359	Denmark
139	0.013745000487757291	UnitedKingdom
21	0.01351575456053068	Bulgaria
30	0.013137742659252756	China
118	0.012947517315383865	Slovakia
77	0.012632913862062238	Lebanon
43	0.012335381913959614	Estonia
110	0.012220758950346307	Romania
76	0.011720807726075505	Latvia
80	0.011713491366695932	Lithuania
59	0.01164520534581992	Hungary
126	0.01158423568432348	Sweden
127	0.011074529314213247	Switzerland
54	0.01082089552238806	Guatemala
18	0.01016730075114623	BosniaHerzegovina
131	0.010142912886547653	Thailand
26	0.010123402594868793	Canada
40	0.009901473027021754	Egypt
137	0.009767339771729588	Ukraine
133	0.009760023412350015	Tunisia
70	0.009716125256072579	Jordan
81	0.009674665886254999	Macedonia
41	0.009569798068481124	ElSalvador
88	0.009374695151692519	Mexico
72	0.009194224953663057	Kenya
62	0.009157643156765193	Indonesia
66	0.009103989854648328	Israel
12	0.009038142620232172	Belarus
45	0.009016193542093454	Finland
102	0.008918642083699151	Pakistan
69	0.008701590088771827	Japan
93	0.008662569505414107	Nepal
31	0.008562579260559946	Colombia
144	0.0082260267290996	Vietnam
1	0.007982148083113842	Albania
121	0.00793337235391669	SouthAfrica
19	0.007852892400741392	Brazil
95	0.007830943322602674	NewZealand
116	0.007545605306799336	SierraLeone
91	0.007538288947419764	Morocco
35	0.007421227197346601	Cyprus
58	0.007274900009755145	Honduras
122	0.007204175202419276	SouthKorea
33	0.00699931713979124	CostaRica
103	0.006618866452053458	Panama
140	0.006365232660228271	Uruguay
105	0.006321334503950834	Peru
74	0.006175007316359379	Kyrgyzstan
96	0.006153058238220661	Nicaragua
114	0.006045751633986928	Senegal
106	0.005999414691249635	Philippines
82	0.005831138425519461	Madagascar
11	0.005638474295190713	Bangladesh
132	0.005358013852307092	Togo
84	0.0051921763730367766	Malaysia
7	0.005121451565700907	Australia
147	0.005065359477124183	Zimbabwe
75	0.004921471075992586	Laos
10	0.004577602185152668	Bahrain
29	0.00455565310701395	Chile
24	0.0045239488830358015	Cambodia
89	0.004423958638181641	Mongolia
86	0.004399570773583065	Malta
138	0.004282509023509902	UnitedArabEmirates
104	0.004270315091210614	Paraguay
130	0.004236172080772607	Tanzania
136	0.004209345429714175	Uganda
63	0.004087406106721296	Iran
65	0.004084967320261438	Ireland
111	0.004060579455662862	Russia
100	0.0040483855233635745	Norway
117	0.0038752316847136866	Singapore
6	0.003838649887815823	Armenia
142	0.0038118232367573895	Uzbekistan
83	0.003672812408545508	Malawi
49	0.003653302116866647	Georgia
16	0.0036264754658082137	Bhutan
42	0.0036240366793483564	Eritrea
68	0.0035313627938737685	IvoryCoast
48	0.0034484440542386107	Gambia
17	0.003321627158326017	Bolivia
0	0.0032679738562091504	Afghanistan
51	0.00325821871036972	Ghana
39	0.003253341137450005	Ecuador
15	0.0031972490488732805	Benin
101	0.0030899424446395474	Oman
22	0.003036289142522681	BurkinaFaso
129	0.002960686762267096	Tajikistan
14	0.0029216661789093746	Belize
92	0.0028655740903326503	Mozambique
97	0.0028533801580333624	Niger
44	0.0028289922934347867	Ethiopia
146	0.0027850941371573507	Zambia
57	0.0027558286996390595	Guyana
60	0.002677787532923617	Iceland
25	0.0026192566578870356	Cameroon
112	0.0025851136474490293	Rwanda
9	0.0025680421422300263	Azerbaijan
143	0.0025631645693103113	Venezuela
71	0.002536337918251878	Kazakhstan
145	0.002438786459857575	Yemen
85	0.002421714954638572	Mali
20	0.002260755048287972	Brunei
37	0.0021827138815725296	DemocraticRepublicCongo
135	0.0021827138815725296	Turkmenistan
125	0.002087601209638084	Suriname
113	0.002070529704419081	SaudiArabia
23	0.002063213345039508	Burundi
55	0.0019290800897473416	Guinea
27	0.0018973758657691933	CentralAfricanRepublic
73	0.0018486001365720418	Kuwait
124	0.0017071505219003024	Sudan
32	0.0016339869281045752	Congo
109	0.001577894839527851	Qatar
56	0.00146814944883426	Guinea-Bissau
78	0.0014559555165349722	Liberia
87	0.0014315676519363965	Mauritania
98	0.0014266900790166812	Nigeria
2	0.0014242512925568237	Algeria
47	0.001382791922739245	Gabon
79	0.0012998731831040874	Libya
4	0.001158423568432348	Angola
64	0.0011437908496732027	Iraq
28	0.001119402985074627	Chad
