50	0.033395682834537324	Germany
67	0.028386222910216717	Italy
46	0.026739336085311316	France
141	0.025773993808049536	USA
8	0.02440230478156175	Austria
123	0.023421912624699004	Spain
36	0.02102468180254558	CzechRepublic
139	0.02046783625730994	UnitedKingdom
13	0.020162538699690404	Belgium
107	0.019852941176470587	Poland
94	0.019106897144822842	Netherlands
119	0.017367561059511524	Slovenia
38	0.01667956656346749	Denmark
127	0.01586902304781562	Switzerland
126	0.01544547643618851	Sweden
108	0.015439026487788098	Portugal
34	0.014338235294117646	Croatia
52	0.014125386996904025	Greece
134	0.014065187478500172	Turkey
115	0.013983488132094943	Serbia
118	0.013725490196078431	Slovakia
61	0.013656690746474028	India
69	0.013428792569659443	Japan
59	0.01241830065359477	Hungary
77	0.012386050911592707	Lebanon
45	0.011975404196766426	Finland
21	0.01166795665634675	Bulgaria
43	0.011491658066735466	Estonia
26	0.011485208118335054	Canada
66	0.010670364637082904	Israel
30	0.0106015651874785	China
76	0.01014576883384933	Latvia
80	0.009634072927416581	Lithuania
88	0.009300825593395253	Mexico
12	0.009216976264189887	Belarus
137	0.008847179222566219	Ukraine
110	0.008806329549363605	Romania
54	0.008767629858961129	Guatemala
131	0.008711730306157552	Thailand
18	0.008619281045751635	BosniaHerzegovina
19	0.00856123151014792	Brazil
122	0.008507481940144479	SouthKorea
70	0.008464482284141726	Jordan
116	0.0084171826625387	SierraLeone
95	0.008311833505331958	NewZealand
41	0.008055985552115582	ElSalvador
40	0.007752837977296182	Egypt
31	0.007729188166494668	Colombia
72	0.007488390092879257	Kenya
35	0.007436790505675955	Cyprus
121	0.007434640522875817	SouthAfrica
81	0.007294891640866873	Macedonia
140	0.006996044031647747	Uruguay
133	0.006929394564843481	Tunisia
62	0.006701496388028896	Indonesia
93	0.006374699002407981	Nepal
33	0.006333849329205366	CostaRica
114	0.00607155142758858	Senegal
102	0.005645854833161335	Pakistan
1	0.00559640522875817	Albania
7	0.005566305469556243	Australia
84	0.005538355693154455	Malaysia
117	0.005443756449948401	Singapore
74	0.0051427588579291365	Kyrgyzstan
144	0.0050696594427244585	Vietnam
86	0.004938510491916064	Malta
103	0.004852511179910561	Panama
65	0.004828861369109047	Ireland
132	0.004751461988304093	Togo
105	0.004710612315101479	Peru
91	0.004650412796697627	Morocco
58	0.0046267629858961126	Honduras
147	0.004510663914688682	Zimbabwe
100	0.004411764705882353	Norway
138	0.0042741658066735464	UnitedArabEmirates
111	0.004248366013071895	Russia
96	0.004246216030271758	Nicaragua
10	0.0041451668386652905	Bahrain
49	0.004123667010663914	Georgia
106	0.0040161678706570345	Philippines
6	0.00392156862745098	Armenia
136	0.0038850189198486413	Uganda
130	0.0037818197454420363	Tanzania
42	0.003734520123839009	Eritrea
29	0.003693670450636395	Chile
63	0.0035410216718266252	Iran
48	0.0035023219814241486	Gambia
16	0.0034593223254213968	Bhutan
104	0.0033754729962160303	Paraguay
101	0.0031432748538011697	Oman
0	0.0030959752321981426	Afghanistan
68	0.003072325421396629	IvoryCoast
97	0.0029626762985896114	Niger
142	0.0029626762985896114	Uzbekistan
11	0.002947626418988648	Bangladesh
15	0.002926126590987272	Benin
82	0.0029132266941864467	Madagascar
75	0.002861627106983144	Laos
39	0.002739078087375301	Ecuador
22	0.00265952872377021	BurkinaFaso
9	0.002653078775369797	Azerbaijan
51	0.002648778809769522	Ghana
129	0.002601479188166495	Tajikistan
112	0.0025907292741658068	Rwanda
89	0.0025756793945648435	Mongolia
146	0.002573529411764706	Zambia
143	0.0025584795321637425	Venezuela
17	0.0025068799449604402	Bolivia
24	0.002418730650154799	Cambodia
57	0.002407980736154111	Guyana
27	0.0024058307533539732	CentralAfricanRepublic
92	0.002395080839353285	Mozambique
60	0.0023929308565531476	Iceland
44	0.0023821809425524595	Ethiopia
83	0.002367131062951496	Malawi
25	0.002360681114551084	Cameroon
113	0.0022338321293429654	SaudiArabia
85	0.002218782249742002	Mali
71	0.002214482284141727	Kazakhstan
23	0.0021929824561403508	Burundi
145	0.0020467836257309943	Yemen
125	0.002042483660130719	Suriname
37	0.0018769349845201239	DemocraticRepublicCongo
55	0.0018618851049191606	Guinea
14	0.001773735810113519	Belize
73	0.001586687306501548	Kuwait
109	0.0015028379772961816	Qatar
32	0.0014705882352941176	Congo
78	0.001436188510491916	Liberia
135	0.001436188510491916	Turkmenistan
2	0.0013609391124871002	Algeria
47	0.0013458892328861369	Gabon
56	0.0013329893360853114	Guinea-Bissau
20	0.001292139662882697	Brunei
98	0.001274939800481596	Nigeria
124	0.0012254901960784314	Sudan
64	0.001216890264877881	Iraq
79	0.0012147402820777433	Libya
87	0.0011265909872721018	Mauritania
4	0.0011050911592707258	Angola
28	0.0010900412796697625	Chad
