668	0.0019005506127566598	4800
595	0.0018819552974088248	3923
524	0.001852968482307788	3401
510	0.0017955417731453567	3208
606	0.001778313760396627	4008
511	0.0017575307608902234	3209
958	0.0017203401301945534	7309
959	0.0017061201831638562	7310
753	0.0017017448148467186	5602
685	0.001695181762371012	4911
672	0.0016929940782124432	4811
1142	0.001692720617692622	8481
306	0.0016867044862565578	1905
302	0.0016776802891024616	1806
610	0.0016757660654637139	4012
288	0.0016689295524681862	1601
1062	0.001665374565710512	8309
523	0.0016590849737546265	3307
516	0.0016525219212789202	3214
497	0.0016484200134816037	3006
974	0.0016467792503626771	7325
1013	0.0016454119477635715	7616
895	0.001644044645164466	7010
313	0.0016434977241248237	2007
1321	0.0016399427373671495	9704
876	0.0016369346716491174	6905
866	0.0016363877506094752	6810
1081	0.0016363877506094752	8417
957	0.0016317389217725164	7308
1009	0.0016309185402130532	7612
614	0.001628183935014842	4016
779	0.0016246289482571678	5903
590	0.0016027521066714796	3917
1146	0.0016027521066714796	8487
1157	0.0015945482910768465	8512
975	0.0015937279095173831	7326
1172	0.00159044638327953	8530
1097	0.0015857975544425712	8433
607	0.0015841567913236446	4009
603	0.0015806018045659703	4005
999	0.0015806018045659703	7602
1096	0.0015806018045659703	8432
392	0.0015764998967686538	2621
525	0.0015762264362488326	3402
1156	0.001568843002213663	8511
267	0.0015669287785749152	1501
512	0.0015562638183018922	3210
1083	0.0015486069237469014	8419
1102	0.001544778476469406	8438
771	0.001542590792310837	5806
594	0.0015401296476324471	3922
787	0.0015390358055531628	5911
597	0.0015354808187954885	3925
1001	0.0015354808187954885	7604
320	0.001531925832037814	2105
521	0.0015305585294387086	3305
455	0.0015256362400819289	2852
1303	0.0015237220164431812	9604
572	0.0015198935691656855	3824
1207	0.00151852626656658	8708
171	0.001515518200848548	401
319	0.001512783595650337	2104
565	0.0015119632140908736	3816
528	0.0015111428325314104	3405
558	0.001510322450971947	3809
892	0.0015084082273331993	7007
754	0.0015054001616151673	5603
1080	0.001499384030179103	8416
608	0.0014961025039412496	4010
1198	0.0014958290434214287	8608
1095	0.001494461740822323	8431
520	0.0014895394514655433	3304
947	0.0014881721488664377	7227
1100	0.00148625792522769	8436
862	0.0014848906226285845	6806
469	0.0014816090963907314	2914
533	0.0014786010306726992	3503
1135	0.001478327570152878	8474
1203	0.0014744991228753826	8704
582	0.0014682095309194972	3909
864	0.0014641076231221809	6808
1060	0.0014610995574041487	8307
323	0.001459458794285222	2202
1141	0.0014580914916861166	8480
1254	0.001456724189087011	9028
676	0.0014531692023293367	4902
318	0.0014485203734923779	2103
177	0.0014452388472545247	407
1200	0.0014394961763382816	8701
176	0.0014362146501004285	406
1072	0.0014359411895806073	8408
1078	0.0014337535054220385	8414
835	0.001432386202822933	6308
557	0.0014293781371049008	3808
863	0.0014291046765850797	6807
535	0.0014260966108670477	3506
1043	0.0014239089267084788	8205
1008	0.0014230885451490154	7611
1188	0.0014228150846291943	8546
648	0.0014214477820300889	4415
781	0.00141679895319313	5905
1089	0.0014143378085147403	8425
446	0.0014132439664354558	2839
836	0.0014121501243561714	6309
561	0.0014105093612372449	3812
1215	0.0014102359007174237	8716
873	0.001408321677078676	6902
407	0.0014053136113606438	2715
421	0.0014047666903210015	2813
886	0.0014036728482417172	7001
391	0.001403399387721896	2620
1092	0.001403125927202075	8428
1140	0.0013987505588849373	8479
1067	0.001395195572127263	8403
475	0.001394648651087621	2920
956	0.001392187506409231	7307
284	0.001386718296012809	1518
1005	0.0013807021645767447	7608
581	0.0013741391121010382	3908
786	0.001373865651581217	5910
1076	0.0013730452700217537	8412
1003	0.0013716779674226482	7606
522	0.0013703106648235428	3306
679	0.0013689433622244371	4905
948	0.0013689433622244371	7228
1147	0.001368122980664974	8501
936	0.0013670291385856894	7215
1073	0.0013642945333874786	8409
675	0.001360192625590162	4901
162	0.0013599191650703409	209
173	0.0013596457045505197	403
1187	0.0013563641783126666	8545
604	0.0013503480468766023	4006
1283	0.001346793060118928	9303
729	0.001346519599599107	5402
1085	0.0013459726785594647	8421
156	0.0013429646128414326	203
752	0.0013426911523216115	5601
969	0.0013396830866035793	7320
1223	0.0013396830866035793	8903
1101	0.001338862705044116	8437
359	0.0013366750208855473	2517
963	0.001336128099845905	7314
1289	0.0013358546393260839	9402
730	0.001333666955167515	5403
1208	0.0013320261920485884	8709
1259	0.001325463139572882	9033
1115	0.001322728534374671	8451
478	0.0013219081528152076	2923
903	0.0013219081528152076	7019
1054	0.0013216346922953865	8301
925	0.0013205408502161022	7204
1144	0.0013205408502161022	8483
1006	0.001320267389696281	7609
1007	0.001320267389696281	7610
1149	0.001317259323978249	8503
728	0.0013158920213791434	5401
1119	0.0013153451003395011	8455
1021	0.0013126104951412902	7907
1045	0.001312063574101648	8207
971	0.0013104228109827214	7322
1055	0.0013082351268241526	8302
575	0.0013074147452646892	3902
996	0.0013049536005862994	7507
1016	0.0013027659164277306	7806
731	0.0013022189953880883	5404
953	0.0013000313112295195	7304
1293	0.0012992109296700563	9406
973	0.0012951090218727397	7324
671	0.0012945621008330975	4810
1284	0.0012942886403132764	9304
1004	0.0012940151797934552	7607
1143	0.0012934682587538132	8482
740	0.0012923744166745286	5505
423	0.0012918274956348864	2815
1197	0.0012901867325159598	8607
161	0.0012896398114763175	208
1106	0.0012890928904366755	8442
981	0.001285537903679001	7407
514	0.0012841706010798956	3212
1077	0.0012806156143222213	8413
1063	0.001279521772242937	8310
1193	0.0012781544696438313	8603
562	0.0012732321802870516	3813
1074	0.0012732321802870516	8410
424	0.001271591417168125	2816
526	0.0012704975750888405	3403
869	0.001268856811969914	6813
861	0.0012683098909302716	6805
546	0.0012674895093708085	3704
341	0.0012658487462518817	2402
790	0.001264207983132955	6003
942	0.0012622937594942074	7222
532	0.0012620202989743862	3502
563	0.0012601060753356385	3814
580	0.0012601060753356385	3907
199	0.0012573714701374277	706
280	0.0012562776280581431	1514
1099	0.0012546368649392165	8435
507	0.0012540899438995743	3205
432	0.001253269562340111	2824
1216	0.001253269562340111	8801
1204	0.0012521757202608266	8705
508	0.0012510818781815423	3206
1280	0.0012488941940229734	9209
1180	0.0012486207335031523	8538
414	0.001247526891423868	2806
1189	0.0012464330493445835	8547
943	0.0012453392072652991	7223
509	0.0012447922862256569	3207
1299	0.0012442453651860146	9508
466	0.0012439719046661935	2911
782	0.0012436984441463726	5906
949	0.0012420576810274458	7229
339	0.0012374088521904872	2309
1160	0.0012341273259526338	8515
493	0.0012322131023138861	2939
242	0.001231392720754423	1103
342	0.0012297519576354964	2403
987	0.001229205036595854	7413
937	0.0012278377339967486	7217
296	0.0012275642734769275	1704
215	0.001225923510358001	808
741	0.001225923510358001	5506
1285	0.001223735826199432	9305
1040	0.001223462365679611	8202
932	0.0012223685236003264	7211
470	0.0012215481420408633	2915
1226	0.0012212746815210421	8906
1235	0.0012177196947633678	9007
952	0.0012152585500849779	7303
411	0.0012147116290453356	2803
513	0.001212797405406588	3211
944	0.0012125239448867668	7224
602	0.0012122504843669456	4004
682	0.0012084220370894502	4908
1068	0.0012084220370894502	8404
643	0.0012045935898119548	4410
637	0.0012040466687723128	4404
940	0.0012015855240939228	7220
619	0.0012013120635741017	4103
967	0.0012010386030542805	7318
951	0.001199397839935354	7302
480	0.0011966632347371429	2925
680	0.0011952959321380374	4906
317	0.001194475550578574	2102
154	0.001193928629538932	201
785	0.0011909205638208997	5909
350	0.0011906471033010786	2508
1178	0.0011873655770632255	8536
504	0.0011851778929046566	3202
1070	0.0011824432877064455	8406
1258	0.0011818963666668035	9032
1046	0.0011791617614685924	8208
1090	0.001178341379909129	8426
364	0.001178067919389308	2522
678	0.001178067919389308	4904
860	0.0011750598536712758	6804
347	0.0011720517879532438	2505
989	0.0011665825775568216	7418
174	0.0011663091170370007	404
241	0.0011660356565171795	1102
1098	0.0011654887354775373	8434
314	0.0011652152749577161	2008
1266	0.0011622072092396841	9107
624	0.0011605664461207573	4115
1145	0.0011589256830018308	8486
498	0.001156464538323441	3101
285	0.0011561910778036199	1520
988	0.0011550972357243353	7415
506	0.001154003393645051	3204
980	0.001151542248966661	7406
755	0.0011507218674071977	5604
891	0.0011496280253279134	7006
1105	0.001149081104288271	8441
564	0.0011477138016891656	3815
551	0.0011466199596098811	3802
419	0.0011463464990900602	2811
600	0.0011463464990900602	4002
628	0.0011463464990900602	4205
534	0.0011455261175305968	3505
865	0.0011452526570107757	6809
1206	0.0011447057359711334	8707
307	0.0011444322754513125	2001
612	0.0011430649728522068	4014
904	0.0011395099860945326	7020
1000	0.0011389630650548903	7603
874	0.001137869222975606	6903
287	0.0011373223019359637	1522
336	0.0011348611572575737	2306
1171	0.0011337673151782894	8529
593	0.0011334938546584683	3920
577	0.001129938867900794	3904
756	0.001124469657504372	5605
1086	0.001124469657504372	8422
666	0.001124196196984551	4706
1136	0.001124196196984551	8475
1159	0.0011231023549052664	8514
725	0.001122008512825982	5309
467	0.001121735052306161	2912
453	0.0011206412102268766	2847
471	0.0011135312367115278	2916
964	0.0011132577761917067	7315
986	0.0011121639341124224	7412
1056	0.0011121639341124224	8303
536	0.001110796631513317	3507
749	0.001110796631513317	5514
576	0.0011097027894340324	3903
931	0.0011091558683943902	7210
515	0.001105874342156537	3213
305	0.0011050539605970736	1904
933	0.0011050539605970736	7212
1088	0.0011047805000772527	8424
742	0.001102866276438505	5507
1126	0.0011014989738393993	8463
247	0.0010990378291610094	1108
990	0.0010990378291610094	7419
1257	0.0010971236055222617	9031
436	0.0010963032239627985	2828
197	0.001095209381883514	704
578	0.001094935921363693	3905
310	0.0010943890003240508	2004
1124	0.0010943890003240508	8461
1237	0.0010943890003240508	9010
542	0.001093021697724945	3606
985	0.0010916543951258397	7411
1286	0.0010908340135663765	9306
789	0.0010905605530465554	6002
495	0.0010883728688879865	2941
934	0.0010883728688879865	7213
982	0.0010883728688879865	7408
441	0.0010878259478483442	2833
1250	0.001087279026808702	9024
198	0.0010861851847294177	705
425	0.0010848178821303122	2817
172	0.001084544421610491	402
1202	0.0010826301979717434	8703
484	0.0010812628953726377	2929
420	0.0010801690532933534	2812
592	0.0010801690532933534	3919
404	0.0010798955927735323	2712
792	0.0010782548296546057	6005
1122	0.0010760671454960369	8459
244	0.0010744263823771103	1105
644	0.0010744263823771103	4411
1112	0.0010722386982185415	8448
337	0.0010719652376987203	2307
638	0.001068136790421225	4405
163	0.0010678633299014038	210
1113	0.0010675898693815826	8449
770	0.0010662225667824772	5805
315	0.0010654021852230138	2009
887	0.0010654021852230138	7002
890	0.0010648552641833718	7005
875	0.0010643083431437295	6904
1155	0.001063487961584266	8509
673	0.001063214501064445	4823
1061	0.001063214501064445	8308
183	0.001060479895866234	504
970	0.001060206435346413	7321
1082	0.0010588391327473075	8418
961	0.001057198369628381	7312
697	0.0010569249091085598	5105
264	0.001055284145989633	1302
1114	0.001055010685469812	8450
479	0.001054737224949991	2924
871	0.0010539168433905276	6815
1252	0.001052276080271601	9026
152	0.0010509087776724955	105
1212	0.0010487210935139267	8713
736	0.0010479007119544633	5501
916	0.0010470803303950001	7112
918	0.0010462599488355367	7114
1118	0.0010462599488355367	8454
881	0.0010454395672760733	6910
747	0.0010432518831175047	5512
316	0.0010427049620778625	2101
343	0.0010424315015580413	2501
880	0.0010421580410382202	6909
362	0.001039423435840009	2520
722	0.001039423435840009	5306
527	0.0010377826727210825	3404
1127	0.0010375092122012614	8465
893	0.0010372357516814405	7008
1138	0.0010372357516814405	8477
1020	0.0010355949885625137	7905
348	0.0010328603833643028	2506
897	0.0010320400018048394	7013
1050	0.0010317665412850183	8212
178	0.0010312196202453762	408
294	0.0010298523176462706	1702
569	0.0010293053966066285	3820
568	0.0010290319360868074	3819
1094	0.0010290319360868074	8430
1129	0.0010287584755669862	8468
1185	0.0010262973308885963	8543
371	0.0010260238703687751	2530
530	0.0010260238703687751	3407
465	0.001025750409848954	2910
311	0.0010249300282894908	2005
398	0.0010235627256903852	2706
699	0.0010235627256903852	5107
735	0.0010186404363336054	5408
1205	0.0010153589100957523	8706
1128	0.0010142650680164678	8467
583	0.0010137181469768255	3910
1091	0.0010128977654173623	8427
1307	0.0010115304628182569	9608
946	0.0010112570022984357	7226
579	0.00100988969969933	3906
584	0.0010055143313821926	3911
843	0.0010049674103425504	6406
543	0.001004420489302908	3701
1201	0.0010027797261839815	8702
1248	0.0010027797261839815	9022
290	0.0010025062656641604	1603
559	0.0010022328051443393	3810
955	0.0010005920420254127	7306
1121	0.0010000451209857704	8458
570	0.0009970370552677384	3821
1177	0.0009940289895497062	8535
1194	0.0009912943843514953	8604
517	0.0009910209238316741	3215
960	0.0009904740027920319	7311
696	0.0009896536212325687	5104
474	0.0009863720949947153	2919
1042	0.0009860986344748942	8204
1192	0.00098500479239561	8602
261	0.0009847313318757888	1213
1139	0.0009847313318757888	8478
1282	0.0009833640292766833	9302
1044	0.00098254364771722	8206
1186	0.0009819967266775777	8544
243	0.0009814498056379356	1104
460	0.0009809028845982933	2905
609	0.0009768009768009768	4011
1103	0.0009765275162811557	8439
900	0.0009759805952415135	7016
1125	0.0009759805952415135	8462
351	0.0009751602136820502	2509
994	0.0009737929110829447	7505
1218	0.0009729725295234814	8803
1148	0.0009726990690036603	8502
1026	0.0009716052269243758	8101
1038	0.0009710583058847337	8113
494	0.0009707848453649125	2940
205	0.000969144082245986	712
705	0.000969144082245986	5113
1249	0.0009688706217261648	9023
185	0.0009685971612063437	506
321	0.0009675033191270593	2106
898	0.0009647687139288483	7014
473	0.0009642217928892061	2918
496	0.0009642217928892061	2942
483	0.0009625810297702795	2928
216	0.0009623075692504584	809
776	0.0009603933456117107	5811
1169	0.0009582056614531419	8526
399	0.0009562914378143942	2707
669	0.0009562914378143942	4802
1104	0.0009562914378143942	8440
773	0.000956017977294573	5808
220	0.0009551975957351098	813
1290	0.0009551975957351098	9403
716	0.0009541037536558253	5211
738	0.0009541037536558253	5503
857	0.0009541037536558253	6801
462	0.0009524629905368988	2907
184	0.0009519160694972565	505
1064	0.0009519160694972565	8311
289	0.0009513691484576143	1602
941	0.0009508222274179721	7221
234	0.0009500018458585088	1003
1292	0.0009483610827395822	9405
239	0.0009480876222197611	1008
938	0.0009475407011801188	7218
877	0.0009442591749422657	6906
664	0.0009439857144224445	4704
813	0.0009428918723431601	6203
153	0.0009396103461053069	106
921	0.0009393368855854858	7118
585	0.0009390634250656647	3912
434	0.0009387899645458436	2826
1244	0.000937149201426917	9018
945	0.0009357818988278114	7225
901	0.0009333207541494216	7017
324	0.0009311330699908527	2203
539	0.0009300392279115683	3603
777	0.0009289453858322839	5901
1288	0.0009281250042728206	9401
368	0.0009273046227133573	2526
751	0.0009267577016737151	5516
695	0.0009259373201142518	5103
772	0.0009251169385547885	5807
1211	0.0009245700175151463	8712
882	0.0009242965569953252	6911
1253	0.0009240230964755041	9027
867	0.0009218354123169352	6811
1219	0.0009215619517971142	8804
175	0.0009212884912772931	405
571	0.0009212884912772931	3823
560	0.0009207415702376508	3811
482	0.0009204681097178298	2927
715	0.0009204681097178298	5210
939	0.0009201946491980087	7219
272	0.0009174600439997977	1506
519	0.0009171865834799765	3303
217	0.000915819280880871	810
329	0.0009133581362024811	2208
962	0.00091308467568266	7313
788	0.0009092562284051646	6001
1110	0.0009081623863258802	8446
615	0.0009065216232069536	4017
1181	0.0009065216232069536	8539
332	0.0009062481626871324	2302
744	0.0009015993338501737	5509
950	0.0009013258733303526	7301
808	0.0009005054917708893	6115
717	0.0009002320312510682	5212
709	0.000899685110211426	5204
550	0.0008991381891717838	3801
588	0.0008991381891717838	3915
757	0.0008983178076123205	5606
1311	0.0008974974260528572	9612
1065	0.0008961301234537516	8401
1251	0.0008953097418942884	9025
179	0.0008942158998150039	409
258	0.0008923016761762562	1210
983	0.0008914812946167929	7409
1179	0.0008914812946167929	8537
620	0.0008912078340969718	4104
1041	0.000889020149938403	8203
1255	0.0008884732288987608	9029
191	0.0008876528473392975	602
489	0.0008876528473392975	2935
193	0.0008873793868194764	604
485	0.000886285544740192	2930
537	0.0008851917026609076	3601
531	0.0008843713211014443	3501
1246	0.0008838244000618021	9020
312	0.0008821836369428754	2006
438	0.0008805428738239489	2830
1084	0.0008794490317446644	8420
714	0.0008789021107050223	5209
218	0.0008772613475860956	811
698	0.0008761675055068112	5106
293	0.0008748002029077057	1701
827	0.0008748002029077057	6217
322	0.0008745267423878846	2201
759	0.0008742532818680635	5608
257	0.0008734329003086002	1209
935	0.000872885979268958	7214
490	0.0008690575319914626	2936
281	0.0008687840714716415	1515
1137	0.0008687840714716415	8476
1302	0.0008685106109518203	9603
1224	0.0008657760057536094	8904
203	0.0008655025452337882	710
160	0.0008652290847139671	207
505	0.0008646821636743249	3203
1195	0.0008644087031545038	8605
684	0.0008635883215950405	4910
282	0.0008630414005553984	1516
1319	0.0008627679400355772	9702
587	0.0008608537163968295	3914
586	0.0008600333348373662	3913
1274	0.0008586660322382607	9201
872	0.0008575721901589763	6901
440	0.0008548375849607653	2832
743	0.0008499152956039854	5508
1305	0.0008477276114454166	9606
354	0.0008469072298859533	2512
631	0.0008469072298859533	4302
780	0.00084608684832649	5904
783	0.0008449930062472056	5907
1066	0.0008444460852075633	8402
589	0.0008430787826084579	3916
995	0.0008428053220886368	7506
248	0.0008422584010489946	1109
920	0.0008417114800093523	7117
623	0.0008411645589697102	4114
327	0.0008395237958507835	2206
459	0.0008384299537714991	2904
1233	0.0008384299537714991	9005
840	0.0008356953485732881	6403
330	0.0008337811249345404	2209
739	0.0008337811249345404	5504
734	0.0008329607433750771	5407
774	0.0008302261381768661	5809
245	0.0008296792171372238	1106
842	0.0008294057566174027	6405
1033	0.0008294057566174027	8108
879	0.0008283119145381184	6908
413	0.0008280384540182973	2805
919	0.0008266711514191917	7115
702	0.0008261242303795496	5110
814	0.000824756927780444	6204
954	0.0008239365462209807	7305
435	0.0008212019410227697	2827
439	0.0008212019410227697	2831
642	0.0008179204147849165	4409
1210	0.0008165531121858109	8711
416	0.0008157327306263476	2808
1161	0.0008146388885470632	8516
566	0.0008135450464677788	3817
650	0.0008132715859479578	4417
213	0.0008097165991902834	806
1108	0.0008091696781506412	8444
194	0.0008083492965911779	701
797	0.0008083492965911779	6104
979	0.0008083492965911779	7405
1069	0.0008080758360713568	8405
1027	0.0008067085334722512	8102
256	0.0008050677703533247	1208
1002	0.0008045208493136825	7605
1315	0.0008045208493136825	9616
1109	0.0008026066256749347	8445
878	0.0008015127835956504	6907
1152	0.0007998720204767237	8506
344	0.0007987781783974393	2502
704	0.0007982312573577971	5112
911	0.0007982312573577971	7107
1245	0.0007963170337190494	9019
1301	0.0007960435731992283	9602
617	0.000795223191639765	4101
646	0.0007938558890406594	4413
822	0.000792488586441554	6212
219	0.0007919416654019117	812
221	0.0007897539812433429	814
209	0.0007861989944856686	802
254	0.0007861989944856686	1206
824	0.0007842847708469209	6214
1306	0.0007842847708469209	9607
325	0.0007820970866883521	2204
328	0.0007810032446090677	2207
712	0.0007810032446090677	5207
1093	0.0007807297840892466	8429
926	0.0007801828630496044	7205
1297	0.0007801828630496044	9506
598	0.0007788155604504988	3926
1123	0.0007785420999306778	8460
231	0.0007755340342126457	910
713	0.0007749871131730034	5208
1320	0.0007749871131730034	9703
476	0.0007747136526531824	2921
1276	0.000773893271093719	9205
765	0.0007730728895342557	5705
1241	0.0007719790474549713	9015
837	0.000771158665895508	6310
333	0.0007706117448558658	2303
917	0.0007689709817369391	7113
468	0.0007681506001774759	2913
1313	0.0007681506001774759	9614
1217	0.0007676036791378337	8802
821	0.0007662363765387281	6211
148	0.000765962916018907	101
1291	0.000765962916018907	9404
389	0.0007643221528999804	2618
1275	0.0007640486923801593	9202
745	0.0007629548503008749	5510
1120	0.0007626813897810539	8457
763	0.0007624079292612327	5703
458	0.0007618610082215906	2903
1047	0.0007610406266621272	8209
1318	0.0007596733240630217	9701
626	0.0007588529425035585	4202
750	0.000757759100424274	5515
149	0.0007572121793846318	102
746	0.0007572121793846318	5511
885	0.0007566652583449896	6914
1012	0.0007561183373053473	7615
166	0.0007547510347062419	303
326	0.0007544775741864208	2205
1117	0.0007525633505476731	8453
1231	0.0007525633505476731	9003
703	0.0007501022058692831	5111
1032	0.0007490083637899987	8107
596	0.0007487349032701777	3924
405	0.00074682067963143	2713
1015	0.0007446329954728611	7804
431	0.00074435953495304	2823
737	0.0007435391533935767	5502
1213	0.0007424453113142923	8714
794	0.000741624929754829	6101
502	0.0007408045481953657	3105
429	0.0007405310876755446	2821
552	0.0007405310876755446	3803
616	0.0007405310876755446	4100
158	0.0007397107061160813	205
367	0.000736429179878228	2525
1199	0.0007358822588385859	8609
807	0.0007347884167593014	6114
888	0.0007345149562394803	7003
1272	0.0007339680351998382	9113
283	0.0007334211141601959	1517
357	0.0007331476536403748	2515
1034	0.0007326007326007326	8109
443	0.0007320538115610904	2835
816	0.000731233430001627	6206
1010	0.000730959969481806	7613
769	0.0007295926668827005	5804
1222	0.0007295926668827005	8902
639	0.0007293192063628793	4406
858	0.0007287722853232372	6802
445	0.0007257642196052051	2837
164	0.0007252172985655628	301
358	0.0007241234564862785	2516
889	0.0007241234564862785	7004
189	0.0007235765354466362	511
811	0.0007230296144069941	6201
1256	0.0007230296144069941	9030
635	0.0007222092328475307	4402
894	0.0007216623118078885	7009
415	0.000720295009208783	2807
1058	0.0007189277066096775	8305
711	0.0007186542460898564	5206
841	0.0007186542460898564	6404
849	0.0007186542460898564	6507
276	0.0007172869434907508	1510
397	0.0007170134829709298	2705
1011	0.0007137319567330766	7614
1317	0.0007131850356934344	9618
538	0.0007115442725745077	3602
838	0.0007115442725745077	6401
1191	0.0007090831278961179	8601
309	0.0007082627463366546	2003
555	0.0007077158252970123	3806
1265	0.0007071689042573701	9106
1048	0.0007030669964600536	8210
1263	0.0007027935359402325	9104
481	0.0007022466149005903	2926
1057	0.0007003323912618426	8304
691	0.0006995120097023792	5006
477	0.000698965088662737	2922
812	0.000698965088662737	6202
1049	0.000698965088662737	8211
204	0.0006967774045041682	711
1190	0.0006965039439843471	8548
1111	0.000693495878266315	8447
651	0.0006921285756672095	4418
1247	0.0006896674309888195	9021
447	0.0006885735889095351	2840
246	0.000688026667869893	1107
278	0.0006877532073500718	1512
196	0.0006858389837113241	703
363	0.0006844716811122186	2521
591	0.0006833778390329343	3918
301	0.0006814636153941866	1805
1051	0.0006792759312356177	8213
159	0.0006790024707157966	206
1281	0.0006784555496761544	9301
1236	0.0006759944049977645	9008
548	0.0006735332603193746	3706
1039	0.0006727128787599112	8201
784	0.0006724394182400902	5908
896	0.0006718924972004479	7011
487	0.0006713455761608058	2933
629	0.0006705251946013425	4206
188	0.0006699782735617002	510
923	0.0006686109709625947	7202
649	0.0006680640499229525	4416
899	0.0006669702078436681	7015
1151	0.0006666967473238469	8505
269	0.0006653294447247415	1503
883	0.0006647825236850992	6912
518	0.0006625948395265305	3302
233	0.0006598602343283194	1002
758	0.000658766392249035	5607
820	0.0006563052475706451	6210
1268	0.0006554848660111818	9109
667	0.0006552114054913607	4707
913	0.0006538441028922552	7109
356	0.0006530237213327919	2514
1107	0.0006530237213327919	8443
852	0.0006513829582138653	6603
724	0.0006486483530156543	5308
168	0.0006472810504165487	305
299	0.0006445464452183377	1803
150	0.0006442729846985166	103
621	0.0006439995241786955	4105
766	0.00064263222157959	5801
1322	0.0006420853005399478	9705
544	0.0006409914584606634	3702
554	0.0006409914584606634	3805
444	0.0006401710769012001	2836
775	0.0006393506953417368	5810
463	0.0006355222480642414	2908
1173	0.0006355222480642414	8531
760	0.0006349753270245991	5609
815	0.0006347018665047781	6205
262	0.0006330611033858514	1214
674	0.0006327876428660304	4824
1017	0.0006325141823462092	7901
461	0.0006322407218263881	2906
647	0.0006314203402669248	4414
768	0.0006314203402669248	5803
212	0.0006295061166281771	805
762	0.0006295061166281771	5702
574	0.000629232656108356	3901
1270	0.0006281388140290716	9111
1271	0.0006273184324696083	9112
764	0.0006270449719497871	5704
464	0.0006262245903903239	2909
202	0.0006256776693506817	709
1154	0.0006226696036326496	8508
349	0.0006223961431128284	2507
165	0.0006218492220731863	302
825	0.0006218492220731863	6215
553	0.0006207553799939019	3804
929	0.0006199349984344386	7208
641	0.0006196615379146174	4408
400	0.0006193880773947963	2708
1024	0.0006180207747956908	8003
1087	0.0006174738537560486	8423
237	0.0006166534721965853	1006
966	0.0006166534721965853	7317
303	0.0006150127090776586	1902
308	0.0006141923275181953	2002
378	0.0006139188669983743	2607
625	0.0006128250249190899	4201
355	0.0006125515643992688	2513
402	0.0006120046433596265	2710
448	0.0006120046433596265	2841
683	0.0006109108012803422	4909
232	0.0006098169592010578	1001
805	0.0006087231171217734	6112
547	0.0006084496566019522	3705
1131	0.0006081761960821311	8470
803	0.0006079027355623101	6110
541	0.0006068088934830257	3605
1153	0.0006046212093244568	8507
275	0.0006043477488046357	1509
791	0.0006040742882848145	6004
456	0.0006038008277649935	2901
167	0.0006029804462055302	304
1196	0.000602433525165888	8606
450	0.0006021600646460668	2844
689	0.0006021600646460668	5004
1287	0.0006021600646460668	9307
395	0.0006018866041262458	2703
271	0.0005977846963289293	1505
291	0.0005975112358091081	1604
1071	0.0005966908542496449	8407
1312	0.0005966908542496449	9613
1240	0.0005964173937298237	9014
545	0.0005947766306108971	3703
394	0.0005914951043730439	2702
222	0.0005906747228135806	901
718	0.0005901278017739384	5301
195	0.000589307420214475	702
701	0.000589307420214475	5109
1014	0.000589033959694654	7801
930	0.0005884870386550118	7209
491	0.0005873931965757273	2937
492	0.0005868462755360852	2938
1052	0.0005838382098180531	8214
1227	0.0005838382098180531	8907
851	0.0005832912887784108	6602
1228	0.0005830178282585898	8908
1220	0.0005827443677387686	8805
211	0.0005819239861793054	804
1116	0.0005797363020207365	8452
832	0.0005791893809810944	6305
636	0.0005786424599414521	4403
997	0.0005775486178621677	7508
1175	0.0005761813152630622	8533
1308	0.0005761813152630622	9609
1079	0.0005759078547432411	8415
253	0.0005750874731837778	1205
427	0.0005748140126639567	2819
457	0.0005745405521441355	2902
1025	0.0005737201705846723	8007
719	0.0005720794074657457	5302
1075	0.0005687978812278924	8411
266	0.0005685244207080713	1404
361	0.0005685244207080713	2519
1242	0.0005682509601882503	9016
1243	0.0005666101970693236	9017
908	0.0005646959734305759	7104
201	0.0005641490523909337	708
1323	0.0005638755918711126	970
240	0.0005633286708314704	1101
1309	0.0005614144471927226	9610
529	0.0005600471445936172	3406
801	0.000559773684073796	6108
472	0.0005581329209548695	2917
549	0.0005581329209548695	3707
640	0.0005573125393954062	4407
1028	0.0005567656183557639	8103
855	0.0005537575526377318	6703
829	0.0005526637105584474	6302
236	0.0005518433289989841	1005
848	0.0005518433289989841	6506
499	0.0005499291053602364	3102
1278	0.0005471945001620254	9207
657	0.0005469210396422043	4503
1150	0.0005458271975629198	8504
1182	0.0005439129739241721	8540
767	0.000543639513404351	5802
1214	0.0005430925923647088	8715
486	0.0005419987502854244	2932
1238	0.0005400845266466767	9011
1225	0.0005398110661268556	8905
260	0.0005387172240475712	1212
627	0.0005378968424881079	4203
708	0.0005373499214484657	5203
200	0.0005368030004088235	707
710	0.0005351622372898969	5205
972	0.0005321541715718647	7323
360	0.0005307868689727592	2518
573	0.0005294195663736538	3825
778	0.0005272318822150849	5902
839	0.0005261380401358005	6402
268	0.0005253176585763372	1502
454	0.0005250441980565161	2849
1232	0.0005225830533781262	9004
670	0.0005201219086997362	4807
274	0.0005195749876600941	1508
823	0.0005190280666204518	6213
488	0.000516840382461883	2934
830	0.0005160200009024197	6303
1059	0.0005160200009024197	8306
810	0.0005143792377834931	6117
452	0.0005135588562240298	2846
633	0.0005132853957042087	4304
379	0.0005108242510258187	2608
653	0.0005108242510258187	4420
688	0.0005097304089465344	5003
187	0.0005056285011492179	508
408	0.0005048081195897545	2716
700	0.0005039877380302912	5108
252	0.0005018000538717225	1204
833	0.0005015265933519013	6306
1221	0.0005015265933519013	8901
433	0.0004998858302329746	2825
733	0.0004971512250347636	5406
632	0.0004935962382770894	4303
396	0.0004919554751581627	2704
870	0.0004905881725590572	6814
365	0.000490041251519415	2523
663	0.000490041251519415	4703
690	0.000487306646321204	5005
259	0.0004864862647617407	1211
265	0.00048621280424191956	1401
1310	0.0004859393437220985	9611
928	0.00048375165956352964	7207
806	0.00048293127800406636	6113
1023	0.00048238435696442415	8002
263	0.0004788293702067498	1301
273	0.0004774620676076443	1507
965	0.0004758213044887177	7316
384	0.0004730866992905067	2613
1183	0.0004730866992905067	8541
567	0.0004722663177310434	3818
831	0.00047144593617158006	6304
800	0.00047035209409229564	6107
834	0.0004692582520130113	6307
652	0.00046843787045354793	4419
1300	0.00046761748889408465	9601
270	0.00046707056785444244	1504
727	0.00046707056785444244	5311
501	0.0004665236468148002	3104
1209	0.000465976725775158	8710
295	0.0004635155810967681	1703
658	0.0004616013574580204	4504
225	0.0004607809758985571	904
556	0.00045749944966070385	3807
1230	0.00045613214706159835	9002
226	0.00045585868654177727	905
340	0.00045585868654177727	2401
1174	0.00045558522602195614	8532
844	0.00045476484446249285	6501
412	0.00045285062082374514	2804
206	0.00045230369978410293	713
157	0.0004501160156255341	204
1176	0.0004490221735462497	8534
1036	0.00044656102886785976	8111
622	0.00044382642366964876	4106
692	0.00044355296314982763	5007
978	0.00044327950263000655	7403
611	0.00044218566055072213	4013
1277	0.0004416387395110799	9206
181	0.00043917759483269	501
630	0.000436442989634479	4301
802	0.00043562260807501567	6109
170	0.00043507568703537346	307
300	0.0004328880028768047	1804
406	0.0004320676213173414	2714
1229	0.00043097377923805697	9001
799	0.00042987993715877255	6106
907	0.0004271453319605615	7103
207	0.00042605148988127714	714
1133	0.00042605148988127714	8472
214	0.0004252311083218138	807
868	0.0004246841872821716	6812
977	0.0004235903452028872	7402
338	0.0004224965031236028	2308
634	0.00042222304260378167	4401
968	0.0004205822794848551	7319
410	0.0004167538322073596	2802
451	0.0004162069111677174	2845
884	0.00041319884544968534	6913
500	0.0004121050033704009	3103
618	0.00040882347713254766	4102
1037	0.0004077296350532633	8112
694	0.00040745617453344217	5102
846	0.0004052684903748733	6504
656	0.00040417464829558896	4502
334	0.00040390118777576783	2304
748	0.0004006196615379146	5513
1167	0.0003995258194586302	8523
417	0.0003978850563397036	2809
681	0.00039733813530006137	4907
795	0.0003967912142604192	6102
230	0.000396244293220777	909
902	0.0003932362275027449	7018
796	0.00039296276698292374	6103
426	0.00039214238542346045	2818
828	0.00039214238542346045	6301
422	0.00038776701710632283	2814
304	0.00038639971450721733	1903
255	0.00038257126722972186	1207
859	0.0003822978067099008	6803
1029	0.0003809305041107953	8104
250	0.00037819589891258424	1202
1018	0.00037819589891258424	7903
817	0.00037764897787294203	6207
706	0.00037737551735312095	5201
707	0.00037682859631347874	5202
1273	0.00037628167527383653	9114
223	0.0003760082147540154	902
1163	0.0003735470700756255	8518
235	0.0003716328464368778	1004
292	0.0003713593859170567	1605
906	0.0003708124648774145	7102
1295	0.00037053900435759336	9504
910	0.000369445162278309	7106
210	0.0003683513201990246	803
819	0.00036589017552063466	6209
818	0.000364249412401708	6208
793	0.00036397595188188695	6006
601	0.00036206172824313924	4003
238	0.0003590536625251071	1007
914	0.00035303753108904286	7110
388	0.0003516702284899373	2617
677	0.0003492090838115474	4903
998	0.0003483887022520841	7601
662	0.00034811524173226303	4702
437	0.0003478417812124419	2829
909	0.00034483371549440977	7105
984	0.0003440133339349465	7410
659	0.00034373987341512535	4601
449	0.00034291949185566206	2843
346	0.00034018488665745107	2504
809	0.00033854412353852444	6116
798	0.0003382706630187033	6105
1314	0.0003355360578204923	9615
387	0.0003325279921024602	2616
661	0.0003317076105429969	4701
1279	0.00033143415002317577	9208
1234	0.00033034030794389135	9006
804	0.00032815262378532256	6111
428	0.00032705878170603814	2820
686	0.0003235037949483638	5001
403	0.0003221364923492583	2711
993	0.00032186303182943723	7504
927	0.0003210426502699739	7206
418	0.0003196753476708684	2810
353	0.0003191284266312262	2511
430	0.0003188549661114051	2822
654	0.00031803458455194176	4421
169	0.00031748766351229955	306
655	0.00031612036091319405	4501
227	0.00031529997935373077	906
1031	0.0003125653741555197	8106
393	0.00031174499259605643	2701
1184	0.0003092838479176665	8542
992	0.0003057288611599922	7502
660	0.00030408809804106555	4602
850	0.00030244733492213897	6601
1019	0.00030080657180321234	7904
409	0.00029998619024374906	2801
286	0.000297251585045538	1521
1134	0.0002967046640058958	8473
605	0.0002950639008869692	4007
370	0.0002942435193275059	2529
375	0.0002920558351689371	2604
180	0.00029068853256983154	410
1132	0.0002895946904905472	8471
229	0.00028850084841126276	908
1162	0.00028850084841126276	8517
182	0.0002863131642526939	502
1130	0.00028549278269323063	8469
385	0.000281117414376093	2614
249	0.0002808439538562719	1201
186	0.00027838280917788196	507
847	0.00027701550657877646	6505
251	0.00027646858553913425	1203
1294	0.00027455436190038654	9503
915	0.0002709993751427122	7111
345	0.00027072591462289113	2503
442	0.0002701789935832489	2834
190	0.0002690851515039645	601
1170	0.0002666240068255746	8527
1296	0.0002595140333102259	9505
905	0.0002581467307111204	7101
369	0.00025295098083451945	2528
1030	0.0002469348493984552	8105
1164	0.0002442002442002442	8519
826	0.0002439267836804231	6216
845	0.00023763719172453774	6502
912	0.00023736373120471666	7108
732	0.00023681681016507445	5405
1298	0.00023572296808579003	9507
761	0.00023353528392722122	5701
1053	0.000232988362887579	8215
372	0.00022615184989205147	2601
1269	0.00022560492885240926	9110
693	0.000219588797416345	5101
1264	0.0002190418763767028	9105
228	0.0002171276527379551	907
991	0.00021630727117849177	7501
721	0.00021548688961902848	5305
279	0.00021493996857938627	1513
298	0.00021439304753974407	1802
331	0.00021275228442081746	2301
192	0.00021247882390099636	603
335	0.00021247882390099636	2305
277	0.00021111152130189083	1511
377	0.00021029113974242755	2606
155	0.00020892383714332202	202
381	0.00020782999506403763	2610
723	0.00020700961350457431	5307
374	0.000206189231945111	2603
1165	0.0002059157714252899	8521
922	0.00020372808726672108	7201
390	0.00019989963998922567	2619
645	0.0001936100480333403	4412
540	0.0001911489033549504	3604
1261	0.00018950814023602376	9102
1022	0.00018814083763691827	8001
208	0.00018786737711709716	801
1262	0.00018786737711709716	9103
1267	0.00018732045607745495	9108
151	0.00018595315347834945	104
720	0.00018567969295852835	5303
726	0.00018540623243870725	5310
382	0.000182124706200854	2611
380	0.0001804839430819274	2609
1166	0.0001804839430819274	8522
1158	0.00017392089060622095	8513
665	0.00017364743008639984	4705
976	0.00017337396956657874	7401
1168	0.00017173320644765214	8525
613	0.00017145974592783103	4015
856	0.00017009244332872553	6704
1260	0.000165990535531409	9101
854	0.00016571707501158788	6702
924	0.0001648966934521246	7203
1035	0.00016325593033319797	8110
1239	0.00016325593033319797	9013
1304	0.00016270900929355576	9605
687	0.00016161516721427136	5002
401	0.00016106824617462915	2709
224	0.00015806018045659703	903
297	0.00015696633837731263	1801
373	0.0001531378910998172	2602
1316	0.0001528644305799961	9617
352	0.00015122366746106949	2510
853	0.00015122366746106949	6701
503	0.00014985636486196396	3201
599	0.00014876252278267957	4001
366	0.00014794214122321625	2524
386	0.00014712175966375294	2615
383	0.00013782410198983548	2612
376	0.00013208143107359233	2605
