67	0.020242476726564193	Italy
123	0.019668759471747132	Spain
50	0.01949285559644945	Germany
107	0.018773002814462005	Poland
46	0.018045031392076208	France
8	0.01751190733925092	Austria
134	0.016510608356787183	Turkey
13	0.016380710110413508	Belgium
36	0.01601807750595367	CzechRepublic
94	0.015742043732409613	Netherlands
52	0.015420004329941546	Greece
108	0.015376704914483655	Portugal
141	0.015130439489066897	USA
61	0.014594609222775492	India
34	0.014332106516562026	Croatia
115	0.013725914700151548	Serbia
119	0.0135256549036588	Slovenia
21	0.013217146568521325	Bulgaria
77	0.012995237064299631	Lebanon
139	0.012981705996969042	UnitedKingdom
38	0.01293840658151115	Denmark
30	0.012881576098722668	China
118	0.012597423684780255	Slovakia
43	0.012421519809482572	Estonia
80	0.011747672656419138	Lithuania
59	0.011739554016020783	Hungary
110	0.01169896081402901	Romania
76	0.01157988742151981	Latvia
54	0.011160424334271488	Guatemala
126	0.010824853864472829	Sweden
40	0.010740961247023164	Egypt
131	0.010470339900411345	Thailand
26	0.010307967092444251	Canada
127	0.010178068846070578	Switzerland
70	0.009991340116908422	Jordan
18	0.00976672439922061	BosniaHerzegovina
62	0.009669300714440355	Indonesia
66	0.009550227321931153	Israel
12	0.009460922277549253	Belarus
137	0.00943656635635419	Ukraine
41	0.00939056072743018	ElSalvador
133	0.009295843256116043	Tunisia
72	0.009241718986793677	Kenya
81	0.009214656852132496	Macedonia
88	0.009187594717471314	Mexico
102	0.00895215414591903	Pakistan
31	0.008743775709027929	Colombia
19	0.008697770080103919	Brazil
95	0.008673414158908854	NewZealand
45	0.00864905823771379	Finland
121	0.008416323879627626	SouthAfrica
69	0.007994154578913185	Japan
35	0.007980623511582593	Cyprus
93	0.007921086815327993	Nepal
116	0.007837194197878329	SierraLeone
144	0.007628815760987227	Vietnam
1	0.007588222558995454	Albania
91	0.007436674604892834	Morocco
140	0.007320307425849751	Uruguay
33	0.0073094825719852785	CostaRica
122	0.007222883741069496	SouthKorea
103	0.00701991773111063	Panama
114	0.006681641047845854	Senegal
58	0.006600454643862308	Honduras
105	0.0064732626109547525	Peru
74	0.006335245724182723	Kyrgyzstan
132	0.00612957350075774	Togo
7	0.005959082052392293	Australia
82	0.005953669625460056	Madagascar
96	0.00587248322147651	Nicaragua
106	0.005864364581078156	Philippines
147	0.005607274301796926	Zimbabwe
130	0.005531500324745616	Tanzania
29	0.00540430829183806	Chile
84	0.005149924226022949	Malaysia
11	0.005084975102836111	Bangladesh
136	0.004968607923793029	Uganda
138	0.004938839575665728	UnitedArabEmirates
104	0.004681749296384499	Paraguay
75	0.00466551201558779	Laos
10	0.004430071444035505	Bahrain
100	0.004419246590171033	Norway
49	0.004340766399653605	Georgia
111	0.004292054557263477	Russia
63	0.004224399220610521	Iran
48	0.0041919246590171036	Gambia
117	0.004140506603160858	Singapore
65	0.004108032041567439	Ireland
89	0.0040945009742368475	Mongolia
68	0.004086382333838493	IvoryCoast
16	0.004013314570253302	Bhutan
86	0.003942953020134228	Malta
39	0.003934834379735874	Ecuador
51	0.003929421952803637	Ghana
24	0.0038455293353539728	Cambodia
142	0.0037886988525654905	Uzbekistan
6	0.003772461571768781	Armenia
42	0.0036317384715306342	Eritrea
15	0.0035667893483437973	Benin
17	0.0035397272136826153	Bolivia
0	0.003509958865555315	Afghanistan
146	0.0034937215847586057	Zambia
101	0.003434184888504005	Oman
83	0.0033854730461138774	Malawi
22	0.0033719419787832865	BurkinaFaso
25	0.0033340549902576315	Cameroon
92	0.003258281013206322	Mozambique
44	0.0031473262610954753	Ethiopia
97	0.0031121454860359387	Niger
14	0.0030607274301796927	Belize
129	0.0030363715089846287	Tajikistan
57	0.0029470664646027277	Guyana
71	0.0028902359818142455	Kazakhstan
9	0.002855055206754709	Azerbaijan
143	0.002855055206754709	Venezuela
60	0.0027873998701017535	Iceland
112	0.0027035072526520893	Rwanda
145	0.00268726997185538	Yemen
85	0.0025871400736090064	Mali
37	0.0025221909504221695	DemocraticRepublicCongo
125	0.002378761636717904	Suriname
55	0.0023625243559211953	Guinea
23	0.0021893266940896296	Burundi
135	0.002164970772894566	Turkmenistan
113	0.0020810781554449014	SaudiArabia
27	0.001983654470664646	CentralAfricanRepublic
124	0.0019647109764018185	Sudan
73	0.0019105867070794544	Kuwait
20	0.0017833946741718986	Brunei
109	0.0017671573933751895	Qatar
32	0.0017509201125784802	Congo
98	0.0016237280796709244	Nigeria
87	0.0016183156527386881	Mauritania
56	0.0015966659450097423	Guinea-Bissau
78	0.0015614851699502056	Liberia
2	0.0015371292487551418	Algeria
47	0.0015100671140939597	Gabon
79	0.001423468283178177	Libya
64	0.0011717904308291838	Iraq
28	0.0011582593634985928	Chad
4	0.0010987226672439922	Angola
