SDensity: 12.2
tolerance: 0.1
gamma1:  -5
gamma2:  0
file1: countriesTest6/g1_m5_g2_0_12.2_1.txt
file2: countriesTest6/g1_m5_g2_0_12.2_2.txt
sn:  1721 14348
s:  13
convergence reached, number of iterations:  2471
Final error 1:  0.0972676629233354  % 
Final error 2:  0.08612646235555874  %
iteration check  2471
