SDensity: 15.6
tolerance: 0.1
gamma1:  -5
gamma2:  0
file1: countriesTest6/g1_m5_g2_0_15.6_1.txt
file2: countriesTest6/g1_m5_g2_0_15.6_2.txt
sn:  2200 18346
s:  16
convergence reached, number of iterations:  2227
Final error 1:  0.09945525643633735  % 
Final error 2:  0.09377442042198489  %
iteration check  2227
