SDensity: 3.6
tolerance: 0.1
gamma1:  -5
gamma2:  0
file1: countriesTest6/g1_m5_g2_0_3.6_1.txt
file2: countriesTest6/g1_m5_g2_0_3.6_2.txt
sn:  508 4234
s:  4
convergence reached, number of iterations:  3060
Final error 1:  0.09611687812379854  % 
Final error 2:  0.09943181818181818  %
iteration check  3060
