SDensity: 6.600000000000001
tolerance: 0.1
gamma1:  -5
gamma2:  0
file1: countriesTest6/g1_m5_g2_0_6.600000000000001_1.txt
file2: countriesTest6/g1_m5_g2_0_6.600000000000001_2.txt
sn:  931 7762
s:  7
convergence reached, number of iterations:  2869
Final error 1:  0.0942684766214178  % 
Final error 2:  0.09775171065493646  %
iteration check  2869
