SDensity: 5.600000000000001
tolerance: 0.1
gamma1:  -5
gamma2:  0
file1: countriesTest6/g1_m5_g2_0_5.600000000000001_1.txt
file2: countriesTest6/g1_m5_g2_0_5.600000000000001_2.txt
sn:  790 6586
s:  6
convergence reached, number of iterations:  2748
Final error 1:  0.08962581223392337  % 
Final error 2:  0.09994003597841294  %
iteration check  2748
