000 (889.032.000) 07/29 08:49:42 Job submitted from host: <192.168.0.155:9618?addrs=192.168.0.155-9618+[--1]-9618&noUDP&sock=426_c76f_3>
...
001 (889.032.000) 07/29 08:49:49 Job executing on host: <192.168.0.163:9618?addrs=192.168.0.163-9618+[--1]-9618&noUDP&sock=523_501f_4>
...
005 (889.032.000) 07/29 09:36:37 Job terminated.
	(1) Normal termination (return value 0)
		Usr 0 00:46:44, Sys 0 00:00:00  -  Run Remote Usage
		Usr 0 00:00:00, Sys 0 00:00:00  -  Run Local Usage
		Usr 0 00:46:44, Sys 0 00:00:00  -  Total Remote Usage
		Usr 0 00:00:00, Sys 0 00:00:00  -  Total Local Usage
	0  -  Run Bytes Sent By Job
	0  -  Run Bytes Received By Job
	0  -  Total Bytes Sent By Job
	0  -  Total Bytes Received By Job
...
