SDensity: 13.8
tolerance: 0.1
gamma1:  -5
gamma2:  0
file1: countriesTest6/g1_m5_g2_0_13.8_1.txt
file2: countriesTest6/g1_m5_g2_0_13.8_2.txt
sn:  1946 16229
s:  14
convergence reached, number of iterations:  2412
Final error 1:  0.09659761725877428  % 
Final error 2:  0.08998585936495694  %
iteration check  2412
