surfNumber1: 500
surfNumber2: 5000
tolerance: 1.0
gamma1:  0
gamma2:  -12
file1: balTest/12_1.txt
file2: balTest/12_2.txt
convergence reached, number of iterations:  951
Final error 1:  0.676818950930626  % 
Final error 2:  0.9340338587273789  %
iteration check  951
