40	0.025664335664335663	Dialictus    sp.
20	0.02423076923076923	Bombus    vagans
51	0.02048076923076923	Evylaeus    quebecensis
84	0.018006993006993006	Sphaerophoria    bifurcata
19	0.01687937062937063	Bombus    terricola
72	0.016153846153846154	Parasyrphus    relictus
95	0.014816433566433567	Tropidia    quadrata
47	0.014702797202797203	Eusphalerum    phothos
67	0.014615384615384615	Orthoneura    pulchella
4	0.014545454545454545	Andrena    miranda
21	0.01444055944055944	Bombylius    major
5	0.014318181818181818	Andrena    nivalis
61	0.014318181818181818	Mallota    posticata
50	0.014125874125874125	Evylaeus    divergens
99	0.013916083916083916	Xylota    hinei
17	0.013828671328671329	Bombus    perplexus
41	0.013776223776223777	Eclimus    harrisi
36	0.013312937062937062	Crabro    sp.
69	0.013295454545454546	Osmia    proxima
11	0.013251748251748251	Andrena    w-scripta
38	0.013234265734265734	Dialictus    cressoni
101	0.013234265734265734	Zeraea    americana
83	0.01305944055944056	Sarcophaga    nearctica
76	0.01284090909090909	Phaonia    serva
48	0.012805944055944056	Eusphalerum    sp.
18	0.012727272727272728	Bombus    ternarius
77	0.012456293706293706	Pidonia    ruficolis
88	0.01145979020979021	Syritta    pipiens
23	0.01125	Cantharis    sp.
90	0.011162587412587412	Temnostoma    alternans
13	0.011057692307692308	Anthonomus    sp.
0	0.011022727272727273	Acmaeopsoides    rufula
59	0.01097027972027972	Judolia    montivagans
2	0.010944055944055944	Ancistrocerus    sp.
6	0.010944055944055944	Andrena    rufosignata
33	0.010900349650349651	Cheilosia    sialia
98	0.010900349650349651	Xylota    bigelowi
7	0.010891608391608392	Andrena    sigmundi
12	0.010865384615384615	Anthaxia    expansa
89	0.010856643356643356	Syritta    rectus
78	0.01083041958041958	Pieris    napi
91	0.010786713286713287	Temnostoma    balyras
28	0.010777972027972028	Chalcosyrphus    curvarius
56	0.010751748251748251	Hylaeus    basalis
100	0.010751748251748251	Xylota    sp.
96	0.010743006993006994	Tychius    stephensi
31	0.010708041958041958	Chalcosyrphus    nigra
80	0.010699300699300699	Psithyrus    sp.
49	0.01069055944055944	Evodinus    monticola
3	0.010664335664335665	Andrena    melanochroa
24	0.010655594405594406	Carposcalis    confusus
29	0.01062062937062937	Chalcosyrphus    inarmatus
65	0.01062062937062937	Nomada    sayi
37	0.010594405594405594	Dalopius    sp.
60	0.010594405594405594	Lygus    refidorsus
71	0.010576923076923078	Paramyia    nitens
92	0.010568181818181819	Temnostoma    barberi
30	0.010533216783216783	Chalcosyrphus    memorum
44	0.010524475524475524	Eudasyphora    cyanicolor
53	0.010524475524475524	Halictus    confusus
14	0.010515734265734265	Blera    badia
15	0.010498251748251749	Blera    confusa
66	0.010498251748251749	Orsodacne    atra
87	0.010402097902097902	Sphecodes    sp.
85	0.010314685314685315	Sphaerophoria    longipilosa
8	0.010253496503496504	Andrena    thaspii
27	0.01013111888111888	Celastrina    argiolus
16	0.010078671328671329	Blera    nigripes
86	0.009947552447552448	Sphaerophoria    sp.
62	0.008068181818181818	Melagyna    lasiophthalma
54	0.007963286713286713	Halictus    rubicundus
39	0.0070891608391608395	Dialictus    imitatus
46	0.005603146853146853	Eusphalerum    convexum
64	0.005078671328671329	Nomada    cuneata
74	0.005061188811188811	Pegohylemyia    fugax
75	0.004982517482517482	Phalaenophana    pyramusalis
22	0.004956293706293706	Bombylius    pigmaeus
34	0.004956293706293706	Cheilosia    slossonae
93	0.004947552447552447	Thamnotettix    confinis
1	0.004851398601398602	Agiotes    stabilis
43	0.00479020979020979	Eremomyioides    setosa
94	0.0047115384615384615	Trachysida    aspera
9	0.004659090909090909	Andrena    wheeleri
26	0.004606643356643357	Cateres    pennatus
35	0.004571678321678322	Cheilosia    tristis
70	0.004344405594405594	Osmia    pumila
73	0.004344405594405594	Passaloecus    sp.
45	0.004309440559440559	Eupyses    vestris
58	0.0042657342657342655	Hylaeus    stevensi
57	0.004195804195804196	Hylaeus    ellipticus
52	0.0040472027972027974	Fannia    ungulata
81	0.003933566433566434	Pyrophaena    rosarum
79	0.0037325174825174824	Poanes    hobomok
82	0.0035402097902097903	Rhopalum    sp.
10	0.0034877622377622376	Andrena    wilkella
68	0.0032954545454545454	Osmia    lignaria
32	0.002465034965034965	Cheilosia    pallipes
63	0.0023776223776223776	Melanostoma    sp.
97	0.0022814685314685315	Vespula    arenaria
55	0.0022115384615384614	Hoplitis    producta
25	0.0016433566433566435	Carposcalis    obscura
42	0.0013986013986013986	Ephemerella    sp.
