105	0.16866869918699187	Cornus    canadensis
108	0.11386178861788618	Maian hemum    canadense
102	0.10965447154471544	Aralia    nudicaulis
107	0.10173780487804877	Linnaea    borealis
104	0.09138211382113821	Clintonia    borealis
110	0.07326219512195122	Oxalis    montana
113	0.0632520325203252	Trillium    undulatum
103	0.05997967479674797	Chimaphila    umbella a
112	0.059339430894308945	Trientalis    borealis
106	0.05807926829268293	Cypripedium    acaule
111	0.05303861788617886	Pyrola    secunda
109	0.047865853658536586	Medeola    virginiana
