40	0.025595446584938703	Dialictus    sp.
20	0.02352014010507881	Bombus    vagans
51	0.01990367775831874	Evylaeus    quebecensis
84	0.01840630472854641	Sphaerophoria    bifurcata
72	0.016768826619964972	Parasyrphus    relictus
19	0.016243432574430824	Bombus    terricola
47	0.014947460595446585	Eusphalerum    phothos
5	0.014824868651488616	Andrena    nivalis
50	0.014395796847635726	Evylaeus    divergens
17	0.014316987740805604	Bombus    perplexus
21	0.01425569176882662	Bombylius    major
67	0.01424693520140105	Orthoneura    pulchella
4	0.014194395796847635	Andrena    miranda
101	0.013896672504378284	Zeraea    americana
95	0.013598949211908932	Tropidia    quadrata
99	0.013581436077057793	Xylota    hinei
41	0.013528896672504379	Eclimus    harrisi
76	0.013380035026269702	Phaonia    serva
11	0.013336252189141857	Andrena    w-scripta
69	0.013248686514886164	Osmia    proxima
38	0.013143607705779334	Dialictus    cressoni
61	0.013003502626970228	Mallota    posticata
77	0.012924693520140106	Pidonia    ruficolis
83	0.01276707530647986	Sarcophaga    nearctica
36	0.012732049036777583	Crabro    sp.
18	0.012425569176882662	Bombus    ternarius
48	0.012329246935201401	Eusphalerum    sp.
24	0.011471103327495622	Carposcalis    confusus
13	0.011260945709281961	Anthonomus    sp.
3	0.011147110332749562	Andrena    melanochroa
30	0.011129597197898423	Chalcosyrphus    memorum
8	0.01105954465849387	Andrena    thaspii
80	0.011050788091068301	Psithyrus    sp.
87	0.01095446584938704	Sphecodes    sp.
96	0.010910683012259195	Tychius    stephensi
6	0.010884413309982487	Andrena    rufosignata
98	0.010840630472854641	Xylota    bigelowi
12	0.010831873905429073	Anthaxia    expansa
0	0.010823117338003502	Acmaeopsoides    rufula
23	0.010823117338003502	Cantharis    sp.
56	0.010753064798598949	Hylaeus    basalis
71	0.010735551663747811	Paramyia    nitens
100	0.010735551663747811	Xylota    sp.
31	0.010718038528896672	Chalcosyrphus    nigra
33	0.010709281961471103	Cheilosia    sialia
60	0.010674255691768827	Lygus    refidorsus
86	0.010665499124343258	Sphaerophoria    sp.
92	0.010647985989492119	Temnostoma    barberi
28	0.010621716287215411	Chalcosyrphus    curvarius
91	0.010621716287215411	Temnostoma    balyras
16	0.010612959719789842	Blera    nigripes
89	0.010612959719789842	Syritta    rectus
85	0.010604203152364274	Sphaerophoria    longipilosa
7	0.010577933450087566	Andrena    sigmundi
78	0.010577933450087566	Pieris    napi
44	0.010542907180385289	Eudasyphora    cyanicolor
29	0.010516637478108581	Chalcosyrphus    inarmatus
59	0.010490367775831873	Judolia    montivagans
15	0.010481611208406304	Blera    confusa
53	0.010464098073555167	Halictus    confusus
2	0.010455341506129597	Ancistrocerus    sp.
49	0.010446584938704028	Evodinus    monticola
27	0.010385288966725043	Celastrina    argiolus
37	0.010359019264448337	Dalopius    sp.
65	0.01033274956217163	Nomada    sayi
66	0.01031523642732049	Orsodacne    atra
88	0.01031523642732049	Syritta    pipiens
14	0.010236427320490368	Blera    badia
90	0.009798598949211909	Temnostoma    alternans
54	0.008669001751313484	Halictus    rubicundus
62	0.008239929947460596	Melagyna    lasiophthalma
39	0.006742556917688266	Dialictus    imitatus
46	0.005735551663747811	Eusphalerum    convexum
22	0.0055253940455341505	Bombylius    pigmaeus
34	0.005490367775831874	Cheilosia    slossonae
93	0.005455341506129597	Thamnotettix    confinis
75	0.005359019264448336	Phalaenophana    pyramusalis
74	0.0052714535901926445	Pegohylemyia    fugax
1	0.005140105078809107	Agiotes    stabilis
64	0.005070052539404553	Nomada    cuneata
26	0.0049387040280210156	Cateres    pennatus
43	0.0049387040280210156	Eremomyioides    setosa
94	0.004754816112084063	Trachysida    aspera
35	0.004746059544658494	Cheilosia    tristis
52	0.004702276707530648	Fannia    ungulata
9	0.004544658493870403	Andrena    wheeleri
45	0.004430823117338003	Eupyses    vestris
57	0.004290718038528897	Hylaeus    ellipticus
73	0.004264448336252189	Passaloecus    sp.
81	0.00425569176882662	Pyrophaena    rosarum
70	0.004141856392294221	Osmia    pumila
58	0.004001751313485114	Hylaeus    stevensi
82	0.0035288966725043783	Rhopalum    sp.
79	0.00351138353765324	Poanes    hobomok
68	0.003362521891418564	Osmia    lignaria
10	0.003318739054290718	Andrena    wilkella
32	0.0025569176882662	Cheilosia    pallipes
63	0.0025043782837127844	Melanostoma    sp.
97	0.002241681260945709	Vespula    arenaria
55	0.0020753064798598947	Hoplitis    producta
25	0.0019964973730297723	Carposcalis    obscura
42	0.0013747810858143609	Ephemerella    sp.
