105	0.16717162872154115	Cornus    canadensis
108	0.11428196147110332	Maian hemum    canadense
102	0.10989492119089317	Aralia    nudicaulis
107	0.10314360770577934	Linnaea    borealis
104	0.09035026269702277	Clintonia    borealis
110	0.07285464098073555	Oxalis    montana
113	0.06225919439579685	Trillium    undulatum
112	0.06010507880910683	Trientalis    borealis
106	0.05933450087565674	Cypripedium    acaule
103	0.059045534150612956	Chimaphila    umbella a
111	0.0531260945709282	Pyrola    secunda
109	0.048537653239929944	Medeola    virginiana
