105	0.16715073529411764	Cornus    canadensis
108	0.11386029411764706	Maian hemum    canadense
102	0.10926470588235294	Aralia    nudicaulis
107	0.10318933823529412	Linnaea    borealis
104	0.0909375	Clintonia    borealis
110	0.07227022058823529	Oxalis    montana
113	0.06365808823529412	Trillium    undulatum
112	0.06043198529411765	Trientalis    borealis
103	0.059862132352941175	Chimaphila    umbella a
106	0.058722426470588236	Cypripedium    acaule
111	0.05292279411764706	Pyrola    secunda
109	0.04784007352941176	Medeola    virginiana
