105	0.16606140350877194	Cornus    canadensis
108	0.11352631578947368	Maian hemum    canadense
102	0.10951754385964912	Aralia    nudicaulis
107	0.10224561403508772	Linnaea    borealis
104	0.09182456140350877	Clintonia    borealis
110	0.07289473684210526	Oxalis    montana
113	0.06206140350877193	Trillium    undulatum
112	0.060859649122807016	Trientalis    borealis
103	0.06068421052631579	Chimaphila    umbella a
106	0.05802631578947368	Cypripedium    acaule
111	0.053982456140350875	Pyrola    secunda
109	0.04842105263157895	Medeola    virginiana
