40	0.029655172413793104	Dialictus    sp.
20	0.028765880217785846	Bombus    vagans
51	0.021098003629764064	Evylaeus    quebecensis
84	0.02043557168784029	Sphaerophoria    bifurcata
19	0.017087114337568057	Bombus    terricola
72	0.016152450090744102	Parasyrphus    relictus
48	0.015989110707803993	Eusphalerum    sp.
47	0.015517241379310345	Eusphalerum    phothos
38	0.015317604355716878	Dialictus    cressoni
24	0.014891107078039928	Carposcalis    confusus
50	0.014019963702359346	Evylaeus    divergens
4	0.013992740471869328	Andrena    miranda
99	0.013992740471869328	Xylota    hinei
67	0.013929219600725953	Orthoneura    pulchella
76	0.013756805807622504	Phaonia    serva
21	0.013720508166969146	Bombylius    major
5	0.01365698729582577	Andrena    nivalis
17	0.013448275862068966	Bombus    perplexus
36	0.013448275862068966	Crabro    sp.
61	0.013421052631578948	Mallota    posticata
101	0.013312159709618875	Zeraea    americana
95	0.013239564428312159	Tropidia    quadrata
69	0.013121597096188748	Osmia    proxima
11	0.013039927404718694	Andrena    w-scripta
41	0.012849364791288566	Eclimus    harrisi
77	0.0126497277676951	Pidonia    ruficolis
18	0.012486388384754991	Bombus    ternarius
83	0.012441016333938295	Sarcophaga    nearctica
86	0.011524500907441016	Sphaerophoria    sp.
12	0.011370235934664246	Anthaxia    expansa
71	0.010753176043557168	Paramyia    nitens
98	0.010245009074410163	Xylota    bigelowi
89	0.010054446460980037	Syritta    rectus
90	0.009972776769509983	Temnostoma    alternans
78	0.009945553539019963	Pieris    napi
7	0.009863883847549909	Andrena    sigmundi
28	0.009836660617059892	Chalcosyrphus    curvarius
29	0.009791288566243193	Chalcosyrphus    inarmatus
13	0.009782214156079855	Anthonomus    sp.
92	0.009773139745916516	Temnostoma    barberi
100	0.009773139745916516	Xylota    sp.
85	0.009764065335753176	Sphaerophoria    longipilosa
6	0.009745916515426497	Andrena    rufosignata
37	0.009727767695099818	Dalopius    sp.
14	0.00971869328493648	Blera    badia
65	0.009709618874773139	Nomada    sayi
49	0.00969147005444646	Evodinus    monticola
53	0.00969147005444646	Halictus    confusus
8	0.009646098003629764	Andrena    thaspii
87	0.009646098003629764	Sphecodes    sp.
3	0.009600725952813067	Andrena    melanochroa
56	0.009582577132486388	Hylaeus    basalis
2	0.00956442831215971	Ancistrocerus    sp.
96	0.009500907441016334	Tychius    stephensi
91	0.009482758620689655	Temnostoma    balyras
16	0.009464609800362976	Blera    nigripes
59	0.009455535390199638	Judolia    montivagans
27	0.009428312159709618	Celastrina    argiolus
60	0.00941923774954628	Lygus    refidorsus
80	0.00941923774954628	Psithyrus    sp.
30	0.0094010889292196	Chalcosyrphus    memorum
23	0.009382940108892922	Cantharis    sp.
44	0.009364791288566243	Eudasyphora    cyanicolor
15	0.009337568058076225	Blera    confusa
0	0.009310344827586206	Acmaeopsoides    rufula
66	0.009301270417422867	Orsodacne    atra
33	0.009283121597096189	Cheilosia    sialia
88	0.009201451905626134	Syritta    pipiens
31	0.009128856624319419	Chalcosyrphus    nigra
62	0.009010889292196008	Melagyna    lasiophthalma
54	0.008929219600725952	Halictus    rubicundus
39	0.008257713248638839	Dialictus    imitatus
46	0.0070961887477313974	Eusphalerum    convexum
74	0.006098003629764065	Pegohylemyia    fugax
93	0.005762250453720508	Thamnotettix    confinis
64	0.0056715063520871144	Nomada    cuneata
43	0.005662431941923775	Eremomyioides    setosa
22	0.005635208711433757	Bombylius    pigmaeus
58	0.005480943738656987	Hylaeus    stevensi
1	0.005362976406533575	Agiotes    stabilis
73	0.005281306715063521	Passaloecus    sp.
57	0.0052540834845735025	Hylaeus    ellipticus
9	0.005181488203266788	Andrena    wheeleri
26	0.005172413793103448	Cateres    pennatus
34	0.005117967332123412	Cheilosia    slossonae
75	0.005099818511796733	Phalaenophana    pyramusalis
52	0.0050635208711433755	Fannia    ungulata
81	0.004954627949183303	Pyrophaena    rosarum
94	0.004918330308529946	Trachysida    aspera
45	0.004882032667876588	Eupyses    vestris
35	0.0048548094373865695	Cheilosia    tristis
70	0.00470961887477314	Osmia    pumila
79	0.004183303085299455	Poanes    hobomok
82	0.004174228675136116	Rhopalum    sp.
10	0.004156079854809438	Andrena    wilkella
68	0.004137931034482759	Osmia    lignaria
32	0.0035662431941923776	Cheilosia    pallipes
63	0.003457350272232305	Melanostoma    sp.
97	0.0030036297640653356	Vespula    arenaria
55	0.00279491833030853	Hoplitis    producta
25	0.002695099818511797	Carposcalis    obscura
42	0.001206896551724138	Ephemerella    sp.
