105	0.1837568058076225	Cornus    canadensis
108	0.11643375680580763	Maian hemum    canadense
102	0.10903811252268603	Aralia    nudicaulis
107	0.10250453720508167	Linnaea    borealis
104	0.090508166969147	Clintonia    borealis
110	0.06764065335753176	Oxalis    montana
113	0.06138838475499093	Trillium    undulatum
103	0.0585934664246824	Chimaphila    umbella a
112	0.05690562613430127	Trientalis    borealis
106	0.05624319419237749	Cypripedium    acaule
111	0.05168784029038113	Pyrola    secunda
109	0.04540834845735027	Medeola    virginiana
