105	0.17556756756756756	Cornus    canadensis
108	0.11630630630630631	Maian hemum    canadense
102	0.10890990990990991	Aralia    nudicaulis
107	0.10162162162162162	Linnaea    borealis
104	0.09062162162162161	Clintonia    borealis
110	0.07211711711711712	Oxalis    montana
113	0.0622972972972973	Trillium    undulatum
103	0.05936036036036036	Chimaphila    umbella a
112	0.0580990990990991	Trientalis    borealis
106	0.056324324324324326	Cypripedium    acaule
111	0.05154054054054054	Pyrola    secunda
109	0.047342342342342345	Medeola    virginiana
