105	0.16626094570928196	Cornus    canadensis
108	0.11345008756567426	Maian hemum    canadense
102	0.10823117338003503	Aralia    nudicaulis
107	0.1031260945709282	Linnaea    borealis
104	0.09339754816112084	Clintonia    borealis
110	0.0721015761821366	Oxalis    montana
113	0.061943957968476356	Trillium    undulatum
112	0.05966725043782837	Trientalis    borealis
103	0.05951838879159369	Chimaphila    umbella a
106	0.059430823117338	Cypripedium    acaule
111	0.054098073555166375	Pyrola    secunda
109	0.04887915936952714	Medeola    virginiana
