67	0.01954391127206881	Italy
50	0.018632488305417232	Germany
30	0.017843103968613248	China
141	0.01780839746491625	USA
46	0.017623924852874603	France
61	0.01749811377697299	India
123	0.01745076957899502	Spain
13	0.016303945978572508	Belgium
94	0.01583257884412253	Netherlands
8	0.015289535234646144	Austria
107	0.015138637392485287	Poland
139	0.01460898596650068	UnitedKingdom
36	0.014576354308133394	CzechRepublic
134	0.013721518032292138	Turkey
108	0.013362758412554701	Portugal
52	0.01267428700769579	Greece
127	0.012057492077863287	Switzerland
21	0.012050135808057945	Bulgaria
131	0.011808322015995172	Thailand
69	0.011635166742115588	Japan
119	0.011506714953976158	Slovenia
38	0.011489738946733061	Denmark
62	0.011445978572506413	Indonesia
115	0.011235853327297419	Serbia
77	0.010808057944771389	Lebanon
19	0.010792590915949902	Brazil
43	0.010724875509280217	Estonia
34	0.010697713897691263	Croatia
126	0.010484759317941754	Sweden
66	0.010478346159649918	Israel
110	0.010426097781801721	Romania
26	0.010405915195412705	Canada
118	0.010120152406820583	Slovakia
121	0.009952278557416629	SouthAfrica
80	0.00981665912177456	Lithuania
40	0.009749320959710275	Egypt
137	0.009557303455560585	Ukraine
72	0.009545420250490417	Kenya
76	0.009501659876263769	Latvia
59	0.009323034555605856	Hungary
122	0.009239286253206578	SouthKorea
144	0.009196091745888034	Vietnam
88	0.008982005432322318	Mexico
54	0.008971442583371058	Guatemala
102	0.008952580353100951	Pakistan
95	0.008940885770333484	NewZealand
45	0.008846197374377546	Finland
133	0.00877791610079976	Tunisia
35	0.008396899049343595	Cyprus
18	0.008051342990795232	BosniaHerzegovina
7	0.007837822544137618	Australia
81	0.00781330164478648	Macedonia
140	0.007812169910970273	Uruguay
12	0.007811226799456767	Belarus
93	0.007699562396257733	Nepal
91	0.007651086464463558	Morocco
103	0.007565263316734571	Panama
105	0.007380036215482119	Peru
70	0.007347781801720236	Jordan
31	0.007347027312509431	Colombia
1	0.007303644182888184	Albania
41	0.0072423419345103365	ElSalvador
106	0.0069631809265127504	Philippines
84	0.006926210955183341	Malaysia
116	0.006762486796438811	SierraLeone
114	0.006657990040742417	Senegal
117	0.006540289723856949	Singapore
74	0.006514448468386902	Kyrgyzstan
130	0.0064861551229817415	Tanzania
111	0.006349781198128867	Russia
82	0.006287158593632111	Madagascar
29	0.006163233740757507	Chile
132	0.006021767013731704	Togo
147	0.005980081484834767	Zimbabwe
58	0.00590142598460842	Honduras
100	0.005729213822242342	Norway
33	0.005727704843820733	CostaRica
138	0.005538328051908858	UnitedArabEmirates
63	0.005124867964388109	Iran
136	0.005002074845329712	Uganda
11	0.004893805643579297	Bangladesh
96	0.004854760826920175	Nicaragua
142	0.004722725215029425	Uzbekistan
17	0.004718764146672703	Bolivia
65	0.004671985815602837	Ireland
49	0.004600309340576429	Georgia
51	0.004581069865700921	Ghana
48	0.00454919269654444	Gambia
104	0.00450354609929078	Paraguay
75	0.004473932397766712	Laos
68	0.004375471555756753	IvoryCoast
71	0.00428172627131432	Kazakhstan
0	0.004256450882752377	Afghanistan
89	0.00413384638599668	Mongolia
6	0.004061981288667572	Armenia
39	0.004038780745435341	Ecuador
44	0.003972385694884563	Ethiopia
42	0.003961634223630602	Eritrea
86	0.0038737362305719027	Malta
10	0.0038544967556963937	Bahrain
24	0.003776595744680851	Cambodia
16	0.003726422212162366	Bhutan
92	0.0037164252301192095	Mozambique
22	0.0036819073487249134	BurkinaFaso
146	0.0036424852874603893	Zambia
60	0.0035330843518937677	Iceland
97	0.0035117700316885467	Niger
101	0.0034234947940244456	Oman
83	0.0033601177003168854	Malawi
129	0.0033523841859061415	Tajikistan
9	0.0033386147578089633	Azerbaijan
25	0.003337483023992757	Cameroon
15	0.0033333333333333335	Benin
112	0.0032410970273125095	Rwanda
143	0.003195261807756149	Venezuela
57	0.0031775313113022482	Guyana
85	0.003043798098687189	Mali
14	0.003029274181379206	Belize
125	0.0028425381017051455	Suriname
145	0.002817451335445903	Yemen
37	0.0027897238569488457	DemocraticRepublicCongo
113	0.0027314395654142146	SaudiArabia
55	0.002611853025501735	Guinea
23	0.00249830239927569	Burundi
27	0.0023806020823902217	CentralAfricanRepublic
32	0.0023321261505960464	Congo
124	0.0022713897691263017	Sudan
135	0.0022419646899049343	Turkmenistan
109	0.002115021880187113	Qatar
98	0.002059189678587596	Nigeria
73	0.002055605854836276	Kuwait
56	0.0018722649766108345	Guinea-Bissau
87	0.0018590614154217595	Mauritania
2	0.0017779538252602988	Algeria
78	0.0017647502640712237	Liberia
47	0.001746831145314622	Gabon
79	0.0016979779689150446	Libya
20	0.0016129093103968613	Brunei
64	0.0013220537196318093	Iraq
28	0.001295269352648257	Chad
4	0.0011634223630602083	Angola
