SDensity: 0.0
tolerance: 1.0
gamma1:  10
gamma2:  -10
file1: countriesTest2/g1_10_g2_m10_0_1.txt
file2: countriesTest2/g1_10_g2_m10_0_2.txt
s:  1 1
convergence reached, number of iterations:  591528
Final error 1:  0.46168051708217916  % 
Final error 2:  0.9852216748768473  %
iteration check  591528
