SDensity: 1.2
tolerance: 1.0
gamma1:  10
gamma2:  -10
file1: countriesTest2/g1_10_g2_m10_1.2_1.txt
file2: countriesTest2/g1_10_g2_m10_1.2_2.txt
s:  170 1412
convergence reached, number of iterations:  1659
Final error 1:  0.8532423208191127  % 
Final error 2:  0.9687836383207751  %
iteration check  1659
