g1_m10_g2_m10_3.45_1.txt		3.45		0.9692366967764031
g1_m10_g2_m10_2.85_1.txt		2.85		0.9708377927137292
g1_m10_g2_m10_3.9_1.txt		3.9		0.9703968491801875
g1_m10_g2_m10_4.05_1.txt		4.05		0.9695620531700844
g1_m10_g2_m10_4.2_1.txt		4.2		0.9697546984031851
g1_m10_g2_m10_0.75_1.txt		0.75		0.9931803587482341
g1_m10_g2_m10_1.95_1.txt		1.95		0.9742540348473822
g1_m10_g2_m10_4.649999999999999_1.txt		4.649999999999999		0.9699088145896656
g1_m10_g2_m10_3_1.txt		3		0.9685474549424204
g1_m10_g2_m10_5.25_1.txt		5.25		0.9701999229419067
g1_m10_g2_m10_1.8_1.txt		1.8		0.9753970632304465
g1_m10_g2_m10_0.15_1.txt		0.15		0.9987028554304551
g1_m10_g2_m10_5.7_1.txt		5.7		0.9696219872426045
g1_m10_g2_m10_2.25_1.txt		2.25		0.9714028853974913
g1_m10_g2_m10_6_1.txt		6		0.9696048632218845
g1_m10_g2_m10_5.1_1.txt		5.1		0.9701742369108267
g1_m10_g2_m10_5.85_1.txt		5.85		0.9708763217603493
g1_m10_g2_m10_4.5_1.txt		4.5		0.9689926794811422
g1_m10_g2_m10_0.8999999999999999_1.txt		0.8999999999999999		0.9918618091527891
g1_m10_g2_m10_1.35_1.txt		1.35		0.9837022132796781
g1_m10_g2_m10_0_1.txt		0		0.9991052699173766
g1_m10_g2_m10_5.399999999999999_1.txt		5.399999999999999		0.9694550280405839
g1_m10_g2_m10_0.3_1.txt		0.3		0.9980136135964724
g1_m10_g2_m10_1.65_1.txt		1.65		0.97892889250396
g1_m10_g2_m10_2.4_1.txt		2.4		0.971826704910313
g1_m10_g2_m10_1.5_1.txt		1.5		0.9804058392910655
g1_m10_g2_m10_2.55_1.txt		2.55		0.9700329637398861
g1_m10_g2_m10_4.35_1.txt		4.35		0.9671518472537352
g1_m10_g2_m10_3.75_1.txt		3.75		0.9682349415642793
g1_m10_g2_m10_0.45_1.txt		0.45		0.9969947343636286
g1_m10_g2_m10_3.6_1.txt		3.6		0.9677340639582174
g1_m10_g2_m10_4.8_1.txt		4.8		0.9688428442998416
g1_m10_g2_m10_3.3_1.txt		3.3		0.9671432852433751
g1_m10_g2_m10_2.7_1.txt		2.7		0.9699773106725459
g1_m10_g2_m10_1.05_1.txt		1.05		0.9885697161693565
g1_m10_g2_m10_1.2_1.txt		1.2		0.9849308617663427
g1_m10_g2_m10_0.6_1.txt		0.6		0.9949056038357806
g1_m10_g2_m10_3.15_1.txt		3.15		0.9687272571599812
g1_m10_g2_m10_5.55_1.txt		5.55		0.971308703283531
g1_m10_g2_m10_2.1_1.txt		2.1		0.9743310929406225
g1_m10_g2_m10_4.95_1.txt		4.95		0.969215291750503
