105	0.19113702623906706	Cornus    canadensis
108	0.12480466472303207	Maian hemum    canadense
102	0.11106705539358601	Aralia    nudicaulis
107	0.1105072886297376	Linnaea    borealis
104	0.09261807580174927	Clintonia    borealis
110	0.0643731778425656	Oxalis    montana
113	0.059918367346938776	Trillium    undulatum
111	0.053900874635568516	Pyrola    secunda
106	0.05266472303206997	Cypripedium    acaule
103	0.051988338192419825	Chimaphila    umbella a
112	0.05056559766763848	Trientalis    borealis
109	0.036734693877551024	Medeola    virginiana
