105	0.19696317280453257	Cornus    canadensis
102	0.09672521246458923	Aralia    nudicaulis
108	0.09271388101983002	Maian hemum    canadense
107	0.0873201133144476	Linnaea    borealis
104	0.07796033994334278	Clintonia    borealis
110	0.0746742209631728	Oxalis    montana
113	0.06656090651558073	Trillium    undulatum
103	0.06515580736543909	Chimaphila    umbella a
106	0.06320679886685553	Cypripedium    acaule
112	0.06218696883852691	Trientalis    borealis
111	0.05987535410764872	Pyrola    secunda
109	0.05692917847025496	Medeola    virginiana
