20	0.0411377245508982	Bombus    vagans
40	0.04051796407185629	Dialictus    sp.
84	0.02617065868263473	Sphaerophoria    bifurcata
24	0.02573053892215569	Carposcalis    confusus
48	0.025712574850299402	Eusphalerum    sp.
51	0.021733532934131737	Evylaeus    quebecensis
19	0.02151497005988024	Bombus    terricola
38	0.02090119760479042	Dialictus    cressoni
72	0.017047904191616767	Parasyrphus    relictus
86	0.01609880239520958	Sphaerophoria    sp.
47	0.01607185628742515	Eusphalerum    phothos
41	0.012275449101796407	Eclimus    harrisi
17	0.012236526946107785	Bombus    perplexus
5	0.012179640718562874	Andrena    nivalis
77	0.01211377245508982	Pidonia    ruficolis
21	0.012062874251497007	Bombylius    major
4	0.01202694610778443	Andrena    miranda
99	0.011994011976047905	Xylota    hinei
101	0.011979041916167665	Zeraea    americana
11	0.011970059880239522	Andrena    w-scripta
67	0.011952095808383233	Orthoneura    pulchella
69	0.011877245508982035	Osmia    proxima
36	0.011844311377245509	Crabro    sp.
83	0.01181437125748503	Sarcophaga    nearctica
76	0.011805389221556887	Phaonia    serva
18	0.011787425149700598	Bombus    ternarius
61	0.011781437125748502	Mallota    posticata
95	0.011775449101796407	Tropidia    quadrata
50	0.011772455089820359	Evylaeus    divergens
12	0.01171556886227545	Anthaxia    expansa
71	0.011595808383233533	Paramyia    nitens
54	0.0112874251497006	Halictus    rubicundus
62	0.011068862275449102	Melagyna    lasiophthalma
46	0.011002994011976047	Eusphalerum    convexum
39	0.010928143712574851	Dialictus    imitatus
98	0.007428143712574851	Xylota    bigelowi
8	0.007329341317365269	Andrena    thaspii
7	0.007254491017964072	Andrena    sigmundi
65	0.007200598802395209	Nomada    sayi
59	0.007173652694610779	Judolia    montivagans
30	0.0071407185628742514	Chalcosyrphus    memorum
80	0.007134730538922156	Psithyrus    sp.
23	0.007116766467065869	Cantharis    sp.
27	0.007110778443113772	Celastrina    argiolus
56	0.007107784431137724	Hylaeus    basalis
66	0.0071047904191616764	Orsodacne    atra
91	0.007098802395209581	Temnostoma    balyras
96	0.007095808383233533	Tychius    stephensi
92	0.007086826347305389	Temnostoma    barberi
28	0.007071856287425149	Chalcosyrphus    curvarius
60	0.0070688622754491014	Lygus    refidorsus
16	0.007062874251497006	Blera    nigripes
88	0.007041916167664671	Syritta    pipiens
90	0.007041916167664671	Temnostoma    alternans
89	0.007035928143712575	Syritta    rectus
78	0.007	Pieris    napi
13	0.0069940119760479045	Anthonomus    sp.
53	0.006991017964071857	Halictus    confusus
37	0.006988023952095809	Dalopius    sp.
2	0.0069760479041916165	Ancistrocerus    sp.
6	0.006967065868263473	Andrena    rufosignata
29	0.006946107784431138	Chalcosyrphus    inarmatus
31	0.00694311377245509	Chalcosyrphus    nigra
49	0.00694311377245509	Evodinus    monticola
3	0.006925149700598802	Andrena    melanochroa
85	0.0069221556886227545	Sphaerophoria    longipilosa
87	0.006895209580838323	Sphecodes    sp.
44	0.006892215568862275	Eudasyphora    cyanicolor
0	0.006880239520958084	Acmaeopsoides    rufula
15	0.006874251497005988	Blera    confusa
100	0.006844311377245509	Xylota    sp.
33	0.006802395209580838	Cheilosia    sialia
14	0.0067754491017964075	Blera    badia
93	0.0067035928143712575	Thamnotettix    confinis
34	0.006535928143712575	Cheilosia    slossonae
43	0.0064850299401197605	Eremomyioides    setosa
1	0.006461077844311377	Agiotes    stabilis
22	0.006446107784431138	Bombylius    pigmaeus
74	0.006440119760479042	Pegohylemyia    fugax
57	0.006380239520958084	Hylaeus    ellipticus
73	0.006362275449101796	Passaloecus    sp.
58	0.006347305389221557	Hylaeus    stevensi
75	0.006341317365269461	Phalaenophana    pyramusalis
10	0.006332335329341317	Andrena    wilkella
82	0.006326347305389221	Rhopalum    sp.
70	0.006323353293413173	Osmia    pumila
68	0.006299401197604791	Osmia    lignaria
55	0.006269461077844311	Hoplitis    producta
45	0.006263473053892216	Eupyses    vestris
97	0.006248502994011976	Vespula    arenaria
94	0.00624251497005988	Trachysida    aspera
64	0.006236526946107784	Nomada    cuneata
79	0.006227544910179641	Poanes    hobomok
52	0.006197604790419161	Fannia    ungulata
81	0.0061946107784431135	Pyrophaena    rosarum
35	0.006146706586826347	Cheilosia    tristis
25	0.006131736526946108	Carposcalis    obscura
9	0.006122754491017964	Andrena    wheeleri
32	0.006077844311377246	Cheilosia    pallipes
26	0.006065868263473054	Cateres    pennatus
63	0.0059011976047904195	Melanostoma    sp.
42	0.00144311377245509	Ephemerella    sp.
