50	0.025118423942027165	Germany
67	0.02403927596699815	Italy
141	0.022956990933902188	USA
46	0.02203469586222041	France
30	0.021564137152178687	China
123	0.02007717162844684	Spain
13	0.019481130595727328	Belgium
61	0.018938419550145875	India
139	0.01872823665966057	UnitedKingdom
8	0.018436490259434703	Austria
94	0.0177714339492424	Netherlands
36	0.017156570568121216	CzechRepublic
107	0.016629544812874486	Poland
69	0.01639740251592057	Japan
127	0.015666467986322426	Switzerland
108	0.01359914672020579	Portugal
119	0.013439156758791605	Slovenia
134	0.013068983906892116	Turkey
131	0.012990557455218496	Thailand
126	0.012924679235812656	Sweden
38	0.012749003984063745	Denmark
66	0.01221256705461618	Israel
21	0.011672993067101673	Bulgaria
52	0.01163848542836528	Greece
122	0.01136556137654108	SouthKorea
26	0.011262038460331901	Canada
19	0.011249490228064122	Brazil
62	0.011011073814976315	Indonesia
118	0.010901276782633246	Slovakia
115	0.010659723311478495	Serbia
43	0.010615804498541269	Estonia
45	0.010587570975938765	Finland
77	0.01039621043385513	Lebanon
110	0.01023935753050789	Romania
34	0.010022900523888698	Croatia
59	0.010000941117420083	Hungary
121	0.009982118769018415	SouthAfrica
137	0.009844088214072842	Ukraine
88	0.009291965994290554	Mexico
76	0.009144524265144147	Latvia
144	0.0089312043165919	Vietnam
80	0.008881011387520782	Lithuania
95	0.00875552906484299	NewZealand
35	0.008639457916366031	Cyprus
40	0.008281833296734322	Egypt
72	0.008093609812717633	Kenya
133	0.008024594535244848	Tunisia
7	0.007936756909370393	Australia
140	0.007770492831822317	Uruguay
117	0.007745396367286758	Singapore
12	0.007657558741412303	Belarus
102	0.007591680522006462	Pakistan
93	0.0074128682121906075	Nepal
84	0.007397182921855884	Malaysia
103	0.007243467076575588	Panama
18	0.007136807102299463	BosniaHerzegovina
54	0.006957994792483609	Guatemala
81	0.006923487153747216	Macedonia
116	0.006826238353671926	SierraLeone
106	0.006700756030994134	Philippines
111	0.006666248392257741	Russia
91	0.006556451359914672	Morocco
105	0.0065031213727766105	Peru
1	0.006399598456567431	Albania
70	0.0063525425855632586	Jordan
31	0.006007466198199329	Colombia
100	0.005969821501395991	Norway
41	0.005787872133513191	ElSalvador
114	0.00555259277849233	Senegal
29	0.005458481036483985	Chile
74	0.005436521630015371	Kyrgyzstan
138	0.005329861655739248	UnitedArabEmirates
65	0.005151049345923393	Ireland
132	0.004900084700567808	Togo
147	0.004890673526366973	Zimbabwe
82	0.004834206481161966	Madagascar
63	0.004802835900492518	Iran
130	0.004802835900492518	Tanzania
33	0.004655394171346112	CostaRica
58	0.004570693603538602	Honduras
142	0.004200520751639113	Uzbekistan
86	0.004187972519371333	Malta
49	0.004090723719296044	Georgia
17	0.0040687643128274305	Bolivia
11	0.004021708441823258	Bangladesh
6	0.003918185525614079	Armenia
48	0.00389936317721241	Gambia
0	0.0038899520030115757	Afghanistan
71	0.003764469680333783	Kazakhstan
136	0.0037205508673965556	Uganda
104	0.0035291903253129218	Paraguay
51	0.0034758603381748595	Ghana
60	0.0034539009317062458	Iceland
89	0.003347240957430122	Mongolia
10	0.0033441038993631774	Bahrain
68	0.0033441038993631774	IvoryCoast
42	0.0032970480283590047	Eritrea
75	0.0031464692411456536	Laos
96	0.0030680427894720333	Nicaragua
16	0.003036672208802585	Bhutan
44	0.0029739310474636888	Ethiopia
22	0.0028986416538570128	BurkinaFaso
39	0.002882956363522289	Ecuador
146	0.002807666969915613	Zambia
97	0.0027637481569783855	Niger
112	0.002757474040844496	Rwanda
24	0.002735514634375882	Cambodia
143	0.002735514634375882	Venezuela
101	0.0026225805439658687	Oman
113	0.0025598393826269726	SaudiArabia
9	0.002509646453555855	Azerbaijan
129	0.0025065093954889104	Tajikistan
83	0.002497098221288076	Malawi
92	0.0024563164664177933	Mozambique
85	0.0024218088276814005	Mali
15	0.0023151488534052765	Benin
57	0.002308874737271387	Guyana
37	0.002302600621137497	DemocraticRepublicCongo
25	0.0022837782727358285	Cameroon
14	0.0022304482855977662	Belize
125	0.0022116259371960977	Suriname
27	0.0021645700661919254	CentralAfricanRepublic
23	0.001995168930576905	Burundi
55	0.0019575242337735673	Guinea
145	0.0019324277692380086	Yemen
135	0.0018634124917652226	Turkmenistan
32	0.00182263073689494	Congo
73	0.0017034225303510368	Kuwait
109	0.0016940113561502023	Qatar
98	0.0016249960786774162	Nigeria
78	0.0016187219625435267	Liberia
124	0.0016093107883426922	Sudan
56	0.0016061737302757474	Guinea-Bissau
87	0.001508924930200458	Mauritania
47	0.0014304984785268376	Gabon
79	0.0014242243623929479	Libya
2	0.0014054020139912789	Algeria
64	0.0013803055494557204	Iraq
4	0.0012516861687109828	Angola
20	0.0012422749945101483	Brunei
28	0.0012171785299745898	Chad
