50	0.033370849556565	Germany
67	0.029999459225611074	Italy
141	0.027691028552887735	USA
46	0.026158271144278607	France
30	0.02544681483884923	China
8	0.023832941271901362	Austria
139	0.02344425967986156	UnitedKingdom
69	0.023102895846852694	Japan
123	0.022680415855505082	Spain
36	0.022577330737616266	CzechRepublic
13	0.022452276660177375	Belgium
127	0.020488589660393682	Switzerland
94	0.02015736534717716	Netherlands
61	0.019434079601990048	India
107	0.017913151633138655	Poland
119	0.017308160285528878	Slovenia
126	0.016473339822626002	Sweden
38	0.01508591553104045	Denmark
66	0.014692164179104478	Israel
108	0.0145823193813541	Portugal
122	0.014474164503569111	SouthKorea
45	0.01370018115942029	Finland
131	0.013635964200735453	Thailand
118	0.013407825005407744	Slovakia
134	0.01297013573437162	Turkey
59	0.012231640709495999	Hungary
21	0.011611440082197708	Bulgaria
26	0.011609750162232316	Canada
34	0.011435688405797102	Croatia
88	0.011351192407527579	Mexico
19	0.011259936729396496	Brazil
43	0.010864495457495134	Estonia
110	0.010707332900713823	Romania
115	0.01066170506164828	Serbia
62	0.010589038503136491	Indonesia
52	0.01054172074410556	Greece
77	0.010283162989400822	Lebanon
76	0.009786326519576033	Latvia
117	0.009232032770927968	Singapore
121	0.009101908933592905	SouthAfrica
137	0.00896840525632706	Ukraine
95	0.008897428617780662	NewZealand
80	0.008713227341553104	Lithuania
84	0.008687878542072248	Malaysia
12	0.00854254542504867	Belarus
133	0.008033879515466148	Tunisia
144	0.008013600475881462	Vietnam
116	0.007981491996539044	SierraLeone
35	0.007841228639411637	Cyprus
106	0.0071754001730478046	Philippines
140	0.006974299697166342	Uruguay
103	0.006935431537962362	Panama
18	0.006783338741077223	BosniaHerzegovina
111	0.006496052346960848	Russia
40	0.006232424832359939	Egypt
100	0.006220595392602207	Norway
7	0.006152998593986589	Australia
102	0.005980626757516764	Pakistan
93	0.005840363400389357	Nepal
1	0.005730518602638979	Albania
65	0.005679821003677266	Ireland
41	0.005434782608695652	ElSalvador
81	0.005316488211118321	Macedonia
72	0.005230302292883409	Kenya
70	0.005025821977071166	Jordan
91	0.004845000540774389	Morocco
31	0.004799372701708847	Colombia
105	0.004731775903093229	Peru
54	0.004652349664719879	Guatemala
114	0.004145373675102747	Senegal
29	0.004067637356694787	Chile
138	0.004030459117456198	UnitedArabEmirates
74	0.0038310485615401253	Kyrgyzstan
86	0.0036688162448626433	Malta
82	0.0033037935323383086	Madagascar
147	0.003220987454034177	Zimbabwe
33	0.0031584604153147306	CostaRica
49	0.0030435458576681808	Georgia
0	0.0029049724205061646	Afghanistan
6	0.002813716742375081	Armenia
58	0.0027494997836902445	Honduras
48	0.0026886626649361887	Gambia
132	0.002627825546182133	Togo
60	0.002588957386978153	Iceland
142	0.0025838876270819814	Uzbekistan
71	0.002566988427428077	Kazakhstan
63	0.0024537637897469175	Iran
17	0.0024351746701276227	Bolivia
11	0.002431794830196842	Bangladesh
130	0.0024115157906121564	Tanzania
42	0.002404756110750595	Eritrea
10	0.002171547155526714	Bahrain
104	0.0021377487562189053	Paraguay
16	0.0020583225178455546	Bhutan
97	0.001970446679645252	Niger
136	0.0019619970798183	Uganda
143	0.0019619970798183	Venezuela
89	0.0019096095608911962	Mongolia
68	0.001874121241617997	IvoryCoast
146	0.0018656716417910447	Zambia
101	0.0018622918018602638	Oman
51	0.001843702682240969	Ghana
14	0.0018217337226908933	Belize
75	0.001793005083279256	Laos
39	0.0017287881245944192	Ecuador
44	0.0017034393251135625	Ethiopia
113	0.0017034393251135625	SaudiArabia
112	0.0016324626865671641	Rwanda
83	0.001596974367293965	Malawi
27	0.0015800751676400605	CentralAfricanRepublic
57	0.0015800751676400605	Guyana
129	0.0015581062080899848	Tajikistan
24	0.001554726368159204	Cambodia
92	0.0015243078087821761	Mozambique
96	0.0014786799697166341	Nicaragua
22	0.0014499513303049968	BurkinaFaso
85	0.0014381218905472636	Mali
9	0.0014195327709279689	Azerbaijan
125	0.001412773091066407	Suriname
23	0.0013874242915855506	Burundi
15	0.0013603855721393036	Benin
37	0.0013603855721393036	DemocraticRepublicCongo
73	0.0013147577330737616	Kuwait
32	0.0013063081332468094	Congo
55	0.0013063081332468094	Guinea
79	0.0012826492537313433	Libya
78	0.001280959333765953	Liberia
2	0.0012792694138005624	Algeria
25	0.0012657500540774389	Cameroon
56	0.0012556105342850963	Guinea-Bissau
124	0.001247160934458144	Sudan
145	0.0012336415747350206	Yemen
64	0.00123195165476963	Iraq
109	0.0012218121349772874	Qatar
47	0.0012015330953926023	Gabon
135	0.001177874215877136	Turkmenistan
98	0.0011575951762924509	Nigeria
4	0.0011390060566731559	Angola
28	0.0011288665368808133	Chad
87	0.0010764790179537097	Mauritania
20	0.0010325410988535583	Brunei
