153	0.005967361238254054	106
255	0.0054324536966020255	1207
402	0.005422062338253559	2710
401	0.0052973660380719574	2709
706	0.005253821298326002	5201
616	0.005122939665794122	4100
912	0.004950740013162387	7108
169	0.00487156775907883	306
293	0.004864145360258498	1701
332	0.004841135923915464	2302
925	0.004747613698779263	7204
259	0.004700852586211162	1211
222	0.004558342528860761	901
618	0.004512571069468705	4102
640	0.004465809956900604	4407
206	0.004228540607943946	713
166	0.004068216793424745	303
619	0.0038532146409290865	4103
250	0.0038470293085788084	1202
340	0.003752517430266563	2401
240	0.003741878658624085	1101
260	0.0037319821268636407	1212
617	0.0036859632541775735	4101
836	0.0036575107253662953	6309
211	0.003641428861255573	804
263	0.0036364805953753507	1301
707	0.00354741180953135	5202
266	0.0034791257403842825	1404
223	0.0034467145988688265	902
201	0.0034143034573533705	708
641	0.0033964897001845704	4408
165	0.0033343889633877808	302
186	0.003319791579041125	507
168	0.003317070032807003	305
403	0.0032747623595311024	2711
231	0.0032643710011826354	910
999	0.003259175322008402	7602
208	0.0031644160304021454	801
636	0.0031599625911099454	4403
813	0.0031401695275890566	6203
832	0.003124087663478334	6305
341	0.003089449802316778	2402
365	0.003080542923732378	2523
167	0.003019431840111633	304
708	0.0029753922737776545	5203
798	0.0029095803375706985	6105
297	0.00289226140698992	1801
796	0.002870241623822931	6103
907	0.0028630666382966088	7103
807	0.0028586131990044087	6114
797	0.002852675279948142	6104
170	0.0027997288350297637	307
207	0.0027574211617538633	714
802	0.0027376280982329745	6109
499	0.0027054643700115295	3102
599	0.0026638989366176624	4001
1322	0.0026619196302655732	9705
281	0.0026488067256829843	1515
151	0.002630745555220173	104
642	0.0026104576651112617	4409
795	0.002607241292289117	6102
245	0.002602787852996917	1106
210	0.002600066306762795	803
295	0.002598087000410706	1703
978	0.002595365454176584	7403
239	0.002580768069829928	1008
241	0.0025792835900658615	1102
637	0.0025782939368898168	4404
225	0.0025102552810367606	904
524	0.002500358749276316	3401
283	0.0024315778535412263	1517
282	0.0024199494287227043	1516
242	0.002408568417198193	1103
291	0.0023964451657916483	1604
187	0.0023947132727335707	508
202	0.002389517593559337	709
188	0.0023830848479150482	510
799	0.002363291784394159	6106
721	0.0023531478393397035	5305
713	0.002346220267107392	5208
645	0.002345230613931348	4412
164	0.0023167780851200697	301
710	0.002306386726771603	5205
323	0.002304902247007536	2202
196	0.002300448807715336	703
336	0.0022947583019530806	2306
794	0.002286593663250714	6101
653	0.0022472549495029465	4420
639	0.0022425540969167354	4406
308	0.0022385954842125575	2002
342	0.002233152391744313	2403
681	0.002195792984348635	4907
541	0.002191339545056435	3605
422	0.0021626396029511457	2814
217	0.002154227550954768	810
287	0.0021438361926063012	1522
815	0.0021161259036770563	6205
214	0.002109198331444745	807
962	0.002105981958622601	7313
717	0.002101528519330401	5212
277	0.0020881682014538003	1511
837	0.002087673374865778	6310
362	0.0020713440974610446	2520
635	0.0020671380714628556	4402
803	0.0020577363662904334	6110
998	0.0020530355137042223	7601
172	0.0020426441553557557	402
814	0.002030026077361189	6204
405	0.002028541597597122	2713
374	0.002026314877951022	2603
192	0.0020033054416079884	603
650	0.0020005838953738664	4417
714	0.0019963778693756775	5209
709	0.001987470990791277	5204
193	0.0019647089677422547	604
895	0.001962729661390166	7010
313	0.0019535753695117545	2007
236	0.0019511012365716436	1005
817	0.0019228961210543765	6207
315	0.0019082987367077208	2009
821	0.0019058246037676097	6211
191	0.001904834950591565	602
286	0.001904587537297554	1521
380	0.0018949384188311207	2609
712	0.0018701970894300093	5207
204	0.0018603005576695647	711
436	0.00185040402590912	2828
459	0.0018439712802648311	2904
811	0.0018422393872067535	6201
237	0.0018026532601649753	1006
538	0.0018016636069889307	3602
392	0.0017974575809907418	2621
906	0.0017952308613446418	7102
595	0.0017947360347566196	3923
343	0.001793993794874586	2501
328	0.0017922619018165085	2207
189	0.0017796438238219417	511
388	0.001775932624411775	2617
759	0.0017618300666531414	5608
819	0.0017600981735950635	6209
935	0.00173931545689813	7214
820	0.0017360990840759856	6210
758	0.0017155637806730631	5607
372	0.0017143267142030075	2601
611	0.0017093784483227853	4013
219	0.0017059146622066296	812
382	0.0017007189830323963	2611
646	0.0016994819165623406	4413
801	0.0016982448500922852	6108
209	0.0016945336506821184	802
149	0.0016858741853917295	102
203	0.0016856267720977184	710
278	0.0016856267720977184	1512
298	0.001682905225863596	1802
833	0.0016794414397474406	6306
923	0.0016665759484588627	7202
264	0.0016645966421067737	1302
279	0.0016626173357546848	1513
818	0.0016621225091666626	6208
800	0.001661132855990618	6107
498	0.0016576690698744624	3101
311	0.0016517311508181959	2005
399	0.0016495044311720958	2707
1225	0.0016450509918798956	8905
316	0.0016423294456457734	2101
348	0.0016396078994116512	2506
822	0.0016383708329415956	6212
831	0.0016148665700105398	6304
936	0.0016123924370704287	7215
761	0.0016079389977782287	5701
916	0.0015916097203734951	7112
243	0.0015906200671974506	1104
194	0.0015767649227328283	701
1199	0.0015725588967346394	8609
319	0.0015686002840304615	2104
842	0.0015661261510903505	6405
1204	0.0015643942580322726	8705
1277	0.0015582089256819948	9206
748	0.0015540028996838058	5513
238	0.0015535080730957837	1007
660	0.001552271006625728	4602
230	0.0015292615702826944	909
752	0.0015257977841665387	5601
292	0.0015186227986402165	1605
1235	0.0015151590125240609	9007
610	0.001506746960527683	4012
220	0.001506499547233672	813
563	0.0015052624807636165	3814
179	0.0014990771484133386	409
331	0.001493386642651083	2301
406	0.001486706483712783	2714
574	0.0014832426975966272	3901
324	0.0014790366715984383	2203
212	0.0014750780588942605	805
386	0.0014703772063080493	2615
314	0.001469634966426016	2008
927	0.001467408246779916	7206
229	0.0014577591283134825	908
329	0.0014547901687853493	2208
296	0.0014538005156093047	1704
303	0.0014520686225512269	1902
816	0.0014466255300829825	6206
804	0.001445883290200949	6111
185	0.0014441513971428712	506
216	0.0014421720907907825	809
693	0.0014357393451464933	5101
265	0.0014337600387944046	1401
358	0.0014300488393842379	2516
256	0.0014208945475058265	1208
379	0.0014191626544477489	2608
205	0.0014176781746836821	712
805	0.0014072868163352154	6112
806	0.0014070394030412043	6113
345	0.0014045652701010932	2503
183	0.0014028333770430153	504
393	0.0014018437238669708	2701
812	0.001400111830808893	6202
387	0.0013921946054005375	2616
199	0.001371659301997615	706
357	0.001371659301997615	2515
502	0.0013686903424694815	3105
688	0.001362999836707226	5003
829	0.0013484024523605703	6302
1320	0.0013479076257725481	9703
322	0.0013340524813079257	2201
307	0.00132390853625347	2001
317	0.0013192076836672588	2102
928	0.0013120326981409364	7207
1093	0.0012994146201463696	8429
828	0.0012929818745020807	6301
371	0.0012919922213260363	2530
407	0.0012892706750919141	2715
1222	0.0012793741433314695	8902
966	0.001269972438159047	7317
701	0.0012682405451009693	5109
390	0.001265024172278825	2619
765	0.0012580966000465138	5705
155	0.001254137987342336	202
1152	0.0012509216145201914	8506
651	0.001247952654992058	4418
299	0.0012306337244112802	1803
694	0.0012306337244112802	5102
350	0.0012269225250011134	2508
414	0.0012165311666526466	2806
423	0.0012115829007724242	2815
377	0.0012078717013622577	2606
749	0.0012029234354820353	5514
958	0.0011997070626598909	7309
918	0.0011945113834856574	7114
441	0.001191295010663513	2833
426	0.001191047597369502	2818
195	0.0011895631176054352	702
960	0.0011883260511353795	7311
228	0.0011878312245473574	907
261	0.001182388132079113	1213
1094	0.0011809036523150462	8430
1300	0.0011799139991390017	9601
687	0.0011786769326689462	5002
917	0.0011719967737306462	7113
881	0.001165564028086357	6910
867	0.0011576468026780016	6811
838	0.0011573993893839905	6401
886	0.0011554200830319016	7001
1227	0.0011529459500917902	8907
464	0.0011526985367977791	2909
575	0.0011475028576235459	3902
415	0.0011428020050373348	2807
1011	0.0011420597651553013	7614
444	0.0011400804588032123	2836
977	0.001139338218921179	7402
327	0.001136616672687057	2206
934	0.0011338951264529345	7213
285	0.001132658059982879	1520
770	0.0011225141149284234	5805
659	0.0011220192883404012	4601
1001	0.0011178132623422122	7604
221	0.0011168236091661677	814
355	0.0011079167305817676	2513
378	0.0011019788115255009	2607
215	0.0010962883057632452	808
493	0.001096040892469234	2939
808	0.001095793479175223	6115
755	0.0010952986525872008	5604
952	0.0010950512392931897	7303
1018	0.0010928245196470897	7903
364	0.0010903503867069786	2522
175	0.0010888659069429119	405
159	0.001080453854946534	206
363	0.001076247828948345	2521
381	0.0010685780168340005	2610
762	0.0010658564705998783	5702
300	0.0010559599388394337	1804
750	0.0010534858058993226	5515
400	0.0010515064995472337	2708
1135	0.001043589274138878	8474
274	0.0010428470342568447	1508
1030	0.0010425996209628336	8105
1012	0.0010386410082586558	7615
257	0.0010376513550826112	1209
456	0.0010356720487305223	2901
909	0.0010336927423784336	7105
360	0.0010299815429682668	2518
376	0.0010289918897922223	2605
404	0.0010289918897922223	2712
306	0.0010287444764982112	1905
747	0.0010141470921515554	5512
301	0.0010114255459174333	1805
891	0.001010930719329411	7006
304	0.0010079617598012776	1903
835	0.0010059824534491887	6308
1221	0.0010049928002731443	8901
716	0.0010007867742749554	5211
520	0.0009997971210989108	3304
554	0.000997817814746822	3805
686	0.0009975704014528108	5001
557	0.0009965807482767665	3808
863	0.0009950962685126997	6807
270	0.000993859202042644	1504
347	0.000993611788748633	2505
1224	0.0009884161095743997	8904
697	0.000987426456398355	5105
695	0.0009861893899282997	5103
412	0.000984952323458244	2804
1186	0.0009814885373420886	8544
1260	0.000980251470872033	9101
1057	0.0009750557916977995	8304
496	0.0009616954738211993	2942
1002	0.0009569946212349882	7605
505	0.000954520488294877	3203
841	0.0009532834218248215	6404
711	0.0009525411819427882	5206
689	0.0009517989420607548	5004
213	0.0009503144622966881	806
876	0.0009498196357086659	6905
769	0.0009480877426505881	5804
955	0.0009475929160625659	7306
921	0.0009451187831224547	7118
566	0.0009399231039482213	3817
982	0.0009357170779500324	7408
503	0.0009342325981859657	3201
1228	0.0009332429450099213	8908
1203	0.0009233464132494768	8704
249	0.0009198826271333211	1201
1223	0.00091963521383931	8903
1009	0.0009188929739572766	7612
1293	0.0009166662543111766	9406
668	0.0009144395346650766	4800
767	0.0009144395346650766	5802
733	0.0009117179884309544	5406
454	0.0009104809219608988	2849
976	0.0009097386820788655	7401
1039	0.0009094912687848543	8201
1208	0.000908749028902821	8709
1301	0.0009070171358447432	9602
318	0.0009060274826686987	2103
1095	0.0009055326560806766	8431
173	0.0009047904161986432	403
197	0.0009047904161986432	704
937	0.0009010792167884764	7217
373	0.0008995947370244098	2602
218	0.0008966257774962764	811
872	0.0008951412977322098	6901
273	0.0008946464711441875	1507
411	0.000893656817968143	2803
983	0.0008926671647920986	7409
152	0.0008887085520879208	105
931	0.0008872240723238541	7210
1281	0.0008854921792657764	9301
351	0.0008810387399735762	2509
289	0.0008780697804454428	1602
448	0.0008763378873873651	2841
1321	0.0008679258353909873	9704
432	0.0008664413556269205	2824
631	0.0008560499972784537	4302
519	0.0008555551706904315	3303
840	0.0008535758643383426	6403
226	0.0008525862111622982	905
1017	0.0008523387978682871	7901
157	0.0008503594915161982	204
310	0.0008461534655180092	2004
320	0.000841452612931798	2105
810	0.0008412051996377869	6117
1241	0.0008407103730497647	9015
434	0.0008384836534036647	2826
419	0.0008374940002276203	2811
368	0.0008365043470515758	2526
740	0.0008357621071695424	5505
827	0.0008352672805815203	6217
1196	0.0008330405609354201	8606
1215	0.0008233914424689867	8716
779	0.0008224017892929423	5903
715	0.000821659549410909	5210
1003	0.000821659549410909	7606
959	0.0008214121361168978	7310
359	0.0008206698962348645	2517
337	0.0008186905898827756	2307
596	0.0008130000841205199	3924
905	0.0008122578442384867	7101
990	0.0008120104309444755	7419
354	0.0008095362980043644	2512
623	0.000808794058122331	4114
232	0.0008080518182402977	1001
981	0.0008068147517702421	7407
760	0.0007986501130678754	5609
410	0.000797660459891831	2802
177	0.0007974130465978197	407
680	0.0007941966737756753	4906
844	0.0007937018471876531	6501
839	0.0007922173674235864	6402
366	0.0007877639281313863	2524
724	0.0007877639281313863	5308
625	0.0007855372084852863	4201
889	0.0007840527287212197	7004
823	0.0007833104888391863	6213
1217	0.0007825682489571529	8802
1304	0.000776135503312864	9605
858	0.0007753932634308306	6802
875	0.0007748984368428084	6904
913	0.0007741561969607751	7109
638	0.0007734139570787417	4405
720	0.0007721768906086862	5303
1014	0.0007719294773146751	7801
1298	0.000771682064020664	9507
184	0.0007701975842565972	505
550	0.000767228624728464	3801
224	0.0007654967316703861	903
1129	0.0007647544917883527	8468
148	0.0007632700120242861	101
356	0.0007632700120242861	2514
930	0.0007607958790841749	7209
433	0.0007605484657901638	2825
539	0.0007605484657901638	3603
929	0.0007603010524961527	7208
868	0.0007585691594380749	6812
979	0.0007578269195560416	7405
987	0.0007575795062620304	7413
790	0.0007553527866159304	6003
675	0.0007516415872057638	4901
601	0.0007499096941476859	4003
910	0.0007491674542656526	7106
529	0.0007459510814435081	3406
879	0.0007427347086213636	6908
726	0.0007385286826231747	5310
385	0.0007355597230950413	2614
1116	0.0007335804167429524	8452
843	0.0007313536970968524	6406
1111	0.0007286321508627302	8447
176	0.0007234364716884968	406
1219	0.00071972527227833	8804
227	0.0007179933792202523	906
590	0.0007177459659262411	3917
353	0.0007167563127501967	2511
1308	0.0007162614861621745	9609
171	0.0007160140728681634	401
339	0.0007160140728681634	2309
443	0.00071527183298613	2835
352	0.0007140347665160745	2510
1148	0.0007137873532220634	8502
1130	0.0007127977000460189	8469
254	0.0007120554601639855	1206
246	0.0007110658069879411	1107
954	0.0007110658069879411	7305
1323	0.0007095813272238744	970
1216	0.0007058701278137077	8801
1201	0.0007014166885215077	8702
970	0.0006989425555813965	7321
458	0.0006969632492293075	2903
522	0.0006952313561712298	3306
247	0.0006930046365251298	1108
825	0.0006910253301730409	6215
919	0.0006907779168790298	7115
634	0.0006895408504089741	4401
200	0.0006858296509988075	707
824	0.0006823658648826519	6214
409	0.0006818710382946296	2801
1302	0.0006766753591203962	9603
511	0.0006749434660623184	3209
1286	0.0006724693331222073	9306
899	0.0006702426134761073	7015
857	0.0006692529603000628	6801
1279	0.0006672736539479739	9208
648	0.0006610883215976961	4415
594	0.0006603460817156628	3922
846	0.0006583667753635739	6504
612	0.0006561400557174739	4014
1016	0.0006524288563073071	7806
302	0.000652181443013296	1806
370	0.0006516866164252737	2529
743	0.0006509443765432405	5508
847	0.0006506969632492293	6505
546	0.0006487176568971404	3704
950	0.0006442642176049403	7301
523	0.0006440168043109292	3307
826	0.0006422849112528514	6216
326	0.0006328832060804291	2205
784	0.0006328832060804291	5908
1211	0.0006328832060804291	8712
252	0.000632635792786418	1204
774	0.0006318935529043846	5809
312	0.0006296668332582846	2006
262	0.0006289245933762513	1214
391	0.000628182353494218	2620
773	0.000628182353494218	5808
744	0.0006266978737301512	5509
335	0.0006264504604361401	2305
702	0.000625955633848118	5110
1023	0.0006254608072600957	8002
1007	0.0006242237407900401	7610
1074	0.0006232340876139957	8410
408	0.0006202651280858623	2716
727	0.0006200177147918512	5311
1101	0.0006190280616158067	8437
915	0.0006175435818517401	7111
621	0.0006135849691475622	4105
792	0.0006135849691475622	6005
791	0.0006133375558535512	6004
1291	0.0006133375558535512	9404
1008	0.0006101211830314067	7611
294	0.0006091315298553622	1702
644	0.0006091315298553622	4411
989	0.0006076470500912955	7418
1313	0.0006073996367972844	9614
1276	0.0006061625703272288	9205
551	0.0006056677437392066	3802
965	0.0006034410240931065	7316
418	0.0005997298246829399	2810
1167	0.0005992349980949176	8523
602	0.0005979979316248621	4004
657	0.0005960186252727731	4503
1025	0.000595523798684751	8007
924	0.0005930496657446398	7203
528	0.000591317772686562	3405
344	0.0005903281195105176	2502
384	0.0005890910530404619	2613
1022	0.0005888436397464508	8001
1070	0.0005861220935123286	8406
413	0.0005841427871602397	2805
628	0.0005836479605722174	4205
507	0.0005831531339841953	3205
446	0.0005829057206901842	2839
1247	0.0005821634808081508	9021
158	0.0005801841744560619	205
321	0.0005796893478680397	2106
856	0.0005791945212800174	6704
510	0.0005767203883399063	3208
1043	0.0005754833218698507	8205
568	0.0005752359085758396	3819
416	0.0005749884952818285	2808
251	0.0005742462553997951	1203
793	0.0005742462553997951	6006
275	0.0005737514288117729	1509
521	0.0005732566022237506	3305
1139	0.0005715247091656729	8478
1033	0.0005712772958716617	8108
953	0.0005707824692836395	7304
450	0.0005702876426956174	2844
512	0.0005697928161075951	3210
1244	0.0005697928161075951	9018
809	0.0005655867901094062	6116
369	0.0005648445502273728	2528
738	0.0005645971369333617	5503
1299	0.0005641023103453395	9508
849	0.0005623704172872617	6507
768	0.0005616281774052283	5803
573	0.0005596488710531394	3825
1062	0.0005589066311711061	8309
431	0.0005574221514070394	2823
734	0.0005561850849369838	5407
1059	0.0005554428450549505	8306
1194	0.0005554428450549505	8604
652	0.0005509894057627504	4419
1075	0.0005487626861166504	8411
741	0.000547773032940606	5506
1048	0.000545793726588517	8210
154	0.0005430721803543949	201
643	0.0005425773537663726	4410
972	0.0005403506341202726	7323
290	0.0005396083942382392	1603
305	0.0005386187410621947	1904
624	0.0005373816745921392	4115
830	0.0005373816745921392	6303
1058	0.000536886848004117	8305
757	0.0005361446081220836	5606
600	0.0005326808220059281	4002
614	0.0005274851428316947	4016
789	0.0005269903162436724	6002
1096	0.0005255058364796057	8432
437	0.0005250110098915835	2829
198	0.0005235265301275168	705
674	0.0005222894636574613	4824
735	0.0005205575705993834	5408
504	0.0005198153307173501	3202
1177	0.000519567917423339	8535
737	0.0005188256775413056	5502
346	0.0005183308509532834	2504
1262	0.0005178360243652611	9103
877	0.000517341197777239	6906
1122	0.0005170937844832279	8459
1037	0.0005168463711892168	8112
948	0.0005161041313071834	7228
980	0.0005158567180131723	7406
1036	0.0005156093047191611	8111
272	0.0005143722382491056	1506
569	0.0005111558654269611	3820
457	0.0005104136255449277	2902
666	0.0005069498394287722	4706
1254	0.0005039808799006388	9028
1197	0.0005034860533126166	8607
1242	0.0005034860533126166	9016
435	0.0005024964001365722	2827
1050	0.0005017541602545388	8212
1218	0.0005007645070784943	8803
933	0.0004973007209623388	7212
586	0.0004960636544922832	3913
338	0.0004948265880222276	2308
1149	0.0004945791747282165	8503
719	0.0004940843481401943	5302
620	0.0004938369348461832	4104
1005	0.0004916102152000831	7608
1269	0.0004916102152000831	9110
445	0.0004903731487300275	2837
190	0.0004898783221420054	601
951	0.00048789901578991644	7302
1138	0.0004876516024959053	8477
397	0.000486909362613872	2705
1188	0.0004854248828498053	8546
845	0.00048418781637974974	6502
1028	0.0004831981632037053	8103
1290	0.00048270333661568304	9403
1084	0.00047973437708754966	8420
992	0.0004787447239115052	7502
696	0.0004784973106174941	5104
862	0.00047824989732348297	6806
163	0.00047750765744144965	210
438	0.0004765180042654052	2830
1184	0.0004762705909713941	8542
667	0.00047552835108936073	4707
501	0.0004750335245013385	3104
698	0.00047404387132529404	5106
1004	0.0004733016314432607	7607
622	0.0004730542181492496	4106
1263	0.0004720645649732051	9104
887	0.0004705800852091385	7002
864	0.00046934301873908287	6808
1315	0.0004681059522690273	9616
555	0.0004668688857989718	3806
834	0.00046637405921094954	6307
897	0.0004616732066247384	7013
1287	0.0004604361401546828	9307
268	0.0004594464869786383	1502
533	0.0004594464869786383	3503
700	0.00045771459392056053	5108
1027	0.0004567249407445161	8102
926	0.000456477527450505	7205
1026	0.00045623011415649384	8101
383	0.0004549930476864383	2612
253	0.0004532611546283605	1205
449	0.0004527663280403383	2843
1179	0.0004512818482762716	8537
1230	0.00045029219510022713	9002
1200	0.00044930254192418267	8701
1283	0.0004480654754541271	9303
1316	0.0004480654754541271	9617
1000	0.0004475706488661049	7603
1210	0.00044707582227808266	8711
556	0.0004463335823960493	3807
1305	0.00044559134251401597	9606
764	0.0004443542760439604	5704
723	0.00044336462286791596	5307
771	0.00044336462286791596	5806
440	0.00044212755639786035	2832
461	0.0004408904899278048	2906
161	0.0004401482500457715	208
882	0.0004394060101637381	6911
947	0.0004394060101637381	7227
855	0.000439158596869727	6703
1178	0.00043767411710566033	8536
772	0.00043643705063560473	5807
865	0.00043618963734159364	6809
542	0.0004356948107535714	3606
537	0.00043396291769549363	3601
1099	0.00043322067781346026	8435
1161	0.0004312413714613714	8516
903	0.0004297568916973047	7019
883	0.00042728275875719354	6912
869	0.0004265405188751602	6813
746	0.00042431379922906016	5511
1213	0.00042381897264103793	8714
1220	0.00041911812005482676	8805
775	0.0004181284668787823	5810
398	0.00041614916052669344	2706
469	0.0004159017472326823	2914
536	0.0004159017472326823	3507
604	0.00041491209405663783	4006
1010	0.00041491209405663783	7613
1063	0.00041392244088059337	8310
885	0.0004136750275865823	6914
975	0.00041243796111652673	7326
564	0.00041144830794048227	3815
673	0.0004104586547644378	4823
1236	0.0004104586547644378	9008
988	0.00040946900158839335	7415
729	0.0004089741750003711	5402
781	0.0004089741750003711	5905
288	0.00040872676170636003	1601
182	0.0004082319351183378	502
513	0.00040773710853031557	3211
1090	0.00040773710853031557	8426
465	0.00040650004206025997	2910
589	0.00040575780217822665	3916
559	0.0004050155622961933	3810
908	0.0004047681490021822	7104
1209	0.0004037784958261377	8710
751	0.0004017991894740488	5516
1158	0.000397840576769871	8513
1006	0.00039462420394772654	7609
630	0.0003936345507716821	4301
848	0.00039313972418365985	6506
1226	0.00039313972418365985	8906
728	0.000391407831125582	5401
1240	0.0003911604178315709	9014
1071	0.00039091300453755984	8407
582	0.0003899233513615154	3909
788	0.0003899233513615154	6001
1233	0.0003899233513615154	9005
1303	0.0003886862848914598	9604
940	0.0003876966317154153	7220
334	0.0003872018051273931	2304
1172	0.0003872018051273931	8530
514	0.000386954391833382	3212
1140	0.00038670697853937085	8479
571	0.00038645956524535976	3823
878	0.00038645956524535976	6907
150	0.0003862121519513487	103
421	0.00038571732536332644	2813
430	0.0003854699120693153	2822
506	0.0003854699120693153	3204
325	0.00038448025889327084	2204
588	0.00038448025889327084	3915
754	0.0003837380190112375	5603
1311	0.0003837380190112375	9612
451	0.00038299577912920415	2845
180	0.0003825009525411819	410
584	0.0003815112993651375	3911
782	0.0003815112993651375	5906
787	0.00038076905948310414	5911
1275	0.00038052164618909305	9202
704	0.0003795319930130486	5112
942	0.0003787897531310152	7222
1238	0.0003787897531310152	9011
1314	0.00037854233983700413	9615
613	0.000378294926542993	4015
565	0.00037755268666095967	3816
492	0.0003773052733669486	2938
1181	0.0003763156201909041	8539
572	0.0003750785537208485	3824
244	0.00037408890054480405	1105
669	0.0003735940739567818	4802
181	0.0003728518340747485	501
866	0.0003728518340747485	6810
486	0.0003726044207807374	2932
567	0.0003726044207807374	3818
1306	0.00037235700748672627	9607
1083	0.0003711199410166707	8419
776	0.0003708725277226596	5811
1174	0.0003708725277226596	8532
475	0.00037013028784062626	2920
647	0.00037013028784062626	4414
1136	0.0003698828745466151	8475
1124	0.0003693880479585929	8461
1171	0.0003693880479585929	8529
471	0.0003691406346645818	2916
453	0.00036864580807655957	2847
1040	0.00036864580807655957	8202
1079	0.00036864580807655957	8415
577	0.00036790356819452625	3904
442	0.0003676561549005151	2834
427	0.0003671613283124929	2819
1205	0.0003646871953723817	8706
730	0.00036443978207837064	5403
467	0.0003639449554903484	2912
1106	0.0003639449554903484	8442
1151	0.0003639449554903484	8505
473	0.0003632027156083151	2918
1024	0.0003632027156083151	8003
535	0.00036270788902029286	3506
685	0.0003622130624322706	4911
174	0.0003594915161981484	404
1052	0.00035924410290413724	8214
361	0.000358749276316115	2519
558	0.0003567699699640261	3809
1141	0.0003567699699640261	8480
957	0.00035602773008199277	7308
1013	0.00035602773008199277	7616
1229	0.0003550380769059483	9001
963	0.000354295837023915	7314
525	0.00035404842372990385	3402
1118	0.0003528113572598483	8454
488	0.00035256394396583716	2934
654	0.00035231653067182607	4421
367	0.00035182170408380384	2525
1133	0.00035033722431973715	8472
1082	0.00034860533126165937	8418
309	0.0003476156780856149	2003
1115	0.00034687343820358153	8451
396	0.00034439930526347043	2704
570	0.00034439930526347043	3821
944	0.00034439930526347043	7224
763	0.0003439044786754482	5703
670	0.00034365706538143706	4807
943	0.00034365706538143706	7223
394	0.0003426674122053926	2702
968	0.0003426674122053926	7319
1117	0.00033969845267725927	8453
460	0.00033771914632517035	2905
585	0.0003374717330311592	3912
949	0.0003372243197371481	7229
425	0.00033697690644313703	2817
649	0.0003367294931491259	4416
1038	0.0003367294931491259	8113
629	0.00033623466656110366	4206
609	0.0003357398399730814	4011
1289	0.0003357398399730814	9402
1046	0.00033475018679703696	8208
1091	0.0003337605336209925	8427
1120	0.0003320286405629147	8457
234	0.0003315338139748925	1003
1041	0.0003307915740928592	8203
271	0.00033029674750483694	1505
1143	0.00033029674750483694	8482
389	0.0003293070943287925	2618
1189	0.0003285648544467591	8547
1183	0.0003275752012707147	8541
860	0.00032732778797670356	6804
1309	0.00032732778797670356	9610
1288	0.00032683296138868133	9401
233	0.0003263381348006591	1002
1123	0.000326090721506648	8460
429	0.0003231217619785146	2821
1250	0.00031990538915637015	9024
1056	0.0003194105625683479	8303
417	0.0003181734960982924	2809
1055	0.00031767866951027014	8302
725	0.0003166890163342257	5309
1060	0.00031644160304021454	8307
1312	0.000315204536570159	9613
1169	0.00031495712327614785	8526
1296	0.00031446229668812567	9505
627	0.00031421488339411453	4203
483	0.00031322523021807007	2928
1089	0.00031273040363004784	8425
280	0.0003114933371599923	1514
420	0.00031124592386598115	2812
548	0.00030901920421988114	3706
1265	0.00030877179092587005	9106
699	0.00030728731116180336	5107
632	0.0003070398978677922	4303
1078	0.00030654507127977	8414
1192	0.0003062976579857589	8602
478	0.00030605024469174775	2923
1175	0.00030580283139773666	8533
984	0.00030506059151570334	7410
884	0.00030431835163366997	6913
859	0.00030357611175163665	6803
870	0.00030357611175163665	6814
1015	0.0003028338718696033	7804
1112	0.00030233904528158105	8448
500	0.0003018442186935588	3103
718	0.00030159680539954773	5301
1270	0.0003011019788115255	9111
974	0.0002988752591654255	7325
778	0.00029862784587141435	5902
1019	0.00029862784587141435	7904
663	0.00029838043257740326	4703
466	0.00029788560598938103	2911
1284	0.00029640112622531434	9304
284	0.00029615371293130325	1518
481	0.0002951640597552588	2926
1092	0.00029491664646124764	8428
1072	0.0002941744065792143	8408
1163	0.0002917002736391032	8518
447	0.00029120544705108094	2840
1113	0.0002907106204630587	8449
973	0.00028947355399300316	7324
428	0.00028823648752294756	2820
375	0.00028749424764091424	2604
455	0.00028749424764091424	2852
583	0.00028749424764091424	3910
690	0.00028749424764091424	5005
1100	0.00028749424764091424	8436
1255	0.000286999421052892	9029
178	0.0002865045944648698	408
1249	0.0002862571811708587	9023
1252	0.00028452528811278086	9026
1294	0.00028452528811278086	9503
608	0.0002840304615247586	4010
1165	0.0002835356349367364	8521
1237	0.0002835356349367364	9010
1031	0.0002832882216427253	8106
964	0.0002827933950547031	7315
1035	0.000282545981760692	8110
1137	0.000282545981760692	8476
890	0.00028155632858464753	7005
731	0.0002813089152906364	5404
896	0.0002810615019966253	7011
518	0.0002803192621145919	3302
922	0.00028007184882058084	7201
258	0.00027858736905651414	1210
993	0.00027858736905651414	7504
476	0.0002780925424684919	2921
920	0.0002780925424684919	7117
1212	0.0002778451291744808	8713
914	0.0002773503025864586	7110
1102	0.000276113236116403	8438
485	0.00027512358294035853	2930
633	0.00027512358294035853	4304
1145	0.00027314427658826966	8486
1261	0.00027190721011821406	9102
665	0.00027165979682420297	4705
1202	0.00027116497023618074	8703
995	0.0002709175569421696	7506
479	0.0002706701436481585	2924
853	0.0002706701436481585	6701
593	0.00026968049047211405	3920
678	0.0002691856638840918	4904
1142	0.0002691856638840918	8481
1064	0.00026893825059008073	8311
597	0.00026794859741403627	3925
900	0.00026794859741403627	7016
603	0.0002669589442379918	4005
684	0.0002664641176499696	4910
1146	0.000265227051179914	8487
1087	0.0002639899847098584	8423
753	0.00026250550494579173	5602
956	0.00026225809165178064	7307
578	0.0002612684384757362	3905
985	0.00026077361188771395	7411
248	0.00026003137200568063	1109
1098	0.00025904171882963617	8434
691	0.0002545882795374361	5006
562	0.000254340866243425	3813
1191	0.0002538460396554028	8601
526	0.0002528563864793583	3403
671	0.0002528563864793583	4810
497	0.0002486503604811694	3006
1272	0.00024840294718715824	9113
531	0.0002474132940111138	3501
780	0.00024617622754105823	5904
1162	0.00024518657436501377	8517
1132	0.00024469174777699154	8471
615	0.00024394950789495822	4017
1168	0.000243454681306936	8525
1280	0.00024295985471891376	9209
333	0.00024271244142490264	2303
1190	0.00024271244142490264	8548
605	0.00024246502813089153	4007
1159	0.0002419702015428693	8514
439	0.00024172278824885818	2831
452	0.00024172278824885818	2846
1126	0.00024172278824885818	8463
1231	0.00024098054836682484	9003
1307	0.00023974348189676929	9608
1164	0.00023900124201473594	8519
888	0.00023702193566264702	7003
902	0.00023504262931055812	7018
1134	0.0002345478027225359	8473
1088	0.00023405297613451366	8424
534	0.0002330633229584692	3505
901	0.00023281590966445808	7017
932	0.00023133142990039142	7211
1259	0.0002310840166063803	9033
893	0.00023034177672434696	7008
553	0.00023009436343033584	3804
1021	0.0002293521235483025	7907
1131	0.0002278676437842358	8470
626	0.0002276202304902247	4202
1248	0.00022663057731418026	9022
1317	0.00022638316402016914	9618
871	0.00022613575072615803	6815
1243	0.00022613575072615803	9017
576	0.0002256409241381358	3903
516	0.00022539351084412468	3214
1119	0.00022539351084412468	8455
489	0.00022465127096209133	2935
477	0.00022440385766808022	2922
664	0.00022440385766808022	4704
532	0.000223909031080058	3502
156	0.00022366161778604687	203
160	0.00022366161778604687	207
850	0.00022366161778604687	6601
1128	0.00022316679119802464	8467
395	0.00022242455131599132	2703
1245	0.00022242455131599132	9019
1246	0.00022242455131599132	9020
235	0.00022094007155192463	1004
676	0.00021995041837588017	4902
560	0.0002189607651998357	3811
463	0.00021821852531780236	2908
941	0.00021747628543576904	7221
1108	0.00021722887214175793	8444
703	0.0002167340455537357	5111
472	0.00021648663225972458	2917
162	0.000215249565789669	209
491	0.0002150021524956579	2937
580	0.00021450732590763566	3907
683	0.00021450732590763566	4909
745	0.00021425991261362455	5510
894	0.00021104353979148007	7009
672	0.0002100538866154356	4811
552	0.00020931164673340227	3803
873	0.00020906423343939115	6902
1153	0.00020906423343939115	8507
777	0.00020856940685136895	5901
679	0.00020807458026334672	4905
495	0.0002078271669693356	2941
736	0.0002078271669693356	5501
1068	0.00020659010049928003	8404
487	0.0002063426872052689	2933
1076	0.00020560044732323556	8412
1206	0.00020560044732323556	8707
1114	0.00020436338085318002	8450
424	0.00020312631438312444	2816
527	0.00020312631438312444	3404
662	0.00020114700803103552	4702
1267	0.0002008995947370244	9108
1155	0.00020040476814900217	8509
540	0.00019990994156097997	3604
732	0.00019941511497295774	5405
1166	0.00019817804850290216	8522
1170	0.00019768322191487993	8527
1185	0.00019743580862086881	8543
1187	0.0001971883953268577	8545
1297	0.0001971883953268577	9506
1054	0.00019694098203284658	8301
986	0.00019619874215081324	7412
971	0.00019545650226877992	7322
517	0.0001949616756807577	3215
1285	0.00019446684909273546	9305
852	0.00019322978262267988	6603
1029	0.00019322978262267988	8104
1061	0.00019273495603465765	8308
1069	0.00019248754274064654	8405
892	0.00019224012944663542	7007
1066	0.0001919927161526243	8402
1282	0.00019149788956460207	9302
722	0.00019125047627059096	5306
1180	0.00019026082309454652	8538
1253	0.00018951858321251318	9027
276	0.00018729186356641314	1510
508	0.00018729186356641314	3206
1268	0.0001867970369783909	9109
677	0.00018654962368437982	4903
1182	0.00018432290403827978	8540
655	0.00018407549074426867	4501
1156	0.00018382807745025755	8511
785	0.00018358066415624644	5909
851	0.0001828384242742131	6602
997	0.0001828384242742131	7508
561	0.00018234359768619086	3812
1271	0.00018209618439217975	9112
961	0.00018061170462811308	7312
1147	0.00017962205145206862	8501
661	0.00017813757168800193	4701
1150	0.00017789015839399081	8504
861	0.0001776427450999797	6805
1256	0.0001771479185119575	9030
991	0.00017690050521794638	7501
1085	0.00017690050521794638	8421
756	0.00017640567862992415	5605
1292	0.00017640567862992415	9405
904	0.00017615826533591303	7020
1176	0.00017615826533591303	8534
509	0.0001756634387478908	3207
996	0.00017492119886585746	7507
766	0.0001741789589838241	5801
1318	0.0001741789589838241	9701
656	0.00017343671910179077	4502
1173	0.00017343671910179077	8531
994	0.00017244706592574633	7505
330	0.0001719522393377241	2209
462	0.0001719522393377241	2907
939	0.00017071517286766852	7219
1020	0.0001702203462796463	7905
1107	0.0001702203462796463	8443
579	0.00016972551969162406	3906
267	0.00016898327980959072	1501
490	0.0001687358665155796	2936
515	0.0001687358665155796	3213
1198	0.0001687358665155796	8608
1273	0.0001687358665155796	9114
1045	0.00016848845322156851	8207
945	0.00016774621333953517	7225
682	0.00016725138675151294	4908
591	0.00016576690698744625	3918
598	0.00016576690698744625	3926
470	0.00016551949369343513	2915
1032	0.00016527208039942402	8107
1214	0.00016477725381140178	8715
606	0.00016452984051739067	4008
1053	0.00016378760063535735	8215
1127	0.000163045360753324	8465
607	0.0001627979474593129	4009
1160	0.0001627979474593129	8515
1042	0.00016255053416530177	8204
1104	0.00016255053416530177	8440
581	0.00016106605440123508	3908
349	0.00016081864110722397	2507
269	0.0001598289879311795	1503
1049	0.0001598289879311795	8211
786	0.00015958157463716842	5910
946	0.0001593341613431573	7226
1121	0.00015859192146112396	8458
1051	0.00015809709487310173	8213
1073	0.0001578496815790906	8409
1207	0.0001576022682850795	8708
783	0.00015735485499106838	5907
1097	0.00015686002840304615	8433
1258	0.00015686002840304615	9032
1154	0.00015636520181502392	8508
1234	0.00015636520181502392	9006
1195	0.00015537554863897946	8605
692	0.00015512813534496834	5007
549	0.0001541384821689239	3707
494	0.00015364365558090168	2940
1264	0.00015265400240485722	9105
1080	0.0001524065891108461	8416
1266	0.0001524065891108461	9107
1257	0.00015166434922881276	9031
898	0.00015141693593480164	7014
1103	0.00015116952264079052	8439
1125	0.0001509221093467794	8462
911	0.0001506746960527683	7107
1239	0.00014968504287672386	9013
1251	0.00014968504287672386	9025
1157	0.00014894280299469051	8512
1319	0.00014745832323062382	9702
1232	0.00014671608334859048	9004
1295	0.00014646867005457936	9504
967	0.00014622125676056825	7318
1278	0.00014597384346655716	9207
938	0.00014547901687853493	7218
969	0.00014547901687853493	7320
545	0.00014473677699650158	3703
1081	0.00014473677699650158	8417
854	0.00014374712382045712	6702
474	0.00014226264405639043	2919
547	0.00014226264405639043	3705
530	0.00014053075099831265	3407
658	0.00014053075099831265	4504
1067	0.00014028333770430153	8403
1047	0.00013929368452825707	8209
587	0.00013879885794023484	3914
543	0.00013855144464622373	3701
1065	0.0001380566180582015	8401
1105	0.0001380566180582015	8441
739	0.00013756179147017926	5504
1077	0.00013756179147017926	8413
1193	0.0001360773117061126	8603
880	0.00013558248511809037	6909
874	0.00013533507182407925	6903
1144	0.00013484024523605702	8483
1310	0.0001345928319420459	9611
482	0.0001343454186480348	2927
1109	0.00013360317876600145	8445
484	0.00013335576547199033	2929
1274	0.00013310835217797922	9201
468	0.0001328609388839681	2913
1086	0.00013162387241391255	8422
544	0.00012939715276781251	3702
705	0.00012939715276781251	5113
742	0.00012890232617979028	5507
592	0.00012865491288577917	3919
480	0.00012840749959176805	2925
1034	0.00012816008629775694	8109
1110	0.00012791267300374585	8446
1044	0.00012519112676962358	8206
