50	0.03383704395441136	Germany
67	0.029726001230978204	Italy
141	0.02778827174905024	USA
46	0.02654880404100431	France
30	0.02500583653458412	China
8	0.02410594902052338	Austria
69	0.023220918139949486	Japan
139	0.023184837744338563	UnitedKingdom
36	0.022930152598849673	CzechRepublic
123	0.0228813379459643	Spain
13	0.022312541121039114	Belgium
127	0.02072712609037078	Switzerland
94	0.019952458772842074	Netherlands
61	0.019281787889721333	India
107	0.017690005730415775	Poland
119	0.016868646136214107	Slovenia
126	0.01637201010251077	Sweden
38	0.014990343188233547	Denmark
66	0.014648640618035953	Israel
122	0.014523420421503916	SouthKorea
108	0.014368486957998175	Portugal
45	0.013958868349003544	Finland
131	0.013808179637922618	Thailand
118	0.013402805781352802	Slovakia
134	0.012925271133561135	Turkey
59	0.011728250949763356	Hungary
21	0.011668824415815947	Bulgaria
26	0.011397160260627799	Canada
34	0.011308020459706688	Croatia
88	0.01124859392575928	Mexico
19	0.01112549610543965	Brazil
43	0.011023622047244094	Estonia
115	0.01075620264448076	Serbia
52	0.010580045418850945	Greece
62	0.010580045418850945	Indonesia
110	0.010442090965044464	Romania
77	0.010178916314705945	Lebanon
76	0.009363923849141498	Latvia
117	0.009279028800645203	Singapore
137	0.008973406626058535	Ukraine
95	0.008933081478022794	NewZealand
80	0.008871532567862979	Lithuania
84	0.008848186429526499	Malaysia
121	0.008708109599507609	SouthAfrica
12	0.008521340492815756	Belarus
35	0.008287879109450941	Cyprus
133	0.007924952777129273	Tunisia
144	0.007914340896067237	Vietnam
116	0.00791221851985483	SierraLeone
140	0.007241547636734087	Uruguay
103	0.006950782095634272	Panama
106	0.0069104569475985315	Philippines
18	0.006857397542288346	BosniaHerzegovina
111	0.006449901309506123	Russia
100	0.006422310418744827	Norway
7	0.006180359530530382	Australia
40	0.0061485238873442705	Egypt
65	0.0059851009189889	Ireland
93	0.005940531018528344	Nepal
102	0.00568160112061464	Pakistan
1	0.0056412759725789	Albania
81	0.00537810132224038	Macedonia
72	0.005373856569815565	Kenya
91	0.004970605089458157	Morocco
70	0.004875098159899824	Jordan
31	0.004855996773988157	Colombia
41	0.004796570240040749	ElSalvador
105	0.004756245092005009	Peru
54	0.004505804698940934	Guatemala
29	0.004206549652991489	Chile
114	0.004161979752530934	Senegal
74	0.004111042723433156	Kyrgyzstan
138	0.004002801536600378	UnitedArabEmirates
86	0.0037226478765625994	Malta
147	0.00304985461722945	Zimbabwe
82	0.0030456098648046354	Madagascar
33	0.003003162340556487	CostaRica
49	0.0029479805590338945	Georgia
142	0.0029182672920601907	Uzbekistan
0	0.002905533034785746	Afghanistan
6	0.002875819767812042	Armenia
132	0.002852473629475561	Togo
60	0.002790924719315746	Iceland
17	0.0027888023431033387	Bolivia
42	0.0027378653140055606	Eritrea
71	0.002714519175669079	Kazakhstan
48	0.0026444807606596345	Gambia
11	0.002559585712163338	Bangladesh
63	0.0025086486830655603	Iran
58	0.002476813039879449	Honduras
130	0.002436487891843708	Tanzania
10	0.0022666977948511153	Bahrain
104	0.0021457223507438928	Paraguay
97	0.0021372328458942632	Niger
89	0.002037481163911115	Mongolia
16	0.0020162574017870407	Bhutan
136	0.001956830867839633	Uganda
51	0.0019525861154148184	Ghana
143	0.0019165057198038925	Venezuela
146	0.0019080162149542627	Zambia
75	0.0018995267101046332	Laos
68	0.0018952819576798182	IvoryCoast
39	0.0018655686907061147	Ecuador
101	0.0018146316616083366	Oman
14	0.0017467156228112995	Belize
112	0.001723369484474818	Rwanda
27	0.0017042680985631512	CentralAfricanRepublic
57	0.0016554534456777808	Guyana
113	0.001625740178704077	SaudiArabia
22	0.0015981492879427808	BurkinaFaso
44	0.0015939045355179658	Ethiopia
96	0.0015875374068807437	Nicaragua
83	0.0015726807733938918	Malawi
24	0.001564191268544262	Cambodia
92	0.0015535793874822252	Mozambique
129	0.0015408451302077806	Tajikistan
9	0.0014644395865611138	Azerbaijan
85	0.0014071354288261136	Mali
37	0.0014028906764012989	DemocraticRepublicCongo
125	0.0013349746376042618	Suriname
23	0.0013286075089670394	Burundi
56	0.0013222403803298173	Guinea-Bissau
109	0.0013095061230553727	Qatar
124	0.0012988942419933358	Sudan
32	0.0012882823609312987	Congo
2	0.001279792856081669	Algeria
15	0.001279792856081669	Benin
73	0.001279792856081669	Kuwait
145	0.0012734257274444468	Yemen
55	0.001269180975019632	Guinea
25	0.0012522019653203728	Cameroon
87	0.0012309782031962985	Mauritania
135	0.0011864083027357428	Turkmenistan
78	0.0011842859265233355	Liberia
64	0.0011524502833372243	Iraq
79	0.0011163698877262984	Libya
98	0.001114247511513891	Nigeria
28	0.0010930237493898167	Chad
47	0.0010802894921153724	Gabon
4	0.0010569433537788908	Angola
20	0.0009953944436190759	Brunei
