50	0.029007203711137873	Germany
67	0.026952584861055354	Italy
141	0.025134930193139747	USA
46	0.024097863419421026	France
30	0.023278246130514296	China
123	0.021870400107052053	Spain
13	0.02129889825594362	Belgium
8	0.0212069003969847	Austria
139	0.021039631562513938	UnitedKingdom
94	0.020150318925911057	Netherlands
36	0.019687541817208616	CzechRepublic
69	0.01962899772514385	Japan
61	0.0195955439582497	India
127	0.01835496676925822	Switzerland
107	0.01690251572327044	Poland
119	0.01524097863419421	Slovenia
126	0.014337726928052099	Sweden
108	0.013897252330612427	Portugal
38	0.013830344796824122	Denmark
66	0.013590592800749365	Israel
122	0.013230964806637227	SouthKorea
131	0.013217025737097998	Thailand
134	0.012963334671484009	Turkey
45	0.012138141754761586	Finland
19	0.011803604085820063	Brazil
21	0.011594518042731611	Bulgaria
118	0.01145512734733931	Slovakia
52	0.01141331013872162	Greece
26	0.01128785851286855	Canada
59	0.010599268477630581	Hungary
43	0.010543512199473661	Estonia
77	0.010412484945804898	Lebanon
115	0.01039018243454213	Serbia
62	0.010309335831214595	Indonesia
34	0.010250791739149829	Croatia
110	0.010111401043757528	Romania
88	0.010105825415941835	Mexico
121	0.009893951558945537	SouthAfrica
137	0.009063183014407422	Ukraine
95	0.008934943574646505	NewZealand
117	0.00889591417993666	Singapore
76	0.008789977251438512	Latvia
80	0.0083773807930773	Lithuania
144	0.008084660332753468	Vietnam
84	0.008053994379767162	Malaysia
12	0.007853271778402247	Belarus
35	0.00780309112806102	Cyprus
133	0.007580066015433338	Tunisia
7	0.007337526205450734	Australia
116	0.007117288906730898	SierraLeone
140	0.0070726838842053615	Uruguay
40	0.007047593559034747	Egypt
72	0.006961171327891521	Kenya
106	0.006897051608011062	Philippines
93	0.006846870957669834	Nepal
103	0.006785539051697221	Panama
102	0.006724207145724609	Pakistan
18	0.00661827021722646	BosniaHerzegovina
111	0.006506757660912619	Russia
100	0.0062335518979437085	Norway
81	0.006172219991971096	Macedonia
1	0.0058432579508452655	Albania
105	0.00569271599982158	Peru
70	0.005678776930282349	Jordan
65	0.005564476560060662	Ireland
91	0.005550537490521433	Morocco
41	0.005525447165350818	ElSalvador
31	0.00548920558454882	Colombia
54	0.005430661492484053	Guatemala
74	0.004934430616887461	Kyrgyzstan
114	0.0048981890360854635	Senegal
29	0.004887037780454079	Chile
138	0.004510682902894866	UnitedArabEmirates
82	0.0042681430929122615	Madagascar
86	0.004176145233953343	Malta
33	0.004137115839243499	CostaRica
132	0.003880636959721665	Togo
147	0.0038443953789196665	Zimbabwe
63	0.003802578170301976	Iran
130	0.003710580311343057	Tanzania
49	0.003702216869619519	Georgia
0	0.003682702172264597	Afghanistan
142	0.0036743387305410587	Uzbekistan
71	0.0035098577099781435	Kazakhstan
6	0.0034819795708996835	Armenia
58	0.003445737990097685	Honduras
17	0.003334225433783844	Bolivia
11	0.003300771666889692	Bangladesh
48	0.003295196039074	Gambia
10	0.0031307150185110842	Bahrain
104	0.0030024755787501673	Paraguay
42	0.0029996877648423214	Eritrea
60	0.002982960881395245	Iceland
136	0.0029327802310540165	Uganda
89	0.0027738748383067933	Mongolia
75	0.002712542932334181	Laos
51	0.002698603862794951	Ghana
16	0.002617757259467416	Bhutan
68	0.0025870913064811097	IvoryCoast
143	0.002578727864757572	Venezuela
97	0.0025396984700477273	Niger
113	0.002400307774655426	SaudiArabia
96	0.002389156519024042	Nicaragua
44	0.00235570275212989	Ethiopia
39	0.0023389758686828137	Ecuador
101	0.002336188054774968	Oman
146	0.0023222489852357375	Zambia
129	0.002286007404433739	Tajikistan
24	0.002263704893170971	Cambodia
112	0.002263704893170971	Rwanda
9	0.0021187385699629776	Azerbaijan
22	0.0020880726169766714	BurkinaFaso
27	0.002037891966635443	CentralAfricanRepublic
85	0.002032316338819751	Mali
14	0.0020100138275569827	Belize
92	0.0018845622017039118	Mozambique
23	0.0018622596904411437	Burundi
57	0.0018315937374548375	Guyana
37	0.0018204424818234533	DemocraticRepublicCongo
83	0.0018204424818234533	Malawi
125	0.0018204424818234533	Suriname
25	0.0017535349480351488	Cameroon
15	0.0016949908559703822	Benin
55	0.0016782639725233062	Guinea
109	0.0016420223917213079	Qatar
135	0.0016420223917213079	Turkmenistan
32	0.0016141442526428475	Congo
73	0.0015946295552879254	Kuwait
2	0.0015137829519603907	Algeria
145	0.0014747535572505464	Yemen
124	0.0014691779294348543	Sudan
78	0.0014524510459877783	Liberia
98	0.0013716044426602435	Nigeria
79	0.0013520897453053215	Libya
56	0.0013465141174896294	Guinea-Bissau
64	0.0013130603505954771	Iraq
47	0.0012879700254248628	Gabon
87	0.0012879700254248628	Mauritania
28	0.0010956108657834871	Chad
4	0.001076096168428565	Angola
20	0.0010593692849814888	Brunei
