50	0.032646215178180754	Germany
67	0.029351073081930197	Italy
141	0.027087688592866286	USA
46	0.026725763149507618	France
30	0.02474327601946835	China
8	0.023298275182178144	Austria
139	0.022817508548462897	UnitedKingdom
69	0.022596031784616548	Japan
123	0.022379956893059133	Spain
36	0.022339442850892118	CzechRepublic
13	0.021799255621998585	Belgium
127	0.020162488318451174	Switzerland
94	0.019733039471480814	Netherlands
61	0.018898450202840304	India
107	0.01776405702216388	Poland
119	0.017204963240259073	Slovenia
126	0.016062467251149248	Sweden
66	0.015055018069262807	Israel
38	0.014960485304206439	Denmark
122	0.014525634584947142	SouthKorea
108	0.014358176543990147	Portugal
131	0.013434456382582203	Thailand
45	0.013361531106681576	Finland
134	0.012783530771765493	Turkey
118	0.012767325154898687	Slovakia
59	0.01189492278023563	Hungary
21	0.011803090951323729	Bulgaria
26	0.01138444584893124	Canada
88	0.01131422150917508	Mexico
34	0.011133258787495746	Croatia
19	0.010998211980272362	Brazil
43	0.010949595129671945	Estonia
52	0.010903679215215994	Greece
115	0.010674099642936242	Serbia
62	0.010468828495956699	Indonesia
77	0.010201435817654399	Lebanon
110	0.010115005861031433	Romania
76	0.009331734379135809	Latvia
121	0.009031930467099897	SouthAfrica
84	0.008896883659876512	Malaysia
117	0.008848266809276095	Singapore
137	0.008837463064698224	Ukraine
80	0.008632191917718681	Lithuania
95	0.00858627600326273	NewZealand
12	0.008108210305691952	Belarus
35	0.008073098135813873	Cyprus
116	0.007946154137023893	SierraLeone
144	0.007684163331010528	Vietnam
133	0.00767065865028819	Tunisia
106	0.007187191080428476	Philippines
140	0.007068349890071899	Uruguay
103	0.0068927890406815006	Panama
7	0.006555172022623041	Australia
111	0.006441732704555399	Russia
18	0.006425527087688593	BosniaHerzegovina
40	0.006298583088898612	Egypt
100	0.006201349387697776	Norway
93	0.00611491943107481	Nepal
102	0.006106816622641407	Pakistan
65	0.005742190243138272	Ireland
72	0.0056314518612150975	Kenya
81	0.0054153769696576835	Macedonia
1	0.005374862927490669	Albania
70	0.005188498333522399	Jordan
41	0.005045348717865612	ElSalvador
91	0.005042647781721144	Morocco
105	0.004710432635951621	Peru
31	0.004707731699807153	Colombia
54	0.004696927955229283	Guatemala
114	0.00442143246849358	Senegal
138	0.00442143246849358	UnitedArabEmirates
74	0.004081114514290653	Kyrgyzstan
86	0.004056806088990444	Malta
29	0.0039352639624893986	Chile
82	0.003613852561297746	Madagascar
147	0.0033599645637177847	Zimbabwe
33	0.0033221514576952374	CostaRica
6	0.003233020564927804	Armenia
0	0.003119581246860162	Afghanistan
132	0.003068263460115276	Togo
63	0.002995338184214649	Iran
49	0.002941319461325295	Georgia
142	0.002919711972169554	Uzbekistan
17	0.0028494876324133946	Bolivia
130	0.002835982951691056	Tanzania
71	0.0028170763986797823	Kazakhstan
60	0.002795468909524041	Iceland
48	0.0027846651649461704	Gambia
11	0.0027306464420568167	Bangladesh
58	0.0026685249107340605	Honduras
42	0.002614506187844707	Eritrea
104	0.002546982784233015	Paraguay
10	0.0025010668697770647	Bahrain
16	0.0024362444023098406	Bhutan
136	0.0022552816806305064	Uganda
89	0.002233674191474765	Mongolia
97	0.0021796554685854118	Niger
143	0.0020608142782288343	Venezuela
75	0.0020148983637728836	Laos
68	0.002001393683050545	IvoryCoast
113	0.0019905899384726746	SaudiArabia
39	0.0019149637264275798	Ecuador
51	0.001896057173416306	Ghana
101	0.0018933562372718384	Oman
14	0.0018852534288384354	Belize
129	0.0018744496842605647	Tajikistan
146	0.0018096272167933405	Zambia
96	0.0017934215999265346	Nicaragua
44	0.0017907206637820668	Ethiopia
112	0.0017853187914931316	Rwanda
24	0.0017258981963148427	Cambodia
57	0.001690786026436763	Guyana
27	0.0016853841541478276	CentralAfricanRepublic
22	0.0016043560698137975	BurkinaFaso
9	0.0015962532613803945	Azerbaijan
83	0.0015719448360801854	Malawi
92	0.0015368326662021055	Mozambique
85	0.0015071223686129612	Mali
109	0.001501720496324026	Qatar
124	0.0014612064541570109	Sudan
23	0.0014504027095791402	Burundi
2	0.0014368980288568018	Algeria
25	0.0014071877312676574	Cameroon
73	0.0014044867951231897	Kuwait
135	0.001401785858978722	Turkmenistan
56	0.0013963839866897867	Guinea-Bissau
125	0.0013963839866897867	Suriname
15	0.0013909821144008512	Benin
37	0.00136937462524511	DemocraticRepublicCongo
78	0.001345066199944901	Liberia
87	0.001277542796333209	Mauritania
32	0.001245131562599597	Congo
55	0.0012316268818772587	Guinea
145	0.0012262250095883232	Yemen
79	0.0011749072228434375	Libya
98	0.0011695053505545022	Nigeria
47	0.0011397950529653579	Gabon
4	0.0011262903722430195	Angola
64	0.001104682883087278	Iraq
28	0.0011019819469428103	Chad
20	0.0010614679047757953	Brunei
