50	0.033599392198129435	Germany
67	0.030117193981364237	Italy
141	0.027661098060448343	USA
46	0.0263206154867218	France
30	0.025091475928076777	China
8	0.024683218206111204	Austria
69	0.023744443765227795	Japan
139	0.022875531608317106	UnitedKingdom
36	0.022781654164228764	CzechRepublic
13	0.022500021831963743	Belgium
123	0.022403961191501252	Spain
127	0.020989249941053698	Switzerland
94	0.020137803355136187	Netherlands
61	0.01930163914383771	India
107	0.018151094654661998	Poland
119	0.017531066884404117	Slovenia
126	0.016614124407262183	Sweden
38	0.015286741011780527	Denmark
66	0.014926513610046196	Israel
122	0.014566286208311865	SouthKorea
108	0.014230073966693155	Portugal
45	0.013778152317244632	Finland
131	0.013647160534795784	Thailand
118	0.013077346281143296	Slovakia
134	0.012573027918715233	Turkey
59	0.012121106269266707	Hungary
21	0.011795810009518737	Bulgaria
19	0.011455231375151732	Brazil
88	0.011435582607784406	Mexico
26	0.011429033018661963	Canada
34	0.011175782239260856	Croatia
43	0.010905065888866573	Estonia
115	0.010756608535424544	Serbia
52	0.010601601592860074	Greece
77	0.010492441774152702	Lebanon
62	0.01034835081345897	Indonesia
110	0.01031341967147261	Romania
76	0.009492537834793164	Latvia
117	0.00941830915807215	Singapore
95	0.009370278837840905	NewZealand
137	0.008972937097746068	Ukraine
121	0.00896202111587533	SouthAfrica
80	0.008754617460331323	Lithuania
84	0.00874806787120888	Malaysia
12	0.008114940922706116	Belarus
116	0.007953384391019204	SierraLeone
133	0.007767812699216669	Tunisia
35	0.0076411873095161165	Cyprus
144	0.007566958632795102	Vietnam
106	0.007163067303577822	Philippines
140	0.006920732506047454	Uruguay
103	0.006898900542305979	Panama
18	0.006818122276462523	BosniaHerzegovina
7	0.006610718620918514	Australia
111	0.006464444463850635	Russia
93	0.006200277702578792	Nepal
100	0.006187178524333907	Norway
65	0.006093301080245566	Ireland
40	0.005907729388443032	Egypt
1	0.005610814681558977	Albania
102	0.005514754041096488	Pakistan
81	0.005353197509409577	Macedonia
72	0.005244037690702203	Kenya
70	0.005041000427906489	Jordan
41	0.004931840609199116	ElSalvador
91	0.004737536131899992	Morocco
105	0.004619643527696029	Peru
31	0.004534498869104278	Colombia
54	0.004324912017186122	Guatemala
138	0.003984333382819118	UnitedArabEmirates
114	0.003951585437206906	Senegal
74	0.0038970055278532193	Kyrgyzstan
86	0.003800944887390731	Malta
29	0.0037791129236492563	Chile
82	0.0031940162953777366	Madagascar
33	0.0031743675280104097	CostaRica
63	0.0029735134615888428	Iran
0	0.0029560478905956635	Afghanistan
49	0.002916750355861009	Georgia
147	0.002916750355861009	Zimbabwe
71	0.0027311786640584748	Kazakhstan
17	0.0027246290749360323	Bolivia
142	0.0027027971111945577	Uzbekistan
6	0.0026962475220721153	Armenia
48	0.002637301219970134	Gambia
60	0.002591454096113037	Iceland
132	0.0025565229541266777	Togo
42	0.0024713782955349266	Eritrea
58	0.002447363135419305	Honduras
130	0.002373134458698291	Tanzania
11	0.0023644016732017013	Bangladesh
104	0.0023469361022085216	Paraguay
10	0.002207211534263084	Bahrain
97	0.0021548148212835448	Niger
101	0.002084952537310826	Oman
16	0.002065303769943499	Bhutan
136	0.002019456646086402	Uganda
143	0.0019452279693653884	Venezuela
14	0.0019386783802429462	Belize
89	0.0019081136310048817	Mongolia
113	0.001905930434630734	SaudiArabia
51	0.0018426177397804578	Ghana
68	0.0017989538122975086	IvoryCoast
75	0.0017662058666852965	Laos
146	0.001744373902943822	Zambia
112	0.0017400075101955271	Rwanda
44	0.0016810612080935456	Ethiopia
129	0.0016745116189711032	Tajikistan
22	0.0016439468697330387	BurkinaFaso
27	0.0016046493349983844	CentralAfricanRepublic
57	0.0015959165495017945	Guyana
96	0.0015893669603793523	Nicaragua
24	0.0015806341748827624	Cambodia
83	0.0015631686038895826	Malawi
9	0.0015588022111412878	Azerbaijan
39	0.001550069425644698	Ecuador
23	0.001488939927168569	Burundi
85	0.0014802071416719791	Mali
37	0.0014692911598012419	DemocraticRepublicCongo
92	0.001403795268576818	Mozambique
15	0.001395062483080228	Benin
125	0.0013819633048353433	Suriname
109	0.0013623145374680162	Qatar
73	0.0013557649483455737	Kuwait
32	0.001347032162848984	Congo
135	0.0013252001991075092	Turkmenistan
124	0.0013011850389918873	Sudan
55	0.001285902664372855	Guinea
2	0.0012837194679987075	Algeria
78	0.001261887504257233	Liberia
145	0.0012487883260123482	Yemen
25	0.0012073075949035465	Cameroon
56	0.0011942084166586616	Guinea-Bissau
64	0.0011570940782981549	Iraq
79	0.001148361292801565	Libya
87	0.0011330789181825326	Mauritania
47	0.0011287125254342378	Gabon
4	0.0010937813834478783	Angola
98	0.0010806822052029936	Nigeria
20	0.001054483848713224	Brunei
28	0.0010086367248561274	Chad
