50	0.030458459047759217	Germany
67	0.028348909657320873	Italy
141	0.026151053548213017	USA
46	0.025297421934407732	France
30	0.023977727083180023	China
8	0.022326882036941643	Austria
123	0.02182647729781441	Spain
139	0.02174798243677484	UnitedKingdom
13	0.0216106164299556	Belgium
69	0.021277013270537444	Japan
36	0.020227144504133245	CzechRepublic
94	0.019763534231118308	Netherlands
61	0.019528049647999608	India
127	0.0191674638800991	Switzerland
107	0.01735227021855913	Poland
119	0.016091446513111094	Slovenia
126	0.015080825177226679	Sweden
38	0.01407265680574975	Denmark
66	0.013945102656560453	Israel
108	0.01374641253955405	Portugal
122	0.01329752005298403	SouthKorea
131	0.013030146932568008	Thailand
134	0.012929575391861065	Turkey
118	0.012510118478180881	Slovakia
45	0.012409546937473937	Finland
26	0.011676110579635489	Canada
21	0.011555915323668654	Bulgaria
19	0.011435720067701818	Brazil
52	0.011023622047244094	Greece
88	0.010908332720092232	Mexico
34	0.010829837859052666	Croatia
59	0.010714548531900802	Hungary
43	0.01055019991659921	Estonia
62	0.010528123236931832	Indonesia
115	0.010503593592856967	Serbia
110	0.01028773272499816	Romania
77	0.010062059999509407	Lebanon
121	0.009578826011234576	SouthAfrica
137	0.00924522285181642	Ukraine
95	0.008857654475433562	NewZealand
76	0.008771800721171535	Latvia
117	0.008766894792356563	Singapore
84	0.008337626021046434	Malaysia
80	0.008298378590526652	Lithuania
12	0.008094782544705276	Belarus
35	0.008033458434518114	Cyprus
144	0.0078372212819192	Vietnam
116	0.007574754090318149	SierraLeone
133	0.007552677410650771	Tunisia
140	0.0071651090342679125	Uruguay
40	0.007057178600338509	Egypt
103	0.006990948561336375	Panama
7	0.006949248166409105	Australia
106	0.006799617337552432	Philippines
18	0.006726028405327838	BosniaHerzegovina
93	0.006608286113768489	Nepal
111	0.0064267667476144924	Russia
100	0.006397331174724655	Norway
72	0.006353177815389899	Kenya
102	0.006210905879755685	Pakistan
1	0.005833149361002772	Albania
81	0.005798807859297961	Macedonia
70	0.005636912208403856	Jordan
65	0.005590305884661613	Ireland
91	0.00537199205239532	Morocco
105	0.005239531974391052	Peru
41	0.005151225255721539	ElSalvador
54	0.005107071896386784	Guatemala
31	0.005053106679422082	Colombia
114	0.0048347928471557874	Senegal
74	0.004756297986116221	Kyrgyzstan
138	0.004636102730149386	UnitedArabEmirates
29	0.004537984153849928	Chile
86	0.004187210243579365	Malta
82	0.0037628474010842103	Madagascar
33	0.003701523290897049	CostaRica
147	0.0036303873230799423	Zimbabwe
63	0.0035543454264478623	Iran
0	0.003532268746780484	Afghanistan
132	0.003448867956925945	Togo
49	0.003404714597591189	Georgia
71	0.003333578629774082	Kazakhstan
6	0.0033311256653665955	Armenia
48	0.003284519341624353	Gambia
58	0.003230554124659651	Honduras
130	0.003196212622954841	Tanzania
17	0.003154512228027571	Bolivia
60	0.0031005470110628693	Iceland
142	0.0030735644025805184	Uzbekistan
11	0.002911668751686413	Bangladesh
42	0.002889592072019035	Eritrea
104	0.0027988323889420364	Paraguay
10	0.0027154315990874974	Bahrain
136	0.0025486300193784187	Uganda
16	0.0025461770549709325	Bhutan
143	0.0025241003753035543	Venezuela
89	0.0024554173718939337	Mongolia
68	0.002428434763411583	IvoryCoast
75	0.0023499399023720166	Laos
97	0.0023327691515196113	Niger
51	0.002242009468442613	Ghana
146	0.0022199327887752348	Zambia
101	0.0021733264650329923	Oman
112	0.0021340790345132092	Rwanda
113	0.0021291731056982365	SaudiArabia
39	0.0021144553192533177	Ecuador
44	0.0021021904972158855	Ethiopia
129	0.0020580371378811292	Tajikistan
57	0.001969730419211617	Guyana
9	0.0019452007751367528	Azerbaijan
22	0.0019452007751367528	BurkinaFaso
96	0.00194029484632178	Nicaragua
27	0.0019059533446169697	CentralAfricanRepublic
24	0.0019010474158019967	Cambodia
14	0.0018936885225795373	Belize
92	0.0018887825937645645	Mozambique
125	0.0018127406971324845	Suriname
85	0.001798022910687566	Mali
37	0.001726886942870459	DemocraticRepublicCongo
23	0.0016508450462383792	Burundi
83	0.0016459391174234062	Malawi
25	0.0016434861530159198	Cameroon
15	0.001589520936051218	Benin
2	0.0015281968258640567	Algeria
109	0.0015208379326415973	Qatar
124	0.0015159320038266246	Sudan
55	0.0015012142173817058	Guinea
32	0.0014717786444918685	Congo
135	0.0014693256800843819	Turkmenistan
78	0.0014570608580469497	Liberia
73	0.0014276252851571124	Kuwait
56	0.001398189712267275	Guinea-Bissau
145	0.001349130424117546	Yemen
47	0.001251011847818088	Gabon
87	0.001251011847818088	Mauritania
79	0.001216670346113278	Libya
64	0.0011700640223710353	Iraq
98	0.0011528932715186302	Nigeria
20	0.001145534378296171	Brunei
4	0.0011430814138886844	Angola
28	0.0010866632325164962	Chad
