153	0.00616511402539092	106
255	0.005677732380808607	1207
402	0.00554929250527963	2710
706	0.005431403772764091	5201
401	0.00532832722178665	2709
616	0.005174929834898961	4100
912	0.005145914191612004	7108
293	0.005048924838526931	1701
332	0.0049760813704149195	2302
169	0.004936311677518112	306
925	0.004911557072755812	7204
259	0.004805436922832186	1211
640	0.004701345838872683	4407
222	0.00469566445417314	901
618	0.004653459882119384	4102
206	0.00427869139854589	713
166	0.004078219681290551	303
250	0.004048595318214357	1202
340	0.00391751765693202	2401
619	0.0038613125297258166	4103
240	0.003843253842645123	1101
211	0.0037553952863986027	804
260	0.0037523516874524185	1212
263	0.003708320956030952	1301
617	0.003690465175546671	4101
836	0.003617012987645423	6309
641	0.0036050414984570983	4408
266	0.0035660834319459394	1404
707	0.003545995678901123	5202
223	0.003533212563327149	902
186	0.003483094634013314	507
403	0.003413091858251075	2711
165	0.0034094395395156537	302
201	0.0034063959405694695	708
168	0.0033568867310448717	305
231	0.003262940976905983	910
999	0.0032503607679284213	7602
636	0.0031515452554756376	4403
208	0.0031355156343590668	801
341	0.0031184714802604345	2402
167	0.0031006156997761534	304
832	0.003057193688143924	6305
708	0.0030431931329914764	5203
813	0.003042381506605827	6203
365	0.0030056554126552033	2523
297	0.002973190357229237	1801
907	0.0029186084827943323	7103
798	0.0029003468891172263	6105
796	0.002897912009960279	6103
797	0.0028875637735432526	6104
170	0.00285895394344912	307
807	0.0028408952563684265	6114
802	0.0027656169090994683	6109
642	0.002765414002503056	4409
207	0.0027518192605434327	714
978	0.0027368041724089233	7403
499	0.0027317315074986163	3102
599	0.002730919881112967	4001
210	0.0027236152436421247	803
295	0.0027191512985210546	1703
151	0.0026866862430950885	104
795	0.0026830339243596674	6102
281	0.002667815929628746	1515
245	0.0026329159950458326	1106
1322	0.002626017170767815	9705
637	0.0026250026377857534	4404
225	0.00261404568157949	904
241	0.0025947695549203226	1102
524	0.0025527678894629795	3401
239	0.0025231435263867855	1008
188	0.002518070861476478	510
713	0.002509548784427162	5208
721	0.0024854028994541	5305
202	0.002476272102615547	709
242	0.002462068640866687	1103
187	0.0024362995031223266	508
645	0.0024107332719743788	4412
336	0.0023869932001941412	2306
291	0.002384761227633606	1604
282	0.0023524990788040523	1516
164	0.0023484409468758067	301
639	0.0023384985236516043	4406
283	0.0023208456497637356	1517
323	0.002312120666118007	2202
710	0.0023088741605754104	5205
653	0.0022954823252121998	4420
541	0.0022861486217772347	3605
794	0.0022818875832525767	6101
308	0.0022812788634633398	2002
196	0.002251857406983558	703
799	0.0022500312476158475	6106
214	0.002205391796405144	807
277	0.00219788425233789	1511
374	0.0021881447357101	2603
717	0.002180231378450021	5212
422	0.0021771877795038366	2814
287	0.0021668395430868097	1522
962	0.0021526360813379497	7313
681	0.002150404108777415	4907
635	0.002143505284499397	4402
998	0.00214289656471016	7601
342	0.0021280843831720632	2403
803	0.002093793168378387	6110
192	0.0020907495694322026	603
650	0.00207634320108693	4417
837	0.0020722850691586845	6310
714	0.002067009497651965	5209
405	0.0020643717118986053	2713
236	0.0020526031293066926	1005
217	0.0020440810522573765	810
815	0.002018311914513016	6205
172	0.0020077607714995773	402
362	0.0020047171725533926	2520
380	0.001989296271226059	2609
315	0.0019696143313740672	2009
191	0.0019633242268852864	602
709	0.001938975435315812	5204
895	0.001933294050616268	7010
814	0.0019304533582664958	6204
286	0.0019288301054951975	1521
821	0.0019148295503427497	6211
204	0.0019101626986252672	711
538	0.0018888575060019772	3602
313	0.0018847993740737313	2007
392	0.0018823644949167839	2621
372	0.0018821615883203716	2601
712	0.0018710017255176958	5207
298	0.0018537546648226516	1802
436	0.0018501023460872304	2828
237	0.0018490878131051688	1006
193	0.0018456384009661602	604
189	0.0018450296811769232	511
459	0.001843406428405625	2904
906	0.001826362274306993	7102
382	0.0018212896093966857	2611
595	0.0018125646257509574	3923
388	0.0018105355597868343	2617
817	0.0018050570816837027	6207
811	0.0017993756969841587	6201
343	0.0017900419935491935	2501
279	0.0017652873887868945	1513
759	0.0017583885645088768	5608
820	0.0017334310531501656	6210
328	0.001728967108029095	2207
833	0.0017202421243833668	6306
209	0.001717604338630007	802
348	0.0017117200473340509	2506
935	0.0017074590088093928	7214
264	0.0017056328494416823	1302
498	0.0016894003217286992	3101
219	0.001682095684257857	812
611	0.0016788491787152603	4013
758	0.0016776317391367867	5607
801	0.001674993953383427	6108
203	0.0016652544367556372	710
278	0.001665051530159225	1512
399	0.001661602118020216	2707
819	0.0016589643322668564	6209
646	0.0016575439860919703	4413
1277	0.001650239348621128	9206
149	0.001648210282657005	102
311	0.001645369590307233	2005
316	0.0016429347111502856	2101
761	0.0016350213538902064	5701
800	0.0016331951945224958	6107
916	0.0016281225296121886	7112
319	0.001623455677894706	2104
243	0.0016193975459664603	1104
923	0.0016187888261772236	7202
610	0.0016181801063879866	4012
386	0.0016100638425314952	2615
1199	0.0016031650182534774	8609
748	0.0016017446720785913	5513
818	0.0016005272325001177	6208
238	0.0015885557433117927	1007
1225	0.0015842947047871347	8905
936	0.0015780046002983538	7215
1204	0.0015721203090023974	8705
230	0.0015506122097826952	909
256	0.0015465540778544493	1208
563	0.0015396552535764316	3814
660	0.0015368145612266596	4602
831	0.0015366116546302474	6304
822	0.0015335680556840632	6212
194	0.0015325535227020016	701
574	0.0015222052862849751	3901
212	0.001520176220320852	805
179	0.0015181471543567293	409
331	0.0015177413411639046	2301
345	0.0015155093686033696	2503
387	0.0015092192641145887	2616
752	0.001502320439836571	5601
220	0.0014948128957693162	813
842	0.0014935954561908426	6405
324	0.0014919722034195443	2203
406	0.0014899431374554215	2714
292	0.0014879140714912985	1605
393	0.0014745222361280876	2701
927	0.0014720873569711401	7206
1235	0.00145788389522228	9007
379	0.0014524054171191484	2608
329	0.001446521125823192	2208
322	0.001444289153262657	2201
303	0.001435158356424104	1902
296	0.0014345496366348672	1704
185	0.0014321147574779198	506
502	0.001416085136361349	3105
229	0.0014071572461192084	908
314	0.001402693300998138	2008
816	0.001401881674612489	6206
693	0.0013893014656349272	5101
806	0.0013791561358143128	6113
358	0.0013730689379219442	2516
183	0.0013641410476798036	504
199	0.0013590683827694964	706
265	0.001353792811262777	1401
928	0.0013493288661417066	7207
1093	0.0013440532946349872	8429
216	0.0013414155088816275	809
694	0.001339589349513917	5102
155	0.0013369515637605572	202
829	0.001333299245025136	6302
688	0.0013328934318323116	5003
317	0.00132477716797582	2102
805	0.0013136173051731443	6112
205	0.001313414398576732	712
307	0.0013132114919803197	2001
812	0.0013079359204736002	6202
804	0.0013067184808951266	6111
651	0.0013055010413166527	4418
1320	0.001297181870863749	9703
299	0.0012718185463122132	1803
828	0.0012685720407696166	6301
749	0.0012683691341732043	5514
1222	0.0012641080956485463	8902
1152	0.0012521366064602213	8506
371	0.0012450348755857913	2530
977	0.0012421941832360193	7402
687	0.0012389476776934227	5002
377	0.0012379331447113613	2606
350	0.0012369186117292999	2508
701	0.0012294110676620454	5109
261	0.0012281936280835715	1213
221	0.001227787814890747	814
414	0.0012259616555230365	2806
958	0.0012259616555230365	7309
357	0.001225758748926624	2515
407	0.0012231209631732643	2715
966	0.0012208889906127293	7317
390	0.0012170337652808957	2619
441	0.0012054680892853954	2833
917	0.0011943082264827196	7113
770	0.0011906559077472984	5805
464	0.0011878152153975265	2909
426	0.0011861919626262281	2818
327	0.0011792931383482104	2206
765	0.001178887325155386	5705
575	0.001176858259191263	3902
918	0.0011679303689491223	7114
960	0.001164075143617289	7311
493	0.001161234451267517	2939
423	0.001159205385303394	2815
867	0.0011553501599715606	6811
195	0.0011527123742182009	702
808	0.0011447990169581217	6115
886	0.0011425670443975865	7001
1300	0.0011399292586442267	9601
378	0.0011368856596980425	2607
881	0.0011338420607518581	6910
1094	0.0011291752090343756	8430
1227	0.0011277548628594897	8907
300	0.0011218705715635333	1804
838	0.0011176095330388753	6401
1018	0.0011172037198460508	7903
228	0.001114565934092691	907
1030	0.001114565934092691	8105
381	0.0011098990823752083	2610
376	0.0011038118844828397	2605
274	0.0011023915383079539	1508
415	0.0011015799119223047	2807
364	0.0010952898074335238	2522
1135	0.0010944781810478747	8474
1011	0.0010855502908057339	7614
285	0.001079260186316953	1520
1001	0.001079260186316953	7604
762	0.0010772311203528302	5702
444	0.0010731729884245844	2836
159	0.0010713468290568739	206
175	0.0010674916037250405	405
952	0.0010668828839358036	7303
686	0.0010660712575501544	5001
750	0.0010646509113752685	5515
659	0.0010642450981824439	4601
400	0.0010630276586039702	2708
1012	0.001060186966254198	7615
257	0.0010575491805008383	1209
355	0.0010559259277295402	2513
301	0.001053693955169005	1805
1221	0.0010534910485725927	8901
306	0.0010516648892048821	1905
755	0.0010506503562228208	5604
520	0.0010461864111017502	3304
909	0.0010445631583304521	7105
363	0.001033200388931364	2521
404	0.0010301567899851797	2712
456	0.001024678311882048	2901
373	0.0010214318063394513	2602
697	0.00101331554248296	5105
215	0.001009257410554714	808
934	0.0010078370643798282	7213
1224	0.001007025437994179	8904
270	0.0009968801081735646	1504
304	0.0009966772015771524	1903
863	0.000988560937720661	6807
557	0.0009867347783529504	3808
976	0.0009859231519673013	7401
1260	0.000985720245370889	9101
747	0.0009845028057924152	5512
1223	0.0009838940860031782	8903
695	0.000981459206846231	5103
412	0.0009796330474785204	2804
1057	0.0009788214210928712	8304
921	0.00097516910235745	7118
891	0.0009747632891646254	7006
554	0.0009660383055188971	3805
505	0.0009658353989224848	3203
876	0.0009656324923260725	6905
1228	0.0009648208659404233	8908
1009	0.0009597482010301162	7612
835	0.0009587336680480547	6308
1002	0.0009544726295233968	7605
711	0.0009536610031377476	5206
955	0.0009530522833485107	7306
213	0.0009510232173843879	806
1293	0.000948994151420265	9406
872	0.0009479796184382036	6901
1203	0.0009467621788597298	8704
347	0.0009465592722633176	2505
566	0.0009429069535278964	3817
689	0.0009412837007565982	5004
249	0.000939051728196063	1201
841	0.0009303267445503347	6404
1017	0.0009301238379539223	7901
496	0.0009295151181646855	2942
1095	0.0009264715192185012	8431
432	0.0009218046675010186	2824
1186	0.0009216017609046063	8544
360	0.0009203843213261326	2518
733	0.0009191668817476588	5406
1208	0.000918558161958422	8709
454	0.0009175436289763605	2849
716	0.0009169349091871237	5211
448	0.0009092244585234569	2841
982	0.0009092244585234569	7408
1301	0.0009053692331916234	9602
769	0.0009043547002095619	5804
197	0.0008933977440032984	704
519	0.0008907599582499387	3303
1321	0.0008905570516535264	9704
289	0.0008885279856894035	1602
318	0.0008862960131288684	2103
218	0.0008846727603575701	811
232	0.0008842669471647456	1001
503	0.0008830495075862719	3201
273	0.0008812233482185613	1507
668	0.0008800059086400875	4800
983	0.0008785855624652016	7409
434	0.0008755419635190173	2826
937	0.0008731070843620698	7217
767	0.0008722954579764206	5802
715	0.0008706722052051224	5210
931	0.0008660053534876398	7210
152	0.0008641791941199292	105
157	0.0008609326885773325	204
411	0.000859106529209622	2803
959	0.0008493670125818322	7310
310	0.0008471350400212971	2004
1217	0.0008451059740571742	8802
226	0.0008432798146894636	905
779	0.0008390187761648056	5903
981	0.0008365838970078582	7407
1304	0.0008359751772186213	9605
1039	0.0008333373914652615	8201
351	0.0008325257650796125	2509
320	0.0008321199518867879	2105
990	0.0008294821661334282	7419
1003	0.0008278589133621299	7606
905	0.0008274531001693053	7101
979	0.0008248153144159455	7405
810	0.0008242065946267087	6117
625	0.0008191339297164015	4201
359	0.000817307770348691	2517
1281	0.0008154816109809804	9301
368	0.0008150757977881558	2526
184	0.0008128438252276207	505
1241	0.0008114234790527346	9015
1014	0.0008108147592634978	7801
827	0.0008102060394742609	6217
638	0.0008083798801065503	4405
173	0.0008073653471244889	403
224	0.0008049304679675415	903
889	0.0008045246547747169	7004
631	0.0008035101217926554	4302
740	0.0007988432700751729	5505
720	0.0007976258304966991	5303
354	0.00079681420411105	2512
868	0.0007957996711289886	6812
840	0.0007919444457971551	6403
419	0.0007915386326043305	2811
539	0.0007893066600437954	3603
353	0.0007866688742904356	2511
596	0.0007852485281155497	3924
1196	0.0007840310885370759	8606
1129	0.0007836252753442513	8468
443	0.0007826107423621899	2835
910	0.0007824078357657776	7106
1215	0.0007811903961873038	8716
913	0.0007773351708554705	7109
529	0.000774900291698523	3406
790	0.000774900291698523	6003
680	0.000769218906998979	4906
433	0.0007669869344384438	2825
760	0.0007667840278420316	5609
366	0.0007659724014563824	2524
844	0.0007627258959137858	6501
623	0.000761508456335312	4114
724	0.0007576532310034787	5308
858	0.0007546096320572944	6802
1148	0.000754406725460882	8502
337	0.0007531892858824083	2307
590	0.0007531892858824083	3917
875	0.0007475079011828643	6904
929	0.0007471020879900398	7208
1219	0.0007466962747972152	8804
385	0.0007462904616043906	2614
246	0.0007436526758510309	1107
148	0.000743043956061794	101
339	0.0007426381428689694	2309
601	0.0007414207032904957	4003
356	0.000740203263712022	2514
930	0.0007393916373263728	7209
410	0.0007367538515730131	2802
550	0.0007367538515730131	3801
879	0.0007357393185909517	6908
177	0.0007333044394340042	407
839	0.0007312753734698813	6402
1130	0.0007296521206985831	8469
1308	0.0007294492141021707	9609
1298	0.0007266085217523988	9507
987	0.0007231591096133899	7413
675	0.0007227532964205653	4901
823	0.0007205213238600302	6213
227	0.0007176806315102581	906
1116	0.0007144341259676616	8452
1323	0.0007057091423219332	970
1216	0.0007042887961470472	8801
634	0.0007020568235865121	4401
352	0.0006979986916582664	2510
1111	0.0006957667190977311	8447
1302	0.0006947521861156697	9603
312	0.0006882591750304765	2006
176	0.0006870417354520029	406
247	0.00067791093861345	1108
1016	0.0006748673396672657	7806
919	0.0006742586198780287	7115
1201	0.0006738528066852042	8702
523	0.0006734469934923797	3307
825	0.0006718237407210814	6215
458	0.0006710121143354322	2903
522	0.000670200487949783	3306
254	0.0006695917681605462	1206
970	0.0006685772351784847	7321
726	0.0006683743285820725	5310
1279	0.0006679685153892479	9208
511	0.0006655336362323004	3209
899	0.0006649249164430636	7015
450	0.0006635045702681776	2844
409	0.0006614755043040547	2801
843	0.0006612725977076425	6406
1007	0.0006608667845148179	7610
648	0.0006568086525865722	4415
1286	0.0006557941196045107	9306
200	0.0006549824932188615	707
954	0.0006525476140619141	7305
546	0.000651735987676265	3704
1008	0.000649706921712142	7611
612	0.0006486923887300807	4014
950	0.0006450400699946595	7301
335	0.0006409819380664137	2305
171	0.0006377354325238172	401
594	0.0006377354325238172	3922
773	0.0006346918335776329	5808
1211	0.0006338802071919837	8712
252	0.0006336773005955715	1204
826	0.0006310395148422117	6216
743	0.0006296191686673258	5508
1291	0.0006296191686673258	9404
824	0.0006277930092996151	6214
262	0.0006245465037570185	1214
551	0.000624140690564194	3802
702	0.0006215029048108342	5110
418	0.0006204883718287728	2810
507	0.0006200825586359483	3205
302	0.0006168360530933516	1806
621	0.0006168360530933516	4105
784	0.0006168360530933516	5908
391	0.000616430239900527	2620
644	0.000616430239900527	4411
846	0.0006127779211651059	6504
657	0.0006117633881830445	4503
1313	0.0006091256024296848	9614
158	0.0006085168826404478	205
326	0.0006081110694476233	2205
809	0.0006072994430619742	6116
1101	0.0006070965364655619	8437
1043	0.0006060820034835005	8205
847	0.0006046616573086145	6505
408	0.0006030384045373162	2716
602	0.0006006035253803687	4004
792	0.0006001977121875441	6005
521	0.0005999948055911319	3305
294	0.0005989802726090705	1702
384	0.0005973570198377721	2613
1033	0.000595125047277237	8108
1074	0.0005930959813131141	8410
857	0.0005904581955597543	6801
628	0.0005878204098063946	4205
251	0.0005866029702279209	1203
275	0.0005861971570350963	1509
774	0.0005859942504386841	5809
1299	0.0005855884372458595	9508
924	0.0005831535580889121	7203
791	0.0005823419317032629	6004
915	0.0005823419317032629	7111
965	0.0005813273987212014	7316
1037	0.0005784867063714295	8112
154	0.0005776750799857803	201
1167	0.0005758489206180697	8523
1022	0.0005709791623041749	8001
727	0.0005705733491113503	5311
305	0.0005697617227257011	1904
1276	0.0005695588161292889	9205
1023	0.0005683413765508151	8002
1070	0.0005683413765508151	8406
1139	0.0005673268435687536	8478
1247	0.0005671239369723414	9021
370	0.0005665152171831046	2529
510	0.0005659064973938677	3208
989	0.0005636745248333325	7418
413	0.0005630658050440957	2805
856	0.0005628628984476833	6704
741	0.0005624570852548588	5506
369	0.0005608338324835606	2528
600	0.0005602251126943236	4002
431	0.0005600222060979114	2823
416	0.000559819299501499	2808
734	0.0005590076731158499	5407
1048	0.0005579931401337885	8210
528	0.0005553553543804288	3405
849	0.0005551524477840165	6507
1244	0.0005551524477840165	9018
768	0.000554137914801955	5803
953	0.0005539350082055428	7304
614	0.0005521088488378322	4016
744	0.0005510943158557707	5509
321	0.0005494710630844725	2106
344	0.0005492681564880601	2502
573	0.0005476449037167619	3825
1177	0.0005464274641382882	8535
652	0.0005421664256136301	4419
1084	0.000541354799227981	8420
198	0.0005411518926315687	705
1075	0.0005411518926315687	8411
1194	0.0005387170134746212	8604
1149	0.0005383112002817967	8503
737	0.0005374995738961475	5502
568	0.0005358763211248493	3819
338	0.0005348617881427878	2308
674	0.000534253068353551	4824
290	0.0005310065628109544	1603
793	0.0005308036562145421	6006
948	0.0005303978430217175	7228
1050	0.0005293833100396561	8212
445	0.0005291804034432437	2837
1218	0.0005289774968468315	8803
757	0.0005279629638647701	5606
190	0.0005259338979006472	601
1058	0.000525122271514998	8305
643	0.0005220786725688137	4410
435	0.0005218757659724015	2827
667	0.0005206583263939277	4707
735	0.0005206583263939277	5408
1230	0.0005198467000082786	9002
1025	0.0005196437934118663	8007
1096	0.000519440886815454	8432
504	0.0005186292604298048	3202
1000	0.0005186292604298048	7603
1269	0.0005182234472369803	9110
738	0.000518020540640568	5503
830	0.0005174118208513312	6303
789	0.0005163972878692697	6002
980	0.0005153827548872083	7406
346	0.0005129478757302608	2504
1197	0.0005121362493446116	8607
1200	0.0005103100899769011	8701
272	0.0005070635844343045	1506
437	0.0005048316118737694	2829
446	0.0005042228920845325	2839
1059	0.0005040199854881202	8306
624	0.0005025996393132342	4115
1005	0.0005015851063311727	7608
666	0.0005003676667526991	4706
1062	0.0004997589469634622	8309
620	0.000498135694192164	4104
397	0.0004971211612101024	2705
887	0.0004963095348244533	7002
1028	0.0004963095348244533	8103
877	0.0004926572160890322	6906
1138	0.000491845589703383	8477
719	0.0004910339633177338	5302
1122	0.0004906281501249093	8459
383	0.0004898165237392602	2612
1036	0.0004898165237392602	8111
1262	0.000489004897353611	9103
438	0.00048636711160025126	2830
1188	0.0004817002598827687	8546
253	0.0004806857269007072	1205
864	0.0004800770071114704	6808
586	0.0004796711939186458	3913
1315	0.0004784537543401721	9616
163	0.0004770334081652861	210
555	0.0004754101553939878	3806
501	0.0004743956224119264	3104
862	0.0004743956224119264	6806
1210	0.0004737869026226895	8711
1254	0.0004737869026226895	9028
512	0.00047216364985139123	3210
897	0.00047135202346574207	7013
1026	0.00046972877069444374	8101
536	0.00046851133111597005	3507
457	0.0004660764519590226	2902
845	0.0004644531991877243	6502
622	0.00046140960024154004	4106
933	0.0004601921606630663	7212
1220	0.000458568907891768	8805
1263	0.000458568907891768	9104
1004	0.00045796018810253115	7607
700	0.000457148561716882	5108
885	0.0004569456551204697	6914
951	0.0004563369353312328	7302
972	0.0004555253089455837	7323
569	0.00045471368255993455	3820
698	0.0004541049627706977	5106
182	0.0004539020561742854	502
1287	0.0004524817099993994	9307
992	0.0004508584572281011	7502
771	0.00045045264403527656	5806
764	0.00044882939126397823	5704
1283	0.00044862648466756594	9303
947	0.0004478148582819168	7227
1027	0.00044761195168550454	8102
696	0.00044436544614290794	5104
1184	0.00044416253954649565	8542
461	0.0004429450999680219	2906
556	0.00044233638017878503	3807
268	0.0004403073142146622	1502
1090	0.00043746662186489016	8426
533	0.0004356404624971796	3503
903	0.00043422011632229357	7019
449	0.000432393956954583	2843
1290	0.00043056779758687244	9403
865	0.00043036489099046015	6809
398	0.00042995907779763557	2706
1316	0.00042995907779763557	9617
1242	0.000428132918429925	9016
1213	0.0004261038524658021	8714
613	0.000425292226080153	4015
1305	0.000425292226080153	9606
926	0.0004250893194837407	7205
883	0.00042407478650167925	6912
1172	0.0004232631601160301	8530
772	0.0004220457205375564	5807
1179	0.00042103118755549494	8537
421	0.00041616142924160007	2813
751	0.0004159585226451878	5516
161	0.0004143352698738895	208
1071	0.0004143352698738895	8407
1178	0.0004143352698738895	8536
1161	0.00041352364348824035	8516
1052	0.00041311783029541576	8214
1151	0.00041210329731335436	8505
589	0.0004096684181564069	3916
440	0.0004094655115599946	2832
1275	0.00040926260496358235	9202
588	0.0004082480719815209	3915
1209	0.0004082480719815209	8710
1099	0.0004080451653851086	8435
1303	0.0004078422587886963	9604
288	0.0004066248192102226	1601
1010	0.00040621900601739804	7613
604	0.00040601609942098575	4006
492	0.0004050015664389243	2938
869	0.00040418994005327513	6813
630	0.0004035812202640383	4301
537	0.00040236378068556457	3601
564	0.00040236378068556457	3815
1236	0.00040236378068556457	9008
334	0.00040013180812502943	2304
729	0.0003985085553537311	5402
469	0.00039830564875731886	2914
150	0.0003970882091788451	103
1158	0.00039688530258243283	8513
775	0.00039607367619678367	5810
723	0.0003944504234254854	5307
728	0.0003940446102326608	5401
1006	0.0003938417036362485	7609
834	0.00039323298384701165	6307
542	0.00039221845086495025	3606
754	0.00039201554426853796	5603
882	0.00039181263767212567	6911
685	0.0003916097310757134	4911
559	0.0003912039178828888	3810
325	0.0003910010112864765	2204
430	0.00039039229149723963	2822
975	0.0003897835717080028	7326
782	0.00038897194532235365	5906
940	0.00038856613212952907	7220
1140	0.0003881603189367045	8479
1063	0.00038613125297258164	8310
781	0.0003853196265869325	5905
506	0.0003849138133941079	3204
513	0.0003838992804120465	3211
451	0.0003836963738156342	2845
1124	0.00038166730785151135	8461
1226	0.0003808556814658622	8906
453	0.000380044055080213	2847
475	0.000380044055080213	2920
514	0.00037963824188738844	3212
1079	0.0003792324286945639	8415
730	0.0003790295220981516	5403
1117	0.00037882661550173933	8453
471	0.00037862370890532704	2916
571	0.00037862370890532704	3823
1040	0.00037821789571250246	8202
427	0.0003770004561340287	2819
558	0.0003763917363447919	3809
244	0.0003761888297483796	1105
855	0.00037517429676631815	6703
1233	0.0003745655769770813	9005
1083	0.0003741597637842567	8419
442	0.0003735510439950199	2834
669	0.0003733481373986076	4802
949	0.0003733481373986076	7229
1115	0.0003733481373986076	8451
465	0.00037172488462730927	2910
788	0.000371521978030897	6001
787	0.00037091325824166016	5911
848	0.0003705074450488356	6506
878	0.0003666522197170021	6907
1181	0.00036604349992776523	8539
704	0.00036462315375287925	5112
908	0.0003636086207708178	7104
582	0.0003632028075779932	3909
942	0.00036157955480669495	7222
1314	0.00036137664821028265	9615
394	0.00036117374161387036	2702
572	0.00036117374161387036	3824
570	0.0003603621152282212	3821
1136	0.00035853595586051064	8475
1205	0.00035833304926409835	8706
1120	0.0003577243294748615	8457
629	0.0003575214228784492	4206
746	0.0003567097964928001	5511
860	0.0003558981701071509	6804
1238	0.0003558981701071509	9011
389	0.0003556952635107386	2618
486	0.00035386910414302806	2932
234	0.0003532603843537912	1003
584	0.00035224585137172973	3911
870	0.00035204294477531744	6814
1289	0.00035204294477531744	9402
425	0.0003516371315824929	2817
181	0.00035041969200401917	501
473	0.0003500138788111946	2918
968	0.0003498109722147823	7319
180	0.0003485935326363086	410
776	0.00034798481284707174	5811
944	0.00034737609305783486	7224
280	0.00034636156007577346	1514
1311	0.00034636156007577346	9612
988	0.0003461586534793612	7415
647	0.0003459557468829489	4414
174	0.00034494121390088743	404
1082	0.00034433249411165056	8418
1189	0.0003423034281475277	8547
1013	0.00034169470835829083	7616
1123	0.00034047726877981714	8460
866	0.00034027436218340485	6810
565	0.0003392598292013434	3816
460	0.0003378394830264574	2905
1106	0.00033743366983363283	8442
1038	0.00033682495004439596	8113
1171	0.00033682495004439596	8529
1112	0.00033662204344798367	8448
654	0.0003362162302551591	4421
1174	0.0003358104170623345	8532
859	0.0003352016972730977	6803
429	0.0003345929774838608	2821
670	0.00033378135109821166	4807
488	0.0003329697247125625	2934
309	0.0003323610049233257	2003
1240	0.0003323610049233257	9014
649	0.0003321580983269134	4416
609	0.0003313464719412642	4011
361	0.00033094065874843964	2519
1229	0.00033073775215202735	9001
673	0.00032972321916996595	4823
567	0.0003291144993807291	3818
420	0.0003287086861879045	2812
577	0.0003285057795914922	3904
1237	0.0003285057795914922	9010
1046	0.00032769415320584304	8208
1055	0.00032749124660943075	8302
1288	0.00032688252682019393	9401
1183	0.00032627380703095706	8541
525	0.0003244476476632465	3402
1072	0.0003214040487170622	8408
233	0.00032038951573500074	1002
1133	0.00032018660913858845	8472
1143	0.00032018660913858845	8482
467	0.0003195778893493516	2912
535	0.0003193749827529393	3506
1019	0.000319172076156527	7904
1284	0.0003183604497708779	9304
957	0.0003181575431744656	7308
548	0.000317751729981641	3706
943	0.00031734591678881643	7223
1024	0.000316331383806755	8003
585	0.0003145052244390444	3912
1091	0.0003132877848605707	8427
1250	0.00031308487826415843	9024
1060	0.000312070345282097	8307
725	0.0003118674386856847	5309
1296	0.0003114616254928601	9505
466	0.0003110558123000355	2911
483	0.00031085290570362324	2928
1306	0.00031085290570362324	9607
1312	0.00030963546612514955	9613
731	0.0003090267463359127	5404
1169	0.0003086209331430881	8526
1031	0.0003084180265466758	8106
632	0.00030659186717896524	4303
1265	0.00030598314738972837	9106
396	0.0003057802407933161	2704
1192	0.00030496861440766697	8602
1041	0.00030293954844354406	8203
608	0.00030253373525071953	4010
248	0.00030009885609377204	1109
718	0.00029928722970812293	5301
284	0.00029888141651529835	1518
367	0.0002974610703404123	2525
417	0.0002974610703404123	2809
1141	0.0002974610703404123	8480
271	0.0002968523505511755	1505
428	0.0002966494439547632	2820
1270	0.00029543200437628946	9111
884	0.0002950261911834649	6913
1163	0.000294417471394228	8518
1118	0.00029279421862292974	8454
963	0.00029218549883369287	7314
690	0.00029157677904445605	5005
627	0.00028954771308033314	4203
1100	0.00028873608669468403	8436
258	0.00028833027350185945	1210
663	0.0002877215537126226	4703
699	0.0002875186471162103	5107
853	0.00028630120753773654	6701
995	0.000285895394344912	7506
597	0.00028508376795926285	3925
1294	0.00028508376795926285	9503
922	0.00028467795476643827	7201
1255	0.00028467795476643827	9029
1087	0.0002836634217843768	8423
973	0.00028204016901307855	7324
1113	0.00028204016901307855	8449
1015	0.0002814314492238417	7804
583	0.0002808227294346048	3910
1212	0.0002804169162417803	8713
1175	0.0002794023832597188	8533
914	0.00027899657006689424	7110
1165	0.00027899657006689424	8521
763	0.00027859075687406966	5703
1202	0.00027838785027765737	8703
500	0.0002779820370848328	3103
476	0.0002761558777171222	2921
678	0.0002761558777171222	4904
1035	0.0002761558777171222	8110
778	0.00027595297112070993	5902
1092	0.00027575006452429764	8428
479	0.0002751413447350608	2924
1137	0.0002735180919637625	8476
455	0.0002720977457888765	2852
896	0.0002720977457888765	7011
1089	0.00027108321280681506	8425
375	0.0002692570534391045	2604
526	0.00026864833364986763	3403
447	0.00026844542705345534	2840
578	0.00026824252045704305	3905
1248	0.00026824252045704305	9022
1191	0.0002674308940713939	8601
1102	0.0002670250808785693	8438
1309	0.0002664163610893325	9610
1078	0.00026499601491444645	8414
665	0.0002629669489503236	4705
478	0.0002627640423539113	2923
481	0.00026195241596826214	2926
890	0.0002613436961790253	7005
753	0.00026073497638978845	5602
603	0.00025890881702207784	4005
920	0.00025890881702207784	7117
984	0.00025890881702207784	7410
562	0.000258300097232841	3813
518	0.00025728556425077956	3302
633	0.0002566768444615427	4304
985	0.0002522128993404724	7411
178	0.00025119836635841095	408
1021	0.0002505896465691741	7907
974	0.00024835767400863893	7325
993	0.0002475460476229898	7504
1056	0.00024693732783375295	8303
1064	0.00024693732783375295	8311
901	0.00024409663548398094	7017
1243	0.00024328500909833177	9017
1142	0.00024267628930909493	8481
593	0.00024206756951985806	3920
1146	0.0002414588497306212	8487
893	0.00024105303653779663	7008
235	0.00023902397057367375	1004
1249	0.00023760362439878774	9023
485	0.00023740071780237548	2930
1145	0.0002369949046095509	8486
531	0.00023658909141672632	3501
497	0.00023598037162748947	3006
1098	0.0002355745584346649	8434
1252	0.0002351687452418403	9026
932	0.00023456002545260346	7211
160	0.00023435711885619117	207
1131	0.00023435711885619117	8470
671	0.00023415421225977888	4810
1307	0.0002339513056633666	9608
964	0.00023293677268130516	7315
1190	0.0002323280528920683	8548
684	0.00023029898692794544	4910
900	0.00023029898692794544	7016
1261	0.00022989317373512086	9102
527	0.00022969026713870857	3404
1245	0.000229284453945884	9019
1159	0.00022887864075305943	8514
1128	0.00022867573415664714	8467
1168	0.00022745829457817342	8525
516	0.00022725538798176113	3214
1272	0.00022400888243916453	9113
1162	0.0002229943494571031	8517
333	0.00022258853626427853	2303
162	0.00022076237689656796	209
691	0.00022076237689656796	5006
156	0.00022055947030015567	203
956	0.00022035656370374338	7307
1231	0.00022035656370374338	9003
780	0.00021954493731809425	5904
1164	0.00021893621752885737	8519
902	0.00021812459114320824	7018
439	0.00021690715156473452	2831
745	0.00021528389879343622	5510
676	0.00021508099219702393	4902
532	0.00021467517900419935	3502
615	0.00021467517900419935	4017
553	0.0002140664592149625	3804
1132	0.00021345773942572563	8471
1280	0.00021345773942572563	9209
1061	0.00021325483282931334	8308
576	0.0002126461130400765	3903
626	0.0002124432064436642	4202
1317	0.0002124432064436642	9618
1134	0.0002112257668651905	8473
605	0.00021061704707595362	4007
736	0.00021021123388312903	5501
1126	0.0002096025140938922	8463
1119	0.00020554438216564646	8455
1108	0.00020513856897282187	8444
452	0.00020452984918358503	2846
552	0.00020452984918358503	3803
894	0.00020432694258717274	7009
941	0.00020412403599076045	7221
1114	0.00020412403599076045	8450
395	0.00020371822279793587	2703
888	0.00020371822279793587	7003
1088	0.00020310950300869902	8424
683	0.00020250078321946215	4909
777	0.00020209497002663757	5901
1246	0.0002018920634302253	9020
1206	0.00020108043704457614	8707
664	0.00020087753044816385	4704
477	0.00019986299746610242	2922
1259	0.00019925427767686555	9033
495	0.000198848464484041	2941
472	0.0001986455578876287	2917
850	0.000197428118309155	6601
871	0.00019661649192350583	6815
1282	0.00019641358532709356	9302
491	0.00019600777213426898	2937
672	0.0001958048655378567	4811
534	0.00019458742595938297	3505
703	0.00019458742595938297	5111
1076	0.0001939787061701461	8412
580	0.00019316707978449696	3907
679	0.00019316707978449696	4905
873	0.00019174673360961096	6902
463	0.00019113801382037408	2908
1267	0.00018971766764548808	9108
851	0.00018890604125983894	6602
1170	0.0001866740686993038	8527
489	0.00018606534891006692	2935
560	0.00018606534891006692	3811
662	0.00018586244231365463	4702
732	0.0001852537225244178	5405
508	0.0001848479093315932	3206
540	0.00018423918954235633	3604
487	0.0001836304697531195	2933
1032	0.0001836304697531195	8107
1156	0.00018241303017464577	8511
939	0.00018221012357823348	7219
1029	0.0001820072169818212	8104
1020	0.00018139849719258434	7905
561	0.00018119559059617205	3812
722	0.00018099268399975976	5306
1153	0.00018078977740334747	8507
1187	0.0001801810576141106	8545
1150	0.0001787607114392246	8504
1176	0.00017855780484281233	8534
598	0.00017774617845716317	3926
1068	0.00017774617845716317	8404
892	0.00017734036526433858	7007
756	0.00017713745866792632	5605
1051	0.00017693455207151403	8213
904	0.00017673164547510174	7020
852	0.00017652873887868945	6603
1198	0.00017612292568586487	8608
655	0.00017490548610739115	4501
1253	0.00017490548610739115	9027
994	0.00017470257951097886	7505
1180	0.00017409385972174201	8538
269	0.00017389095312532972	1503
986	0.00017368804652891743	7412
1214	0.00017368804652891743	8715
1292	0.00017368804652891743	9405
1271	0.00017328223333609285	9112
1054	0.0001730793267396806	8301
1285	0.0001730793267396806	9305
1066	0.000172673513546856	8402
424	0.00017206479375761913	2816
971	0.00017186188716120684	7322
1297	0.00017165898056479458	9506
1256	0.0001710502607755577	9030
1182	0.00017084735417914542	8540
1155	0.000169832821197084	8509
462	0.0001696299146006717	2907
682	0.0001696299146006717	4908
861	0.00016902119481143485	6805
1053	0.00016841247502219798	8215
1085	0.0001682095684257857	8421
509	0.0001680066618293734	3207
1185	0.0001678037552329611	8543
515	0.00016760084863654885	3213
783	0.00016760084863654885	5907
517	0.00016678922225089968	3215
911	0.00016557178267242597	7107
1295	0.00016557178267242597	9504
606	0.00016516596947960138	4008
766	0.00016516596947960138	5801
991	0.00016476015628677683	7501
1147	0.00016455724969036454	8501
945	0.00016435434309395225	7225
677	0.00016415143649753996	4903
1069	0.00016415143649753996	8405
330	0.00016394852990112767	2209
1042	0.00016374562330471538	8204
1268	0.00016374562330471538	9109
1121	0.0001635427167083031	8458
961	0.00016293399691906624	7312
1154	0.00016252818372624166	8508
276	0.00016232527712982937	1510
591	0.00016232527712982937	3918
997	0.0001621223705334171	7508
1166	0.00016131074414776794	8522
1278	0.00016131074414776794	9207
1045	0.0001607020243585311	8207
1107	0.00016009330456929422	8443
1104	0.00015989039797288193	8440
1049	0.0001588758649908205	8211
1318	0.00015847005179799592	9701
786	0.00015786133200875908	5910
607	0.0001576584254123468	4009
1097	0.0001576584254123468	8433
661	0.0001572526122195222	4701
692	0.00015704970562310992	5007
1234	0.00015704970562310992	9006
946	0.0001560351726410485	7226
785	0.0001558322660446362	5909
1160	0.0001558322660446362	8515
470	0.00015522354625539935	2915
1173	0.0001542090132733379	8531
1065	0.00015400610667692564	8401
1273	0.00015400610667692564	9114
1319	0.00015319448029127647	9702
1195	0.00015197704071280276	8605
490	0.00015116541432715362	2936
1081	0.00015116541432715362	8417
1251	0.00015116541432715362	9025
996	0.00015096250773074133	7507
656	0.00015075960113432904	4502
854	0.00014994797474867988	6702
1232	0.0001485276285737939	9004
474	0.00014771600218814473	2919
267	0.00014751309559173244	1501
579	0.00014751309559173244	3906
1264	0.00014731018899532015	9105
494	0.0001471072823989079	2940
1067	0.0001469043758024956	8403
1127	0.0001467014692060833	8465
1080	0.00014649856260967101	8416
1125	0.00014649856260967101	8462
482	0.0001454840296276096	2927
349	0.000145078216434785	2507
969	0.000145078216434785	7320
1258	0.00014446949664554813	9032
1073	0.00014426659004913587	8409
898	0.00014244043068142528	7014
1157	0.00014244043068142528	8512
530	0.0001420346174886007	3407
1266	0.00014122299110295156	9107
1103	0.0001406142713137147	8439
581	0.00013939683173524097	3908
1257	0.00013919392513882868	9031
545	0.00013797648556035497	3703
1239	0.00013797648556035497	9013
938	0.0001375706723675304	7218
967	0.0001375706723675304	7318
1144	0.00013736776577111812	8483
1274	0.00013736776577111812	9201
1207	0.00013675904598188125	8708
549	0.00013655613938546896	3707
587	0.00013655613938546896	3914
1077	0.0001361503261926444	8413
1310	0.0001359474195962321	9611
592	0.00013513579321058295	3919
874	0.00013493288661417066	6903
1086	0.0001347299800177584	8422
1034	0.0001345270734213461	8109
742	0.00013412126022852152	5507
658	0.00013351254043928465	4504
1105	0.00013351254043928465	8441
739	0.00013188928766798638	5504
547	0.0001314834744751618	3705
1193	0.0001314834744751618	8603
484	0.0001300631283002758	2929
544	0.00012925150191462665	3702
1110	0.0001284398755289775	8446
705	0.00012762824914332836	5113
880	0.00012722243595050377	6909
1047	0.00012701952935409148	8209
543	0.00012661371616126693	3701
468	0.00012519336998638092	2913
1044	0.00012397593040790718	8206
1109	0.00012275849082943346	8445
480	0.00011748291932271401	2925
