153	0.005817818258131494	106
255	0.005348577131858471	1207
402	0.005218029920391925	2710
401	0.005049754779174783	2709
706	0.004992091068362794	5201
616	0.004892412163055825	4100
912	0.004855327323016888	7108
293	0.004821029205061802	1701
169	0.00477944273704126	306
925	0.004678477652310975	7204
332	0.0046311033768855125	2302
259	0.004540213364304534	1211
640	0.004526065390648061	4407
222	0.0044561829753145725	901
618	0.004451252620858529	4102
206	0.004070972238031511	713
166	0.003862396808217143	303
240	0.0037459975704070693	1101
619	0.0037455688439326307	4103
250	0.003714486174535834	1202
340	0.00369755147879551	2401
617	0.003612663636856672	4101
260	0.0035903698601858656	1212
211	0.0035663611776173055	804
263	0.0035003373005537647	1301
836	0.0034705408105802833	6309
707	0.0034407443206068023	5202
266	0.003431526701406373	1404
641	0.0033652884611056126	4408
201	0.003356070841905183	708
223	0.0032851166103855987	902
186	0.0032641090131381085	507
168	0.003256177573360995	305
165	0.0032448163217883726	302
231	0.003229382168708584	910
999	0.003205802212614462	7602
403	0.0031603572063239726	2711
813	0.0031104105720518786	6203
365	0.003089188611567169	2523
636	0.0030495314126816006	4403
832	0.003020806738894216	6305
167	0.0030152332947265144	304
208	0.0029700026516732442	801
341	0.0029256294615688516	2402
796	0.0028630353963008193	6103
798	0.0028394554402066978	6105
797	0.0028088014972843392	6104
907	0.002788008263274068	7103
708	0.002749851607049035	5203
807	0.0027451356158302107	6114
802	0.002737418539290316	6109
170	0.0027151247626195103	307
295	0.0027082651390284928	1703
297	0.002699476246302502	1801
642	0.00268211282408774	4409
207	0.0026679648504312667	714
795	0.002649743975267627	6102
637	0.0026233772970896546	4404
210	0.002602798426316603	803
599	0.0025691433980731745	4001
499	0.002547707074351246	3102
225	0.002546635258165149	904
245	0.0025320585580342375	1106
978	0.00250119025187466	7403
281	0.0024975460768419324	1515
524	0.0024821119237621436	3401
1322	0.0024793252016782927	9705
151	0.002469250129528986	104
239	0.002467535223631232	1008
202	0.002453601613211978	709
291	0.002417802952596357	1604
241	0.0024087996966331467	1102
187	0.002407513517209831	508
799	0.0024002251671443754	6106
323	0.0023661414124265083	2202
283	0.0023633546903426574	1517
713	0.002340632187197413	5208
188	0.0023134080560705634	510
639	0.002307405885428423	4406
721	0.0023001175353629675	5305
645	0.0022754657630827493	4412
794	0.0022716072248128018	6101
336	0.00226924922920339	2306
710	0.002261317789426276	5205
242	0.002249099084904777	1103
164	0.0022420250980765403	301
962	0.002219731321405734	7313
541	0.0022008673565304367	3605
653	0.002193579006464981	4420
282	0.0021822177548923584	1516
308	0.0021545648972910703	2002
342	0.002151135085495562	2403
196	0.0021316280309086064	703
214	0.0021307705779597293	807
422	0.002100759724749029	2814
287	0.0020848968451948014	1522
814	0.002077608495129346	6204
362	0.002069677055352232	2520
277	0.0020694626921150126	1511
803	0.0020634605214728727	6110
635	0.0020626030685239956	4402
681	0.0020611025258634604	4907
815	0.002038594385955435	6205
650	0.0020373082065321194	4417
717	0.0020300198564666637	5212
374	0.00202208841668955	2603
998	0.0020171580622335063	7601
837	0.0020066542636097613	6310
714	0.0019942211958510424	5209
821	0.00199186320024163	6211
172	0.0019796444957201308	402
405	0.001974499778026868	2713
217	0.0019697837868080433	810
236	0.0019532778175421583	1005
712	0.0019421309292067552	5207
192	0.0019395585703601238	603
709	0.0019245531437547736	5204
191	0.0019200515157731686	602
817	0.0019161929775032213	6207
895	0.0018866108507669594	7010
286	0.0018844672183947666	1521
313	0.0018842528551575473	2007
204	0.0018696761550266356	711
538	0.0018593867196401099	3602
315	0.0018559569078446013	2009
380	0.0018529558225235312	2609
595	0.0018411658444764704	3923
392	0.0018304476826155058	2621
193	0.0018190864310428836	604
436	0.0018102975383168928	2828
819	0.0018012942823536827	6209
811	0.0017899330307810603	6201
343	0.0017892899410694024	2501
237	0.001788218124883306	1006
388	0.0017841452233761396	2617
459	0.0017824303174783852	2904
189	0.0017751419674129293	511
758	0.0017729983350407365	5607
801	0.001770425976194105	6108
800	0.0017584216349098248	6107
372	0.0017571354554865091	2601
759	0.001753276917216562	5608
311	0.00171469153451709	2005
264	0.001713834081568213	1302
935	0.001713190991856555	7214
906	0.001711047359484362	7102
382	0.0017041877358933448	2611
646	0.001700543560860617	4413
279	0.001694755753455696	1513
328	0.0016934695740323804	2207
498	0.0016853237710180474	3101
818	0.001683394501883074	6208
348	0.0016784641474270302	2506
203	0.0016782497841898109	710
820	0.0016758917885803988	6210
923	0.001662815631110022	7202
298	0.0016587427296028557	1802
316	0.0016535980119095927	2101
278	0.001650811289825742	1512
399	0.0016497394736396456	2707
822	0.0016280887866804974	6212
833	0.0016253020645966467	6306
319	0.0016150126292101207	2104
209	0.0016141551762612436	802
149	0.0016034370144002792	102
611	0.0015991497496558934	4013
219	0.0015967917540464813	812
842	0.0015772846994595259	6405
292	0.0015762128832734295	1605
831	0.0015729974347151402	6304
1199	0.0015704250758685088	8609
1225	0.0015652803581752458	8905
212	0.0015560627389748164	805
748	0.0015530616536537463	5513
816	0.0015524185639420884	6206
296	0.001551346747755992	1704
936	0.0015487743889093606	7215
916	0.001542343491792782	7112
243	0.001538699316760054	1104
610	0.0015382705902856155	4012
303	0.0015254087960524581	1902
238	0.0015185491724614409	1007
1277	0.001517906082749783	9206
331	0.0015153337239031516	2301
220	0.0015093315532610115	813
230	0.0015069735576515994	909
1204	0.0015061161047027222	8705
406	0.0015041868355677485	2714
194	0.001502257566432775	701
805	0.001500113934060582	6112
563	0.001488967045725179	3814
387	0.0014868234133529861	2616
379	0.0014812499691852846	2608
179	0.0014724610764592938	409
386	0.0014666732690543731	2615
761	0.0014662445425799346	5701
502	0.0014580987395656014	3105
660	0.001457884376328382	4602
314	0.0014529540218723386	2008
256	0.0014486667571279527	1208
804	0.0014437364026719092	6111
229	0.0014366624158436727	908
393	0.0014173697244939366	2701
345	0.0014122250068006738	2503
752	0.0014083664685307265	5601
307	0.0014036504773119022	2001
324	0.0013978626699069814	2203
358	0.0013974339434325428	2516
927	0.0013961477640092271	7206
265	0.0013955046742975693	1401
812	0.0013933610419253762	6202
185	0.001380499247692219	506
183	0.0013757832564733946	504
322	0.0013747114402872982	2201
651	0.0013742827138128596	4418
574	0.0013736396241012018	3901
205	0.001372996534389544	712
329	0.0013697810858312545	2208
357	0.001358205471021413	2515
317	0.0013547756592259042	2102
371	0.0013532751165653693	2530
829	0.0013528463900909307	6302
1235	0.0013517745739048343	9007
407	0.0013333393355039755	2715
216	0.0013215493574569145	809
693	0.0013146897338658973	5101
1093	0.0013146897338658973	8429
966	0.0013086875632237573	7317
928	0.0013080444735120995	7207
1222	0.0013037572087677136	8902
806	0.001282535248283004	6113
199	0.001278033620301399	706
828	0.0012758899879292062	6301
299	0.0012688160011009697	1803
390	0.001266243642254338	2619
770	0.0012651718260682416	5805
838	0.001262385103984391	6401
749	0.0012604558348494174	5514
701	0.0012499520362256721	5109
688	0.00123859078465305	5003
350	0.0012353753360947605	2508
414	0.0012347322463831026	2806
867	0.0012330173404853483	6811
694	0.0012259433536571118	5102
155	0.0012212273624382876	202
1320	0.001213295922661174	9703
917	0.0012085799314423495	7113
221	0.0012057932093584988	814
977	0.0012057932093584988	7402
1300	0.0012055788461212795	9601
377	0.0012053644828840602	2606
765	0.001203863940223525	5705
881	0.0012017203078513322	6910
958	0.0012017203078513322	7309
960	0.001198504859293043	7311
423	0.0011925026886509028	2815
808	0.0011841425223993506	6115
1001	0.0011792121679433068	7604
886	0.0011766398090966754	7001
261	0.0011727812708267284	1213
175	0.001165064194286834	405
1011	0.0011603482030680095	7614
918	0.0011586332971702553	7114
441	0.001153274216239773	2833
1152	0.0011446996867510014	8506
195	0.0011444853235137822	702
415	0.0011386975161088613	2807
327	0.001137625699922765	2206
378	0.00113612515726223	2607
755	0.0011350533410761335	5604
444	0.0011326953454667214	2836
687	0.0011284080807223355	5002
285	0.0011281937174851162	1520
300	0.0011254069954012656	1804
493	0.001124335179215169	2939
426	0.0011239064527407304	2818
1227	0.0011189760982846869	8907
659	0.0011138313805914239	4601
1018	0.0011028988554932402	7903
1030	0.0010986115907488543	8105
364	0.0010973254113255386	2522
464	0.0010964679583766615	2909
363	0.0010951817789533458	2521
575	0.0010896083347856442	3902
750	0.0010891796083112057	5515
228	0.0010793188993991185	907
934	0.0010767465405524868	7213
1012	0.0010763178140780483	7615
1094	0.0010756747243663904	8430
306	0.0010658140154543032	1905
762	0.001064099109556549	5702
355	0.001052309131509488	2513
952	0.0010499511359000758	7303
400	0.001049308046188418	2708
270	0.0010448064182068128	1504
456	0.0010400904269879886	2901
381	0.0010364462519552606	2610
1186	0.0010351600725319449	8544
257	0.001034516982820287	1209
376	0.001027871722466489	2605
1057	0.0010246562739081998	8304
1224	0.0010244419106709805	8904
301	0.0010184397400288404	1805
159	0.0010180110135544018	206
520	0.0010154386547077704	3304
554	0.001013509385572797	3805
1293	0.0010132950223355776	9406
697	0.0010117944796750424	5105
1135	0.001009222120828411	8474
347	0.0010051492193212444	2505
863	0.001004077403135148	6807
1002	0.0010034343134234902	7605
891	0.0010021481340001745	7006
274	0.0010004332281024202	1508
557	0.001000218864865201	3808
747	0.001000218864865201	5512
876	0.0009982895957302274	6905
215	0.0009978608692557888	808
218	0.0009948597839347186	811
955	0.0009948597839347186	7306
695	0.0009899294294786751	5103
1221	0.0009888576132925785	8901
304	0.0009860708912087278	1903
360	0.0009847847117854121	2518
1228	0.0009817836264643422	8908
404	0.0009764245455338599	2712
982	0.000964634567486799	7408
835	0.0009639914777751412	6308
505	0.0009631340248262639	3203
686	0.0009624909351146061	5001
668	0.0009618478454029482	4800
909	0.0009586323968446589	7105
769	0.0009569174909469046	5804
519	0.0009541307688630538	3303
273	0.0009515584100164223	1507
976	0.0009504865938303259	7401
716	0.0009494147776442295	5211
310	0.0009429838805276508	2004
566	0.0009416977011043351	3817
872	0.0009406258849182387	6901
1223	0.0009397684319693615	8903
213	0.000938696615783265	806
921	0.0009384822525460457	7118
318	0.0009322657186666864	2103
1009	0.0009322657186666864	7612
733	0.0009305508127689321	5406
937	0.0009301220862944935	7217
412	0.000927549727447862	2804
373	0.0009206901038568448	2602
983	0.0009206901038568448	7409
1301	0.0009204757406196255	9602
841	0.0009168315655868976	6404
197	0.0009146879332147047	704
496	0.0009065421302003717	2942
711	0.0009033266816420824	5206
1260	0.000898610690423258	9101
1017	0.0008951808786277494	7901
359	0.0008947521521533109	2517
689	0.0008947521521533109	5004
1095	0.0008898217976972672	8431
232	0.000889607434460048	1001
827	0.0008825334476318114	6217
432	0.0008821047211573728	2824
157	0.0008784605461246449	204
454	0.0008771743667013292	2849
289	0.0008756738240407941	1602
1281	0.0008752450975663556	9301
931	0.0008750307343291363	7210
249	0.000874816371091917	1201
351	0.0008728871019569435	2509
840	0.0008726727387197242	6403
1039	0.0008724583754825049	8201
1203	0.0008655987518914876	8704
173	0.0008651700254170491	403
767	0.0008640982092309525	5802
503	0.0008628120298076368	3201
177	0.000860668397435444	407
959	0.0008583104018260318	7310
760	0.0008574529488771547	5609
448	0.0008557380429794003	2841
320	0.0008538087738444268	2105
715	0.0008533800473699882	5210
596	0.0008523082311838917	3924
1208	0.0008523082311838917	8709
631	0.0008520938679466724	4302
411	0.0008512364149977952	2803
434	0.0008499502355744796	2826
1014	0.0008439480649323394	7801
152	0.0008433049752206816	105
1321	0.0008407326163740502	9704
1003	0.0008405182531368309	7606
981	0.0008398751634251729	7407
1241	0.0008298000912758664	9015
638	0.0008289426383269893	4405
353	0.0008246553735826035	2511
443	0.0008199393823637791	2835
623	0.0008186532029404634	4114
875	0.0008173670235171477	6904
810	0.0008169382970427091	6117
419	0.0008139372117216391	2811
913	0.000812436669061104	7109
929	0.0008113648528750076	7208
858	0.0008068632248934025	6802
740	0.0008057914087073061	5505
625	0.0008036477763351132	4201
720	0.0008036477763351132	5303
910	0.0008030046866234553	7106
868	0.0007991461483535081	6812
539	0.000798288695404631	3603
930	0.0007959306997952188	7209
529	0.0007931439777113681	3406
1298	0.0007931439777113681	9507
366	0.0007929296144741488	2524
905	0.0007907859821019559	7101
226	0.0007903572556275173	905
354	0.000787141807069228	2512
148	0.0007862843541203508	101
368	0.0007858556276459123	2526
184	0.0007849981746970351	505
410	0.0007839263585109386	2802
1217	0.0007832832687992808	8802
1219	0.0007828545423248422	8804
433	0.0007826401790876229	2825
1304	0.0007785672775804564	9605
1148	0.0007755661922593864	8502
385	0.000772350743701097	2614
879	0.0007719220172266584	6908
171	0.0007702071113289042	401
356	0.000766348573058957	2514
1215	0.0007633474877378869	8716
990	0.0007618469450773519	7419
839	0.0007612038553656941	6402
590	0.000759703312705159	3917
844	0.0007579884068074047	6501
176	0.0007573453170957469	406
823	0.0007549873214863347	6213
339	0.0007541298685374575	2309
889	0.000753701142063019	7004
337	0.0007534867788257997	2307
779	0.0007534867788257997	5903
1116	0.0007534867788257997	8452
1196	0.0007526293258769224	8606
511	0.0007483420611325367	3209
550	0.0007481276978953174	3801
987	0.0007481276978953174	7413
1201	0.0007479133346580981	8702
979	0.0007472702449464403	7405
634	0.0007466271552347824	4401
680	0.0007453409758114667	4906
724	0.0007442691596253702	5308
675	0.0007427686169648352	4901
312	0.0007380526257460109	2006
1302	0.000737409536034353	9603
200	0.0007361233566110372	707
246	0.0007350515404249408	1107
648	0.0007350515404249408	4415
843	0.0007318360918666515	6406
1016	0.0007309786389177743	7806
254	0.0007292637330200201	1206
790	0.0007281919168339236	6003
224	0.0007279775535967043	903
970	0.0007245477418011956	7321
522	0.0007234759256150992	3306
1111	0.0007146870328891084	8447
726	0.0007134008534657927	5310
601	0.0007121146740424769	4003
1007	0.0007116859475680383	7610
1129	0.0007114715843308191	8468
1286	0.0007022539651303897	9306
247	0.0007011821489442932	1108
352	0.0006983954268604425	2510
824	0.0006921788929810831	6214
826	0.0006921788929810831	6216
227	0.0006919645297438638	906
302	0.0006887490811855744	1806
1308	0.0006887490811855744	9609
954	0.0006881059914739166	7305
919	0.0006840330899667501	7115
1130	0.0006818894575945573	8469
1216	0.0006791027355107065	8801
1291	0.0006720287486824699	9404
846	0.0006716000222080314	6504
594	0.0006713856589708121	3922
825	0.0006698851163102771	6215
294	0.0006694563898358384	1702
391	0.0006688133001241806	2620
1279	0.0006679558471753035	9208
743	0.000666884030989207	5508
1313	0.0006647403986170141	9614
546	0.0006628111294820406	3704
370	0.0006593813176865319	2529
458	0.0006563802323654619	2903
773	0.0006540222367560497	5808
857	0.0006520929676210761	6801
784	0.0006495206087744446	5908
1008	0.0006493062455372253	7611
612	0.000649091882300006	4014
551	0.000647591339639471	3802
950	0.0006467338866905939	7301
521	0.0006454477072672781	3305
1323	0.0006435184381323046	970
602	0.0006433040748950853	4004
849	0.0006428753484206467	6507
523	0.0006420178954717696	3307
628	0.0006415891689973309	4205
1211	0.0006411604425228923	8712
510	0.0006377306307273837	3208
507	0.0006347295454063138	3205
899	0.0006328002762713401	7015
621	0.0006315140968480244	4105
335	0.0006308710071363666	2305
418	0.000628298648289735	2810
644	0.000628298648289735	4411
965	0.0006267981056292001	7316
774	0.0006255119262058843	5809
252	0.0006235826570709107	1204
344	0.0006233682938336914	2502
915	0.0006233682938336914	7111
262	0.0006227252041220336	1214
326	0.0006212246614614985	2205
528	0.000619295392326525	3405
702	0.000619295392326525	5110
809	0.0006177948496659899	6116
1074	0.0006158655805310163	8410
408	0.000615651217293797	2716
744	0.000612650131972727	5509
791	0.0006096490466516569	6004
158	0.0006090059569399991	205
1025	0.0006077197775166834	8007
450	0.0006072910510422448	2844
989	0.0006072910510422448	7418
512	0.0006055761451444904	3210
431	0.0006021463333489819	2823
409	0.0006002170642140082	2801
413	0.0005989308847906925	2805
924	0.0005952867097579646	7203
1022	0.0005948579832835261	8001
446	0.0005937861670974295	2839
652	0.0005937861670974295	4419
384	0.0005935718038602103	2613
321	0.0005875696332180702	2106
275	0.0005869265435064124	1509
741	0.0005832823684736845	5506
568	0.0005817818258131494	3819
793	0.0005813530993387108	6006
789	0.0005811387361014915	6002
768	0.0005809243728642723	5803
1101	0.0005800669199153951	8437
290	0.0005798525566781758	1603
847	0.000579209466966518	6505
1048	0.000579209466966518	8210
251	0.0005742791125104744	1203
856	0.0005738503860360357	6704
830	0.0005736360227988164	6303
1299	0.0005732072963243779	9508
369	0.00057256420661272	2528
1276	0.0005702062110033079	9205
734	0.0005699918477660885	5407
757	0.000568062578631115	5606
624	0.0005678482153938957	4115
1037	0.0005663476727333607	8112
1023	0.0005657045830217027	8002
657	0.0005652758565472642	4503
792	0.0005648471300728256	6005
1033	0.0005648471300728256	8108
338	0.0005646327668356063	2308
1139	0.0005642040403611678	8478
953	0.0005633465874122906	7304
1194	0.0005622747712261942	8604
948	0.0005616316815145363	7228
727	0.0005579875064818083	5311
667	0.0005534858785002033	4707
1096	0.0005526284255513262	8432
1050	0.000551770972602449	8212
1043	0.0005496273402302561	8205
1138	0.0005496273402302561	8477
643	0.000547269344620844	4410
980	0.0005470549813836247	7406
738	0.0005455544387230896	5503
1058	0.000545125712248651	8305
1070	0.0005440538960625546	8406
1218	0.0005438395328253353	8803
1149	0.0005436251695881161	8503
346	0.0005427677166392389	2504
1244	0.0005399809945553881	9018
416	0.000539123541606511	2808
1247	0.0005376229989459759	9021
1197	0.0005374086357087566	8607
735	0.000536122456285441	5408
154	0.0005359080930482217	201
951	0.0005352650033365638	7302
1075	0.0005350506400993445	8411
435	0.000533978823913248	2827
1167	0.0005314064650666166	8523
666	0.0005311921018293973	4706
1062	0.0005277622900338887	8309
1290	0.0005275479267966694	9403
600	0.0005262617473733536	4002
569	0.0005260473841361343	3820
190	0.0005249755679500379	601
674	0.0005236893885267222	4824
573	0.0005234750252895029	3825
1177	0.0005224032091034064	8535
620	0.0005221888458661871	4104
305	0.0005219744826289679	1904
163	0.0005194021237823365	210
992	0.0005179015811218014	7502
719	0.0005164010384612664	5302
586	0.0005159723119868278	3913
457	0.0005151148590379507	2902
1004	0.0005151148590379507	7607
1254	0.0005142574060890735	9028
1036	0.0005123281369540999	8111
272	0.0005112563207680035	1506
437	0.0005110419575307842	2829
1059	0.0005108275942935649	8306
198	0.0005091126883958106	705
897	0.000508683961921372	7013
737	0.0005065403295491791	5502
1000	0.0005052541501258634	7603
1269	0.0005048254236514248	9110
614	0.0005033248809908898	4016
771	0.0005028961545164512	5806
504	0.0005022530648047933	3202
445	0.0004988232530092848	2837
845	0.0004981801632976268	6502
877	0.0004973227103487497	6906
772	0.0004971083471115304	5807
1005	0.0004966796206370918	7608
1084	0.0004947503515021183	8420
533	0.0004936785353160218	3503
700	0.0004923923558927061	5108
869	0.0004915349029438289	6813
1242	0.0004896056338088553	9016
1230	0.0004891769073344167	9002
834	0.0004859614587761274	6307
864	0.0004857470955389081	6808
933	0.00048488964259003095	7212
501	0.00048467527935281167	3104
1287	0.0004833890999294959	9307
728	0.0004803880146084259	5401
862	0.0004801736513712066	6806
1184	0.000479744924896768	8542
268	0.0004778156557617944	1502
1283	0.0004778156557617944	9303
555	0.0004765294763384787	3806
161	0.0004743858439662858	208
588	0.0004743858439662858	3915
397	0.00047395711749184725	2705
972	0.0004737427542546279	7323
926	0.00047224221159409294	7205
698	0.0004718134851196543	5106
1262	0.00047159912188243503	9103
449	0.0004705273056963386	2843
1188	0.000468598036561365	8546
622	0.00046816931008692646	4106
883	0.00046538258800307567	6912
885	0.0004651682247658564	6914
764	0.00046238150268200566	5704
1200	0.00046173841297034775	8701
865	0.0004610953232586899	6809
461	0.00046066659678425134	2906
1122	0.00046045223354703206	8459
253	0.0004602378703098128	1205
696	0.0004593804173609356	5104
537	0.00045659369527708486	3601
1315	0.00045595060556542696	9616
288	0.0004557362423282077	1601
182	0.00045466442614211126	502
1209	0.0004540213364304534	8710
536	0.0004535926099560148	3507
1263	0.0004520920672954798	9104
1305	0.0004520920672954798	9606
947	0.0004514489775838219	7227
1161	0.0004512346143466026	8516
866	0.0004505915246349448	6810
1179	0.0004501627981605062	8537
669	0.0004484478922627519	4802
604	0.000447804802551094	4006
673	0.0004465186231277783	4823
438	0.0004458755334161204	2830
903	0.0004458755334161204	7019
1063	0.0004454468069416818	8310
723	0.0004443749907555854	5307
746	0.0004437319010439275	5511
1210	0.0004420169951461732	8711
556	0.0004405164524856382	3807
1178	0.0004390159098251032	8536
775	0.00043815845687622605	5810
440	0.00043730100392734886	2832
1026	0.00043558609802959455	8101
1010	0.0004349430083179367	7613
1028	0.0004349430083179367	8103
647	0.0004347286450807174	4414
1099	0.00043344246565740166	8435
1027	0.00043237064947130525	8102
1316	0.00043044138033633165	9617
882	0.00042979829062467375	6911
383	0.00042829774796413877	2612
1233	0.00042593975235472655	9005
788	0.00042443920969419157	6001
492	0.0004242248464569723	2938
704	0.0004242248464569723	5112
1226	0.0004231530302708758	8906
630	0.00042058067142424437	4301
1220	0.00042058067142424437	8805
542	0.0004197232184753672	3606
334	0.00041908012876370934	2304
180	0.0004175795861031743	410
848	0.000417365222865955	6506
1158	0.0004154359537309814	8513
1082	0.00041522159049376214	8418
571	0.00041500722725654285	3823
513	0.00041479286401932357	3211
559	0.0004145785007821043	3810
855	0.000414364137544885	6703
1303	0.000414364137544885	9604
398	0.00041414977430766567	2706
887	0.0004135066845960078	7002
1151	0.0004120061419354728	8505
427	0.00041093432574937637	2819
729	0.0004105055992749378	5402
1071	0.0004085763301399642	8407
730	0.0004079332404283063	5403
1052	0.000407718877191087	8214
957	0.00040750451395386774	7308
1136	0.0004051465183444556	8475
325	0.000404717791870017	2204
150	0.0004045034286327977	103
1181	0.0004019310697861662	8539
751	0.00040171670654894694	5516
565	0.0004012879800745084	3816
1275	0.0004012879800745084	9202
613	0.00040043052712563124	4015
442	0.0004000018006511926	2834
181	0.0003991443477023155	501
782	0.0003982868947534383	5906
1306	0.0003982868947534383	9607
471	0.0003972150785673419	2916
1240	0.00039678635209290333	9014
577	0.0003952858094323683	3904
1140	0.00039485708295792973	8479
787	0.00039442835648349116	5911
1013	0.00039442835648349116	7616
1213	0.000393570903534614	8714
1090	0.0003933565402973947	8426
1172	0.0003933565402973947	8530
1236	0.00039271345058573685	9008
975	0.0003916416343996404	7326
234	0.00039078418145076325	1003
685	0.00039078418145076325	4911
525	0.0003903554549763246	3402
776	0.0003903554549763246	5811
589	0.00038885491231578965	3916
451	0.00038821182260413174	2845
514	0.0003873543696552546	3212
627	0.00038628255346915814	4203
1115	0.00038606819023193886	8451
629	0.0003858538269947196	4206
1006	0.00038521073728306173	7609
1079	0.00038499637404584245	8415
394	0.00038435328433418454	2702
469	0.00038435328433418454	2914
425	0.00038242401519921095	2817
506	0.00038220965196199166	3204
908	0.00038220965196199166	7104
878	0.0003817809254875531	6907
1265	0.00038113783577589525	9106
884	0.00037920856664092165	6913
940	0.0003785654769292638	7220
582	0.00037835111369204446	3909
963	0.00037835111369204446	7314
564	0.00037749366074316733	3815
570	0.00037749366074316733	3821
1288	0.00037749366074316733	9401
1314	0.00037727929750594805	9615
453	0.0003766362077942902	2847
421	0.00037642184455707086	2813
361	0.00037513566513375517	2519
567	0.00037449257542209726	3818
475	0.0003740638489476587	2920
968	0.0003738494857104394	7319
389	0.0003723489430499044	2618
1124	0.0003723489430499044	8461
632	0.0003710627636265887	4303
699	0.0003702053106777115	5107
1311	0.0003702053106777115	9612
396	0.0003699909474404922	2704
572	0.00036934785772883437	3824
1117	0.0003682760415427379	8453
1024	0.00036763295183108005	8003
430	0.0003672042253566415	2822
942	0.000366132409170545	7222
535	0.0003650605929844486	3506
1174	0.0003648462297472293	8532
1083	0.00036463186651001004	8419
473	0.000363131323849475	2918
460	0.0003629169606122557	2905
944	0.0003624882341378171	7224
1123	0.0003612020547145014	8460
1205	0.0003603446017656242	8706
1289	0.0003603446017656242	9402
465	0.00036013023852840494	2910
280	0.0003590584223423085	1514
670	0.0003584153326306506	4807
1046	0.0003584153326306506	8208
654	0.0003573435164445542	4421
988	0.00035691478997011564	7415
1238	0.00035627170025845774	9011
725	0.0003554142473095806	5309
467	0.00035498552083514204	2912
1040	0.00035498552083514204	8202
663	0.0003545567943607034	4703
1296	0.00035412806788626486	9505
174	0.00035305625170016844	404
271	0.00035219879875129126	1505
763	0.00035219879875129126	5703
417	0.000351984435514072	2809
1312	0.0003517700722768527	9613
974	0.00035026952961631766	7325
244	0.00034898335019300196	1105
949	0.00034834026048134406	7229
1118	0.00034834026048134406	8454
1229	0.0003481258972441248	9001
486	0.0003479115340069055	2932
1120	0.0003479115340069055	8457
1041	0.00034726844429524764	8203
1106	0.00034726844429524764	8442
754	0.00034705408105802836	5603
1171	0.0003461966281091512	8529
609	0.00034512481192305476	4011
500	0.00034448172221139686	3103
781	0.0003436242692625197	5905
558	0.00034319554278808116	3809
1055	0.0003421237266019847	8302
870	0.00034062318394144966	6814
1089	0.00033869391480647606	8425
1056	0.00033783646185759893	8303
1038	0.0003369790089087218	8113
1169	0.0003369790089087218	8526
584	0.00033569282948540605	3911
1019	0.000334192286824871	7904
1309	0.0003322630176898974	9610
488	0.00033183429121545885	2934
1112	0.000331191201503801	8448
1133	0.00032990502208048525	8472
233	0.00032969065884326596	1002
943	0.0003294762956060467	7223
1143	0.0003294762956060467	8482
597	0.0003284044794199502	3925
367	0.00032819011618273093	2525
1183	0.00032797575294551165	8541
483	0.0003275470264710731	2928
860	0.0003254033940988802	6804
1091	0.0003251890308616609	8427
920	0.0003247603043872223	7117
1015	0.00032390285143834517	7804
309	0.0003236884882011259	2003
284	0.0003234741249639066	1518
731	0.00032090176611727515	5404
1141	0.0003194012234567401	8480
649	0.00031832940727064365	4416
1175	0.00031832940727064365	8533
633	0.0003168288646101086	4304
428	0.00031511395871235435	2820
859	0.00031468523223791573	6803
466	0.00031425650576347717	2911
375	0.00031297032634016147	2604
1035	0.00031254159986572285	8110
1192	0.000311898510154065	8602
718	0.00031125542044240715	5301
684	0.00031061233073074925	4910
1284	0.00030868306159577565	9304
1060	0.0003082543351213371	8307
258	0.0003080399718841178	1210
1163	0.0003080399718841178	8518
1031	0.0003063250659863635	8106
420	0.0003058963395119249	2812
516	0.00030568197627470564	3214
753	0.00030482452332582845	5602
481	0.0003041814336141706	2926
1270	0.0003041814336141706	9111
478	0.00030160907476753916	2923
1072	0.0003013947115303199	8408
1212	0.0003011803482931006	8713
1237	0.0003011803482931006	9010
778	0.0002994654423953463	5902
429	0.000299251079158127	2821
1250	0.000299251079158127	9024
548	0.00029796489973481124	3706
585	0.0002962499938370569	3912
984	0.0002956069041253991	7410
1165	0.0002943207247020833	8521
964	0.00029410636146486404	7315
1249	0.00029410636146486404	9023
665	0.0002936776349904255	4705
479	0.0002923914555671097	2924
1255	0.0002906765496693554	9029
608	0.000289604733483259	4010
1087	0.00028917600700882043	8423
995	0.0002889616437716011	7506
900	0.0002887472805343818	7016
922	0.0002876754643482854	7201
578	0.0002868180113994082	3905
1189	0.0002866036481621889	8547
1137	0.0002857461952133118	8476
447	0.0002855318319760925	2840
780	0.0002840312893155575	5904
1021	0.0002840312893155575	7907
932	0.0002838169260783382	7211
1100	0.0002838169260783382	8436
956	0.0002836025628411189	7307
1078	0.0002836025628411189	8414
593	0.000282959473129461	3920
973	0.00028274510989224173	7324
1102	0.0002821020201805839	8438
526	0.0002816732937061453	3403
1098	0.00028124456723170675	8434
248	0.0002801727510456103	1109
690	0.0002801727510456103	5005
914	0.000279958387808391	7110
1064	0.00027888657162229453	8311
603	0.0002780291186734174	4005
518	0.00027717166572454027	3302
1190	0.00027674293925010165	8548
1191	0.00027674293925010165	8601
1252	0.00027674293925010165	9026
691	0.0002758854863012245	5006
455	0.00027502803335234733	2852
1202	0.00027481367011512805	8703
993	0.00027459930687790876	7504
615	0.0002739562171662509	4017
896	0.00027374185392903163	7011
583	0.00027331312745459307	3910
178	0.00026988331565908443	408
1113	0.00026945458918464587	8449
985	0.0002683827729985494	7411
1092	0.0002681684097613301	8428
497	0.00026795404652411083	3006
1294	0.0002664535038635758	9503
1307	0.0002662391406263565	9608
853	0.00026602477738913723	6701
553	0.00026559605091469867	3804
745	0.00026559605091469867	5510
1246	0.00026516732444026005	9020
1261	0.00026495296120304077	9102
531	0.0002645242347286022	3501
678	0.00026388114501694435	4904
1168	0.00026388114501694435	8525
671	0.0002634524185425058	4810
890	0.00026302369206806717	7005
1126	0.0002615231494075322	8463
1159	0.00026109442293309357	8514
485	0.0002608800596958743	2930
472	0.00026023696998421644	2917
1146	0.00026023696998421644	8487
333	0.0002589507905609007	2303
476	0.0002587364273236814	2921
893	0.0002585220640864621	7008
1145	0.00025830770084924284	8486
626	0.0002574502479003657	4202
871	0.0002574502479003657	6815
1248	0.0002565927949514885	9022
1162	0.0002555209787653921	8517
777	0.0002550922522909535	5901
1131	0.0002538060728676378	8470
235	0.0002518768037326642	1004
1317	0.00025037626107212916	9618
552	0.00025016189783490987	3803
1061	0.00025016189783490987	8308
1245	0.00024866135517437484	9019
576	0.00024673208603940124	3903
676	0.0002463033595649627	4902
679	0.0002458746330905241	4905
160	0.0002456602698533048	207
664	0.0002452315433788662	4704
683	0.0002452315433788662	4909
941	0.0002450171801416469	7221
452	0.0002439453639555505	2846
873	0.00024330227424389263	6902
1272	0.00024330227424389263	9113
1164	0.00024265918453223476	8519
902	0.00024158736834613832	7018
532	0.00024115864187169975	3502
888	0.0002400868256856033	7003
1119	0.000239872462448384	8455
162	0.00023965809921116472	209
703	0.00023880064626228756	5111
439	0.00023751446683897183	2831
605	0.00023687137712731396	4007
901	0.00023601392417843683	7017
562	0.00023579956094121752	3813
540	0.00023387029180624392	3604
1134	0.00023279847562014748	8473
527	0.0002323697491457089	3404
1142	0.00023194102267127032	8481
1132	0.00023129793295961247	8471
395	0.0002310835697223932	2703
850	0.00023086920648517388	6601
1206	0.00023086920648517388	8707
736	0.00023001175353629675	5501
1280	0.0002270106682152267	9209
1088	0.0002265819417407881	8424
722	0.00022615321526634955	5306
1231	0.00022551012555469167	9003
1153	0.0002252957623174724	8507
1114	0.0002248670358430338	8450
1180	0.0002246526726058145	8538
534	0.00022400958289415666	3505
1108	0.00022400958289415666	8444
986	0.00022208031375918307	7412
852	0.0002212228608103059	6603
1243	0.0002212228608103059	9017
491	0.0002210084975730866	2937
495	0.0002210084975730866	2941
672	0.0002210084975730866	4811
1068	0.0002210084975730866	8404
156	0.00022015104462420947	203
971	0.00021907922843811302	7322
477	0.00021886486520089371	2922
1076	0.00021886486520089371	8412
1054	0.00021843613872645515	8301
1069	0.00021779304901479727	8405
1150	0.0002173643225403587	8504
1259	0.00021522069016816583	9033
732	0.00021457760045650795	5405
662	0.00021393451074485007	4702
851	0.00021393451074485007	6602
1155	0.00021329142103319223	8509
1176	0.00021329142103319223	8534
894	0.00021029033571212219	7009
904	0.00021029033571212219	7020
276	0.00021007597247490288	1510
1156	0.0002098616092376836	8511
1267	0.0002098616092376836	9108
489	0.0002096472460004643	2935
1282	0.00020878979305158715	9302
756	0.00020857542981436787	5605
892	0.00020793234010271	7007
1128	0.0002077179768654907	8467
677	0.00020750361362827143	4903
517	0.00020728925039105214	3215
508	0.00020686052391661355	3206
561	0.00020643179744217499	3812
560	0.0002057887077305171	3811
655	0.0002057887077305171	4501
580	0.00020557434449329783	3907
1029	0.00020514561801885926	8104
1170	0.00020471689154442067	8527
1020	0.0002038594385955435	7905
1187	0.00020364507535832423	8545
463	0.00020321634888388566	2908
1182	0.0002023588959350085	8540
1285	0.0002023588959350085	9305
766	0.0002021445326977892	5801
1147	0.00020150144298613135	8501
1271	0.00020107271651169275	9112
1032	0.00020085835327447347	8107
1292	0.00020085835327447347	9405
1297	0.00020085835327447347	9506
1198	0.0002000009003255963	8608
861	0.00019978653708837703	6805
606	0.00019935781061393846	4008
591	0.0001987147209022806	3918
1166	0.00019699981500452627	8522
1268	0.0001965710885300877	9109
1214	0.00019549927234399126	8715
783	0.0001946418193951141	5907
1066	0.00019442745615789482	8402
656	0.0001927125502601405	4502
1085	0.00019249818702292122	8421
994	0.00018949710170185118	7505
1173	0.00018842528551575474	8531
598	0.00018799655904131615	3926
945	0.00018778219580409687	7225
330	0.00018756783256687758	2209
997	0.00018671037961800043	7508
682	0.00018649601638078114	4908
991	0.00018649601638078114	7501
509	0.00018628165314356186	3207
487	0.0001854242001946847	2933
1160	0.0001854242001946847	8515
1253	0.0001854242001946847	9027
349	0.0001852098369574654	2507
1127	0.0001852098369574654	8465
785	0.00018456674724580754	5909
424	0.00018413802077136895	2816
1256	0.00018413802077136895	9030
1185	0.00018285184134805323	8543
470	0.00018199438839917607	2915
1318	0.00018178002516195679	9701
939	0.00018135129868751822	7219
1154	0.00018092257221307963	8508
1107	0.00017985075602698319	8443
607	0.00017942202955254462	4009
462	0.0001792076663153253	2907
515	0.00017877893984088674	3213
1045	0.00017877893984088674	8207
1097	0.00017856457660366746	8433
661	0.00017792148689200959	4701
1042	0.0001777071236547903	8204
269	0.00017749276041757102	1503
786	0.00017620658099425527	5910
494	0.0001757778545198167	2940
1051	0.00017470603833372026	8213
1295	0.00017470603833372026	9504
1080	0.00017234804272430807	8416
1049	0.00017170495301265022	8211
961	0.00017084750006377306	7312
1104	0.0001699900471148959	8440
579	0.00016956132064045734	3906
1053	0.00016934695740323803	8215
1319	0.0001682751412171416	9702
996	0.00016720332503104515	7507
1273	0.00016677459855660658	9114
1266	0.0001665602353193873	9107
946	0.0001661315088449487	7226
1065	0.00016570278237051014	8401
1234	0.00016527405589607155	9006
1258	0.00016484532942163298	9032
1125	0.00016398787647275582	8462
1103	0.00016355914999831726	8439
1067	0.00016334478676109795	8403
1251	0.00016334478676109795	9025
474	0.0001627016970494401	2919
1121	0.0001622729705750015	8458
581	0.00016184424410056294	3908
1081	0.00016012933820280862	8417
490	0.00015970061172837006	2936
1073	0.00015948624849115078	8409
1157	0.00015905752201671218	8512
658	0.00015862879554227362	4504
267	0.0001584144323050543	1501
1257	0.00015734261611895787	9031
1195	0.00015584207345842286	8605
545	0.00015541334698398427	3703
911	0.00015541334698398427	7107
692	0.00015519898374676498	5007
969	0.00015519898374676498	7320
1077	0.00015477025727232642	8413
1239	0.00015326971461179138	9013
1278	0.00015241226166291423	9207
874	0.00015091171900237922	6903
1207	0.00015069735576515994	8708
592	0.00015048299252794063	3919
1310	0.00015048299252794063	9611
967	0.00014941117634184419	7318
547	0.00014876808663018634	3705
938	0.0001472675439696513	7218
1105	0.00014705318073243202	8441
705	0.00014683881749521274	5113
739	0.00014405209541136198	5504
1110	0.00014405209541136198	8446
1086	0.00014276591598804626	8422
549	0.00014233718951360766	3707
1232	0.00014233718951360766	9004
1264	0.00014212282627638838	9105
854	0.0001419084630391691	6702
587	0.00014126537332751122	3914
898	0.0001380499247692219	7014
484	0.00013783556153200262	2929
543	0.00013783556153200262	3701
1193	0.00013740683505756402	8603
1144	0.00013676374534590617	8483
530	0.00013654938210868686	3407
544	0.00013633501887146758	3702
742	0.00013590629239702902	5507
480	0.00013504883944815186	2925
1274	0.00013376266002483613	9201
482	0.00013247648060152038	2927
1109	0.00013140466441542394	8445
468	0.0001303328482293275	2913
1044	0.00012926103204323106	8206
1047	0.00012861794233157318	8209
1034	0.00012776048938269605	8109
880	0.00012411631434996814	6909
